%!PS-Adobe-3.0 EPSF-3.0
%%BoundingBox: 0 0 720 1440
%%LanguageLevel: 2
%%Creator: OriginLab Corporation
%%Title: (C:\Users\Administrator\Documents\atc16-pagesplit\comp-ratio2.eps)
%%CreationDate: Sat Jan 30 14:43:16 2016
%%EndComments

/OriginLab::PSL1 128 dict dup begin def
/Save0 save def
%%BeginResource: procset OriginLab::PSL1
/wd{1 index where{pop pop pop}{bind def}ifelse}bind def
/setcmykcolor{1 sub 4 1 roll 3{3 index add neg dup 0 lt{pop 0}if 3 1 roll}repeat setrgbcolor pop}wd
/selectfont{dup type/arraytype eq{exch findfont exch makefont setfont}{exch findfont exch scalefont setfont}ifelse}wd
/xshow{1 index length 0 le{}{currentpoint exch 3 index length 1 sub 0 exch 1 exch{dup 5 index exch 1 getinterval show 3 index exch get add 2 copy exch moveto}for pop pop}ifelse pop pop}wd
/glyphshow{matrix currentmatrix exch currentfont dup/FontMatrix get concat currentpoint translate
 dup/Metrics get 2 index get 0 4 2 roll gsave/CharProcs get exch 2 copy known not{pop/.notdef}if
 get exec fill grestore moveto setmatrix}wd
/grayimage/image load def/rgbtogray{cvx exec dup length 3 idiv 1 sub 0 exch 1 exch{dup 3 mul dup 3 index exch get 255 div .3 mul exch
 1 add dup 4 index exch get 255 div .59 mul exch 1 add 4 index exch get 255 div .11 mul add add
 255 mul dup 255 gt{255}if round cvi 2 index 3 1 roll put}for dup length 3 idiv 0 exch getinterval}bind def
/colorimage{0 setgray pop pop cvlit/rgbtogray cvx 2 packedarray cvx grayimage}wd
/bd{bind def}bind def/ld{load def}bd/ed{exch def}bd/xd{cvx def}bd
/np/newpath ld/a/arc ld/m/moveto ld/l/lineto ld/c/curveto ld/rm/rmoveto ld/rl/rlineto ld/rc/rcurveto ld/cp/closepath ld/cpt/currentpoint ld
/tr/translate ld/sc/scale ld/ro/rotate ld/t/transform ld/it/itransform ld/dt/dtransform ld/idt/idtransform ld
/mtx/matrix ld/cmtx/currentmatrix ld/dmtx/defaultmatrix ld/smtx/setmatrix ld/catmtx/concatmatrix ld
/sw/setlinewidth ld/scap/setlinecap ld/sj/setlinejoin ld/sm/setmiterlimit ld/sd/setdash ld/rgb/setrgbcolor ld/crgb/currentrgbcolor ld/cmyk/setcmykcolor ld/gs/gsave ld/gr/grestore ld
/st/stroke ld/fi/fill ld/eofi/eofill ld/cl/clip ld/eocl/eoclip ld
/df/definefont ld/ff/findfont ld/sf/setfont ld/scf/scalefont ld/self/selectfont ld/cf/currentfont ld
/s/show ld/xs/xshow ld/gls/glyphshow ld/xgls{cpt 3 1 roll add exch 3 -1 roll gls m}bd
/cd/currentdict ld/i/index ld
/DrawBox{4 2 roll m 1 index 0 rl 0 exch rl neg 0 rl cp}bd
/plus.re { 6 { 3 index } repeat moveto 0 exch rlineto 0 rlineto pop pop neg 0 exch rlineto pop lineto closepath } def
/DrawBcc{4 2 roll m 2 copy 0 lt exch 0 lt xor{dup 0 exch rl exch 0 rl neg 0 exch rl}{exch dup 0 rl exch 0 exch rl neg 0 rl}ifelse cp}bd
/rectline{dup type/arraytype eq{dup length 0 exch 4 exch 4 sub{0 1 3{3 copy add get 4 1 roll pop}for pop 5 1 roll DrawBox}for pop}{DrawBox}ifelse}bd
/rectpath{dup type/arraytype eq{dup length 0 exch 4 exch 4 sub{0 1 3{3 copy add get 4 1 roll pop}for pop 5 1 roll DrawBcc}for pop}{DrawBcc}ifelse}bd
/pathproc{[{/m cvx}{/l cvx}{/c cvx}{/cp cvx}pathforall]cvx}bd
/L1img/image ld/L1idx[{0}
 {dup 7 and 3 1 roll -3 bitshift get exch 7 sub 1 mul bitshift  1 and}bind 1 index dup
 {dup 1 and 3 1 roll -1 bitshift get exch 1 sub 4 mul bitshift 15 and}bind 1 index dup dup
 {get}bind]def
/image{dup type/dicttype eq {dup/ImgCS get 0 get/Indexed eq}{false}ifelse
 {begin Width Height 8 ImageMatrix {rgb_string rgb_lookup
 cd/DataSource get dup type/filetype eq
 {mystring readstring pop}{exec}ifelse
 dup length 0 ne
 {L1idx BitsPerComponent get 0 1 Width 1 sub
 {3 copy exch exec exch 3 mul exch
 3 mul dup 5 index exch get exch 1 add dup 6 index exch get exch 1 add 6 index exch get
 7 index exch 4 index 2 add exch put 6 index exch 3 index 1 add exch put 5 index exch 2 index exch put pop
 }for pop pop pop }{pop pop pop ()}ifelse }false 3 colorimage end} {dup type/dicttype eq
 {{dup mark exch L1img pop pop}stopped{cleartomark begin Width Height BitsPerComponent ImageMatrix
 {cd/DataSource get dup type/filetype eq {mystring readstring pop}{exec}ifelse
 }false 3 colorimage end} if}{L1img}ifelse}ifelse
 }bd
/L1imgmask/imagemask ld/imagemask{dup type/dicttype eq
 {{dup mark exch L1imgmask pop pop}stopped {cleartomark begin Width Height polarityflag ImageMatrix
 {cd/DataSource get dup type/filetype eq {mystring readstring pop}{exec}ifelse
 }L1imgmask end}if}{L1imgmask}ifelse
 }bd
% Gradient function
/GradientStep 1 150 div def
/GradientStartRGB { /R1 exch def /G1 exch def /B1 exch def } def
/GradientEndRGB { /R2 exch def /G2 exch def /B2 exch def
/GradientSteps GradientLength GradientStep div def
/GradientRStep R2 R1 sub GradientSteps div def
/GradientGStep G2 G1 sub GradientSteps div def
/GradientBStep B2 B1 sub GradientSteps div def
} def
/GradientStepRGB { /R1 R1 GradientRStep add def
/G1 G1 GradientGStep add def
/B1 B1 GradientBStep add def
R1 G1 B1 setrgbcolor
} def
%%EndResource
/rectclip{np rectpath clip np}wd
/rectfill{gs np rectpath fi gr}wd
/rectstroke{gs np dup type/arraytype eq{dup length 6 eq}{false}ifelse{1 index type/arraytype eq{exch}{5 1 roll}ifelse rectline concat st}{rectline st}ifelse gr}wd
%%BeginResource: procset OriginLab::Image
/OriginLab::Image 32 dict dup begin
/BinProc{[currentfile mystring /readstring cvx /pop cvx] cvx bind}bd
/HexProc{[currentfile mystring /readhexstring cvx /pop cvx] cvx bind}bd
/Ascii85Proc{currentfile /ASCII85Decode filter}bd
/LZWA85{currentfile /ASCII85Decode filter /LZWDecode filter}bd
/ImgProcArray[/BinProc /HexProc /Ascii85Proc /LZWA85]def
/ImgDict{/ImgDict 16 dict def ImgDict dup begin /ImageType 1 def /MultipleDataSource false def end}bd
/L2Dec{{[1 0]}{[0 1]}ifelse}bd
/BegImg{ /Img_sv save def
 /ImgDir ed ImgProcArray exch get /ImgProc exch ld
 dup /polarityflag ed L2Dec /polarity ed /smoothflag ed
 tr /dx 2 index def /dy 1 index abs def sc
 string /mystring ed /bpc ed /ih ed /iw ed
 }bd
/EndImg {Img_sv restore}bd
/DoXImg{ /rgb_lookup ed /hival ed ImgDict dup begin
 [/Indexed /DeviceRGB hival rgb_lookup] /L1img where{pop/ImgCS ed}{setcolorspace}ifelse
 /rgb_string iw 3 mul string def
 /Width iw def
 /Height ih def
 /Decode [0 1 bpc{2 mul}repeat 1 sub] def
 /ImageMatrix
  ImgDir 0 eq{[iw 0 0 ih 0 0]}if
  ImgDir 1 eq{[iw neg 0 0 ih iw 0]}if
  ImgDir 2 eq{[iw 0 0 ih neg 0 ih]}if
  ImgDir 3 eq{[iw neg 0 0 ih neg iw ih]}if
  def
 /DataSource ImgProc def
 /BitsPerComponent bpc def
 /Interpolate smoothflag def
 end image}bd
/DoImg{ ImgDict dup begin
 [/DeviceRGB] /L1img where{pop/ImgCS ed}{setcolorspace}ifelse
 /rgb_string iw 3 mul string def
 /Width iw def
 /Height ih def
 /Decode [0 1 0 1 0 1] def
 /ImageMatrix
  ImgDir 0 eq{[iw 0 0 ih 0 0]}if
  ImgDir 1 eq{[iw neg 0 0 ih iw 0]}if
  ImgDir 2 eq{[iw 0 0 ih neg 0 ih]}if
  ImgDir 3 eq{[iw neg 0 0 ih neg iw ih]}if
  def
 /DataSource ImgProc def
 /BitsPerComponent 8 def
 /Interpolate smoothflag def
 end image}bd
end def
%%EndResource
%%BeginFont: /MC1_Arial
12 dict begin
/FontInfo 8 dict dup begin
/ItalicAngle 0 def
/UnderlinePosition -217.00 def
/UnderlineThickness 150.00 def
/StrikeoutPosition 530.00 def
/StrikeoutThickness 102.00 def
/isFixedPitch false def
end readonly def
/FontName /MC1_Arial def
/FontType 3 def
/FontMatrix [1 2048 div 0 0 1 2048 div 0 0] def
/FontBBox [-1361 -665 4096 2060] def
/Encoding 256 array def 0 1 255{Encoding exch/.notdef put}for
Encoding 32/s32 put
Encoding 48/s48 put
Encoding 49/s49 put
Encoding 50/s50 put
Encoding 51/s51 put
Encoding 52/s52 put
Encoding 53/s53 put
Encoding 54/s54 put
Encoding 55/s55 put
Encoding 56/s56 put
Encoding 57/s57 put
Encoding 67/s67 put
Encoding 68/s68 put
Encoding 69/s69 put
Encoding 70/s70 put
Encoding 71/s71 put
Encoding 72/s72 put
Encoding 74/s74 put
Encoding 76/s76 put
Encoding 77/s77 put
Encoding 79/s79 put
Encoding 80/s80 put
Encoding 84/s84 put
Encoding 88/s88 put
/BoundingBoxes 25 dict def
BoundingBoxes begin
/s32 [0 -434 569 1854] def
/s48 [0 -434 1139 1854] def
/s49 [0 -434 1139 1854] def
/s50 [0 -434 1139 1854] def
/s51 [0 -434 1139 1854] def
/s52 [0 -434 1139 1854] def
/s53 [0 -434 1139 1854] def
/s54 [0 -434 1139 1854] def
/s55 [0 -434 1139 1854] def
/s56 [0 -434 1139 1854] def
/s57 [0 -434 1139 1854] def
/s67 [0 -434 1479 1854] def
/s68 [0 -434 1479 1854] def
/s69 [0 -434 1366 1854] def
/s70 [0 -434 1251 1854] def
/s71 [0 -434 1593 1854] def
/s72 [0 -434 1479 1854] def
/s74 [0 -434 1024 1854] def
/s76 [0 -434 1139 1854] def
/s77 [0 -434 1706 1854] def
/s79 [0 -434 1593 1854] def
/s80 [0 -434 1366 1854] def
/s84 [0 -434 1251 1854] def
/s88 [0 -434 1366 1854] def
end
/Metrics 25 dict def
 Metrics begin
/s32 569 def
/s48 1139 def
/s49 1139 def
/s50 1139 def
/s51 1139 def
/s52 1139 def
/s53 1139 def
/s54 1139 def
/s55 1139 def
/s56 1139 def
/s57 1139 def
/s67 1479 def
/s68 1479 def
/s69 1366 def
/s70 1251 def
/s71 1593 def
/s72 1479 def
/s74 1024 def
/s76 1139 def
/s77 1706 def
/s79 1593 def
/s80 1366 def
/s84 1251 def
/s88 1366 def
end
/CharProcs 25 dict def
CharProcs begin
/.notdef {} def
/s48 {
85 723 m
85 896.33 102.83 1035.83 138.5 1141.5 c
174.17 1247.17 227.17 1328.67 297.5 1386 c
367.83 1443.33 456.33 1472 563 1472 c
641.67 1472 710.67 1456.17 770 1424.5 c
829.33 1392.83 878.33 1347.17 917 1287.5 c
955.67 1227.83 986 1155.17 1008 1069.5 c
1030 983.83 1041 868.33 1041 723 c
1041 551 1023.33 412.17 988 306.5 c
952.67 200.83 899.83 119.17 829.5 61.5 c
759.17 3.83 670.33 -25 563 -25 c
421.67 -25 310.67 25.67 230 127 c
133.33 249 85 447.67 85 723 c
closepath 270 723 m
270 482.33 298.17 322.17 354.5 242.5 c
410.83 162.83 480.33 123 563 123 c
645.67 123 715.17 163 771.5 243 c
827.83 323 856 483 856 723 c
856 964.33 827.83 1124.67 771.5 1204 c
715.17 1283.33 645 1323 561 1323 c
478.33 1323 412.33 1288 363 1218 c
301 1128.67 270 963.67 270 723 c
closepath } bind def
/s49 {
763 0 m
583 0 763 0 583 0 c
583 1147 583 0 583 1147 c
539.67 1105.67 482.83 1064.33 412.5 1023 c
342.17 981.67 279 950.67 223 930 c
223 1104 223 930 223 1104 c
323.67 1151.33 411.67 1208.67 487 1276 c
562.33 1343.33 615.67 1408.67 647 1472 c
763 1472 647 1472 763 1472 c
763 0 763 1472 763 0 c
closepath } bind def
/s50 {
1031 173 m
1031 0 1031 173 1031 0 c
62 0 1031 0 62 0 c
60.67 43.33 67.67 85 83 125 c
107.67 191 147.17 256 201.5 320 c
255.83 384 334.33 458 437 542 c
596.33 672.67 704 776.17 760 852.5 c
816 928.83 844 1001 844 1069 c
844 1140.33 818.5 1200.5 767.5 1249.5 c
716.5 1298.5 650 1323 568 1323 c
481.33 1323 412 1297 360 1245 c
308 1193 281.67 1121 281 1029 c
96 1048 281 1029 96 1048 c
108.67 1186 156.33 1291.17 239 1363.5 c
321.67 1435.83 432.67 1472 572 1472 c
712.67 1472 824 1433 906 1355 c
988 1277 1029 1180.33 1029 1065 c
1029 1006.33 1017 948.67 993 892 c
969 835.33 929.17 775.67 873.5 713 c
817.83 650.33 725.33 564.33 596 455 c
488 364.33 418.67 302.83 388 270.5 c
357.33 238.17 332 205.67 312 173 c
1031 173 312 173 1031 173 c
closepath } bind def
/s51 {
86 387 m
266 411 86 387 266 411 c
286.67 309 321.83 235.5 371.5 190.5 c
421.17 145.5 481.67 123 553 123 c
637.67 123 709.17 152.33 767.5 211 c
825.83 269.67 855 342.33 855 429 c
855 511.67 828 579.83 774 633.5 c
720 687.17 651.33 714 568 714 c
534 714 491.67 707.33 441 694 c
461 852 441 694 461 852 c
473 850.67 482.67 850 490 850 c
566.67 850 635.67 870 697 910 c
758.33 950 789 1011.67 789 1095 c
789 1161 766.67 1215.67 722 1259 c
677.33 1302.33 619.67 1324 549 1324 c
479 1324 420.67 1302 374 1258 c
327.33 1214 297.33 1148 284 1060 c
104 1092 284 1060 104 1092 c
126 1212.67 176 1306.17 254 1372.5 c
332 1438.83 429 1472 545 1472 c
625 1472 698.67 1454.83 766 1420.5 c
833.33 1386.17 884.83 1339.33 920.5 1280 c
956.17 1220.67 974 1157.67 974 1091 c
974 1027.67 957 970 923 918 c
889 866 838.67 824.67 772 794 c
858.67 774 926 732.5 974 669.5 c
1022 606.5 1046 527.67 1046 433 c
1046 305 999.33 196.5 906 107.5 c
812.67 18.5 694.67 -26 552 -26 c
423.33 -26 316.5 12.33 231.5 89 c
146.5 165.67 98 265 86 387 c
closepath } bind def
/s52 {
662 0 m
662 351 662 0 662 351 c
26 351 662 351 26 351 c
26 516 26 351 26 516 c
695 1466 26 516 695 1466 c
842 1466 695 1466 842 1466 c
842 516 842 1466 842 516 c
1040 516 842 516 1040 516 c
1040 351 1040 516 1040 351 c
842 351 1040 351 842 351 c
842 0 842 351 842 0 c
662 0 842 0 662 0 c
closepath 662 516 m
662 1177 662 516 662 1177 c
203 516 662 1177 203 516 c
662 516 203 516 662 516 c
closepath } bind def
/s53 {
85 384 m
274 400 85 384 274 400 c
288 308 320.5 238.83 371.5 192.5 c
422.5 146.17 484 123 556 123 c
642.67 123 716 155.67 776 221 c
836 286.33 866 373 866 481 c
866 583.67 837.17 664.67 779.5 724 c
721.83 783.33 646.33 813 553 813 c
495 813 442.67 799.83 396 773.5 c
349.33 747.17 312.67 713 286 671 c
117 693 286 671 117 693 c
259 1446 117 693 259 1446 c
988 1446 259 1446 988 1446 c
988 1274 988 1446 988 1274 c
403 1274 988 1274 403 1274 c
324 880 403 1274 324 880 c
412 941.33 504.33 972 601 972 c
729 972 837 927.67 925 839 c
1013 750.33 1057 636.33 1057 497 c
1057 364.33 1018.33 249.67 941 153 c
847 34.33 718.67 -25 556 -25 c
422.67 -25 313.83 12.33 229.5 87 c
145.17 161.67 97 260.67 85 384 c
closepath } bind def
/s54 {
1019 1107 m
840 1093 1019 1107 840 1093 c
824 1163.67 801.33 1215 772 1247 c
723.33 1298.33 663.33 1324 592 1324 c
534.67 1324 484.33 1308 441 1276 c
384.33 1234.67 339.67 1174.33 307 1095 c
274.33 1015.67 257.33 902.67 256 756 c
299.33 822 352.33 871 415 903 c
477.67 935 543.33 951 612 951 c
732 951 834.17 906.83 918.5 818.5 c
1002.83 730.17 1045 616 1045 476 c
1045 384 1025.17 298.5 985.5 219.5 c
945.83 140.5 891.33 80 822 38 c
752.67 -4 674 -25 586 -25 c
436 -25 313.67 30.17 219 140.5 c
124.33 250.83 77 432.67 77 686 c
77 969.33 129.33 1175.33 234 1304 c
325.33 1416 448.33 1472 603 1472 c
718.33 1472 812.83 1439.67 886.5 1375 c
960.17 1310.33 1004.33 1221 1019 1107 c
closepath 284 475 m
284 413 297.17 353.67 323.5 297 c
349.83 240.33 386.67 197.17 434 167.5 c
481.33 137.83 531 123 583 123 c
659 123 724.33 153.67 779 215 c
833.67 276.33 861 359.67 861 465 c
861 566.33 834 646.17 780 704.5 c
726 762.83 658 792 576 792 c
494.67 792 425.67 762.83 369 704.5 c
312.33 646.17 284 569.67 284 475 c
closepath } bind def
/s55 {
97 1274 m
97 1447 97 1274 97 1447 c
1046 1447 97 1447 1046 1447 c
1046 1307 1046 1447 1046 1307 c
952.67 1207.67 860.17 1075.67 768.5 911 c
676.83 746.33 606 577 556 403 c
520 280.33 497 146 487 0 c
302 0 487 0 302 0 c
304 115.33 326.67 254.67 370 418 c
413.33 581.33 475.5 738.83 556.5 890.5 c
637.5 1042.17 723.67 1170 815 1274 c
97 1274 815 1274 97 1274 c
closepath } bind def
/s56 {
362 795 m
287.33 822.33 232 861.33 196 912 c
160 962.67 142 1023.33 142 1094 c
142 1200.67 180.33 1290.33 257 1363 c
333.67 1435.67 435.67 1472 563 1472 c
691 1472 794 1434.83 872 1360.5 c
950 1286.17 989 1195.67 989 1089 c
989 1021 971.17 961.83 935.5 911.5 c
899.83 861.17 845.67 822.33 773 795 c
863 765.67 931.5 718.33 978.5 653 c
1025.5 587.67 1049 509.67 1049 419 c
1049 293.67 1004.67 188.33 916 103 c
827.33 17.67 710.67 -25 566 -25 c
421.33 -25 304.67 17.83 216 103.5 c
127.33 189.17 83 296 83 424 c
83 519.33 107.17 599.17 155.5 663.5 c
203.83 727.83 272.67 771.67 362 795 c
closepath 326 1100 m
326 1030.67 348.33 974 393 930 c
437.67 886 495.67 864 567 864 c
636.33 864 693.17 885.83 737.5 929.5 c
781.83 973.17 804 1026.67 804 1090 c
804 1156 781.17 1211.5 735.5 1256.5 c
689.83 1301.5 633 1324 565 1324 c
496.33 1324 439.33 1302 394 1258 c
348.67 1214 326 1161.33 326 1100 c
closepath 268 423 m
268 371.67 280.17 322 304.5 274 c
328.83 226 365 188.83 413 162.5 c
461 136.17 512.67 123 568 123 c
654 123 725 150.67 781 206 c
837 261.33 865 331.67 865 417 c
865 503.67 836.17 575.33 778.5 632 c
720.83 688.67 648.67 717 562 717 c
477.33 717 407.17 689 351.5 633 c
295.83 577 268 507 268 423 c
closepath } bind def
/s57 {
112 339 m
285 355 112 339 285 355 c
299.67 273.67 327.67 214.67 369 178 c
410.33 141.33 463.33 123 528 123 c
583.33 123 631.83 135.67 673.5 161 c
715.17 186.33 749.33 220.17 776 262.5 c
802.67 304.83 825 362 843 434 c
861 506 870 579.33 870 654 c
870 662 869.67 674 869 690 c
833 632.67 783.83 586.17 721.5 550.5 c
659.17 514.83 591.67 497 519 497 c
397.67 497 295 541 211 629 c
127 717 85 833 85 977 c
85 1125.67 128.83 1245.33 216.5 1336 c
304.17 1426.67 414 1472 546 1472 c
641.33 1472 728.5 1446.33 807.5 1395 c
886.5 1343.67 946.5 1270.5 987.5 1175.5 c
1028.5 1080.5 1049 943 1049 763 c
1049 575.67 1028.67 426.5 988 315.5 c
947.33 204.5 886.83 120 806.5 62 c
726.17 4 632 -25 524 -25 c
409.33 -25 315.67 6.83 243 70.5 c
170.33 134.17 126.67 223.67 112 339 c
closepath 849 986 m
849 1089.33 821.5 1171.33 766.5 1232 c
711.5 1292.67 645.33 1323 568 1323 c
488 1323 418.33 1290.33 359 1225 c
299.67 1159.67 270 1075 270 971 c
270 877.67 298.17 801.83 354.5 743.5 c
410.83 685.17 480.33 656 563 656 c
646.33 656 714.83 685.17 768.5 743.5 c
822.17 801.83 849 882.67 849 986 c
closepath } bind def
/s67 {
1204 514 m
1398 465 1204 514 1398 465 c
1357.33 305.67 1284.17 184.17 1178.5 100.5 c
1072.83 16.83 943.67 -25 791 -25 c
633 -25 504.5 7.17 405.5 71.5 c
306.5 135.83 231.17 229 179.5 351 c
127.83 473 102 604 102 744 c
102 896.67 131.17 1029.83 189.5 1143.5 c
247.83 1257.17 330.83 1343.5 438.5 1402.5 c
546.17 1461.5 664.67 1491 794 1491 c
940.67 1491 1064 1453.67 1164 1379 c
1264 1304.33 1333.67 1199.33 1373 1064 c
1182 1019 1373 1064 1182 1019 c
1148 1125.67 1098.67 1203.33 1034 1252 c
969.33 1300.67 888 1325 790 1325 c
677.33 1325 583.17 1298 507.5 1244 c
431.83 1190 378.67 1117.5 348 1026.5 c
317.33 935.5 302 841.67 302 745 c
302 620.33 320.17 511.5 356.5 418.5 c
392.83 325.5 449.33 256 526 210 c
602.67 164 685.67 141 775 141 c
883.67 141 975.67 172.33 1051 235 c
1126.33 297.67 1177.33 390.67 1204 514 c
closepath } bind def
/s68 {
158 0 m
158 1466 158 0 158 1466 c
663 1466 158 1466 663 1466 c
777 1466 864 1459 924 1445 c
1008 1425.67 1079.67 1390.67 1139 1340 c
1216.33 1274.67 1274.17 1191.17 1312.5 1089.5 c
1350.83 987.83 1370 871.67 1370 741 c
1370 629.67 1357 531 1331 445 c
1305 359 1271.67 287.83 1231 231.5 c
1190.33 175.17 1145.83 130.83 1097.5 98.5 c
1049.17 66.17 990.83 41.67 922.5 25 c
854.17 8.33 775.67 0 687 0 c
158 0 687 0 158 0 c
closepath 352 173 m
665 173 352 173 665 173 c
761.67 173 837.5 182 892.5 200 c
947.5 218 991.33 243.33 1024 276 c
1070 322 1105.83 383.83 1131.5 461.5 c
1157.17 539.17 1170 633.33 1170 744 c
1170 897.33 1144.83 1015.17 1094.5 1097.5 c
1044.17 1179.83 983 1235 911 1263 c
859 1283 775.33 1293 660 1293 c
352 1293 660 1293 352 1293 c
352 173 352 1293 352 173 c
closepath } bind def
/s69 {
162 0 m
162 1466 162 0 162 1466 c
1222 1466 162 1466 1222 1466 c
1222 1293 1222 1466 1222 1293 c
356 1293 1222 1293 356 1293 c
356 844 356 1293 356 844 c
1167 844 356 844 1167 844 c
1167 672 1167 844 1167 672 c
356 672 1167 672 356 672 c
356 173 356 672 356 173 c
1256 173 356 173 1256 173 c
1256 0 1256 173 1256 0 c
162 0 1256 0 162 0 c
closepath } bind def
/s70 {
168 0 m
168 1466 168 0 168 1466 c
1157 1466 168 1466 1157 1466 c
1157 1293 1157 1466 1157 1293 c
362 1293 1157 1293 362 1293 c
362 839 362 1293 362 839 c
1050 839 362 839 1050 839 c
1050 666 1050 839 1050 666 c
362 666 1050 666 362 666 c
362 0 362 666 362 0 c
168 0 362 0 168 0 c
closepath } bind def
/s71 {
844 575 m
844 747 844 575 844 747 c
1465 748 844 747 1465 748 c
1465 204 1465 748 1465 204 c
1369.67 128 1271.33 70.83 1170 32.5 c
1068.67 -5.83 964.67 -25 858 -25 c
714 -25 583.17 5.83 465.5 67.5 c
347.83 129.17 259 218.33 199 335 c
139 451.67 109 582 109 726 c
109 868.67 138.83 1001.83 198.5 1125.5 c
258.17 1249.17 344 1341 456 1401 c
568 1461 697 1491 843 1491 c
949 1491 1044.83 1473.83 1130.5 1439.5 c
1216.17 1405.17 1283.33 1357.33 1332 1296 c
1380.67 1234.67 1417.67 1154.67 1443 1056 c
1268 1008 1443 1056 1268 1008 c
1246 1082.67 1218.67 1141.33 1186 1184 c
1153.33 1226.67 1106.67 1260.83 1046 1286.5 c
985.33 1312.17 918 1325 844 1325 c
755.33 1325 678.67 1311.5 614 1284.5 c
549.33 1257.5 497.17 1222 457.5 1178 c
417.83 1134 387 1085.67 365 1033 c
327.67 942.33 309 844 309 738 c
309 607.33 331.5 498 376.5 410 c
421.5 322 487 256.67 573 214 c
659 171.33 750.33 150 847 150 c
931 150 1013 166.17 1093 198.5 c
1173 230.83 1233.67 265.33 1275 302 c
1275 575 1275 302 1275 575 c
844 575 1275 575 844 575 c
closepath } bind def
/s72 {
164 0 m
164 1466 164 0 164 1466 c
358 1466 164 1466 358 1466 c
358 864 358 1466 358 864 c
1120 864 358 864 1120 864 c
1120 1466 1120 864 1120 1466 c
1314 1466 1120 1466 1314 1466 c
1314 0 1314 1466 1314 0 c
1120 0 1314 0 1120 0 c
1120 691 1120 0 1120 691 c
358 691 1120 691 358 691 c
358 0 358 691 358 0 c
164 0 358 0 164 0 c
closepath } bind def
/s74 {
59 416 m
234 440 59 416 234 440 c
238.67 328 259.67 251.33 297 210 c
334.33 168.67 386 148 452 148 c
500.67 148 542.67 159.17 578 181.5 c
613.33 203.83 637.67 234.17 651 272.5 c
664.33 310.83 671 372 671 456 c
671 1466 671 456 671 1466 c
865 1466 671 1466 865 1466 c
865 467 865 1466 865 467 c
865 344.33 850.17 249.33 820.5 182 c
790.83 114.67 743.83 63.33 679.5 28 c
615.17 -7.33 539.67 -25 453 -25 c
324.33 -25 225.83 12 157.5 86 c
89.17 160 56.33 270 59 416 c
closepath } bind def
/s76 {
150 0 m
150 1466 150 0 150 1466 c
344 1466 150 1466 344 1466 c
344 173 344 1466 344 173 c
1066 173 344 173 1066 173 c
1066 0 1066 173 1066 0 c
150 0 1066 0 150 0 c
closepath } bind def
/s77 {
152 0 m
152 1466 152 0 152 1466 c
444 1466 152 1466 444 1466 c
791 428 444 1466 791 428 c
823 331.33 846.33 259 861 211 c
877.67 264.33 903.67 342.67 939 446 c
1290 1466 939 446 1290 1466 c
1551 1466 1290 1466 1551 1466 c
1551 0 1551 1466 1551 0 c
1364 0 1551 0 1364 0 c
1364 1227 1364 0 1364 1227 c
938 0 1364 1227 938 0 c
763 0 938 0 763 0 c
339 1248 763 0 339 1248 c
339 0 339 1248 339 0 c
152 0 339 0 152 0 c
closepath } bind def
/s79 {
99 714 m
99 957.33 164.33 1147.83 295 1285.5 c
425.67 1423.17 594.33 1492 801 1492 c
936.33 1492 1058.33 1459.67 1167 1395 c
1275.67 1330.33 1358.5 1240.17 1415.5 1124.5 c
1472.5 1008.83 1501 877.67 1501 731 c
1501 582.33 1471 449.33 1411 332 c
1351 214.67 1266 125.83 1156 65.5 c
1046 5.17 927.33 -25 800 -25 c
662 -25 538.67 8.33 430 75 c
321.33 141.67 239 232.67 183 348 c
127 463.33 99 585.33 99 714 c
closepath 299 711 m
299 534.33 346.5 395.17 441.5 293.5 c
536.5 191.83 655.67 141 799 141 c
945 141 1065.17 192.33 1159.5 295 c
1253.83 397.67 1301 543.33 1301 732 c
1301 851.33 1280.83 955.5 1240.5 1044.5 c
1200.17 1133.5 1141.17 1202.5 1063.5 1251.5 c
985.83 1300.5 898.67 1325 802 1325 c
664.67 1325 546.5 1277.83 447.5 1183.5 c
348.5 1089.17 299 931.67 299 711 c
closepath } bind def
/s80 {
158 0 m
158 1466 158 0 158 1466 c
711 1466 158 1466 711 1466 c
808.33 1466 882.67 1461.33 934 1452 c
1006 1440 1066.33 1417.17 1115 1383.5 c
1163.67 1349.83 1202.83 1302.67 1232.5 1242 c
1262.17 1181.33 1277 1114.67 1277 1042 c
1277 917.33 1237.33 811.83 1158 725.5 c
1078.67 639.17 935.33 596 728 596 c
352 596 728 596 352 596 c
352 0 352 596 352 0 c
158 0 352 0 158 0 c
closepath 352 769 m
731 769 352 769 731 769 c
856.33 769 945.33 792.33 998 839 c
1050.67 885.67 1077 951.33 1077 1036 c
1077 1097.33 1061.5 1149.83 1030.5 1193.5 c
999.5 1237.17 958.67 1266 908 1280 c
875.33 1288.67 815 1293 727 1293 c
352 1293 727 1293 352 1293 c
352 769 352 1293 352 769 c
closepath } bind def
/s84 {
531 0 m
531 1293 531 0 531 1293 c
48 1293 531 1293 48 1293 c
48 1466 48 1293 48 1466 c
1210 1466 48 1466 1210 1466 c
1210 1293 1210 1466 1210 1293 c
725 1293 1210 1293 725 1293 c
725 0 725 1293 725 0 c
531 0 725 0 531 0 c
closepath } bind def
/s88 {
9 0 m
576 764 9 0 576 764 c
76 1466 576 764 76 1466 c
307 1466 76 1466 307 1466 c
573 1090 307 1466 573 1090 c
628.33 1012 667.67 952 691 910 c
723.67 963.33 762.33 1019 807 1077 c
1102 1466 807 1077 1102 1466 c
1313 1466 1102 1466 1313 1466 c
798 775 1313 1466 798 775 c
1353 0 798 775 1353 0 c
1113 0 1353 0 1113 0 c
744 523 1113 0 744 523 c
723.33 553 702 585.67 680 621 c
647.33 567.67 624 531 610 511 c
242 0 610 511 242 0 c
9 0 242 0 9 0 c
closepath } bind def
end
/BuildGlyph {
 exch dup /Metrics get 2 index get 0 setcharwidth
/CharProcs get exch 2 copy known not{pop/.notdef}if get exec fill}bind def
/BuildChar {
1 index /Encoding get exch get
1 index /BuildGlyph get exec
} bind def
currentdict end /MC1_Arial exch definefont pop
%%EndFont
%%BeginFont: /MC2_Arial
12 dict begin
/FontInfo 8 dict dup begin
/ItalicAngle 0 def
/UnderlinePosition -217.00 def
/UnderlineThickness 150.00 def
/StrikeoutPosition 530.00 def
/StrikeoutThickness 102.00 def
/isFixedPitch false def
end readonly def
/FontName /MC2_Arial def
/FontType 3 def
/FontMatrix [1 2048 div 0 0 1 2048 div 0 0] def
/FontBBox [-1361 -665 4096 2060] def
/Encoding 256 array def 0 1 255{Encoding exch/.notdef put}for
Encoding 32/s32 put
Encoding 37/s37 put
Encoding 46/s46 put
Encoding 48/s48 put
Encoding 49/s49 put
Encoding 50/s50 put
Encoding 53/s53 put
Encoding 55/s55 put
Encoding 67/s67 put
Encoding 68/s68 put
Encoding 70/s70 put
Encoding 82/s82 put
Encoding 97/s97 put
Encoding 101/s101 put
Encoding 102/s102 put
Encoding 105/s105 put
Encoding 109/s109 put
Encoding 110/s110 put
Encoding 111/s111 put
Encoding 112/s112 put
Encoding 114/s114 put
Encoding 115/s115 put
Encoding 116/s116 put
Encoding 126/s126 put
/BoundingBoxes 25 dict def
BoundingBoxes begin
/s32 [0 -434 569 1854] def
/s37 [0 -434 1821 1854] def
/s46 [0 -434 569 1854] def
/s48 [0 -434 1139 1854] def
/s49 [0 -434 1139 1854] def
/s50 [0 -434 1139 1854] def
/s53 [0 -434 1139 1854] def
/s55 [0 -434 1139 1854] def
/s67 [0 -434 1479 1854] def
/s68 [0 -434 1479 1854] def
/s70 [0 -434 1251 1854] def
/s82 [0 -434 1479 1854] def
/s97 [0 -434 1139 1854] def
/s101 [0 -434 1139 1854] def
/s102 [0 -434 569 1854] def
/s105 [0 -434 455 1854] def
/s109 [0 -434 1706 1854] def
/s110 [0 -434 1139 1854] def
/s111 [0 -434 1139 1854] def
/s112 [0 -434 1139 1854] def
/s114 [0 -434 682 1854] def
/s115 [0 -434 1024 1854] def
/s116 [0 -434 569 1854] def
/s126 [0 -434 1196 1854] def
end
/Metrics 25 dict def
 Metrics begin
/s32 569 def
/s37 1821 def
/s46 569 def
/s48 1139 def
/s49 1139 def
/s50 1139 def
/s53 1139 def
/s55 1139 def
/s67 1479 def
/s68 1479 def
/s70 1251 def
/s82 1479 def
/s97 1139 def
/s101 1139 def
/s102 569 def
/s105 455 def
/s109 1706 def
/s110 1139 def
/s111 1139 def
/s112 1139 def
/s114 682 def
/s115 1024 def
/s116 569 def
/s126 1196 def
end
/CharProcs 25 dict def
CharProcs begin
/.notdef {} def
/s37 {
119 1114 m
119 1218.67 145.33 1307.67 198 1381 c
250.67 1454.33 327 1491 427 1491 c
519 1491 595.17 1458.17 655.5 1392.5 c
715.83 1326.83 746 1230.33 746 1103 c
746 979 715.5 883.5 654.5 816.5 c
593.5 749.5 518.33 716 429 716 c
340.33 716 266.5 749 207.5 815 c
148.5 881 119 980.67 119 1114 c
closepath 432 1367 m
387.33 1367 350.17 1347.67 320.5 1309 c
290.83 1270.33 276 1199.33 276 1096 c
276 1002 291 935.83 321 897.5 c
351 859.17 388 840 432 840 c
477.33 840 514.83 859.33 544.5 898 c
574.17 936.67 589 1007.33 589 1110 c
589 1204.67 574 1271.17 544 1309.5 c
514 1347.83 476.67 1367 432 1367 c
closepath 433 -54 m
1235 1491 433 -54 1235 1491 c
1381 1491 1235 1491 1381 1491 c
582 -54 1381 1491 582 -54 c
433 -54 582 -54 433 -54 c
closepath 1067 344 m
1067 449.33 1093.33 538.5 1146 611.5 c
1198.67 684.5 1275.33 721 1376 721 c
1468 721 1544.17 688.17 1604.5 622.5 c
1664.83 556.83 1695 460.33 1695 333 c
1695 209 1664.5 113.5 1603.5 46.5 c
1542.5 -20.5 1467 -54 1377 -54 c
1288.33 -54 1214.5 -20.83 1155.5 45.5 c
1096.5 111.83 1067 211.33 1067 344 c
closepath 1381 597 m
1335.67 597 1298.17 577.67 1268.5 539 c
1238.83 500.33 1224 429.33 1224 326 c
1224 232.67 1239 166.67 1269 128 c
1299 89.33 1336 70 1380 70 c
1426 70 1463.83 89.33 1493.5 128 c
1523.17 166.67 1538 237.33 1538 340 c
1538 434.67 1523 501.17 1493 539.5 c
1463 577.83 1425.67 597 1381 597 c
closepath } bind def
/s46 {
186 0 m
186 205 186 0 186 205 c
391 205 186 205 391 205 c
391 0 391 205 391 0 c
186 0 391 0 186 0 c
closepath } bind def
/s48 {
85 723 m
85 896.33 102.83 1035.83 138.5 1141.5 c
174.17 1247.17 227.17 1328.67 297.5 1386 c
367.83 1443.33 456.33 1472 563 1472 c
641.67 1472 710.67 1456.17 770 1424.5 c
829.33 1392.83 878.33 1347.17 917 1287.5 c
955.67 1227.83 986 1155.17 1008 1069.5 c
1030 983.83 1041 868.33 1041 723 c
1041 551 1023.33 412.17 988 306.5 c
952.67 200.83 899.83 119.17 829.5 61.5 c
759.17 3.83 670.33 -25 563 -25 c
421.67 -25 310.67 25.67 230 127 c
133.33 249 85 447.67 85 723 c
closepath 270 723 m
270 482.33 298.17 322.17 354.5 242.5 c
410.83 162.83 480.33 123 563 123 c
645.67 123 715.17 163 771.5 243 c
827.83 323 856 483 856 723 c
856 964.33 827.83 1124.67 771.5 1204 c
715.17 1283.33 645 1323 561 1323 c
478.33 1323 412.33 1288 363 1218 c
301 1128.67 270 963.67 270 723 c
closepath } bind def
/s49 {
763 0 m
583 0 763 0 583 0 c
583 1147 583 0 583 1147 c
539.67 1105.67 482.83 1064.33 412.5 1023 c
342.17 981.67 279 950.67 223 930 c
223 1104 223 930 223 1104 c
323.67 1151.33 411.67 1208.67 487 1276 c
562.33 1343.33 615.67 1408.67 647 1472 c
763 1472 647 1472 763 1472 c
763 0 763 1472 763 0 c
closepath } bind def
/s50 {
1031 173 m
1031 0 1031 173 1031 0 c
62 0 1031 0 62 0 c
60.67 43.33 67.67 85 83 125 c
107.67 191 147.17 256 201.5 320 c
255.83 384 334.33 458 437 542 c
596.33 672.67 704 776.17 760 852.5 c
816 928.83 844 1001 844 1069 c
844 1140.33 818.5 1200.5 767.5 1249.5 c
716.5 1298.5 650 1323 568 1323 c
481.33 1323 412 1297 360 1245 c
308 1193 281.67 1121 281 1029 c
96 1048 281 1029 96 1048 c
108.67 1186 156.33 1291.17 239 1363.5 c
321.67 1435.83 432.67 1472 572 1472 c
712.67 1472 824 1433 906 1355 c
988 1277 1029 1180.33 1029 1065 c
1029 1006.33 1017 948.67 993 892 c
969 835.33 929.17 775.67 873.5 713 c
817.83 650.33 725.33 564.33 596 455 c
488 364.33 418.67 302.83 388 270.5 c
357.33 238.17 332 205.67 312 173 c
1031 173 312 173 1031 173 c
closepath } bind def
/s53 {
85 384 m
274 400 85 384 274 400 c
288 308 320.5 238.83 371.5 192.5 c
422.5 146.17 484 123 556 123 c
642.67 123 716 155.67 776 221 c
836 286.33 866 373 866 481 c
866 583.67 837.17 664.67 779.5 724 c
721.83 783.33 646.33 813 553 813 c
495 813 442.67 799.83 396 773.5 c
349.33 747.17 312.67 713 286 671 c
117 693 286 671 117 693 c
259 1446 117 693 259 1446 c
988 1446 259 1446 988 1446 c
988 1274 988 1446 988 1274 c
403 1274 988 1274 403 1274 c
324 880 403 1274 324 880 c
412 941.33 504.33 972 601 972 c
729 972 837 927.67 925 839 c
1013 750.33 1057 636.33 1057 497 c
1057 364.33 1018.33 249.67 941 153 c
847 34.33 718.67 -25 556 -25 c
422.67 -25 313.83 12.33 229.5 87 c
145.17 161.67 97 260.67 85 384 c
closepath } bind def
/s55 {
97 1274 m
97 1447 97 1274 97 1447 c
1046 1447 97 1447 1046 1447 c
1046 1307 1046 1447 1046 1307 c
952.67 1207.67 860.17 1075.67 768.5 911 c
676.83 746.33 606 577 556 403 c
520 280.33 497 146 487 0 c
302 0 487 0 302 0 c
304 115.33 326.67 254.67 370 418 c
413.33 581.33 475.5 738.83 556.5 890.5 c
637.5 1042.17 723.67 1170 815 1274 c
97 1274 815 1274 97 1274 c
closepath } bind def
/s67 {
1204 514 m
1398 465 1204 514 1398 465 c
1357.33 305.67 1284.17 184.17 1178.5 100.5 c
1072.83 16.83 943.67 -25 791 -25 c
633 -25 504.5 7.17 405.5 71.5 c
306.5 135.83 231.17 229 179.5 351 c
127.83 473 102 604 102 744 c
102 896.67 131.17 1029.83 189.5 1143.5 c
247.83 1257.17 330.83 1343.5 438.5 1402.5 c
546.17 1461.5 664.67 1491 794 1491 c
940.67 1491 1064 1453.67 1164 1379 c
1264 1304.33 1333.67 1199.33 1373 1064 c
1182 1019 1373 1064 1182 1019 c
1148 1125.67 1098.67 1203.33 1034 1252 c
969.33 1300.67 888 1325 790 1325 c
677.33 1325 583.17 1298 507.5 1244 c
431.83 1190 378.67 1117.5 348 1026.5 c
317.33 935.5 302 841.67 302 745 c
302 620.33 320.17 511.5 356.5 418.5 c
392.83 325.5 449.33 256 526 210 c
602.67 164 685.67 141 775 141 c
883.67 141 975.67 172.33 1051 235 c
1126.33 297.67 1177.33 390.67 1204 514 c
closepath } bind def
/s68 {
158 0 m
158 1466 158 0 158 1466 c
663 1466 158 1466 663 1466 c
777 1466 864 1459 924 1445 c
1008 1425.67 1079.67 1390.67 1139 1340 c
1216.33 1274.67 1274.17 1191.17 1312.5 1089.5 c
1350.83 987.83 1370 871.67 1370 741 c
1370 629.67 1357 531 1331 445 c
1305 359 1271.67 287.83 1231 231.5 c
1190.33 175.17 1145.83 130.83 1097.5 98.5 c
1049.17 66.17 990.83 41.67 922.5 25 c
854.17 8.33 775.67 0 687 0 c
158 0 687 0 158 0 c
closepath 352 173 m
665 173 352 173 665 173 c
761.67 173 837.5 182 892.5 200 c
947.5 218 991.33 243.33 1024 276 c
1070 322 1105.83 383.83 1131.5 461.5 c
1157.17 539.17 1170 633.33 1170 744 c
1170 897.33 1144.83 1015.17 1094.5 1097.5 c
1044.17 1179.83 983 1235 911 1263 c
859 1283 775.33 1293 660 1293 c
352 1293 660 1293 352 1293 c
352 173 352 1293 352 173 c
closepath } bind def
/s70 {
168 0 m
168 1466 168 0 168 1466 c
1157 1466 168 1466 1157 1466 c
1157 1293 1157 1466 1157 1293 c
362 1293 1157 1293 362 1293 c
362 839 362 1293 362 839 c
1050 839 362 839 1050 839 c
1050 666 1050 839 1050 666 c
362 666 1050 666 362 666 c
362 0 362 666 362 0 c
168 0 362 0 168 0 c
closepath } bind def
/s82 {
161 0 m
161 1466 161 0 161 1466 c
811 1466 161 1466 811 1466 c
941.67 1466 1041 1452.83 1109 1426.5 c
1177 1400.17 1231.33 1353.67 1272 1287 c
1312.67 1220.33 1333 1146.67 1333 1066 c
1333 962 1299.33 874.33 1232 803 c
1164.67 731.67 1060.67 686.33 920 667 c
971.33 642.33 1010.33 618 1037 594 c
1093.67 542 1147.33 477 1198 399 c
1453 0 1198 399 1453 0 c
1209 0 1453 0 1209 0 c
1015 305 1209 0 1015 305 c
958.33 393 911.67 460.33 875 507 c
838.33 553.67 805.5 586.33 776.5 605 c
747.5 623.67 718 636.67 688 644 c
666 648.67 630 651 580 651 c
355 651 580 651 355 651 c
355 0 355 651 355 0 c
161 0 355 0 161 0 c
closepath 355 819 m
772 819 355 819 772 819 c
860.67 819 930 828.17 980 846.5 c
1030 864.83 1068 894.17 1094 934.5 c
1120 974.83 1133 1018.67 1133 1066 c
1133 1135.33 1107.83 1192.33 1057.5 1237 c
1007.17 1281.67 927.67 1304 819 1304 c
355 1304 819 1304 355 1304 c
355 819 355 1304 355 819 c
closepath } bind def
/s97 {
828 131 m
761.33 74.33 697.17 34.33 635.5 11 c
573.83 -12.33 507.67 -24 437 -24 c
320.33 -24 230.67 4.5 168 61.5 c
105.33 118.5 74 191.33 74 280 c
74 332 85.83 379.5 109.5 422.5 c
133.17 465.5 164.17 500 202.5 526 c
240.83 552 284 571.67 332 585 c
367.33 594.33 420.67 603.33 492 612 c
637.33 629.33 744.33 650 813 674 c
813.67 698.67 814 714.33 814 721 c
814 794.33 797 846 763 876 c
717 916.67 648.67 937 558 937 c
473.33 937 410.83 922.17 370.5 892.5 c
330.17 862.83 300.33 810.33 281 735 c
105 759 281 735 105 759 c
121 834.33 147.33 895.17 184 941.5 c
220.67 987.83 273.67 1023.5 343 1048.5 c
412.33 1073.5 492.67 1086 584 1086 c
674.67 1086 748.33 1075.33 805 1054 c
861.67 1032.67 903.33 1005.83 930 973.5 c
956.67 941.17 975.33 900.33 986 851 c
992 820.33 995 765 995 685 c
995 445 995 685 995 445 c
995 277.67 998.83 171.83 1006.5 127.5 c
1014.17 83.17 1029.33 40.67 1052 0 c
864 0 1052 0 864 0 c
845.33 37.33 833.33 81 828 131 c
closepath 813 533 m
747.67 506.33 649.67 483.67 519 465 c
445 454.33 392.67 442.33 362 429 c
331.33 415.67 307.67 396.17 291 370.5 c
274.33 344.83 266 316.33 266 285 c
266 237 284.17 197 320.5 165 c
356.83 133 410 117 480 117 c
549.33 117 611 132.17 665 162.5 c
719 192.83 758.67 234.33 784 287 c
803.33 327.67 813 387.67 813 467 c
813 533 813 467 813 533 c
closepath } bind def
/s101 {
862 342 m
1048 319 862 342 1048 319 c
1018.67 210.33 964.33 126 885 66 c
805.67 6 704.33 -24 581 -24 c
425.67 -24 302.5 23.83 211.5 119.5 c
120.5 215.17 75 349.33 75 522 c
75 700.67 121 839.33 213 938 c
305 1036.67 424.33 1086 571 1086 c
713 1086 829 1037.67 919 941 c
1009 844.33 1054 708.33 1054 533 c
1054 522.33 1053.67 506.33 1053 485 c
261 485 1053 485 261 485 c
267.67 368.33 300.67 279 360 217 c
419.33 155 493.33 124 582 124 c
648 124 704.33 141.33 751 176 c
797.67 210.67 834.67 266 862 342 c
closepath 271 633 m
864 633 271 633 864 633 c
856 722.33 833.33 789.33 796 834 c
738.67 903.33 664.33 938 573 938 c
490.33 938 420.83 910.33 364.5 855 c
308.17 799.67 277 725.67 271 633 c
closepath } bind def
/s102 {
178 0 m
178 922 178 0 178 922 c
19 922 178 922 19 922 c
19 1062 19 922 19 1062 c
178 1062 19 1062 178 1062 c
178 1175 178 1062 178 1175 c
178 1246.33 184.33 1299.33 197 1334 c
214.33 1380.67 244.83 1418.5 288.5 1447.5 c
332.17 1476.5 393.33 1491 472 1491 c
522.67 1491 578.67 1485 640 1473 c
613 1316 640 1473 613 1316 c
575.67 1322.67 540.33 1326 507 1326 c
452.33 1326 413.67 1314.33 391 1291 c
368.33 1267.67 357 1224 357 1160 c
357 1062 357 1160 357 1062 c
564 1062 357 1062 564 1062 c
564 922 564 1062 564 922 c
357 922 564 922 357 922 c
357 0 357 922 357 0 c
178 0 357 0 178 0 c
closepath } bind def
/s105 {
136 1259 m
136 1466 136 1259 136 1466 c
316 1466 136 1466 316 1466 c
316 1259 316 1466 316 1259 c
136 1259 316 1259 136 1259 c
closepath 136 0 m
136 1062 136 0 136 1062 c
316 1062 136 1062 316 1062 c
316 0 316 1062 316 0 c
136 0 316 0 136 0 c
closepath } bind def
/s109 {
135 0 m
135 1062 135 0 135 1062 c
296 1062 135 1062 296 1062 c
296 913 296 1062 296 913 c
329.33 965 373.67 1006.83 429 1038.5 c
484.33 1070.17 547.33 1086 618 1086 c
696.67 1086 761.17 1069.67 811.5 1037 c
861.83 1004.33 897.33 958.67 918 900 c
1002 1024 1111.33 1086 1246 1086 c
1351.33 1086 1432.33 1056.83 1489 998.5 c
1545.67 940.17 1574 850.33 1574 729 c
1574 0 1574 729 1574 0 c
1395 0 1574 0 1395 0 c
1395 669 1395 0 1395 669 c
1395 741 1389.17 792.83 1377.5 824.5 c
1365.83 856.17 1344.67 881.67 1314 901 c
1283.33 920.33 1247.33 930 1206 930 c
1131.33 930 1069.33 905.17 1020 855.5 c
970.67 805.83 946 726.33 946 617 c
946 0 946 617 946 0 c
766 0 946 0 766 0 c
766 690 766 0 766 690 c
766 770 751.33 830 722 870 c
692.67 910 644.67 930 578 930 c
527.33 930 480.5 916.67 437.5 890 c
394.5 863.33 363.33 824.33 344 773 c
324.67 721.67 315 647.67 315 551 c
315 0 315 551 315 0 c
135 0 315 0 135 0 c
closepath } bind def
/s110 {
135 0 m
135 1062 135 0 135 1062 c
297 1062 135 1062 297 1062 c
297 911 297 1062 297 911 c
375 1027.67 487.67 1086 635 1086 c
699 1086 757.83 1074.5 811.5 1051.5 c
865.17 1028.5 905.33 998.33 932 961 c
958.67 923.67 977.33 879.33 988 828 c
994.67 794.67 998 736.33 998 653 c
998 0 998 653 998 0 c
818 0 998 0 818 0 c
818 646 818 0 818 646 c
818 719.33 811 774.17 797 810.5 c
783 846.83 758.17 875.83 722.5 897.5 c
686.83 919.17 645 930 597 930 c
520.33 930 454.17 905.67 398.5 857 c
342.83 808.33 315 716 315 580 c
315 0 315 580 315 0 c
135 0 315 0 135 0 c
closepath } bind def
/s111 {
68 531 m
68 727.67 122.67 873.33 232 968 c
323.33 1046.67 434.67 1086 566 1086 c
712 1086 831.33 1038.17 924 942.5 c
1016.67 846.83 1063 714.67 1063 546 c
1063 409.33 1042.5 301.83 1001.5 223.5 c
960.5 145.17 900.83 84.33 822.5 41 c
744.17 -2.33 658.67 -24 566 -24 c
417.33 -24 297.17 23.67 205.5 119 c
113.83 214.33 68 351.67 68 531 c
closepath 253 531 m
253 395 282.67 293.17 342 225.5 c
401.33 157.83 476 124 566 124 c
655.33 124 729.67 158 789 226 c
848.33 294 878 397.67 878 537 c
878 668.33 848.17 767.83 788.5 835.5 c
728.83 903.17 654.67 937 566 937 c
476 937 401.33 903.33 342 836 c
282.67 768.67 253 667 253 531 c
closepath } bind def
/s112 {
135 -407 m
135 1062 135 -407 135 1062 c
299 1062 135 1062 299 1062 c
299 924 299 1062 299 924 c
337.67 978 381.33 1018.5 430 1045.5 c
478.67 1072.5 537.67 1086 607 1086 c
697.67 1086 777.67 1062.67 847 1016 c
916.33 969.33 968.67 903.5 1004 818.5 c
1039.33 733.5 1057 640.33 1057 539 c
1057 430.33 1037.5 332.5 998.5 245.5 c
959.5 158.5 902.83 91.83 828.5 45.5 c
754.17 -0.83 676 -24 594 -24 c
534 -24 480.17 -11.33 432.5 14 c
384.83 39.33 345.67 71.33 315 110 c
315 -407 315 110 315 -407 c
135 -407 315 -407 135 -407 c
closepath 298 525 m
298 388.33 325.67 287.33 381 222 c
436.33 156.67 503.33 124 582 124 c
662 124 730.5 157.83 787.5 225.5 c
844.5 293.17 873 398 873 540 c
873 675.33 845.17 776.67 789.5 844 c
733.83 911.33 667.33 945 590 945 c
513.33 945 445.5 909.17 386.5 837.5 c
327.5 765.83 298 661.67 298 525 c
closepath } bind def
/s114 {
133 0 m
133 1062 133 0 133 1062 c
295 1062 133 1062 295 1062 c
295 901 295 1062 295 901 c
336.33 976.33 374.5 1026 409.5 1050 c
444.5 1074 483 1086 525 1086 c
585.67 1086 647.33 1066.67 710 1028 c
648 861 710 1028 648 861 c
604 887 560 900 516 900 c
476.67 900 441.33 888.17 410 864.5 c
378.67 840.83 356.33 808 343 766 c
323 702 313 632 313 556 c
313 0 313 556 313 0 c
133 0 313 0 133 0 c
closepath } bind def
/s115 {
63 317 m
241 345 63 317 241 345 c
251 273.67 278.83 219 324.5 181 c
370.17 143 434 124 516 124 c
598.67 124 660 140.83 700 174.5 c
740 208.17 760 247.67 760 293 c
760 333.67 742.33 365.67 707 389 c
682.33 405 621 425.33 523 450 c
391 483.33 299.5 512.17 248.5 536.5 c
197.5 560.83 158.83 594.5 132.5 637.5 c
106.17 680.5 93 728 93 780 c
93 827.33 103.83 871.17 125.5 911.5 c
147.17 951.83 176.67 985.33 214 1012 c
242 1032.67 280.17 1050.17 328.5 1064.5 c
376.83 1078.83 428.67 1086 484 1086 c
567.33 1086 640.5 1074 703.5 1050 c
766.5 1026 813 993.5 843 952.5 c
873 911.5 893.67 856.67 905 788 c
729 764 905 788 729 764 c
721 818.67 697.83 861.33 659.5 892 c
621.17 922.67 567 938 497 938 c
414.33 938 355.33 924.33 320 897 c
284.67 869.67 267 837.67 267 801 c
267 777.67 274.33 756.67 289 738 c
303.67 718.67 326.67 702.67 358 690 c
376 683.33 429 668 517 644 c
644.33 610 733.17 582.17 783.5 560.5 c
833.83 538.83 873.33 507.33 902 466 c
930.67 424.67 945 373.33 945 312 c
945 252 927.5 195.5 892.5 142.5 c
857.5 89.5 807 48.5 741 19.5 c
675 -9.5 600.33 -24 517 -24 c
379 -24 273.83 4.67 201.5 62 c
129.17 119.33 83 204.33 63 317 c
closepath } bind def
/s116 {
528 161 m
554 2 528 161 554 2 c
503.33 -8.67 458 -14 418 -14 c
352.67 -14 302 -3.67 266 17 c
230 37.67 204.67 64.83 190 98.5 c
175.33 132.17 168 203 168 311 c
168 922 168 311 168 922 c
36 922 168 922 36 922 c
36 1062 36 922 36 1062 c
168 1062 36 1062 168 1062 c
168 1325 168 1062 168 1325 c
347 1433 168 1325 347 1433 c
347 1062 347 1433 347 1062 c
528 1062 347 1062 528 1062 c
528 922 528 1062 528 922 c
347 922 528 922 347 922 c
347 301 347 922 347 301 c
347 249.67 350.17 216.67 356.5 202 c
362.83 187.33 373.17 175.67 387.5 167 c
401.83 158.33 422.33 154 449 154 c
469 154 495.33 156.33 528 161 c
closepath } bind def
/s126 {
87 557 m
87 762 87 557 87 762 c
157.67 842 250.33 882 365 882 c
405 882 447 876.17 491 864.5 c
535 852.83 597.67 829.67 679 795 c
725 775.67 759.5 763 782.5 757 c
805.5 751 828.67 748 852 748 c
895.33 748 940.17 761 986.5 787 c
1032.83 813 1074 845.67 1110 885 c
1110 673 1110 885 1110 673 c
1067.33 633 1024.17 604 980.5 586 c
936.83 568 887.67 559 833 559 c
793 559 754.83 563.67 718.5 573 c
682.17 582.33 624.5 604.67 545.5 640 c
466.5 675.33 400.67 693 348 693 c
305.33 693 265.17 683.83 227.5 665.5 c
189.83 647.17 143 611 87 557 c
closepath } bind def
end
/BuildGlyph {
 exch dup /Metrics get 2 index get 0 setcharwidth
/CharProcs get exch 2 copy known not{pop/.notdef}if get exec fill}bind def
/BuildChar {
1 index /Encoding get exch get
1 index /BuildGlyph get exec
} bind def
currentdict end /MC2_Arial exch definefont pop
%%EndFont
%%BeginFont: /MC3_Arial
12 dict begin
/FontInfo 8 dict dup begin
/ItalicAngle 0 def
/UnderlinePosition -217.00 def
/UnderlineThickness 150.00 def
/StrikeoutPosition 530.00 def
/StrikeoutThickness 102.00 def
/isFixedPitch false def
end readonly def
/FontName /MC3_Arial def
/FontType 3 def
/FontMatrix [1 2048 div 0 0 1 2048 div 0 0] def
/FontBBox [-1361 -665 4096 2060] def
/Encoding 256 array def 0 1 255{Encoding exch/.notdef put}for
Encoding 32/s32 put
/BoundingBoxes 2 dict def
BoundingBoxes begin
/s32 [0 -434 569 1854] def
end
/Metrics 2 dict def
 Metrics begin
/s32 569 def
end
/CharProcs 2 dict def
CharProcs begin
/.notdef {} def
end
/BuildGlyph {
 exch dup /Metrics get 2 index get 0 setcharwidth
/CharProcs get exch 2 copy known not{pop/.notdef}if get exec fill}bind def
/BuildChar {
1 index /Encoding get exch get
1 index /BuildGlyph get exec
} bind def
currentdict end /MC3_Arial exch definefont pop
%%EndFont
/clipproc{clippath{[{/m cvx}{/l cvx}{/c cvx}{/cp cvx}pathforall}stopped
{cleartomark[pathbbox exch 3 i sub exch 2 i sub/rectpath cvx}if]np}bd
/iclmtx mtx cmtx def/iclpath clipproc xd/clinit{pathproc initclip np iclpath cl np exec}bd
/clmove{pathproc 3 1 roll clippath pathproc 2 i neg 2 i neg tr initclip np exec cl tr np exec}bd
/clrect[gs np iclpath{pathbbox}stopped{0 0 720 1440 }if gr]def
/cloper{mtx cmtx iclmtx smtx exch exec smtx}bd
/cland{{exch cvx exec}cloper}bd
/clcopy{{exch clinit cvx exec}cloper}bd
/cldiff{{exch pathbbox 4 -1 roll clrect 0 get 2 copy gt{exch}if pop 4 1 roll
 3 -1 roll clrect 1 get 2 copy gt{exch}if pop 3 1 roll
 2 -1 roll clrect 2 get 2 copy lt{exch}if pop 2 1 roll
 1 -1 roll clrect 3 get 2 copy lt{exch}if pop 1 1 roll
 exch 3 i sub exch 2 i sub rectpath cvx exec}cloper}bd
/icl{{clinit}cloper}bd
0.239949 0.239942 sc

/initmtx mtx cmtx def
[1.00022 -0 0 -1.00025 0 6001.46] concat
gs
gs
pathproc 438 111 2127 2797 np rectpath
/eocl cland
np exec
491 2711 m
916 2711 l
916 2907 l
491 2907 l
cp
gs
0.502 0.502 0.502 rgb
eofi
gr
5 sw
0.502 0.502 0.502 rgb
1 sj
1 scap
st
491 2711 m
916 2711 l
0 0 0 rgb
st
916 2711 m
916 2907 l
st
491 2907 m
491 2711 l
st
1023 614 m
1448 614 l
1448 2907 l
1023 2907 l
cp
gs
0.502 0.502 0.502 rgb
eofi
gr
0.502 0.502 0.502 rgb
st
1023 614 m
1448 614 l
0 0 0 rgb
st
1448 614 m
1448 2907 l
st
1023 2907 m
1023 614 l
st
1554 726 m
1979 726 l
1979 2907 l
1554 2907 l
cp
gs
0.502 0.502 0.502 rgb
eofi
gr
0.502 0.502 0.502 rgb
st
1554 726 m
1979 726 l
0 0 0 rgb
st
1979 726 m
1979 2907 l
st
1554 2907 m
1554 726 l
st
gr
gs
pathproc 438 111 2127 2797 np rectpath
/eocl cland
np exec
492 1566 m
915 1989 l
3 sw
1 sj
1 scap
st
492 1615 m
915 2038 l
st
492 1664 m
915 2087 l
st
492 1713 m
915 2136 l
st
492 1762 m
915 2185 l
st
492 1811 m
915 2234 l
st
492 1860 m
915 2283 l
st
492 1909 m
915 2332 l
st
492 1958 m
915 2381 l
st
492 2007 m
915 2430 l
st
492 2056 m
915 2479 l
st
492 2105 m
915 2528 l
st
492 2154 m
915 2577 l
st
492 2203 m
915 2626 l
st
492 2252 m
915 2675 l
st
492 2301 m
901 2710 l
st
492 2350 m
852 2710 l
st
492 2399 m
803 2710 l
st
492 2448 m
754 2710 l
st
492 2497 m
705 2710 l
st
492 2546 m
656 2710 l
st
492 2595 m
607 2710 l
st
492 2644 m
558 2710 l
st
492 2693 m
509 2710 l
st
492 1566 m
915 1989 l
st
541 1566 m
915 1940 l
st
590 1566 m
915 1891 l
st
639 1566 m
915 1842 l
st
688 1566 m
915 1793 l
st
737 1566 m
915 1744 l
st
786 1566 m
915 1695 l
st
835 1566 m
915 1646 l
st
884 1566 m
915 1597 l
st
491 1565 m
916 1565 l
5 sw
st
916 1565 m
916 2711 l
st
916 2711 m
491 2711 l
st
491 2711 m
491 1565 l
st
1024 280 m
1357 613 l
3 sw
st
1024 329 m
1308 613 l
st
1024 378 m
1259 613 l
st
1024 427 m
1210 613 l
st
1024 476 m
1161 613 l
st
1024 525 m
1112 613 l
st
1024 574 m
1063 613 l
st
1024 280 m
1357 613 l
st
1073 280 m
1406 613 l
st
1122 280 m
1447 605 l
st
1171 280 m
1447 556 l
st
1220 280 m
1447 507 l
st
1269 280 m
1447 458 l
st
1318 280 m
1447 409 l
st
1367 280 m
1447 360 l
st
1416 280 m
1447 311 l
st
1023 279 m
1448 279 l
5 sw
st
1448 279 m
1448 614 l
st
1448 614 m
1023 614 l
st
1023 614 m
1023 279 l
st
1555 420 m
1860 725 l
3 sw
st
1555 469 m
1811 725 l
st
1555 518 m
1762 725 l
st
1555 567 m
1713 725 l
st
1555 616 m
1664 725 l
st
1555 665 m
1615 725 l
st
1555 714 m
1566 725 l
st
1555 420 m
1860 725 l
st
1604 420 m
1909 725 l
st
1653 420 m
1958 725 l
st
1702 420 m
1978 696 l
st
1751 420 m
1978 647 l
st
1800 420 m
1978 598 l
st
1849 420 m
1978 549 l
st
1898 420 m
1978 500 l
st
1947 420 m
1978 451 l
st
1554 419 m
1979 419 l
5 sw
st
1979 419 m
1979 726 l
st
1979 726 m
1554 726 l
st
1554 726 m
1554 419 l
st
2087 2740 m
2253 2906 l
3 sw
st
2087 2789 m
2204 2906 l
st
2087 2838 m
2155 2906 l
st
2087 2887 m
2106 2906 l
st
2087 2740 m
2253 2906 l
st
2136 2740 m
2302 2906 l
st
2185 2740 m
2351 2906 l
st
2234 2740 m
2400 2906 l
st
2283 2740 m
2449 2906 l
st
2332 2740 m
2498 2906 l
st
2381 2740 m
2510 2869 l
st
2430 2740 m
2510 2820 l
st
2479 2740 m
2510 2771 l
st
2086 2739 m
2511 2739 l
5 sw
st
2511 2739 m
2511 2907 l
st
2086 2907 m
2086 2739 l
st
gr
gs
pathproc 438 111 2127 2797 np rectpath
/eocl cland
np exec
491 726 m
916 726 l
916 1565 l
491 1565 l
cp
gs
0.753 0.753 0.753 rgb
eofi
gr
5 sw
1 sj
1 scap
st
1023 195 m
1448 195 l
1448 279 l
1023 279 l
cp
gs
0.753 0.753 0.753 rgb
eofi
gr
st
1554 279 m
1979 279 l
1979 419 l
1554 419 l
cp
gs
0.753 0.753 0.753 rgb
eofi
gr
st
2086 1034 m
2511 1034 l
2511 2739 l
2086 2739 l
cp
gs
0.753 0.753 0.753 rgb
eofi
gr
st
gr
gs
pathproc 438 111 2127 2797 np rectpath
/eocl cland
np exec
492 112 m
915 112 l
3 sw
1 sj
1 scap
st
492 147 m
915 147 l
st
492 182 m
915 182 l
st
492 217 m
915 217 l
st
492 252 m
915 252 l
st
492 287 m
915 287 l
st
492 322 m
915 322 l
st
492 357 m
915 357 l
st
492 392 m
915 392 l
st
492 427 m
915 427 l
st
492 462 m
915 462 l
st
492 497 m
915 497 l
st
492 532 m
915 532 l
st
492 567 m
915 567 l
st
492 602 m
915 602 l
st
492 637 m
915 637 l
st
492 672 m
915 672 l
st
492 707 m
915 707 l
st
492 112 m
492 725 l
st
527 112 m
527 725 l
st
562 112 m
562 725 l
st
597 112 m
597 725 l
st
632 112 m
632 725 l
st
667 112 m
667 725 l
st
702 112 m
702 725 l
st
737 112 m
737 725 l
st
772 112 m
772 725 l
st
807 112 m
807 725 l
st
842 112 m
842 725 l
st
877 112 m
877 725 l
st
912 112 m
912 725 l
st
916 111 m
916 726 l
5 sw
st
916 726 m
491 726 l
st
491 726 m
491 111 l
st
1024 112 m
1447 112 l
3 sw
st
1024 147 m
1447 147 l
st
1024 182 m
1447 182 l
st
1024 112 m
1024 194 l
st
1059 112 m
1059 194 l
st
1094 112 m
1094 194 l
st
1129 112 m
1129 194 l
st
1164 112 m
1164 194 l
st
1199 112 m
1199 194 l
st
1234 112 m
1234 194 l
st
1269 112 m
1269 194 l
st
1304 112 m
1304 194 l
st
1339 112 m
1339 194 l
st
1374 112 m
1374 194 l
st
1409 112 m
1409 194 l
st
1444 112 m
1444 194 l
st
1448 111 m
1448 195 l
5 sw
st
1448 195 m
1023 195 l
st
1023 195 m
1023 111 l
st
1555 112 m
1978 112 l
3 sw
st
1555 147 m
1978 147 l
st
1555 182 m
1978 182 l
st
1555 217 m
1978 217 l
st
1555 252 m
1978 252 l
st
1555 112 m
1555 278 l
st
1590 112 m
1590 278 l
st
1625 112 m
1625 278 l
st
1660 112 m
1660 278 l
st
1695 112 m
1695 278 l
st
1730 112 m
1730 278 l
st
1765 112 m
1765 278 l
st
1800 112 m
1800 278 l
st
1835 112 m
1835 278 l
st
1870 112 m
1870 278 l
st
1905 112 m
1905 278 l
st
1940 112 m
1940 278 l
st
1975 112 m
1975 278 l
st
1979 111 m
1979 279 l
5 sw
st
1979 279 m
1554 279 l
st
1554 279 m
1554 111 l
st
2087 112 m
2510 112 l
3 sw
st
2087 147 m
2510 147 l
st
2087 182 m
2510 182 l
st
2087 217 m
2510 217 l
st
2087 252 m
2510 252 l
st
2087 287 m
2510 287 l
st
2087 322 m
2510 322 l
st
2087 357 m
2510 357 l
st
2087 392 m
2510 392 l
st
2087 427 m
2510 427 l
st
2087 462 m
2510 462 l
st
2087 497 m
2510 497 l
st
2087 532 m
2510 532 l
st
2087 567 m
2510 567 l
st
2087 602 m
2510 602 l
st
2087 637 m
2510 637 l
st
2087 672 m
2510 672 l
st
2087 707 m
2510 707 l
st
2087 742 m
2510 742 l
st
2087 777 m
2510 777 l
st
2087 812 m
2510 812 l
st
2087 847 m
2510 847 l
st
2087 882 m
2510 882 l
st
2087 917 m
2510 917 l
st
2087 952 m
2510 952 l
st
2087 987 m
2510 987 l
st
2087 1022 m
2510 1022 l
st
2087 112 m
2087 1033 l
st
2122 112 m
2122 1033 l
st
2157 112 m
2157 1033 l
st
2192 112 m
2192 1033 l
st
2227 112 m
2227 1033 l
st
2262 112 m
2262 1033 l
st
2297 112 m
2297 1033 l
st
2332 112 m
2332 1033 l
st
2367 112 m
2367 1033 l
st
2402 112 m
2402 1033 l
st
2437 112 m
2437 1033 l
st
2472 112 m
2472 1033 l
st
2507 112 m
2507 1033 l
st
2511 111 m
2511 1034 l
5 sw
st
2511 1034 m
2086 1034 l
st
2086 1034 m
2086 111 l
st
gr
gs
pathproc 401 3133 2597 2682 np rectpath
/eocl cland
np exec
453 3187 m
868 3187 l
868 5814 l
453 5814 l
cp
gs
0.502 0.502 0.502 rgb
eofi
gr
4 sw
0.502 0.502 0.502 rgb
1 sj
1 scap
st
453 3187 m
868 3187 l
0 0 0 rgb
st
868 3187 m
868 5814 l
st
453 5814 m
453 3187 l
st
1491 3508 m
1907 3508 l
1907 5814 l
1491 5814 l
cp
gs
0.502 0.502 0.502 rgb
eofi
gr
0.502 0.502 0.502 rgb
st
1491 3508 m
1907 3508 l
0 0 0 rgb
st
1907 3508 m
1907 5814 l
st
1491 5814 m
1491 3508 l
st
2011 4634 m
2426 4634 l
2426 5814 l
2011 5814 l
cp
gs
0.502 0.502 0.502 rgb
eofi
gr
0.502 0.502 0.502 rgb
st
2011 4634 m
2426 4634 l
0 0 0 rgb
st
2426 4634 m
2426 5814 l
st
2011 5814 m
2011 4634 l
st
gr
gs
pathproc 401 3133 2597 2682 np rectpath
/eocl cland
np exec
1492 3375 m
1624 3507 l
2 sw
1 sj
1 scap
st
1492 3424 m
1575 3507 l
st
1492 3473 m
1526 3507 l
st
1492 3375 m
1624 3507 l
st
1541 3375 m
1673 3507 l
st
1590 3375 m
1722 3507 l
st
1639 3375 m
1771 3507 l
st
1688 3375 m
1820 3507 l
st
1737 3375 m
1869 3507 l
st
1786 3375 m
1906 3495 l
st
1835 3375 m
1906 3446 l
st
1884 3375 m
1906 3397 l
st
1491 3374 m
1907 3374 l
4 sw
st
1907 3374 m
1907 3508 l
st
1907 3508 m
1491 3508 l
st
1491 3508 m
1491 3374 l
st
2012 3804 m
2425 4217 l
2 sw
st
2012 3853 m
2425 4266 l
st
2012 3902 m
2425 4315 l
st
2012 3951 m
2425 4364 l
st
2012 4000 m
2425 4413 l
st
2012 4049 m
2425 4462 l
st
2012 4098 m
2425 4511 l
st
2012 4147 m
2425 4560 l
st
2012 4196 m
2425 4609 l
st
2012 4245 m
2400 4633 l
st
2012 4294 m
2351 4633 l
st
2012 4343 m
2302 4633 l
st
2012 4392 m
2253 4633 l
st
2012 4441 m
2204 4633 l
st
2012 4490 m
2155 4633 l
st
2012 4539 m
2106 4633 l
st
2012 4588 m
2057 4633 l
st
2012 3804 m
2425 4217 l
st
2061 3804 m
2425 4168 l
st
2110 3804 m
2425 4119 l
st
2159 3804 m
2425 4070 l
st
2208 3804 m
2425 4021 l
st
2257 3804 m
2425 3972 l
st
2306 3804 m
2425 3923 l
st
2355 3804 m
2425 3874 l
st
2404 3804 m
2425 3825 l
st
2011 3803 m
2426 3803 l
4 sw
st
2426 3803 m
2426 4634 l
st
2426 4634 m
2011 4634 l
st
2011 4634 m
2011 3803 l
st
gr
gs
pathproc 401 3133 2597 2682 np rectpath
/eocl cland
np exec
972 3669 m
1387 3669 l
1387 5814 l
972 5814 l
cp
gs
0.753 0.753 0.753 rgb
eofi
gr
4 sw
0.753 0.753 0.753 rgb
1 sj
1 scap
st
972 3669 m
1387 3669 l
0 0 0 rgb
st
1387 3669 m
1387 5814 l
st
972 5814 m
972 3669 l
st
1491 3294 m
1907 3294 l
1907 3374 l
1491 3374 l
cp
gs
0.753 0.753 0.753 rgb
eofi
gr
st
2011 3401 m
2426 3401 l
2426 3803 l
2011 3803 l
cp
gs
0.753 0.753 0.753 rgb
eofi
gr
st
2530 5412 m
2945 5412 l
2945 5814 l
2530 5814 l
cp
gs
0.753 0.753 0.753 rgb
eofi
gr
0.753 0.753 0.753 rgb
st
2530 5412 m
2945 5412 l
0 0 0 rgb
st
2945 5412 m
2945 5814 l
st
2530 5814 m
2530 5412 l
st
gr
gs
pathproc 401 3133 2597 2682 np rectpath
/eocl cland
np exec
454 3134 m
867 3134 l
2 sw
1 sj
1 scap
st
454 3169 m
867 3169 l
st
454 3134 m
454 3186 l
st
489 3134 m
489 3186 l
st
524 3134 m
524 3186 l
st
559 3134 m
559 3186 l
st
594 3134 m
594 3186 l
st
629 3134 m
629 3186 l
st
664 3134 m
664 3186 l
st
699 3134 m
699 3186 l
st
734 3134 m
734 3186 l
st
769 3134 m
769 3186 l
st
804 3134 m
804 3186 l
st
839 3134 m
839 3186 l
st
868 3133 m
868 3187 l
4 sw
st
868 3187 m
453 3187 l
st
453 3187 m
453 3133 l
st
973 3134 m
1386 3134 l
2 sw
st
973 3169 m
1386 3169 l
st
973 3204 m
1386 3204 l
st
973 3239 m
1386 3239 l
st
973 3274 m
1386 3274 l
st
973 3309 m
1386 3309 l
st
973 3344 m
1386 3344 l
st
973 3379 m
1386 3379 l
st
973 3414 m
1386 3414 l
st
973 3449 m
1386 3449 l
st
973 3484 m
1386 3484 l
st
973 3519 m
1386 3519 l
st
973 3554 m
1386 3554 l
st
973 3589 m
1386 3589 l
st
973 3624 m
1386 3624 l
st
973 3659 m
1386 3659 l
st
973 3134 m
973 3668 l
st
1008 3134 m
1008 3668 l
st
1043 3134 m
1043 3668 l
st
1078 3134 m
1078 3668 l
st
1113 3134 m
1113 3668 l
st
1148 3134 m
1148 3668 l
st
1183 3134 m
1183 3668 l
st
1218 3134 m
1218 3668 l
st
1253 3134 m
1253 3668 l
st
1288 3134 m
1288 3668 l
st
1323 3134 m
1323 3668 l
st
1358 3134 m
1358 3668 l
st
1387 3133 m
1387 3669 l
4 sw
st
1387 3669 m
972 3669 l
st
972 3669 m
972 3133 l
st
1492 3134 m
1906 3134 l
2 sw
st
1492 3169 m
1906 3169 l
st
1492 3204 m
1906 3204 l
st
1492 3239 m
1906 3239 l
st
1492 3274 m
1906 3274 l
st
1492 3134 m
1492 3293 l
st
1527 3134 m
1527 3293 l
st
1562 3134 m
1562 3293 l
st
1597 3134 m
1597 3293 l
st
1632 3134 m
1632 3293 l
st
1667 3134 m
1667 3293 l
st
1702 3134 m
1702 3293 l
st
1737 3134 m
1737 3293 l
st
1772 3134 m
1772 3293 l
st
1807 3134 m
1807 3293 l
st
1842 3134 m
1842 3293 l
st
1877 3134 m
1877 3293 l
st
1907 3133 m
1907 3294 l
4 sw
st
1907 3294 m
1491 3294 l
st
1491 3294 m
1491 3133 l
st
2012 3134 m
2425 3134 l
2 sw
st
2012 3169 m
2425 3169 l
st
2012 3204 m
2425 3204 l
st
2012 3239 m
2425 3239 l
st
2012 3274 m
2425 3274 l
st
2012 3309 m
2425 3309 l
st
2012 3344 m
2425 3344 l
st
2012 3379 m
2425 3379 l
st
2012 3134 m
2012 3400 l
st
2047 3134 m
2047 3400 l
st
2082 3134 m
2082 3400 l
st
2117 3134 m
2117 3400 l
st
2152 3134 m
2152 3400 l
st
2187 3134 m
2187 3400 l
st
2222 3134 m
2222 3400 l
st
2257 3134 m
2257 3400 l
st
2292 3134 m
2292 3400 l
st
2327 3134 m
2327 3400 l
st
2362 3134 m
2362 3400 l
st
2397 3134 m
2397 3400 l
st
2426 3133 m
2426 3401 l
4 sw
st
2426 3401 m
2011 3401 l
st
2011 3401 m
2011 3133 l
st
2531 3134 m
2944 3134 l
2 sw
st
2531 3169 m
2944 3169 l
st
2531 3204 m
2944 3204 l
st
2531 3239 m
2944 3239 l
st
2531 3274 m
2944 3274 l
st
2531 3309 m
2944 3309 l
st
2531 3344 m
2944 3344 l
st
2531 3379 m
2944 3379 l
st
2531 3414 m
2944 3414 l
st
2531 3449 m
2944 3449 l
st
2531 3484 m
2944 3484 l
st
2531 3519 m
2944 3519 l
st
2531 3554 m
2944 3554 l
st
2531 3589 m
2944 3589 l
st
2531 3624 m
2944 3624 l
st
2531 3659 m
2944 3659 l
st
2531 3694 m
2944 3694 l
st
2531 3729 m
2944 3729 l
st
2531 3764 m
2944 3764 l
st
2531 3799 m
2944 3799 l
st
2531 3834 m
2944 3834 l
st
2531 3869 m
2944 3869 l
st
2531 3904 m
2944 3904 l
st
2531 3939 m
2944 3939 l
st
2531 3974 m
2944 3974 l
st
2531 4009 m
2944 4009 l
st
2531 4044 m
2944 4044 l
st
2531 4079 m
2944 4079 l
st
2531 4114 m
2944 4114 l
st
2531 4149 m
2944 4149 l
st
2531 4184 m
2944 4184 l
st
2531 4219 m
2944 4219 l
st
2531 4254 m
2944 4254 l
st
2531 4289 m
2944 4289 l
st
2531 4324 m
2944 4324 l
st
2531 4359 m
2944 4359 l
st
2531 4394 m
2944 4394 l
st
2531 4429 m
2944 4429 l
st
2531 4464 m
2944 4464 l
st
2531 4499 m
2944 4499 l
st
2531 4534 m
2944 4534 l
st
2531 4569 m
2944 4569 l
st
2531 4604 m
2944 4604 l
st
2531 4639 m
2944 4639 l
st
2531 4674 m
2944 4674 l
st
2531 4709 m
2944 4709 l
st
2531 4744 m
2944 4744 l
st
2531 4779 m
2944 4779 l
st
2531 4814 m
2944 4814 l
st
2531 4849 m
2944 4849 l
st
2531 4884 m
2944 4884 l
st
2531 4919 m
2944 4919 l
st
2531 4954 m
2944 4954 l
st
2531 4989 m
2944 4989 l
st
2531 5024 m
2944 5024 l
st
2531 5059 m
2944 5059 l
st
2531 5094 m
2944 5094 l
st
2531 5129 m
2944 5129 l
st
2531 5164 m
2944 5164 l
st
2531 5199 m
2944 5199 l
st
2531 5234 m
2944 5234 l
st
2531 5269 m
2944 5269 l
st
2531 5304 m
2944 5304 l
st
2531 5339 m
2944 5339 l
st
2531 5374 m
2944 5374 l
st
2531 5409 m
2944 5409 l
st
2531 3134 m
2531 5411 l
st
2566 3134 m
2566 5411 l
st
2601 3134 m
2601 5411 l
st
2636 3134 m
2636 5411 l
st
2671 3134 m
2671 5411 l
st
2706 3134 m
2706 5411 l
st
2741 3134 m
2741 5411 l
st
2776 3134 m
2776 5411 l
st
2811 3134 m
2811 5411 l
st
2846 3134 m
2846 5411 l
st
2881 3134 m
2881 5411 l
st
2916 3134 m
2916 5411 l
st
2945 3133 m
2945 5412 l
4 sw
st
2945 5412 m
2530 5412 l
st
2530 5412 m
2530 3133 l
st
gr
gs
1 -1 sc
/MC1_Arial 188 self 531 -3080 m
(DLL)[136 105 105 ] xs
1 -1 sc
gr
gs
1 -1 sc
/MC1_Arial 188 self 1026 -3080 m
(DOC)[136 146 136 ] xs
1 -1 sc
gr
gs
1 -1 sc
/MC1_Arial 188 self 1579 -3080 m
(EXE)[125 125 125 ] xs
1 -1 sc
gr
gs
1 -1 sc
/MC1_Arial 188 self 2041 -3080 m
(HTML)[136 115 157 105 ] xs
1 -1 sc
gr
gs
1 -1 sc
/MC1_Arial 188 self 333 -2963 m
(0)[105 ] xs
1 -1 sc
gr
gs
1 -1 sc
/MC1_Arial 188 self 228 -2683 m
(10)[105 105 ] xs
1 -1 sc
gr
gs
1 -1 sc
/MC1_Arial 188 self 228 -2404 m
(20)[105 105 ] xs
1 -1 sc
gr
gs
1 -1 sc
/MC1_Arial 188 self 228 -2124 m
(30)[105 105 ] xs
1 -1 sc
gr
gs
1 -1 sc
/MC1_Arial 188 self 228 -1845 m
(40)[105 105 ] xs
1 -1 sc
gr
gs
1 -1 sc
/MC1_Arial 188 self 228 -1565 m
(50)[105 105 ] xs
1 -1 sc
gr
gs
1 -1 sc
/MC1_Arial 188 self 228 -1285 m
(60)[105 105 ] xs
1 -1 sc
gr
gs
1 -1 sc
/MC1_Arial 188 self 228 -1006 m
(70)[105 105 ] xs
1 -1 sc
gr
gs
1 -1 sc
/MC1_Arial 188 self 228 -726 m
(80)[105 105 ] xs
1 -1 sc
gr
gs
1 -1 sc
/MC1_Arial 188 self 228 -447 m
(90)[105 105 ] xs
1 -1 sc
gr
gs
1 -1 sc
/MC1_Arial 188 self 123 -167 m
(100)[105 105 105 ] xs
1 -1 sc
gr
438 2907 m
438 2907 l
7 sw
1 sj
1 scap
st
704 2907 m
704 2907 l
st
970 2907 m
970 2907 l
st
1235 2907 m
1235 2907 l
st
1501 2907 m
1501 2907 l
st
1767 2907 m
1767 2907 l
st
2033 2907 m
2033 2907 l
st
2298 2907 m
2298 2907 l
st
2564 2907 m
2564 2907 l
st
438 2907 m
2564 2907 l
st
438 2907 m
438 2907 l
st
438 2767 m
438 2767 l
st
438 2627 m
438 2627 l
st
438 2488 m
438 2488 l
st
438 2348 m
438 2348 l
st
438 2208 m
438 2208 l
st
438 2068 m
438 2068 l
st
438 1928 m
438 1928 l
st
438 1789 m
438 1789 l
st
438 1649 m
438 1649 l
st
438 1509 m
438 1509 l
st
438 1369 m
438 1369 l
st
438 1229 m
438 1229 l
st
438 1090 m
438 1090 l
st
438 950 m
438 950 l
st
438 810 m
438 810 l
st
438 670 m
438 670 l
st
438 530 m
438 530 l
st
438 391 m
438 391 l
st
438 251 m
438 251 l
st
438 111 m
438 111 l
st
438 2907 m
438 111 l
st
gs
gs
1 -1 sc
180 -2661 tr
90 ro
/MC2_Arial 186 self 0 0 m
(CDF of Compression Ratios)[134 134 114 52 103 52 52 134 103 155 103 62 103 93 93 41 103 103 52 134 103 52 41 103 93 ] xs
1 -1 sc
gr
gr
2465 415 m
2968 415 l
2968 2704 l
2465 2704 l
cp
gs
1 1 1 rgb
eofi
gr
3 sw
st
gs
gs
gs
2496 2638 m
2496 2221 l
2701 2220 l
2701 2638 l
cp
gs
0.502 0.502 0.502 rgb
eofi
gr
5 sw
st
gr
gr
gs
1 -1 sc
2663 -2211 tr
90 ro
/MC2_Arial 184 self 0 0 m
( )[51 ] xs
1 -1 sc
gr
gs
1 -1 sc
2663 -2160 tr
90 ro
/MC2_Arial 184 self 0 0 m
(~12.5%)[107 102 102 51 102 164 ] xs
1 -1 sc
gr
gs
1 -1 sc
2663 -1532 tr
90 ro
/MC2_Arial 184 self 0 0 m
( )[51 ] xs
1 -1 sc
gr
gs
gs
2496 1484 m
2496 1479 l
5 sw
st
2496 1479 m
2496 1474 l
st
2496 1474 m
2496 1469 l
st
2496 1469 m
2496 1464 l
st
2496 1464 m
2496 1459 l
st
2496 1459 m
2496 1454 l
st
2496 1454 m
2496 1449 l
st
2496 1449 m
2496 1444 l
st
2496 1444 m
2496 1439 l
st
2496 1439 m
2496 1434 l
st
2496 1434 m
2496 1429 l
st
2496 1429 m
2496 1424 l
st
2496 1424 m
2496 1419 l
st
2496 1419 m
2496 1414 l
st
2496 1414 m
2496 1409 l
st
2496 1409 m
2496 1404 l
st
2496 1404 m
2496 1399 l
st
2496 1399 m
2496 1394 l
st
2496 1394 m
2496 1389 l
st
2496 1389 m
2496 1384 l
st
2496 1384 m
2496 1379 l
st
2496 1379 m
2496 1374 l
st
2496 1374 m
2496 1369 l
st
2496 1369 m
2496 1364 l
st
2496 1364 m
2496 1359 l
st
2496 1359 m
2496 1354 l
st
2496 1354 m
2496 1349 l
st
2496 1349 m
2496 1344 l
st
2496 1344 m
2496 1339 l
st
2496 1339 m
2496 1334 l
st
2496 1334 m
2496 1329 l
st
2496 1329 m
2496 1324 l
st
2496 1324 m
2496 1319 l
st
2496 1319 m
2496 1314 l
st
2496 1314 m
2496 1309 l
st
2496 1309 m
2496 1304 l
st
2496 1304 m
2496 1299 l
st
2496 1299 m
2496 1294 l
st
2496 1294 m
2496 1289 l
st
2496 1289 m
2496 1284 l
st
2496 1284 m
2496 1279 l
st
2496 1279 m
2496 1274 l
st
2496 1274 m
2496 1269 l
st
2496 1269 m
2496 1264 l
st
2496 1264 m
2496 1259 l
st
2496 1259 m
2496 1254 l
st
2496 1254 m
2496 1249 l
st
2496 1249 m
2496 1244 l
st
2496 1244 m
2496 1239 l
st
2496 1239 m
2496 1234 l
st
2496 1234 m
2496 1229 l
st
2496 1229 m
2496 1224 l
st
2496 1224 m
2496 1219 l
st
2496 1219 m
2496 1214 l
st
2496 1214 m
2496 1209 l
st
2496 1209 m
2496 1204 l
st
2496 1204 m
2496 1199 l
st
2496 1199 m
2496 1194 l
st
2496 1194 m
2496 1189 l
st
2496 1189 m
2496 1184 l
st
2496 1184 m
2496 1179 l
st
2496 1179 m
2496 1174 l
st
2496 1174 m
2496 1169 l
st
2496 1169 m
2496 1164 l
st
2496 1164 m
2496 1159 l
st
2496 1159 m
2496 1154 l
st
2496 1154 m
2496 1149 l
st
2496 1149 m
2496 1144 l
st
2496 1144 m
2496 1139 l
st
2496 1139 m
2496 1134 l
st
2496 1134 m
2496 1129 l
st
2496 1129 m
2496 1124 l
st
2496 1124 m
2496 1119 l
st
2496 1119 m
2496 1114 l
st
2496 1114 m
2496 1109 l
st
2496 1109 m
2496 1104 l
st
2496 1104 m
2496 1099 l
st
2496 1099 m
2496 1094 l
st
2496 1094 m
2496 1089 l
st
2496 1089 m
2496 1084 l
st
2496 1084 m
2496 1079 l
st
2496 1079 m
2496 1074 l
st
2496 1074 m
2496 1069 l
st
2496 1069 m
2499 1067 l
st
2499 1067 m
2504 1067 l
st
2504 1067 m
2509 1067 l
st
2509 1067 m
2514 1067 l
st
2514 1067 m
2519 1067 l
st
2519 1067 m
2524 1067 l
st
2524 1067 m
2529 1067 l
st
2529 1067 m
2534 1067 l
st
2534 1067 m
2539 1067 l
st
2539 1067 m
2544 1067 l
st
2544 1067 m
2549 1067 l
st
2549 1067 m
2554 1067 l
st
2554 1067 m
2559 1067 l
st
2559 1067 m
2564 1067 l
st
2564 1067 m
2569 1067 l
st
2569 1067 m
2574 1067 l
st
2574 1067 m
2579 1067 l
st
2579 1067 m
2584 1067 l
st
2584 1067 m
2589 1067 l
st
2589 1067 m
2594 1067 l
st
2594 1067 m
2599 1066 l
st
2599 1066 m
2604 1066 l
st
2604 1066 m
2609 1066 l
st
2609 1066 m
2614 1066 l
st
2614 1066 m
2619 1066 l
st
2619 1066 m
2624 1066 l
st
2624 1066 m
2629 1066 l
st
2629 1066 m
2634 1066 l
st
2634 1066 m
2639 1066 l
st
2639 1066 m
2644 1066 l
st
2644 1066 m
2649 1066 l
st
2649 1066 m
2654 1066 l
st
2654 1066 m
2659 1066 l
st
2659 1066 m
2664 1066 l
st
2664 1066 m
2669 1066 l
st
2669 1066 m
2674 1066 l
st
2674 1066 m
2679 1066 l
st
2679 1066 m
2684 1066 l
st
2684 1066 m
2689 1066 l
st
2689 1066 m
2694 1066 l
st
2694 1066 m
2699 1066 l
st
2699 1066 m
2701 1069 l
st
2701 1069 m
2701 1074 l
st
2701 1074 m
2701 1079 l
st
2701 1079 m
2701 1084 l
st
2701 1084 m
2701 1089 l
st
2701 1089 m
2701 1094 l
st
2701 1094 m
2701 1099 l
st
2701 1099 m
2701 1104 l
st
2701 1104 m
2701 1109 l
st
2701 1109 m
2701 1114 l
st
2701 1114 m
2701 1119 l
st
2701 1119 m
2701 1124 l
st
2701 1124 m
2701 1129 l
st
2701 1129 m
2701 1134 l
st
2701 1134 m
2701 1139 l
st
2701 1139 m
2701 1144 l
st
2701 1144 m
2701 1149 l
st
2701 1149 m
2701 1154 l
st
2701 1154 m
2701 1159 l
st
2701 1159 m
2701 1164 l
st
2701 1164 m
2701 1169 l
st
2701 1169 m
2701 1174 l
st
2701 1174 m
2701 1179 l
st
2701 1179 m
2701 1184 l
st
2701 1184 m
2701 1189 l
st
2701 1189 m
2701 1194 l
st
2701 1194 m
2701 1199 l
st
2701 1199 m
2701 1204 l
st
2701 1204 m
2701 1209 l
st
2701 1209 m
2701 1214 l
st
2701 1214 m
2701 1219 l
st
2701 1219 m
2701 1224 l
st
2701 1224 m
2701 1229 l
st
2701 1229 m
2701 1234 l
st
2701 1234 m
2701 1239 l
st
2701 1239 m
2701 1244 l
st
2701 1244 m
2701 1249 l
st
2701 1249 m
2701 1254 l
st
2701 1254 m
2701 1259 l
st
2701 1259 m
2701 1264 l
st
2701 1264 m
2701 1269 l
st
2701 1269 m
2701 1274 l
st
2701 1274 m
2701 1279 l
st
2701 1279 m
2701 1284 l
st
2701 1284 m
2701 1289 l
st
2701 1289 m
2701 1294 l
st
2701 1294 m
2701 1299 l
st
2701 1299 m
2701 1304 l
st
2701 1304 m
2701 1309 l
st
2701 1309 m
2701 1314 l
st
2701 1314 m
2701 1319 l
st
2701 1319 m
2701 1324 l
st
2701 1324 m
2701 1329 l
st
2701 1329 m
2701 1334 l
st
2701 1334 m
2701 1339 l
st
2701 1339 m
2701 1344 l
st
2701 1344 m
2701 1349 l
st
2701 1349 m
2701 1354 l
st
2701 1354 m
2701 1359 l
st
2701 1359 m
2701 1364 l
st
2701 1364 m
2701 1369 l
st
2701 1369 m
2701 1374 l
st
2701 1374 m
2701 1379 l
st
2701 1379 m
2701 1384 l
st
2701 1384 m
2701 1389 l
st
2701 1389 m
2701 1394 l
st
2701 1394 m
2701 1399 l
st
2701 1399 m
2701 1404 l
st
2701 1404 m
2701 1409 l
st
2701 1409 m
2701 1414 l
st
2701 1414 m
2701 1419 l
st
2701 1419 m
2701 1424 l
st
2701 1424 m
2701 1429 l
st
2701 1429 m
2701 1434 l
st
2701 1434 m
2701 1439 l
st
2701 1439 m
2701 1444 l
st
2701 1444 m
2701 1449 l
st
2701 1449 m
2701 1454 l
st
2701 1454 m
2701 1459 l
st
2701 1459 m
2701 1464 l
st
2701 1464 m
2701 1469 l
st
2701 1469 m
2701 1474 l
st
2701 1474 m
2701 1479 l
st
2701 1479 m
2701 1483 l
st
2496 1484 m
2501 1484 l
st
2501 1484 m
2506 1484 l
st
2506 1484 m
2511 1484 l
st
2511 1484 m
2516 1484 l
st
2516 1484 m
2521 1484 l
st
2521 1484 m
2526 1484 l
st
2526 1484 m
2531 1484 l
st
2531 1484 m
2536 1484 l
st
2536 1484 m
2541 1484 l
st
2541 1484 m
2546 1484 l
st
2546 1484 m
2551 1484 l
st
2551 1484 m
2556 1484 l
st
2556 1484 m
2561 1484 l
st
2561 1484 m
2566 1484 l
st
2566 1484 m
2571 1484 l
st
2571 1484 m
2576 1484 l
st
2576 1484 m
2581 1484 l
st
2581 1484 m
2586 1484 l
st
2586 1484 m
2591 1484 l
st
2591 1484 m
2596 1484 l
st
2596 1484 m
2601 1484 l
st
2601 1484 m
2606 1484 l
st
2606 1484 m
2611 1484 l
st
2611 1484 m
2616 1484 l
st
2616 1484 m
2621 1484 l
st
2621 1484 m
2626 1484 l
st
2626 1484 m
2631 1484 l
st
2631 1484 m
2636 1484 l
st
2636 1484 m
2641 1484 l
st
2641 1484 m
2646 1484 l
st
2646 1484 m
2651 1484 l
st
2651 1484 m
2656 1484 l
st
2656 1484 m
2661 1484 l
st
2661 1484 m
2666 1484 l
st
2666 1484 m
2671 1484 l
st
2671 1484 m
2676 1484 l
st
2676 1484 m
2681 1484 l
st
2681 1484 m
2686 1484 l
st
2686 1484 m
2691 1484 l
st
2691 1484 m
2696 1484 l
st
2696 1484 m
2700 1484 l
st
gs
np
2496 1484 m
2496 1067 l
2701 1066 l
2701 1484 l
2496 1484 l
cp
/eocl cland
np
2497 1067 m
2700 1270 l
3 sw
st
2497 1116 m
2700 1319 l
st
2497 1165 m
2700 1368 l
st
2497 1214 m
2700 1417 l
st
2497 1263 m
2700 1466 l
st
2497 1312 m
2668 1483 l
st
2497 1361 m
2619 1483 l
st
2497 1410 m
2570 1483 l
st
2497 1459 m
2521 1483 l
st
2497 1067 m
2700 1270 l
st
2546 1067 m
2700 1221 l
st
2595 1067 m
2700 1172 l
st
2644 1067 m
2700 1123 l
st
2693 1067 m
2700 1074 l
st
initclip
gr
gr
gr
gs
1 -1 sc
2663 -1057 tr
90 ro
/MC2_Arial 184 self 0 0 m
( )[51 ] xs
1 -1 sc
gr
gs
1 -1 sc
2663 -1006 tr
90 ro
/MC2_Arial 184 self 0 0 m
(~50%)[107 102 102 164 ] xs
1 -1 sc
gr
gs
gs
2729 2638 m
2729 2221 l
2934 2220 l
2934 2638 l
cp
gs
0.753 0.753 0.753 rgb
eofi
gr
5 sw
st
gr
gr
gs
1 -1 sc
2896 -2211 tr
90 ro
/MC2_Arial 184 self 0 0 m
( )[51 ] xs
1 -1 sc
gr
gs
1 -1 sc
2896 -2160 tr
90 ro
/MC2_Arial 184 self 0 0 m
(~75%)[107 102 102 164 ] xs
1 -1 sc
gr
gs
1 -1 sc
2896 -1685 tr
90 ro
/MC2_Arial 184 self 0 0 m
( )[51 ] xs
1 -1 sc
gr
gs
gs
2729 1637 m
2729 1632 l
5 sw
st
2729 1632 m
2729 1627 l
st
2729 1627 m
2729 1622 l
st
2729 1622 m
2729 1617 l
st
2729 1617 m
2729 1612 l
st
2729 1612 m
2729 1607 l
st
2729 1607 m
2729 1602 l
st
2729 1602 m
2729 1597 l
st
2729 1597 m
2729 1592 l
st
2729 1592 m
2729 1587 l
st
2729 1587 m
2729 1582 l
st
2729 1582 m
2729 1577 l
st
2729 1577 m
2729 1572 l
st
2729 1572 m
2729 1567 l
st
2729 1567 m
2729 1562 l
st
2729 1562 m
2729 1557 l
st
2729 1557 m
2729 1552 l
st
2729 1552 m
2729 1547 l
st
2729 1547 m
2729 1542 l
st
2729 1542 m
2729 1537 l
st
2729 1537 m
2729 1532 l
st
2729 1532 m
2729 1527 l
st
2729 1527 m
2729 1522 l
st
2729 1522 m
2729 1517 l
st
2729 1517 m
2729 1512 l
st
2729 1512 m
2729 1507 l
st
2729 1507 m
2729 1502 l
st
2729 1502 m
2729 1497 l
st
2729 1497 m
2729 1492 l
st
2729 1492 m
2729 1487 l
st
2729 1487 m
2729 1482 l
st
2729 1482 m
2729 1477 l
st
2729 1477 m
2729 1472 l
st
2729 1472 m
2729 1467 l
st
2729 1467 m
2729 1462 l
st
2729 1462 m
2729 1457 l
st
2729 1457 m
2729 1452 l
st
2729 1452 m
2729 1447 l
st
2729 1447 m
2729 1442 l
st
2729 1442 m
2729 1437 l
st
2729 1437 m
2729 1432 l
st
2729 1432 m
2729 1427 l
st
2729 1427 m
2729 1422 l
st
2729 1422 m
2729 1417 l
st
2729 1417 m
2729 1412 l
st
2729 1412 m
2729 1407 l
st
2729 1407 m
2729 1402 l
st
2729 1402 m
2729 1397 l
st
2729 1397 m
2729 1392 l
st
2729 1392 m
2729 1387 l
st
2729 1387 m
2729 1382 l
st
2729 1382 m
2729 1377 l
st
2729 1377 m
2729 1372 l
st
2729 1372 m
2729 1367 l
st
2729 1367 m
2729 1362 l
st
2729 1362 m
2729 1357 l
st
2729 1357 m
2729 1352 l
st
2729 1352 m
2729 1347 l
st
2729 1347 m
2729 1342 l
st
2729 1342 m
2729 1337 l
st
2729 1337 m
2729 1332 l
st
2729 1332 m
2729 1327 l
st
2729 1327 m
2729 1322 l
st
2729 1322 m
2729 1317 l
st
2729 1317 m
2729 1312 l
st
2729 1312 m
2729 1307 l
st
2729 1307 m
2729 1302 l
st
2729 1302 m
2729 1297 l
st
2729 1297 m
2729 1292 l
st
2729 1292 m
2729 1287 l
st
2729 1287 m
2729 1282 l
st
2729 1282 m
2729 1277 l
st
2729 1277 m
2729 1272 l
st
2729 1272 m
2729 1267 l
st
2729 1267 m
2729 1262 l
st
2729 1262 m
2729 1257 l
st
2729 1257 m
2729 1252 l
st
2729 1252 m
2729 1247 l
st
2729 1247 m
2729 1242 l
st
2729 1242 m
2729 1237 l
st
2729 1237 m
2729 1232 l
st
2729 1232 m
2729 1227 l
st
2729 1227 m
2729 1222 l
st
2729 1222 m
2732 1220 l
st
2732 1220 m
2737 1220 l
st
2737 1220 m
2742 1220 l
st
2742 1220 m
2747 1220 l
st
2747 1220 m
2752 1220 l
st
2752 1220 m
2757 1220 l
st
2757 1220 m
2762 1220 l
st
2762 1220 m
2767 1220 l
st
2767 1220 m
2772 1220 l
st
2772 1220 m
2777 1220 l
st
2777 1220 m
2782 1220 l
st
2782 1220 m
2787 1220 l
st
2787 1220 m
2792 1220 l
st
2792 1220 m
2797 1220 l
st
2797 1220 m
2802 1220 l
st
2802 1220 m
2807 1220 l
st
2807 1220 m
2812 1220 l
st
2812 1220 m
2817 1220 l
st
2817 1220 m
2822 1220 l
st
2822 1220 m
2827 1220 l
st
2827 1220 m
2832 1219 l
st
2832 1219 m
2837 1219 l
st
2837 1219 m
2842 1219 l
st
2842 1219 m
2847 1219 l
st
2847 1219 m
2852 1219 l
st
2852 1219 m
2857 1219 l
st
2857 1219 m
2862 1219 l
st
2862 1219 m
2867 1219 l
st
2867 1219 m
2872 1219 l
st
2872 1219 m
2877 1219 l
st
2877 1219 m
2882 1219 l
st
2882 1219 m
2887 1219 l
st
2887 1219 m
2892 1219 l
st
2892 1219 m
2897 1219 l
st
2897 1219 m
2902 1219 l
st
2902 1219 m
2907 1219 l
st
2907 1219 m
2912 1219 l
st
2912 1219 m
2917 1219 l
st
2917 1219 m
2922 1219 l
st
2922 1219 m
2927 1219 l
st
2927 1219 m
2932 1219 l
st
2932 1219 m
2934 1222 l
st
2934 1222 m
2934 1227 l
st
2934 1227 m
2934 1232 l
st
2934 1232 m
2934 1237 l
st
2934 1237 m
2934 1242 l
st
2934 1242 m
2934 1247 l
st
2934 1247 m
2934 1252 l
st
2934 1252 m
2934 1257 l
st
2934 1257 m
2934 1262 l
st
2934 1262 m
2934 1267 l
st
2934 1267 m
2934 1272 l
st
2934 1272 m
2934 1277 l
st
2934 1277 m
2934 1282 l
st
2934 1282 m
2934 1287 l
st
2934 1287 m
2934 1292 l
st
2934 1292 m
2934 1297 l
st
2934 1297 m
2934 1302 l
st
2934 1302 m
2934 1307 l
st
2934 1307 m
2934 1312 l
st
2934 1312 m
2934 1317 l
st
2934 1317 m
2934 1322 l
st
2934 1322 m
2934 1327 l
st
2934 1327 m
2934 1332 l
st
2934 1332 m
2934 1337 l
st
2934 1337 m
2934 1342 l
st
2934 1342 m
2934 1347 l
st
2934 1347 m
2934 1352 l
st
2934 1352 m
2934 1357 l
st
2934 1357 m
2934 1362 l
st
2934 1362 m
2934 1367 l
st
2934 1367 m
2934 1372 l
st
2934 1372 m
2934 1377 l
st
2934 1377 m
2934 1382 l
st
2934 1382 m
2934 1387 l
st
2934 1387 m
2934 1392 l
st
2934 1392 m
2934 1397 l
st
2934 1397 m
2934 1402 l
st
2934 1402 m
2934 1407 l
st
2934 1407 m
2934 1412 l
st
2934 1412 m
2934 1417 l
st
2934 1417 m
2934 1422 l
st
2934 1422 m
2934 1427 l
st
2934 1427 m
2934 1432 l
st
2934 1432 m
2934 1437 l
st
2934 1437 m
2934 1442 l
st
2934 1442 m
2934 1447 l
st
2934 1447 m
2934 1452 l
st
2934 1452 m
2934 1457 l
st
2934 1457 m
2934 1462 l
st
2934 1462 m
2934 1467 l
st
2934 1467 m
2934 1472 l
st
2934 1472 m
2934 1477 l
st
2934 1477 m
2934 1482 l
st
2934 1482 m
2934 1487 l
st
2934 1487 m
2934 1492 l
st
2934 1492 m
2934 1497 l
st
2934 1497 m
2934 1502 l
st
2934 1502 m
2934 1507 l
st
2934 1507 m
2934 1512 l
st
2934 1512 m
2934 1517 l
st
2934 1517 m
2934 1522 l
st
2934 1522 m
2934 1527 l
st
2934 1527 m
2934 1532 l
st
2934 1532 m
2934 1537 l
st
2934 1537 m
2934 1542 l
st
2934 1542 m
2934 1547 l
st
2934 1547 m
2934 1552 l
st
2934 1552 m
2934 1557 l
st
2934 1557 m
2934 1562 l
st
2934 1562 m
2934 1567 l
st
2934 1567 m
2934 1572 l
st
2934 1572 m
2934 1577 l
st
2934 1577 m
2934 1582 l
st
2934 1582 m
2934 1587 l
st
2934 1587 m
2934 1592 l
st
2934 1592 m
2934 1597 l
st
2934 1597 m
2934 1602 l
st
2934 1602 m
2934 1607 l
st
2934 1607 m
2934 1612 l
st
2934 1612 m
2934 1617 l
st
2934 1617 m
2934 1622 l
st
2934 1622 m
2934 1627 l
st
2934 1627 m
2934 1632 l
st
2934 1632 m
2934 1636 l
st
2729 1637 m
2734 1637 l
st
2734 1637 m
2739 1637 l
st
2739 1637 m
2744 1637 l
st
2744 1637 m
2749 1637 l
st
2749 1637 m
2754 1637 l
st
2754 1637 m
2759 1637 l
st
2759 1637 m
2764 1637 l
st
2764 1637 m
2769 1637 l
st
2769 1637 m
2774 1637 l
st
2774 1637 m
2779 1637 l
st
2779 1637 m
2784 1637 l
st
2784 1637 m
2789 1637 l
st
2789 1637 m
2794 1637 l
st
2794 1637 m
2799 1637 l
st
2799 1637 m
2804 1637 l
st
2804 1637 m
2809 1637 l
st
2809 1637 m
2814 1637 l
st
2814 1637 m
2819 1637 l
st
2819 1637 m
2824 1637 l
st
2824 1637 m
2829 1637 l
st
2829 1637 m
2834 1637 l
st
2834 1637 m
2839 1637 l
st
2839 1637 m
2844 1637 l
st
2844 1637 m
2849 1637 l
st
2849 1637 m
2854 1637 l
st
2854 1637 m
2859 1637 l
st
2859 1637 m
2864 1637 l
st
2864 1637 m
2869 1637 l
st
2869 1637 m
2874 1637 l
st
2874 1637 m
2879 1637 l
st
2879 1637 m
2884 1637 l
st
2884 1637 m
2889 1637 l
st
2889 1637 m
2894 1637 l
st
2894 1637 m
2899 1637 l
st
2899 1637 m
2904 1637 l
st
2904 1637 m
2909 1637 l
st
2909 1637 m
2914 1637 l
st
2914 1637 m
2919 1637 l
st
2919 1637 m
2924 1637 l
st
2924 1637 m
2929 1637 l
st
2929 1637 m
2933 1637 l
st
gs
np
2729 1637 m
2729 1220 l
2934 1219 l
2934 1637 l
2729 1637 l
cp
/eocl cland
np
2730 1220 m
2933 1220 l
3 sw
st
2730 1255 m
2933 1255 l
st
2730 1290 m
2933 1290 l
st
2730 1325 m
2933 1325 l
st
2730 1360 m
2933 1360 l
st
2730 1395 m
2933 1395 l
st
2730 1430 m
2933 1430 l
st
2730 1465 m
2933 1465 l
st
2730 1500 m
2933 1500 l
st
2730 1535 m
2933 1535 l
st
2730 1570 m
2933 1570 l
st
2730 1605 m
2933 1605 l
st
2730 1220 m
2730 1636 l
st
2765 1220 m
2765 1636 l
st
2800 1220 m
2800 1636 l
st
2835 1220 m
2835 1636 l
st
2870 1220 m
2870 1636 l
st
2905 1220 m
2905 1636 l
st
initclip
gr
gr
gr
gs
1 -1 sc
2896 -1210 tr
90 ro
/MC2_Arial 184 self 0 0 m
( )[51 ] xs
1 -1 sc
gr
gs
1 -1 sc
2896 -1159 tr
90 ro
/MC2_Arial 184 self 0 0 m
(~100%)[107 102 102 102 164 ] xs
1 -1 sc
gr
gr
gs
1 -1 sc
/MC1_Arial 200 self 466 -5984 m
(JPG)[100 133 156 ] xs
1 -1 sc
gr
gs
1 -1 sc
/MC1_Arial 200 self 968 -5984 m
(LOG)[111 156 156 ] xs
1 -1 sc
gr
gs
1 -1 sc
/MC1_Arial 200 self 1499 -5984 m
(PDF)[133 144 122 ] xs
1 -1 sc
gr
gs
1 -1 sc
/MC1_Arial 200 self 2029 -5984 m
(TXT)[122 133 122 ] xs
1 -1 sc
gr
gs
1 -1 sc
/MC1_Arial 200 self 2531 -5984 m
(XML)[133 167 111 ] xs
1 -1 sc
gr
gs
1 -1 sc
/MC1_Arial 184 self 299 -5870 m
(0)[102 ] xs
1 -1 sc
gr
gs
1 -1 sc
/MC1_Arial 184 self 197 -5602 m
(10)[102 102 ] xs
1 -1 sc
gr
gs
1 -1 sc
/MC1_Arial 184 self 197 -5334 m
(20)[102 102 ] xs
1 -1 sc
gr
gs
1 -1 sc
/MC1_Arial 184 self 197 -5066 m
(30)[102 102 ] xs
1 -1 sc
gr
gs
1 -1 sc
/MC1_Arial 184 self 197 -4798 m
(40)[102 102 ] xs
1 -1 sc
gr
gs
1 -1 sc
/MC1_Arial 184 self 197 -4530 m
(50)[102 102 ] xs
1 -1 sc
gr
gs
1 -1 sc
/MC1_Arial 184 self 197 -4261 m
(60)[102 102 ] xs
1 -1 sc
gr
gs
1 -1 sc
/MC1_Arial 184 self 197 -3993 m
(70)[102 102 ] xs
1 -1 sc
gr
gs
1 -1 sc
/MC1_Arial 184 self 197 -3725 m
(80)[102 102 ] xs
1 -1 sc
gr
gs
1 -1 sc
/MC1_Arial 184 self 197 -3457 m
(90)[102 102 ] xs
1 -1 sc
gr
gs
1 -1 sc
/MC1_Arial 184 self 95 -3189 m
(100)[102 102 102 ] xs
1 -1 sc
gr
401 5814 m
401 5814 l
6 sw
st
661 5814 m
661 5814 l
st
920 5814 m
920 5814 l
st
1180 5814 m
1180 5814 l
st
1439 5814 m
1439 5814 l
st
1699 5814 m
1699 5814 l
st
1959 5814 m
1959 5814 l
st
2218 5814 m
2218 5814 l
st
2478 5814 m
2478 5814 l
st
2737 5814 m
2737 5814 l
st
2997 5814 m
2997 5814 l
st
401 5814 m
2997 5814 l
st
401 5814 m
401 5814 l
st
401 5680 m
401 5680 l
st
401 5546 m
401 5546 l
st
401 5412 m
401 5412 l
st
401 5278 m
401 5278 l
st
401 5144 m
401 5144 l
st
401 5010 m
401 5010 l
st
401 4876 m
401 4876 l
st
401 4742 m
401 4742 l
st
401 4608 m
401 4608 l
st
401 4474 m
401 4474 l
st
401 4339 m
401 4339 l
st
401 4205 m
401 4205 l
st
401 4071 m
401 4071 l
st
401 3937 m
401 3937 l
st
401 3803 m
401 3803 l
st
401 3669 m
401 3669 l
st
401 3535 m
401 3535 l
st
401 3401 m
401 3401 l
st
401 3267 m
401 3267 l
st
401 3133 m
401 3133 l
st
401 5814 m
401 3133 l
st
401 3133 m
401 3133 l
st
661 3133 m
661 3133 l
st
920 3133 m
920 3133 l
st
1180 3133 m
1180 3133 l
st
1439 3133 m
1439 3133 l
st
1699 3133 m
1699 3133 l
st
1959 3133 m
1959 3133 l
st
2218 3133 m
2218 3133 l
st
2478 3133 m
2478 3133 l
st
2737 3133 m
2737 3133 l
st
2997 3133 m
2997 3133 l
st
401 3133 m
2997 3133 l
st
gs
1 -1 sc
/MC3_Arial 160 self 1677 -3029 m
( )[44 ] xs
1 -1 sc
gr
gs
gs
1 -1 sc
149 -5823 tr
90 ro
/MC2_Arial 198 self 0 0 m
(CDF of Compression Ratios)[143 143 121 55 110 55 55 143 110 165 110 66 110 99 99 44 110 110 55 143 110 55 44 110 99 ] xs
1 -1 sc
gr
gr
gr
Save0 restore end
showpage
%%EOF
