%!PS-Adobe-3.0 EPSF-3.0
%%BoundingBox: 0 0 864 720
%%LanguageLevel: 2
%%Creator: OriginLab Corporation
%%Title: (C:\Users\Administrator\Documents\atc16-pagesplit\comp-life.eps)
%%CreationDate: Sun Jan 31 00:57:15 2016
%%EndComments

/OriginLab::PSL1 128 dict dup begin def
/Save0 save def
%%BeginResource: procset OriginLab::PSL1
/wd{1 index where{pop pop pop}{bind def}ifelse}bind def
/setcmykcolor{1 sub 4 1 roll 3{3 index add neg dup 0 lt{pop 0}if 3 1 roll}repeat setrgbcolor pop}wd
/selectfont{dup type/arraytype eq{exch findfont exch makefont setfont}{exch findfont exch scalefont setfont}ifelse}wd
/xshow{1 index length 0 le{}{currentpoint exch 3 index length 1 sub 0 exch 1 exch{dup 5 index exch 1 getinterval show 3 index exch get add 2 copy exch moveto}for pop pop}ifelse pop pop}wd
/glyphshow{matrix currentmatrix exch currentfont dup/FontMatrix get concat currentpoint translate
 dup/Metrics get 2 index get 0 4 2 roll gsave/CharProcs get exch 2 copy known not{pop/.notdef}if
 get exec fill grestore moveto setmatrix}wd
/grayimage/image load def/rgbtogray{cvx exec dup length 3 idiv 1 sub 0 exch 1 exch{dup 3 mul dup 3 index exch get 255 div .3 mul exch
 1 add dup 4 index exch get 255 div .59 mul exch 1 add 4 index exch get 255 div .11 mul add add
 255 mul dup 255 gt{255}if round cvi 2 index 3 1 roll put}for dup length 3 idiv 0 exch getinterval}bind def
/colorimage{0 setgray pop pop cvlit/rgbtogray cvx 2 packedarray cvx grayimage}wd
/bd{bind def}bind def/ld{load def}bd/ed{exch def}bd/xd{cvx def}bd
/np/newpath ld/a/arc ld/m/moveto ld/l/lineto ld/c/curveto ld/rm/rmoveto ld/rl/rlineto ld/rc/rcurveto ld/cp/closepath ld/cpt/currentpoint ld
/tr/translate ld/sc/scale ld/ro/rotate ld/t/transform ld/it/itransform ld/dt/dtransform ld/idt/idtransform ld
/mtx/matrix ld/cmtx/currentmatrix ld/dmtx/defaultmatrix ld/smtx/setmatrix ld/catmtx/concatmatrix ld
/sw/setlinewidth ld/scap/setlinecap ld/sj/setlinejoin ld/sm/setmiterlimit ld/sd/setdash ld/rgb/setrgbcolor ld/crgb/currentrgbcolor ld/cmyk/setcmykcolor ld/gs/gsave ld/gr/grestore ld
/st/stroke ld/fi/fill ld/eofi/eofill ld/cl/clip ld/eocl/eoclip ld
/df/definefont ld/ff/findfont ld/sf/setfont ld/scf/scalefont ld/self/selectfont ld/cf/currentfont ld
/s/show ld/xs/xshow ld/gls/glyphshow ld/xgls{cpt 3 1 roll add exch 3 -1 roll gls m}bd
/cd/currentdict ld/i/index ld
/DrawBox{4 2 roll m 1 index 0 rl 0 exch rl neg 0 rl cp}bd
/plus.re { 6 { 3 index } repeat moveto 0 exch rlineto 0 rlineto pop pop neg 0 exch rlineto pop lineto closepath } def
/DrawBcc{4 2 roll m 2 copy 0 lt exch 0 lt xor{dup 0 exch rl exch 0 rl neg 0 exch rl}{exch dup 0 rl exch 0 exch rl neg 0 rl}ifelse cp}bd
/rectline{dup type/arraytype eq{dup length 0 exch 4 exch 4 sub{0 1 3{3 copy add get 4 1 roll pop}for pop 5 1 roll DrawBox}for pop}{DrawBox}ifelse}bd
/rectpath{dup type/arraytype eq{dup length 0 exch 4 exch 4 sub{0 1 3{3 copy add get 4 1 roll pop}for pop 5 1 roll DrawBcc}for pop}{DrawBcc}ifelse}bd
/pathproc{[{/m cvx}{/l cvx}{/c cvx}{/cp cvx}pathforall]cvx}bd
/L1img/image ld/L1idx[{0}
 {dup 7 and 3 1 roll -3 bitshift get exch 7 sub 1 mul bitshift  1 and}bind 1 index dup
 {dup 1 and 3 1 roll -1 bitshift get exch 1 sub 4 mul bitshift 15 and}bind 1 index dup dup
 {get}bind]def
/image{dup type/dicttype eq {dup/ImgCS get 0 get/Indexed eq}{false}ifelse
 {begin Width Height 8 ImageMatrix {rgb_string rgb_lookup
 cd/DataSource get dup type/filetype eq
 {mystring readstring pop}{exec}ifelse
 dup length 0 ne
 {L1idx BitsPerComponent get 0 1 Width 1 sub
 {3 copy exch exec exch 3 mul exch
 3 mul dup 5 index exch get exch 1 add dup 6 index exch get exch 1 add 6 index exch get
 7 index exch 4 index 2 add exch put 6 index exch 3 index 1 add exch put 5 index exch 2 index exch put pop
 }for pop pop pop }{pop pop pop ()}ifelse }false 3 colorimage end} {dup type/dicttype eq
 {{dup mark exch L1img pop pop}stopped{cleartomark begin Width Height BitsPerComponent ImageMatrix
 {cd/DataSource get dup type/filetype eq {mystring readstring pop}{exec}ifelse
 }false 3 colorimage end} if}{L1img}ifelse}ifelse
 }bd
/L1imgmask/imagemask ld/imagemask{dup type/dicttype eq
 {{dup mark exch L1imgmask pop pop}stopped {cleartomark begin Width Height polarityflag ImageMatrix
 {cd/DataSource get dup type/filetype eq {mystring readstring pop}{exec}ifelse
 }L1imgmask end}if}{L1imgmask}ifelse
 }bd
% Gradient function
/GradientStep 1 150 div def
/GradientStartRGB { /R1 exch def /G1 exch def /B1 exch def } def
/GradientEndRGB { /R2 exch def /G2 exch def /B2 exch def
/GradientSteps GradientLength GradientStep div def
/GradientRStep R2 R1 sub GradientSteps div def
/GradientGStep G2 G1 sub GradientSteps div def
/GradientBStep B2 B1 sub GradientSteps div def
} def
/GradientStepRGB { /R1 R1 GradientRStep add def
/G1 G1 GradientGStep add def
/B1 B1 GradientBStep add def
R1 G1 B1 setrgbcolor
} def
%%EndResource
/rectclip{np rectpath clip np}wd
/rectfill{gs np rectpath fi gr}wd
/rectstroke{gs np dup type/arraytype eq{dup length 6 eq}{false}ifelse{1 index type/arraytype eq{exch}{5 1 roll}ifelse rectline concat st}{rectline st}ifelse gr}wd
%%BeginResource: procset OriginLab::Image
/OriginLab::Image 32 dict dup begin
/BinProc{[currentfile mystring /readstring cvx /pop cvx] cvx bind}bd
/HexProc{[currentfile mystring /readhexstring cvx /pop cvx] cvx bind}bd
/Ascii85Proc{currentfile /ASCII85Decode filter}bd
/LZWA85{currentfile /ASCII85Decode filter /LZWDecode filter}bd
/ImgProcArray[/BinProc /HexProc /Ascii85Proc /LZWA85]def
/ImgDict{/ImgDict 16 dict def ImgDict dup begin /ImageType 1 def /MultipleDataSource false def end}bd
/L2Dec{{[1 0]}{[0 1]}ifelse}bd
/BegImg{ /Img_sv save def
 /ImgDir ed ImgProcArray exch get /ImgProc exch ld
 dup /polarityflag ed L2Dec /polarity ed /smoothflag ed
 tr /dx 2 index def /dy 1 index abs def sc
 string /mystring ed /bpc ed /ih ed /iw ed
 }bd
/EndImg {Img_sv restore}bd
/DoXImg{ /rgb_lookup ed /hival ed ImgDict dup begin
 [/Indexed /DeviceRGB hival rgb_lookup] /L1img where{pop/ImgCS ed}{setcolorspace}ifelse
 /rgb_string iw 3 mul string def
 /Width iw def
 /Height ih def
 /Decode [0 1 bpc{2 mul}repeat 1 sub] def
 /ImageMatrix
  ImgDir 0 eq{[iw 0 0 ih 0 0]}if
  ImgDir 1 eq{[iw neg 0 0 ih iw 0]}if
  ImgDir 2 eq{[iw 0 0 ih neg 0 ih]}if
  ImgDir 3 eq{[iw neg 0 0 ih neg iw ih]}if
  def
 /DataSource ImgProc def
 /BitsPerComponent bpc def
 /Interpolate smoothflag def
 end image}bd
/DoImg{ ImgDict dup begin
 [/DeviceRGB] /L1img where{pop/ImgCS ed}{setcolorspace}ifelse
 /rgb_string iw 3 mul string def
 /Width iw def
 /Height ih def
 /Decode [0 1 0 1 0 1] def
 /ImageMatrix
  ImgDir 0 eq{[iw 0 0 ih 0 0]}if
  ImgDir 1 eq{[iw neg 0 0 ih iw 0]}if
  ImgDir 2 eq{[iw 0 0 ih neg 0 ih]}if
  ImgDir 3 eq{[iw neg 0 0 ih neg iw ih]}if
  def
 /DataSource ImgProc def
 /BitsPerComponent 8 def
 /Interpolate smoothflag def
 end image}bd
end def
%%EndResource
%%BeginFont: /MC1_Arial
12 dict begin
/FontInfo 8 dict dup begin
/ItalicAngle 0 def
/UnderlinePosition -217.00 def
/UnderlineThickness 150.00 def
/StrikeoutPosition 530.00 def
/StrikeoutThickness 102.00 def
/isFixedPitch false def
end readonly def
/FontName /MC1_Arial def
/FontType 3 def
/FontMatrix [1 2048 div 0 0 1 2048 div 0 0] def
/FontBBox [-1361 -665 4096 2060] def
/Encoding 256 array def 0 1 255{Encoding exch/.notdef put}for
Encoding 32/s32 put
Encoding 46/s46 put
Encoding 48/s48 put
Encoding 49/s49 put
Encoding 50/s50 put
Encoding 51/s51 put
Encoding 52/s52 put
Encoding 53/s53 put
Encoding 68/s68 put
Encoding 69/s69 put
Encoding 72/s72 put
Encoding 76/s76 put
Encoding 77/s77 put
Encoding 84/s84 put
Encoding 88/s88 put
/BoundingBoxes 16 dict def
BoundingBoxes begin
/s32 [0 -434 569 1854] def
/s46 [0 -434 569 1854] def
/s48 [0 -434 1139 1854] def
/s49 [0 -434 1139 1854] def
/s50 [0 -434 1139 1854] def
/s51 [0 -434 1139 1854] def
/s52 [0 -434 1139 1854] def
/s53 [0 -434 1139 1854] def
/s68 [0 -434 1479 1854] def
/s69 [0 -434 1366 1854] def
/s72 [0 -434 1479 1854] def
/s76 [0 -434 1139 1854] def
/s77 [0 -434 1706 1854] def
/s84 [0 -434 1251 1854] def
/s88 [0 -434 1366 1854] def
end
/Metrics 16 dict def
 Metrics begin
/s32 569 def
/s46 569 def
/s48 1139 def
/s49 1139 def
/s50 1139 def
/s51 1139 def
/s52 1139 def
/s53 1139 def
/s68 1479 def
/s69 1366 def
/s72 1479 def
/s76 1139 def
/s77 1706 def
/s84 1251 def
/s88 1366 def
end
/CharProcs 16 dict def
CharProcs begin
/.notdef {} def
/s46 {
186 0 m
186 205 186 0 186 205 c
391 205 186 205 391 205 c
391 0 391 205 391 0 c
186 0 391 0 186 0 c
closepath } bind def
/s48 {
85 723 m
85 896.33 102.83 1035.83 138.5 1141.5 c
174.17 1247.17 227.17 1328.67 297.5 1386 c
367.83 1443.33 456.33 1472 563 1472 c
641.67 1472 710.67 1456.17 770 1424.5 c
829.33 1392.83 878.33 1347.17 917 1287.5 c
955.67 1227.83 986 1155.17 1008 1069.5 c
1030 983.83 1041 868.33 1041 723 c
1041 551 1023.33 412.17 988 306.5 c
952.67 200.83 899.83 119.17 829.5 61.5 c
759.17 3.83 670.33 -25 563 -25 c
421.67 -25 310.67 25.67 230 127 c
133.33 249 85 447.67 85 723 c
closepath 270 723 m
270 482.33 298.17 322.17 354.5 242.5 c
410.83 162.83 480.33 123 563 123 c
645.67 123 715.17 163 771.5 243 c
827.83 323 856 483 856 723 c
856 964.33 827.83 1124.67 771.5 1204 c
715.17 1283.33 645 1323 561 1323 c
478.33 1323 412.33 1288 363 1218 c
301 1128.67 270 963.67 270 723 c
closepath } bind def
/s49 {
763 0 m
583 0 763 0 583 0 c
583 1147 583 0 583 1147 c
539.67 1105.67 482.83 1064.33 412.5 1023 c
342.17 981.67 279 950.67 223 930 c
223 1104 223 930 223 1104 c
323.67 1151.33 411.67 1208.67 487 1276 c
562.33 1343.33 615.67 1408.67 647 1472 c
763 1472 647 1472 763 1472 c
763 0 763 1472 763 0 c
closepath } bind def
/s50 {
1031 173 m
1031 0 1031 173 1031 0 c
62 0 1031 0 62 0 c
60.67 43.33 67.67 85 83 125 c
107.67 191 147.17 256 201.5 320 c
255.83 384 334.33 458 437 542 c
596.33 672.67 704 776.17 760 852.5 c
816 928.83 844 1001 844 1069 c
844 1140.33 818.5 1200.5 767.5 1249.5 c
716.5 1298.5 650 1323 568 1323 c
481.33 1323 412 1297 360 1245 c
308 1193 281.67 1121 281 1029 c
96 1048 281 1029 96 1048 c
108.67 1186 156.33 1291.17 239 1363.5 c
321.67 1435.83 432.67 1472 572 1472 c
712.67 1472 824 1433 906 1355 c
988 1277 1029 1180.33 1029 1065 c
1029 1006.33 1017 948.67 993 892 c
969 835.33 929.17 775.67 873.5 713 c
817.83 650.33 725.33 564.33 596 455 c
488 364.33 418.67 302.83 388 270.5 c
357.33 238.17 332 205.67 312 173 c
1031 173 312 173 1031 173 c
closepath } bind def
/s51 {
86 387 m
266 411 86 387 266 411 c
286.67 309 321.83 235.5 371.5 190.5 c
421.17 145.5 481.67 123 553 123 c
637.67 123 709.17 152.33 767.5 211 c
825.83 269.67 855 342.33 855 429 c
855 511.67 828 579.83 774 633.5 c
720 687.17 651.33 714 568 714 c
534 714 491.67 707.33 441 694 c
461 852 441 694 461 852 c
473 850.67 482.67 850 490 850 c
566.67 850 635.67 870 697 910 c
758.33 950 789 1011.67 789 1095 c
789 1161 766.67 1215.67 722 1259 c
677.33 1302.33 619.67 1324 549 1324 c
479 1324 420.67 1302 374 1258 c
327.33 1214 297.33 1148 284 1060 c
104 1092 284 1060 104 1092 c
126 1212.67 176 1306.17 254 1372.5 c
332 1438.83 429 1472 545 1472 c
625 1472 698.67 1454.83 766 1420.5 c
833.33 1386.17 884.83 1339.33 920.5 1280 c
956.17 1220.67 974 1157.67 974 1091 c
974 1027.67 957 970 923 918 c
889 866 838.67 824.67 772 794 c
858.67 774 926 732.5 974 669.5 c
1022 606.5 1046 527.67 1046 433 c
1046 305 999.33 196.5 906 107.5 c
812.67 18.5 694.67 -26 552 -26 c
423.33 -26 316.5 12.33 231.5 89 c
146.5 165.67 98 265 86 387 c
closepath } bind def
/s52 {
662 0 m
662 351 662 0 662 351 c
26 351 662 351 26 351 c
26 516 26 351 26 516 c
695 1466 26 516 695 1466 c
842 1466 695 1466 842 1466 c
842 516 842 1466 842 516 c
1040 516 842 516 1040 516 c
1040 351 1040 516 1040 351 c
842 351 1040 351 842 351 c
842 0 842 351 842 0 c
662 0 842 0 662 0 c
closepath 662 516 m
662 1177 662 516 662 1177 c
203 516 662 1177 203 516 c
662 516 203 516 662 516 c
closepath } bind def
/s53 {
85 384 m
274 400 85 384 274 400 c
288 308 320.5 238.83 371.5 192.5 c
422.5 146.17 484 123 556 123 c
642.67 123 716 155.67 776 221 c
836 286.33 866 373 866 481 c
866 583.67 837.17 664.67 779.5 724 c
721.83 783.33 646.33 813 553 813 c
495 813 442.67 799.83 396 773.5 c
349.33 747.17 312.67 713 286 671 c
117 693 286 671 117 693 c
259 1446 117 693 259 1446 c
988 1446 259 1446 988 1446 c
988 1274 988 1446 988 1274 c
403 1274 988 1274 403 1274 c
324 880 403 1274 324 880 c
412 941.33 504.33 972 601 972 c
729 972 837 927.67 925 839 c
1013 750.33 1057 636.33 1057 497 c
1057 364.33 1018.33 249.67 941 153 c
847 34.33 718.67 -25 556 -25 c
422.67 -25 313.83 12.33 229.5 87 c
145.17 161.67 97 260.67 85 384 c
closepath } bind def
/s68 {
158 0 m
158 1466 158 0 158 1466 c
663 1466 158 1466 663 1466 c
777 1466 864 1459 924 1445 c
1008 1425.67 1079.67 1390.67 1139 1340 c
1216.33 1274.67 1274.17 1191.17 1312.5 1089.5 c
1350.83 987.83 1370 871.67 1370 741 c
1370 629.67 1357 531 1331 445 c
1305 359 1271.67 287.83 1231 231.5 c
1190.33 175.17 1145.83 130.83 1097.5 98.5 c
1049.17 66.17 990.83 41.67 922.5 25 c
854.17 8.33 775.67 0 687 0 c
158 0 687 0 158 0 c
closepath 352 173 m
665 173 352 173 665 173 c
761.67 173 837.5 182 892.5 200 c
947.5 218 991.33 243.33 1024 276 c
1070 322 1105.83 383.83 1131.5 461.5 c
1157.17 539.17 1170 633.33 1170 744 c
1170 897.33 1144.83 1015.17 1094.5 1097.5 c
1044.17 1179.83 983 1235 911 1263 c
859 1283 775.33 1293 660 1293 c
352 1293 660 1293 352 1293 c
352 173 352 1293 352 173 c
closepath } bind def
/s69 {
162 0 m
162 1466 162 0 162 1466 c
1222 1466 162 1466 1222 1466 c
1222 1293 1222 1466 1222 1293 c
356 1293 1222 1293 356 1293 c
356 844 356 1293 356 844 c
1167 844 356 844 1167 844 c
1167 672 1167 844 1167 672 c
356 672 1167 672 356 672 c
356 173 356 672 356 173 c
1256 173 356 173 1256 173 c
1256 0 1256 173 1256 0 c
162 0 1256 0 162 0 c
closepath } bind def
/s72 {
164 0 m
164 1466 164 0 164 1466 c
358 1466 164 1466 358 1466 c
358 864 358 1466 358 864 c
1120 864 358 864 1120 864 c
1120 1466 1120 864 1120 1466 c
1314 1466 1120 1466 1314 1466 c
1314 0 1314 1466 1314 0 c
1120 0 1314 0 1120 0 c
1120 691 1120 0 1120 691 c
358 691 1120 691 358 691 c
358 0 358 691 358 0 c
164 0 358 0 164 0 c
closepath } bind def
/s76 {
150 0 m
150 1466 150 0 150 1466 c
344 1466 150 1466 344 1466 c
344 173 344 1466 344 173 c
1066 173 344 173 1066 173 c
1066 0 1066 173 1066 0 c
150 0 1066 0 150 0 c
closepath } bind def
/s77 {
152 0 m
152 1466 152 0 152 1466 c
444 1466 152 1466 444 1466 c
791 428 444 1466 791 428 c
823 331.33 846.33 259 861 211 c
877.67 264.33 903.67 342.67 939 446 c
1290 1466 939 446 1290 1466 c
1551 1466 1290 1466 1551 1466 c
1551 0 1551 1466 1551 0 c
1364 0 1551 0 1364 0 c
1364 1227 1364 0 1364 1227 c
938 0 1364 1227 938 0 c
763 0 938 0 763 0 c
339 1248 763 0 339 1248 c
339 0 339 1248 339 0 c
152 0 339 0 152 0 c
closepath } bind def
/s84 {
531 0 m
531 1293 531 0 531 1293 c
48 1293 531 1293 48 1293 c
48 1466 48 1293 48 1466 c
1210 1466 48 1466 1210 1466 c
1210 1293 1210 1466 1210 1293 c
725 1293 1210 1293 725 1293 c
725 0 725 1293 725 0 c
531 0 725 0 531 0 c
closepath } bind def
/s88 {
9 0 m
576 764 9 0 576 764 c
76 1466 576 764 76 1466 c
307 1466 76 1466 307 1466 c
573 1090 307 1466 573 1090 c
628.33 1012 667.67 952 691 910 c
723.67 963.33 762.33 1019 807 1077 c
1102 1466 807 1077 1102 1466 c
1313 1466 1102 1466 1313 1466 c
798 775 1313 1466 798 775 c
1353 0 798 775 1353 0 c
1113 0 1353 0 1113 0 c
744 523 1113 0 744 523 c
723.33 553 702 585.67 680 621 c
647.33 567.67 624 531 610 511 c
242 0 610 511 242 0 c
9 0 242 0 9 0 c
closepath } bind def
end
/BuildGlyph {
 exch dup /Metrics get 2 index get 0 setcharwidth
/CharProcs get exch 2 copy known not{pop/.notdef}if get exec fill}bind def
/BuildChar {
1 index /Encoding get exch get
1 index /BuildGlyph get exec
} bind def
currentdict end /MC1_Arial exch definefont pop
%%EndFont
%%BeginFont: /MC2_Arial
12 dict begin
/FontInfo 8 dict dup begin
/ItalicAngle 0 def
/UnderlinePosition -217.00 def
/UnderlineThickness 150.00 def
/StrikeoutPosition 530.00 def
/StrikeoutThickness 102.00 def
/isFixedPitch false def
end readonly def
/FontName /MC2_Arial def
/FontType 3 def
/FontMatrix [1 2048 div 0 0 1 2048 div 0 0] def
/FontBBox [-1361 -665 4096 2060] def
/Encoding 256 array def 0 1 255{Encoding exch/.notdef put}for
Encoding 32/s32 put
Encoding 76/s76 put
Encoding 78/s78 put
Encoding 97/s97 put
Encoding 100/s100 put
Encoding 101/s101 put
Encoding 102/s102 put
Encoding 105/s105 put
Encoding 108/s108 put
Encoding 109/s109 put
Encoding 111/s111 put
Encoding 114/s114 put
Encoding 116/s116 put
Encoding 122/s122 put
/BoundingBoxes 15 dict def
BoundingBoxes begin
/s32 [0 -434 569 1854] def
/s76 [0 -434 1139 1854] def
/s78 [0 -434 1479 1854] def
/s97 [0 -434 1139 1854] def
/s100 [0 -434 1139 1854] def
/s101 [0 -434 1139 1854] def
/s102 [0 -434 569 1854] def
/s105 [0 -434 455 1854] def
/s108 [0 -434 455 1854] def
/s109 [0 -434 1706 1854] def
/s111 [0 -434 1139 1854] def
/s114 [0 -434 682 1854] def
/s116 [0 -434 569 1854] def
/s122 [0 -434 1024 1854] def
end
/Metrics 15 dict def
 Metrics begin
/s32 569 def
/s76 1139 def
/s78 1479 def
/s97 1139 def
/s100 1139 def
/s101 1139 def
/s102 569 def
/s105 455 def
/s108 455 def
/s109 1706 def
/s111 1139 def
/s114 682 def
/s116 569 def
/s122 1024 def
end
/CharProcs 15 dict def
CharProcs begin
/.notdef {} def
/s76 {
150 0 m
150 1466 150 0 150 1466 c
344 1466 150 1466 344 1466 c
344 173 344 1466 344 173 c
1066 173 344 173 1066 173 c
1066 0 1066 173 1066 0 c
150 0 1066 0 150 0 c
closepath } bind def
/s78 {
156 0 m
156 1466 156 0 156 1466 c
355 1466 156 1466 355 1466 c
1125 315 355 1466 1125 315 c
1125 1466 1125 315 1125 1466 c
1311 1466 1125 1466 1311 1466 c
1311 0 1311 1466 1311 0 c
1112 0 1311 0 1112 0 c
342 1152 1112 0 342 1152 c
342 0 342 1152 342 0 c
156 0 342 0 156 0 c
closepath } bind def
/s97 {
828 131 m
761.33 74.33 697.17 34.33 635.5 11 c
573.83 -12.33 507.67 -24 437 -24 c
320.33 -24 230.67 4.5 168 61.5 c
105.33 118.5 74 191.33 74 280 c
74 332 85.83 379.5 109.5 422.5 c
133.17 465.5 164.17 500 202.5 526 c
240.83 552 284 571.67 332 585 c
367.33 594.33 420.67 603.33 492 612 c
637.33 629.33 744.33 650 813 674 c
813.67 698.67 814 714.33 814 721 c
814 794.33 797 846 763 876 c
717 916.67 648.67 937 558 937 c
473.33 937 410.83 922.17 370.5 892.5 c
330.17 862.83 300.33 810.33 281 735 c
105 759 281 735 105 759 c
121 834.33 147.33 895.17 184 941.5 c
220.67 987.83 273.67 1023.5 343 1048.5 c
412.33 1073.5 492.67 1086 584 1086 c
674.67 1086 748.33 1075.33 805 1054 c
861.67 1032.67 903.33 1005.83 930 973.5 c
956.67 941.17 975.33 900.33 986 851 c
992 820.33 995 765 995 685 c
995 445 995 685 995 445 c
995 277.67 998.83 171.83 1006.5 127.5 c
1014.17 83.17 1029.33 40.67 1052 0 c
864 0 1052 0 864 0 c
845.33 37.33 833.33 81 828 131 c
closepath 813 533 m
747.67 506.33 649.67 483.67 519 465 c
445 454.33 392.67 442.33 362 429 c
331.33 415.67 307.67 396.17 291 370.5 c
274.33 344.83 266 316.33 266 285 c
266 237 284.17 197 320.5 165 c
356.83 133 410 117 480 117 c
549.33 117 611 132.17 665 162.5 c
719 192.83 758.67 234.33 784 287 c
803.33 327.67 813 387.67 813 467 c
813 533 813 467 813 533 c
closepath } bind def
/s100 {
824 0 m
824 134 824 0 824 134 c
756.67 28.67 657.67 -24 527 -24 c
442.33 -24 364.5 -0.67 293.5 46 c
222.5 92.67 167.5 157.83 128.5 241.5 c
89.5 325.17 70 421.33 70 530 c
70 636 87.67 732.17 123 818.5 c
158.33 904.83 211.33 971 282 1017 c
352.67 1063 431.67 1086 519 1086 c
583 1086 640 1072.5 690 1045.5 c
740 1018.5 780.67 983.33 812 940 c
812 1466 812 940 812 1466 c
991 1466 812 1466 991 1466 c
991 0 991 1466 991 0 c
824 0 991 0 824 0 c
closepath 255 530 m
255 394 283.67 292.33 341 225 c
398.33 157.67 466 124 544 124 c
622.67 124 689.5 156.17 744.5 220.5 c
799.5 284.83 827 383 827 515 c
827 660.33 799 767 743 835 c
687 903 618 937 536 937 c
456 937 389.17 904.33 335.5 839 c
281.83 773.67 255 670.67 255 530 c
closepath } bind def
/s101 {
862 342 m
1048 319 862 342 1048 319 c
1018.67 210.33 964.33 126 885 66 c
805.67 6 704.33 -24 581 -24 c
425.67 -24 302.5 23.83 211.5 119.5 c
120.5 215.17 75 349.33 75 522 c
75 700.67 121 839.33 213 938 c
305 1036.67 424.33 1086 571 1086 c
713 1086 829 1037.67 919 941 c
1009 844.33 1054 708.33 1054 533 c
1054 522.33 1053.67 506.33 1053 485 c
261 485 1053 485 261 485 c
267.67 368.33 300.67 279 360 217 c
419.33 155 493.33 124 582 124 c
648 124 704.33 141.33 751 176 c
797.67 210.67 834.67 266 862 342 c
closepath 271 633 m
864 633 271 633 864 633 c
856 722.33 833.33 789.33 796 834 c
738.67 903.33 664.33 938 573 938 c
490.33 938 420.83 910.33 364.5 855 c
308.17 799.67 277 725.67 271 633 c
closepath } bind def
/s102 {
178 0 m
178 922 178 0 178 922 c
19 922 178 922 19 922 c
19 1062 19 922 19 1062 c
178 1062 19 1062 178 1062 c
178 1175 178 1062 178 1175 c
178 1246.33 184.33 1299.33 197 1334 c
214.33 1380.67 244.83 1418.5 288.5 1447.5 c
332.17 1476.5 393.33 1491 472 1491 c
522.67 1491 578.67 1485 640 1473 c
613 1316 640 1473 613 1316 c
575.67 1322.67 540.33 1326 507 1326 c
452.33 1326 413.67 1314.33 391 1291 c
368.33 1267.67 357 1224 357 1160 c
357 1062 357 1160 357 1062 c
564 1062 357 1062 564 1062 c
564 922 564 1062 564 922 c
357 922 564 922 357 922 c
357 0 357 922 357 0 c
178 0 357 0 178 0 c
closepath } bind def
/s105 {
136 1259 m
136 1466 136 1259 136 1466 c
316 1466 136 1466 316 1466 c
316 1259 316 1466 316 1259 c
136 1259 316 1259 136 1259 c
closepath 136 0 m
136 1062 136 0 136 1062 c
316 1062 136 1062 316 1062 c
316 0 316 1062 316 0 c
136 0 316 0 136 0 c
closepath } bind def
/s108 {
131 0 m
131 1466 131 0 131 1466 c
311 1466 131 1466 311 1466 c
311 0 311 1466 311 0 c
131 0 311 0 131 0 c
closepath } bind def
/s109 {
135 0 m
135 1062 135 0 135 1062 c
296 1062 135 1062 296 1062 c
296 913 296 1062 296 913 c
329.33 965 373.67 1006.83 429 1038.5 c
484.33 1070.17 547.33 1086 618 1086 c
696.67 1086 761.17 1069.67 811.5 1037 c
861.83 1004.33 897.33 958.67 918 900 c
1002 1024 1111.33 1086 1246 1086 c
1351.33 1086 1432.33 1056.83 1489 998.5 c
1545.67 940.17 1574 850.33 1574 729 c
1574 0 1574 729 1574 0 c
1395 0 1574 0 1395 0 c
1395 669 1395 0 1395 669 c
1395 741 1389.17 792.83 1377.5 824.5 c
1365.83 856.17 1344.67 881.67 1314 901 c
1283.33 920.33 1247.33 930 1206 930 c
1131.33 930 1069.33 905.17 1020 855.5 c
970.67 805.83 946 726.33 946 617 c
946 0 946 617 946 0 c
766 0 946 0 766 0 c
766 690 766 0 766 690 c
766 770 751.33 830 722 870 c
692.67 910 644.67 930 578 930 c
527.33 930 480.5 916.67 437.5 890 c
394.5 863.33 363.33 824.33 344 773 c
324.67 721.67 315 647.67 315 551 c
315 0 315 551 315 0 c
135 0 315 0 135 0 c
closepath } bind def
/s111 {
68 531 m
68 727.67 122.67 873.33 232 968 c
323.33 1046.67 434.67 1086 566 1086 c
712 1086 831.33 1038.17 924 942.5 c
1016.67 846.83 1063 714.67 1063 546 c
1063 409.33 1042.5 301.83 1001.5 223.5 c
960.5 145.17 900.83 84.33 822.5 41 c
744.17 -2.33 658.67 -24 566 -24 c
417.33 -24 297.17 23.67 205.5 119 c
113.83 214.33 68 351.67 68 531 c
closepath 253 531 m
253 395 282.67 293.17 342 225.5 c
401.33 157.83 476 124 566 124 c
655.33 124 729.67 158 789 226 c
848.33 294 878 397.67 878 537 c
878 668.33 848.17 767.83 788.5 835.5 c
728.83 903.17 654.67 937 566 937 c
476 937 401.33 903.33 342 836 c
282.67 768.67 253 667 253 531 c
closepath } bind def
/s114 {
133 0 m
133 1062 133 0 133 1062 c
295 1062 133 1062 295 1062 c
295 901 295 1062 295 901 c
336.33 976.33 374.5 1026 409.5 1050 c
444.5 1074 483 1086 525 1086 c
585.67 1086 647.33 1066.67 710 1028 c
648 861 710 1028 648 861 c
604 887 560 900 516 900 c
476.67 900 441.33 888.17 410 864.5 c
378.67 840.83 356.33 808 343 766 c
323 702 313 632 313 556 c
313 0 313 556 313 0 c
133 0 313 0 133 0 c
closepath } bind def
/s116 {
528 161 m
554 2 528 161 554 2 c
503.33 -8.67 458 -14 418 -14 c
352.67 -14 302 -3.67 266 17 c
230 37.67 204.67 64.83 190 98.5 c
175.33 132.17 168 203 168 311 c
168 922 168 311 168 922 c
36 922 168 922 36 922 c
36 1062 36 922 36 1062 c
168 1062 36 1062 168 1062 c
168 1325 168 1062 168 1325 c
347 1433 168 1325 347 1433 c
347 1062 347 1433 347 1062 c
528 1062 347 1062 528 1062 c
528 922 528 1062 528 922 c
347 922 528 922 347 922 c
347 301 347 922 347 301 c
347 249.67 350.17 216.67 356.5 202 c
362.83 187.33 373.17 175.67 387.5 167 c
401.83 158.33 422.33 154 449 154 c
469 154 495.33 156.33 528 161 c
closepath } bind def
/s122 {
40 0 m
40 146 40 0 40 146 c
716 922 40 146 716 922 c
639.33 918 571.67 916 513 916 c
80 916 513 916 80 916 c
80 1062 80 916 80 1062 c
948 1062 80 1062 948 1062 c
948 943 948 1062 948 943 c
373 269 948 943 373 269 c
262 146 373 269 262 146 c
342.67 152 418.33 155 489 155 c
980 155 489 155 980 155 c
980 0 980 155 980 0 c
40 0 980 0 40 0 c
closepath } bind def
end
/BuildGlyph {
 exch dup /Metrics get 2 index get 0 setcharwidth
/CharProcs get exch 2 copy known not{pop/.notdef}if get exec fill}bind def
/BuildChar {
1 index /Encoding get exch get
1 index /BuildGlyph get exec
} bind def
currentdict end /MC2_Arial exch definefont pop
%%EndFont
%%BeginFont: /MC3_Arial
12 dict begin
/FontInfo 8 dict dup begin
/ItalicAngle 0 def
/UnderlinePosition -217.00 def
/UnderlineThickness 150.00 def
/StrikeoutPosition 530.00 def
/StrikeoutThickness 102.00 def
/isFixedPitch false def
end readonly def
/FontName /MC3_Arial def
/FontType 3 def
/FontMatrix [1 2048 div 0 0 1 2048 div 0 0] def
/FontBBox [-1361 -665 4096 2060] def
/Encoding 256 array def 0 1 255{Encoding exch/.notdef put}for
Encoding 32/s32 put
Encoding 43/s43 put
Encoding 45/s45 put
Encoding 48/s48 put
Encoding 49/s49 put
Encoding 51/s51 put
Encoding 53/s53 put
Encoding 67/s67 put
Encoding 68/s68 put
Encoding 78/s78 put
Encoding 79/s79 put
Encoding 80/s80 put
Encoding 83/s83 put
Encoding 86/s86 put
Encoding 97/s97 put
Encoding 101/s101 put
Encoding 103/s103 put
Encoding 105/s105 put
Encoding 108/s108 put
Encoding 112/s112 put
Encoding 115/s115 put
Encoding 116/s116 put
/BoundingBoxes 23 dict def
BoundingBoxes begin
/s32 [0 -434 569 1854] def
/s43 [0 -434 1196 1854] def
/s45 [0 -434 682 1854] def
/s48 [0 -434 1139 1854] def
/s49 [0 -434 1139 1854] def
/s51 [0 -434 1139 1854] def
/s53 [0 -434 1139 1854] def
/s67 [0 -434 1479 1854] def
/s68 [0 -434 1479 1854] def
/s78 [0 -434 1479 1854] def
/s79 [0 -434 1593 1854] def
/s80 [0 -434 1366 1854] def
/s83 [0 -434 1366 1854] def
/s86 [0 -434 1366 1854] def
/s97 [0 -434 1139 1854] def
/s101 [0 -434 1139 1854] def
/s103 [0 -434 1139 1854] def
/s105 [0 -434 455 1854] def
/s108 [0 -434 455 1854] def
/s112 [0 -434 1139 1854] def
/s115 [0 -434 1024 1854] def
/s116 [0 -434 569 1854] def
end
/Metrics 23 dict def
 Metrics begin
/s32 569 def
/s43 1196 def
/s45 682 def
/s48 1139 def
/s49 1139 def
/s51 1139 def
/s53 1139 def
/s67 1479 def
/s68 1479 def
/s78 1479 def
/s79 1593 def
/s80 1366 def
/s83 1366 def
/s86 1366 def
/s97 1139 def
/s101 1139 def
/s103 1139 def
/s105 455 def
/s108 455 def
/s112 1139 def
/s115 1024 def
/s116 569 def
end
/CharProcs 23 dict def
CharProcs begin
/.notdef {} def
/s43 {
513 237 m
513 639 513 237 513 639 c
114 639 513 639 114 639 c
114 807 114 639 114 807 c
513 807 114 807 513 807 c
513 1206 513 807 513 1206 c
683 1206 513 1206 683 1206 c
683 807 683 1206 683 807 c
1082 807 683 807 1082 807 c
1082 639 1082 807 1082 639 c
683 639 1082 639 683 639 c
683 237 683 639 683 237 c
513 237 683 237 513 237 c
closepath } bind def
/s45 {
65 440 m
65 621 65 440 65 621 c
618 621 65 621 618 621 c
618 440 618 621 618 440 c
65 440 618 440 65 440 c
closepath } bind def
/s48 {
85 723 m
85 896.33 102.83 1035.83 138.5 1141.5 c
174.17 1247.17 227.17 1328.67 297.5 1386 c
367.83 1443.33 456.33 1472 563 1472 c
641.67 1472 710.67 1456.17 770 1424.5 c
829.33 1392.83 878.33 1347.17 917 1287.5 c
955.67 1227.83 986 1155.17 1008 1069.5 c
1030 983.83 1041 868.33 1041 723 c
1041 551 1023.33 412.17 988 306.5 c
952.67 200.83 899.83 119.17 829.5 61.5 c
759.17 3.83 670.33 -25 563 -25 c
421.67 -25 310.67 25.67 230 127 c
133.33 249 85 447.67 85 723 c
closepath 270 723 m
270 482.33 298.17 322.17 354.5 242.5 c
410.83 162.83 480.33 123 563 123 c
645.67 123 715.17 163 771.5 243 c
827.83 323 856 483 856 723 c
856 964.33 827.83 1124.67 771.5 1204 c
715.17 1283.33 645 1323 561 1323 c
478.33 1323 412.33 1288 363 1218 c
301 1128.67 270 963.67 270 723 c
closepath } bind def
/s49 {
763 0 m
583 0 763 0 583 0 c
583 1147 583 0 583 1147 c
539.67 1105.67 482.83 1064.33 412.5 1023 c
342.17 981.67 279 950.67 223 930 c
223 1104 223 930 223 1104 c
323.67 1151.33 411.67 1208.67 487 1276 c
562.33 1343.33 615.67 1408.67 647 1472 c
763 1472 647 1472 763 1472 c
763 0 763 1472 763 0 c
closepath } bind def
/s51 {
86 387 m
266 411 86 387 266 411 c
286.67 309 321.83 235.5 371.5 190.5 c
421.17 145.5 481.67 123 553 123 c
637.67 123 709.17 152.33 767.5 211 c
825.83 269.67 855 342.33 855 429 c
855 511.67 828 579.83 774 633.5 c
720 687.17 651.33 714 568 714 c
534 714 491.67 707.33 441 694 c
461 852 441 694 461 852 c
473 850.67 482.67 850 490 850 c
566.67 850 635.67 870 697 910 c
758.33 950 789 1011.67 789 1095 c
789 1161 766.67 1215.67 722 1259 c
677.33 1302.33 619.67 1324 549 1324 c
479 1324 420.67 1302 374 1258 c
327.33 1214 297.33 1148 284 1060 c
104 1092 284 1060 104 1092 c
126 1212.67 176 1306.17 254 1372.5 c
332 1438.83 429 1472 545 1472 c
625 1472 698.67 1454.83 766 1420.5 c
833.33 1386.17 884.83 1339.33 920.5 1280 c
956.17 1220.67 974 1157.67 974 1091 c
974 1027.67 957 970 923 918 c
889 866 838.67 824.67 772 794 c
858.67 774 926 732.5 974 669.5 c
1022 606.5 1046 527.67 1046 433 c
1046 305 999.33 196.5 906 107.5 c
812.67 18.5 694.67 -26 552 -26 c
423.33 -26 316.5 12.33 231.5 89 c
146.5 165.67 98 265 86 387 c
closepath } bind def
/s53 {
85 384 m
274 400 85 384 274 400 c
288 308 320.5 238.83 371.5 192.5 c
422.5 146.17 484 123 556 123 c
642.67 123 716 155.67 776 221 c
836 286.33 866 373 866 481 c
866 583.67 837.17 664.67 779.5 724 c
721.83 783.33 646.33 813 553 813 c
495 813 442.67 799.83 396 773.5 c
349.33 747.17 312.67 713 286 671 c
117 693 286 671 117 693 c
259 1446 117 693 259 1446 c
988 1446 259 1446 988 1446 c
988 1274 988 1446 988 1274 c
403 1274 988 1274 403 1274 c
324 880 403 1274 324 880 c
412 941.33 504.33 972 601 972 c
729 972 837 927.67 925 839 c
1013 750.33 1057 636.33 1057 497 c
1057 364.33 1018.33 249.67 941 153 c
847 34.33 718.67 -25 556 -25 c
422.67 -25 313.83 12.33 229.5 87 c
145.17 161.67 97 260.67 85 384 c
closepath } bind def
/s67 {
1204 514 m
1398 465 1204 514 1398 465 c
1357.33 305.67 1284.17 184.17 1178.5 100.5 c
1072.83 16.83 943.67 -25 791 -25 c
633 -25 504.5 7.17 405.5 71.5 c
306.5 135.83 231.17 229 179.5 351 c
127.83 473 102 604 102 744 c
102 896.67 131.17 1029.83 189.5 1143.5 c
247.83 1257.17 330.83 1343.5 438.5 1402.5 c
546.17 1461.5 664.67 1491 794 1491 c
940.67 1491 1064 1453.67 1164 1379 c
1264 1304.33 1333.67 1199.33 1373 1064 c
1182 1019 1373 1064 1182 1019 c
1148 1125.67 1098.67 1203.33 1034 1252 c
969.33 1300.67 888 1325 790 1325 c
677.33 1325 583.17 1298 507.5 1244 c
431.83 1190 378.67 1117.5 348 1026.5 c
317.33 935.5 302 841.67 302 745 c
302 620.33 320.17 511.5 356.5 418.5 c
392.83 325.5 449.33 256 526 210 c
602.67 164 685.67 141 775 141 c
883.67 141 975.67 172.33 1051 235 c
1126.33 297.67 1177.33 390.67 1204 514 c
closepath } bind def
/s68 {
158 0 m
158 1466 158 0 158 1466 c
663 1466 158 1466 663 1466 c
777 1466 864 1459 924 1445 c
1008 1425.67 1079.67 1390.67 1139 1340 c
1216.33 1274.67 1274.17 1191.17 1312.5 1089.5 c
1350.83 987.83 1370 871.67 1370 741 c
1370 629.67 1357 531 1331 445 c
1305 359 1271.67 287.83 1231 231.5 c
1190.33 175.17 1145.83 130.83 1097.5 98.5 c
1049.17 66.17 990.83 41.67 922.5 25 c
854.17 8.33 775.67 0 687 0 c
158 0 687 0 158 0 c
closepath 352 173 m
665 173 352 173 665 173 c
761.67 173 837.5 182 892.5 200 c
947.5 218 991.33 243.33 1024 276 c
1070 322 1105.83 383.83 1131.5 461.5 c
1157.17 539.17 1170 633.33 1170 744 c
1170 897.33 1144.83 1015.17 1094.5 1097.5 c
1044.17 1179.83 983 1235 911 1263 c
859 1283 775.33 1293 660 1293 c
352 1293 660 1293 352 1293 c
352 173 352 1293 352 173 c
closepath } bind def
/s78 {
156 0 m
156 1466 156 0 156 1466 c
355 1466 156 1466 355 1466 c
1125 315 355 1466 1125 315 c
1125 1466 1125 315 1125 1466 c
1311 1466 1125 1466 1311 1466 c
1311 0 1311 1466 1311 0 c
1112 0 1311 0 1112 0 c
342 1152 1112 0 342 1152 c
342 0 342 1152 342 0 c
156 0 342 0 156 0 c
closepath } bind def
/s79 {
99 714 m
99 957.33 164.33 1147.83 295 1285.5 c
425.67 1423.17 594.33 1492 801 1492 c
936.33 1492 1058.33 1459.67 1167 1395 c
1275.67 1330.33 1358.5 1240.17 1415.5 1124.5 c
1472.5 1008.83 1501 877.67 1501 731 c
1501 582.33 1471 449.33 1411 332 c
1351 214.67 1266 125.83 1156 65.5 c
1046 5.17 927.33 -25 800 -25 c
662 -25 538.67 8.33 430 75 c
321.33 141.67 239 232.67 183 348 c
127 463.33 99 585.33 99 714 c
closepath 299 711 m
299 534.33 346.5 395.17 441.5 293.5 c
536.5 191.83 655.67 141 799 141 c
945 141 1065.17 192.33 1159.5 295 c
1253.83 397.67 1301 543.33 1301 732 c
1301 851.33 1280.83 955.5 1240.5 1044.5 c
1200.17 1133.5 1141.17 1202.5 1063.5 1251.5 c
985.83 1300.5 898.67 1325 802 1325 c
664.67 1325 546.5 1277.83 447.5 1183.5 c
348.5 1089.17 299 931.67 299 711 c
closepath } bind def
/s80 {
158 0 m
158 1466 158 0 158 1466 c
711 1466 158 1466 711 1466 c
808.33 1466 882.67 1461.33 934 1452 c
1006 1440 1066.33 1417.17 1115 1383.5 c
1163.67 1349.83 1202.83 1302.67 1232.5 1242 c
1262.17 1181.33 1277 1114.67 1277 1042 c
1277 917.33 1237.33 811.83 1158 725.5 c
1078.67 639.17 935.33 596 728 596 c
352 596 728 596 352 596 c
352 0 352 596 352 0 c
158 0 352 0 158 0 c
closepath 352 769 m
731 769 352 769 731 769 c
856.33 769 945.33 792.33 998 839 c
1050.67 885.67 1077 951.33 1077 1036 c
1077 1097.33 1061.5 1149.83 1030.5 1193.5 c
999.5 1237.17 958.67 1266 908 1280 c
875.33 1288.67 815 1293 727 1293 c
352 1293 727 1293 352 1293 c
352 769 352 1293 352 769 c
closepath } bind def
/s83 {
92 471 m
275 487 92 471 275 487 c
283.67 413.67 303.83 353.5 335.5 306.5 c
367.17 259.5 416.33 221.5 483 192.5 c
549.67 163.5 624.67 149 708 149 c
782 149 847.33 160 904 182 c
960.67 204 1002.83 234.17 1030.5 272.5 c
1058.17 310.83 1072 352.67 1072 398 c
1072 444 1058.67 484.17 1032 518.5 c
1005.33 552.83 961.33 581.67 900 605 c
860.67 620.33 773.67 644.17 639 676.5 c
504.33 708.83 410 739.33 356 768 c
286 804.67 233.83 850.17 199.5 904.5 c
165.17 958.83 148 1019.67 148 1087 c
148 1161 169 1230.17 211 1294.5 c
253 1358.83 314.33 1407.67 395 1441 c
475.67 1474.33 565.33 1491 664 1491 c
772.67 1491 868.5 1473.5 951.5 1438.5 c
1034.5 1403.5 1098.33 1352 1143 1284 c
1187.67 1216 1211.67 1139 1215 1053 c
1029 1039 1215 1053 1029 1039 c
1019 1131.67 985.17 1201.67 927.5 1249 c
869.83 1296.33 784.67 1320 672 1320 c
554.67 1320 469.17 1298.5 415.5 1255.5 c
361.83 1212.5 335 1160.67 335 1100 c
335 1047.33 354 1004 392 970 c
429.33 936 526.83 901.17 684.5 865.5 c
842.17 829.83 950.33 798.67 1009 772 c
1094.33 732.67 1157.33 682.83 1198 622.5 c
1238.67 562.17 1259 492.67 1259 414 c
1259 336 1236.67 262.5 1192 193.5 c
1147.33 124.5 1083.17 70.83 999.5 32.5 c
915.83 -5.83 821.67 -25 717 -25 c
584.33 -25 473.17 -5.67 383.5 33 c
293.83 71.67 223.5 129.83 172.5 207.5 c
121.5 285.17 94.67 373 92 471 c
closepath } bind def
/s86 {
577 0 m
9 1466 577 0 9 1466 c
219 1466 9 1466 219 1466 c
600 401 219 1466 600 401 c
630.67 315.67 656.33 235.67 677 161 c
699.67 241 726 321 756 401 c
1152 1466 756 401 1152 1466 c
1350 1466 1152 1466 1350 1466 c
776 0 1350 1466 776 0 c
577 0 776 0 577 0 c
closepath } bind def
/s97 {
828 131 m
761.33 74.33 697.17 34.33 635.5 11 c
573.83 -12.33 507.67 -24 437 -24 c
320.33 -24 230.67 4.5 168 61.5 c
105.33 118.5 74 191.33 74 280 c
74 332 85.83 379.5 109.5 422.5 c
133.17 465.5 164.17 500 202.5 526 c
240.83 552 284 571.67 332 585 c
367.33 594.33 420.67 603.33 492 612 c
637.33 629.33 744.33 650 813 674 c
813.67 698.67 814 714.33 814 721 c
814 794.33 797 846 763 876 c
717 916.67 648.67 937 558 937 c
473.33 937 410.83 922.17 370.5 892.5 c
330.17 862.83 300.33 810.33 281 735 c
105 759 281 735 105 759 c
121 834.33 147.33 895.17 184 941.5 c
220.67 987.83 273.67 1023.5 343 1048.5 c
412.33 1073.5 492.67 1086 584 1086 c
674.67 1086 748.33 1075.33 805 1054 c
861.67 1032.67 903.33 1005.83 930 973.5 c
956.67 941.17 975.33 900.33 986 851 c
992 820.33 995 765 995 685 c
995 445 995 685 995 445 c
995 277.67 998.83 171.83 1006.5 127.5 c
1014.17 83.17 1029.33 40.67 1052 0 c
864 0 1052 0 864 0 c
845.33 37.33 833.33 81 828 131 c
closepath 813 533 m
747.67 506.33 649.67 483.67 519 465 c
445 454.33 392.67 442.33 362 429 c
331.33 415.67 307.67 396.17 291 370.5 c
274.33 344.83 266 316.33 266 285 c
266 237 284.17 197 320.5 165 c
356.83 133 410 117 480 117 c
549.33 117 611 132.17 665 162.5 c
719 192.83 758.67 234.33 784 287 c
803.33 327.67 813 387.67 813 467 c
813 533 813 467 813 533 c
closepath } bind def
/s101 {
862 342 m
1048 319 862 342 1048 319 c
1018.67 210.33 964.33 126 885 66 c
805.67 6 704.33 -24 581 -24 c
425.67 -24 302.5 23.83 211.5 119.5 c
120.5 215.17 75 349.33 75 522 c
75 700.67 121 839.33 213 938 c
305 1036.67 424.33 1086 571 1086 c
713 1086 829 1037.67 919 941 c
1009 844.33 1054 708.33 1054 533 c
1054 522.33 1053.67 506.33 1053 485 c
261 485 1053 485 261 485 c
267.67 368.33 300.67 279 360 217 c
419.33 155 493.33 124 582 124 c
648 124 704.33 141.33 751 176 c
797.67 210.67 834.67 266 862 342 c
closepath 271 633 m
864 633 271 633 864 633 c
856 722.33 833.33 789.33 796 834 c
738.67 903.33 664.33 938 573 938 c
490.33 938 420.83 910.33 364.5 855 c
308.17 799.67 277 725.67 271 633 c
closepath } bind def
/s103 {
102 -88 m
277 -114 102 -88 277 -114 c
284.33 -168 304.67 -207.33 338 -232 c
382.67 -265.33 443.67 -282 521 -282 c
604.33 -282 668.67 -265.33 714 -232 c
759.33 -198.67 790 -152 806 -92 c
815.33 -55.33 819.67 21.67 819 139 c
740.33 46.33 642.33 0 525 0 c
379 0 266 52.67 186 158 c
106 263.33 66 389.67 66 537 c
66 638.33 84.33 731.83 121 817.5 c
157.67 903.17 210.83 969.33 280.5 1016 c
350.17 1062.67 432 1086 526 1086 c
651.33 1086 754.67 1035.33 836 934 c
836 1062 836 934 836 1062 c
1002 1062 836 1062 1002 1062 c
1002 144 1002 1062 1002 144 c
1002 -21.33 985.17 -138.5 951.5 -207.5 c
917.83 -276.5 864.5 -331 791.5 -371 c
718.5 -411 628.67 -431 522 -431 c
395.33 -431 293 -402.5 215 -345.5 c
137 -288.5 99.33 -202.67 102 -88 c
closepath 251 550 m
251 410.67 278.67 309 334 245 c
389.33 181 458.67 149 542 149 c
624.67 149 694 180.83 750 244.5 c
806 308.17 834 408 834 544 c
834 674 805.17 772 747.5 838 c
689.83 904 620.33 937 539 937 c
459 937 391 904.5 335 839.5 c
279 774.5 251 678 251 550 c
closepath } bind def
/s105 {
136 1259 m
136 1466 136 1259 136 1466 c
316 1466 136 1466 316 1466 c
316 1259 316 1466 316 1259 c
136 1259 316 1259 136 1259 c
closepath 136 0 m
136 1062 136 0 136 1062 c
316 1062 136 1062 316 1062 c
316 0 316 1062 316 0 c
136 0 316 0 136 0 c
closepath } bind def
/s108 {
131 0 m
131 1466 131 0 131 1466 c
311 1466 131 1466 311 1466 c
311 0 311 1466 311 0 c
131 0 311 0 131 0 c
closepath } bind def
/s112 {
135 -407 m
135 1062 135 -407 135 1062 c
299 1062 135 1062 299 1062 c
299 924 299 1062 299 924 c
337.67 978 381.33 1018.5 430 1045.5 c
478.67 1072.5 537.67 1086 607 1086 c
697.67 1086 777.67 1062.67 847 1016 c
916.33 969.33 968.67 903.5 1004 818.5 c
1039.33 733.5 1057 640.33 1057 539 c
1057 430.33 1037.5 332.5 998.5 245.5 c
959.5 158.5 902.83 91.83 828.5 45.5 c
754.17 -0.83 676 -24 594 -24 c
534 -24 480.17 -11.33 432.5 14 c
384.83 39.33 345.67 71.33 315 110 c
315 -407 315 110 315 -407 c
135 -407 315 -407 135 -407 c
closepath 298 525 m
298 388.33 325.67 287.33 381 222 c
436.33 156.67 503.33 124 582 124 c
662 124 730.5 157.83 787.5 225.5 c
844.5 293.17 873 398 873 540 c
873 675.33 845.17 776.67 789.5 844 c
733.83 911.33 667.33 945 590 945 c
513.33 945 445.5 909.17 386.5 837.5 c
327.5 765.83 298 661.67 298 525 c
closepath } bind def
/s115 {
63 317 m
241 345 63 317 241 345 c
251 273.67 278.83 219 324.5 181 c
370.17 143 434 124 516 124 c
598.67 124 660 140.83 700 174.5 c
740 208.17 760 247.67 760 293 c
760 333.67 742.33 365.67 707 389 c
682.33 405 621 425.33 523 450 c
391 483.33 299.5 512.17 248.5 536.5 c
197.5 560.83 158.83 594.5 132.5 637.5 c
106.17 680.5 93 728 93 780 c
93 827.33 103.83 871.17 125.5 911.5 c
147.17 951.83 176.67 985.33 214 1012 c
242 1032.67 280.17 1050.17 328.5 1064.5 c
376.83 1078.83 428.67 1086 484 1086 c
567.33 1086 640.5 1074 703.5 1050 c
766.5 1026 813 993.5 843 952.5 c
873 911.5 893.67 856.67 905 788 c
729 764 905 788 729 764 c
721 818.67 697.83 861.33 659.5 892 c
621.17 922.67 567 938 497 938 c
414.33 938 355.33 924.33 320 897 c
284.67 869.67 267 837.67 267 801 c
267 777.67 274.33 756.67 289 738 c
303.67 718.67 326.67 702.67 358 690 c
376 683.33 429 668 517 644 c
644.33 610 733.17 582.17 783.5 560.5 c
833.83 538.83 873.33 507.33 902 466 c
930.67 424.67 945 373.33 945 312 c
945 252 927.5 195.5 892.5 142.5 c
857.5 89.5 807 48.5 741 19.5 c
675 -9.5 600.33 -24 517 -24 c
379 -24 273.83 4.67 201.5 62 c
129.17 119.33 83 204.33 63 317 c
closepath } bind def
/s116 {
528 161 m
554 2 528 161 554 2 c
503.33 -8.67 458 -14 418 -14 c
352.67 -14 302 -3.67 266 17 c
230 37.67 204.67 64.83 190 98.5 c
175.33 132.17 168 203 168 311 c
168 922 168 311 168 922 c
36 922 168 922 36 922 c
36 1062 36 922 36 1062 c
168 1062 36 1062 168 1062 c
168 1325 168 1062 168 1325 c
347 1433 168 1325 347 1433 c
347 1062 347 1433 347 1062 c
528 1062 347 1062 528 1062 c
528 922 528 1062 528 922 c
347 922 528 922 347 922 c
347 301 347 922 347 301 c
347 249.67 350.17 216.67 356.5 202 c
362.83 187.33 373.17 175.67 387.5 167 c
401.83 158.33 422.33 154 449 154 c
469 154 495.33 156.33 528 161 c
closepath } bind def
end
/BuildGlyph {
 exch dup /Metrics get 2 index get 0 setcharwidth
/CharProcs get exch 2 copy known not{pop/.notdef}if get exec fill}bind def
/BuildChar {
1 index /Encoding get exch get
1 index /BuildGlyph get exec
} bind def
currentdict end /MC3_Arial exch definefont pop
%%EndFont
/clipproc{clippath{[{/m cvx}{/l cvx}{/c cvx}{/cp cvx}pathforall}stopped
{cleartomark[pathbbox exch 3 i sub exch 2 i sub/rectpath cvx}if]np}bd
/iclmtx mtx cmtx def/iclpath clipproc xd/clinit{pathproc initclip np iclpath cl np exec}bd
/clmove{pathproc 3 1 roll clippath pathproc 2 i neg 2 i neg tr initclip np exec cl tr np exec}bd
/clrect[gs np iclpath{pathbbox}stopped{0 0 864 720 }if gr]def
/cloper{mtx cmtx iclmtx smtx exch exec smtx}bd
/cland{{exch cvx exec}cloper}bd
/clcopy{{exch clinit cvx exec}cloper}bd
/cldiff{{exch pathbbox 4 -1 roll clrect 0 get 2 copy gt{exch}if pop 4 1 roll
 3 -1 roll clrect 1 get 2 copy gt{exch}if pop 3 1 roll
 2 -1 roll clrect 2 get 2 copy lt{exch}if pop 2 1 roll
 1 -1 roll clrect 3 get 2 copy lt{exch}if pop 1 1 roll
 exch 3 i sub exch 2 i sub rectpath cvx exec}cloper}bd
/icl{{clinit}cloper}bd
0.239949 0.239942 sc

/initmtx mtx cmtx def
[1.00022 -0 0 -1.00025 0 3000.73] concat
gs
1228 2783 m
1228 428 l
3 sw
1 sj
1 scap
st
2002 2783 m
2002 428 l
st
2777 2783 m
2777 428 l
st
453 2489 m
3551 2489 l
st
453 2194 m
3551 2194 l
st
453 1900 m
3551 1900 l
st
453 1606 m
3551 1606 l
st
453 1311 m
3551 1311 l
st
453 1017 m
3551 1017 l
st
453 722 m
3551 722 l
st
gs
pathproc 453 428 3099 2356 np rectpath
/eocl cland
np exec
530 2122 m
654 2122 l
654 2783 l
530 2783 l
cp
gs
eofi
gr
5 sw
st
530 2122 m
654 2122 l
st
654 2122 m
654 2783 l
st
530 2783 m
530 2122 l
st
1305 1873 m
1429 1873 l
1429 2783 l
1305 2783 l
cp
gs
eofi
gr
st
1305 1873 m
1429 1873 l
st
1429 1873 m
1429 2783 l
st
1305 2783 m
1305 1873 l
st
2079 2122 m
2203 2122 l
2203 2783 l
2079 2783 l
cp
gs
eofi
gr
st
2079 2122 m
2203 2122 l
st
2203 2122 m
2203 2783 l
st
2079 2783 m
2079 2122 l
st
2854 752 m
2978 752 l
2978 2783 l
2854 2783 l
cp
gs
eofi
gr
st
2854 752 m
2978 752 l
st
2978 752 m
2978 2783 l
st
2854 2783 m
2854 752 l
st
gr
gs
pathproc 453 428 3099 2356 np rectpath
/eocl cland
np exec
655 1586 m
655 1586 l
st
655 1635 m
704 1586 l
st
655 1684 m
753 1586 l
st
655 1733 m
777 1611 l
st
655 1782 m
777 1660 l
st
655 1831 m
777 1709 l
st
655 1880 m
777 1758 l
st
655 1929 m
777 1807 l
st
655 1978 m
777 1856 l
st
655 2027 m
777 1905 l
st
655 2076 m
777 1954 l
st
655 2125 m
777 2003 l
st
655 2174 m
777 2052 l
st
655 2223 m
777 2101 l
st
655 2272 m
777 2150 l
st
655 2321 m
777 2199 l
st
655 2370 m
777 2248 l
st
655 2419 m
777 2297 l
st
655 2468 m
777 2346 l
st
655 2517 m
777 2395 l
st
655 2566 m
777 2444 l
st
655 2615 m
777 2493 l
st
655 2664 m
777 2542 l
st
655 2713 m
777 2591 l
st
655 2762 m
777 2640 l
st
684 2782 m
777 2689 l
st
733 2782 m
777 2738 l
st
654 1585 m
778 1585 l
5 sw
st
778 1585 m
778 2783 l
st
654 2783 m
654 1585 l
st
1430 1700 m
1430 1700 l
3 sw
st
1430 1749 m
1479 1700 l
st
1430 1798 m
1528 1700 l
st
1430 1847 m
1552 1725 l
st
1430 1896 m
1552 1774 l
st
1430 1945 m
1552 1823 l
st
1430 1994 m
1552 1872 l
st
1430 2043 m
1552 1921 l
st
1430 2092 m
1552 1970 l
st
1430 2141 m
1552 2019 l
st
1430 2190 m
1552 2068 l
st
1430 2239 m
1552 2117 l
st
1430 2288 m
1552 2166 l
st
1430 2337 m
1552 2215 l
st
1430 2386 m
1552 2264 l
st
1430 2435 m
1552 2313 l
st
1430 2484 m
1552 2362 l
st
1430 2533 m
1552 2411 l
st
1430 2582 m
1552 2460 l
st
1430 2631 m
1552 2509 l
st
1430 2680 m
1552 2558 l
st
1430 2729 m
1552 2607 l
st
1430 2778 m
1552 2656 l
st
1475 2782 m
1552 2705 l
st
1524 2782 m
1552 2754 l
st
1429 1699 m
1553 1699 l
5 sw
st
1553 1699 m
1553 2783 l
st
1429 2783 m
1429 1699 l
st
2204 1994 m
2204 1994 l
3 sw
st
2204 2043 m
2253 1994 l
st
2204 2092 m
2302 1994 l
st
2204 2141 m
2326 2019 l
st
2204 2190 m
2326 2068 l
st
2204 2239 m
2326 2117 l
st
2204 2288 m
2326 2166 l
st
2204 2337 m
2326 2215 l
st
2204 2386 m
2326 2264 l
st
2204 2435 m
2326 2313 l
st
2204 2484 m
2326 2362 l
st
2204 2533 m
2326 2411 l
st
2204 2582 m
2326 2460 l
st
2204 2631 m
2326 2509 l
st
2204 2680 m
2326 2558 l
st
2204 2729 m
2326 2607 l
st
2204 2778 m
2326 2656 l
st
2249 2782 m
2326 2705 l
st
2298 2782 m
2326 2754 l
st
2203 1993 m
2327 1993 l
5 sw
st
2327 1993 m
2327 2783 l
st
2203 2783 m
2203 1993 l
st
2979 749 m
2979 749 l
3 sw
st
2979 798 m
3028 749 l
st
2979 847 m
3077 749 l
st
2979 896 m
3101 774 l
st
2979 945 m
3101 823 l
st
2979 994 m
3101 872 l
st
2979 1043 m
3101 921 l
st
2979 1092 m
3101 970 l
st
2979 1141 m
3101 1019 l
st
2979 1190 m
3101 1068 l
st
2979 1239 m
3101 1117 l
st
2979 1288 m
3101 1166 l
st
2979 1337 m
3101 1215 l
st
2979 1386 m
3101 1264 l
st
2979 1435 m
3101 1313 l
st
2979 1484 m
3101 1362 l
st
2979 1533 m
3101 1411 l
st
2979 1582 m
3101 1460 l
st
2979 1631 m
3101 1509 l
st
2979 1680 m
3101 1558 l
st
2979 1729 m
3101 1607 l
st
2979 1778 m
3101 1656 l
st
2979 1827 m
3101 1705 l
st
2979 1876 m
3101 1754 l
st
2979 1925 m
3101 1803 l
st
2979 1974 m
3101 1852 l
st
2979 2023 m
3101 1901 l
st
2979 2072 m
3101 1950 l
st
2979 2121 m
3101 1999 l
st
2979 2170 m
3101 2048 l
st
2979 2219 m
3101 2097 l
st
2979 2268 m
3101 2146 l
st
2979 2317 m
3101 2195 l
st
2979 2366 m
3101 2244 l
st
2979 2415 m
3101 2293 l
st
2979 2464 m
3101 2342 l
st
2979 2513 m
3101 2391 l
st
2979 2562 m
3101 2440 l
st
2979 2611 m
3101 2489 l
st
2979 2660 m
3101 2538 l
st
2979 2709 m
3101 2587 l
st
2979 2758 m
3101 2636 l
st
3004 2782 m
3101 2685 l
st
3053 2782 m
3101 2734 l
st
2978 748 m
3102 748 l
5 sw
st
3102 748 m
3102 2783 l
st
2978 2783 m
2978 748 l
st
gr
gs
pathproc 453 428 3099 2356 np rectpath
/eocl cland
np exec
778 1213 m
902 1213 l
902 2783 l
778 2783 l
cp
gs
0.753 0.753 0.753 rgb
eofi
gr
5 sw
0.753 0.753 0.753 rgb
st
778 1213 m
902 1213 l
0 0 0 rgb
st
902 1213 m
902 2783 l
st
778 2783 m
778 1213 l
st
1553 1208 m
1677 1208 l
1677 2783 l
1553 2783 l
cp
gs
0.753 0.753 0.753 rgb
eofi
gr
0.753 0.753 0.753 rgb
st
1553 1208 m
1677 1208 l
0 0 0 rgb
st
1677 1208 m
1677 2783 l
st
1553 2783 m
1553 1208 l
st
2327 1733 m
2451 1733 l
2451 2783 l
2327 2783 l
cp
gs
0.753 0.753 0.753 rgb
eofi
gr
0.753 0.753 0.753 rgb
st
2327 1733 m
2451 1733 l
0 0 0 rgb
st
2451 1733 m
2451 2783 l
st
2327 2783 m
2327 1733 l
st
3102 693 m
3226 693 l
3226 2783 l
3102 2783 l
cp
gs
0.753 0.753 0.753 rgb
eofi
gr
0.753 0.753 0.753 rgb
st
3102 693 m
3226 693 l
0 0 0 rgb
st
3226 693 m
3226 2783 l
st
3102 2783 m
3102 693 l
st
gr
gs
pathproc 453 428 3099 2356 np rectpath
/eocl cland
np exec
903 1101 m
1025 1223 l
st
903 1150 m
1025 1272 l
st
903 1199 m
1025 1321 l
st
903 1248 m
1025 1370 l
st
903 1297 m
1025 1419 l
st
903 1346 m
1025 1468 l
st
903 1395 m
1025 1517 l
st
903 1444 m
1025 1566 l
st
903 1493 m
1025 1615 l
st
903 1542 m
1025 1664 l
st
903 1591 m
1025 1713 l
st
903 1640 m
1025 1762 l
st
903 1689 m
1025 1811 l
st
903 1738 m
1025 1860 l
st
903 1787 m
1025 1909 l
st
903 1836 m
1025 1958 l
st
903 1885 m
1025 2007 l
st
903 1934 m
1025 2056 l
st
903 1983 m
1025 2105 l
st
903 2032 m
1025 2154 l
st
903 2081 m
1025 2203 l
st
903 2130 m
1025 2252 l
st
903 2179 m
1025 2301 l
st
903 2228 m
1025 2350 l
st
903 2277 m
1025 2399 l
st
903 2326 m
1025 2448 l
st
903 2375 m
1025 2497 l
st
903 2424 m
1025 2546 l
st
903 2473 m
1025 2595 l
st
903 2522 m
1025 2644 l
st
903 2571 m
1025 2693 l
st
903 2620 m
1025 2742 l
st
903 2669 m
1016 2782 l
st
903 2718 m
967 2782 l
st
903 2767 m
918 2782 l
st
903 1101 m
1025 1223 l
st
952 1101 m
1025 1174 l
st
1001 1101 m
1025 1125 l
st
902 1100 m
1026 1100 l
5 sw
st
1026 1100 m
1026 2783 l
st
902 2783 m
902 1100 l
st
1678 1018 m
1800 1140 l
3 sw
st
1678 1067 m
1800 1189 l
st
1678 1116 m
1800 1238 l
st
1678 1165 m
1800 1287 l
st
1678 1214 m
1800 1336 l
st
1678 1263 m
1800 1385 l
st
1678 1312 m
1800 1434 l
st
1678 1361 m
1800 1483 l
st
1678 1410 m
1800 1532 l
st
1678 1459 m
1800 1581 l
st
1678 1508 m
1800 1630 l
st
1678 1557 m
1800 1679 l
st
1678 1606 m
1800 1728 l
st
1678 1655 m
1800 1777 l
st
1678 1704 m
1800 1826 l
st
1678 1753 m
1800 1875 l
st
1678 1802 m
1800 1924 l
st
1678 1851 m
1800 1973 l
st
1678 1900 m
1800 2022 l
st
1678 1949 m
1800 2071 l
st
1678 1998 m
1800 2120 l
st
1678 2047 m
1800 2169 l
st
1678 2096 m
1800 2218 l
st
1678 2145 m
1800 2267 l
st
1678 2194 m
1800 2316 l
st
1678 2243 m
1800 2365 l
st
1678 2292 m
1800 2414 l
st
1678 2341 m
1800 2463 l
st
1678 2390 m
1800 2512 l
st
1678 2439 m
1800 2561 l
st
1678 2488 m
1800 2610 l
st
1678 2537 m
1800 2659 l
st
1678 2586 m
1800 2708 l
st
1678 2635 m
1800 2757 l
st
1678 2684 m
1776 2782 l
st
1678 2733 m
1727 2782 l
st
1678 1018 m
1800 1140 l
st
1727 1018 m
1800 1091 l
st
1776 1018 m
1800 1042 l
st
1677 1017 m
1801 1017 l
5 sw
st
1801 1017 m
1801 2783 l
st
1677 2783 m
1677 1017 l
st
2452 1482 m
2574 1604 l
3 sw
st
2452 1531 m
2574 1653 l
st
2452 1580 m
2574 1702 l
st
2452 1629 m
2574 1751 l
st
2452 1678 m
2574 1800 l
st
2452 1727 m
2574 1849 l
st
2452 1776 m
2574 1898 l
st
2452 1825 m
2574 1947 l
st
2452 1874 m
2574 1996 l
st
2452 1923 m
2574 2045 l
st
2452 1972 m
2574 2094 l
st
2452 2021 m
2574 2143 l
st
2452 2070 m
2574 2192 l
st
2452 2119 m
2574 2241 l
st
2452 2168 m
2574 2290 l
st
2452 2217 m
2574 2339 l
st
2452 2266 m
2574 2388 l
st
2452 2315 m
2574 2437 l
st
2452 2364 m
2574 2486 l
st
2452 2413 m
2574 2535 l
st
2452 2462 m
2574 2584 l
st
2452 2511 m
2574 2633 l
st
2452 2560 m
2574 2682 l
st
2452 2609 m
2574 2731 l
st
2452 2658 m
2574 2780 l
st
2452 2707 m
2527 2782 l
st
2452 2756 m
2478 2782 l
st
2452 1482 m
2574 1604 l
st
2501 1482 m
2574 1555 l
st
2550 1482 m
2574 1506 l
st
2451 1481 m
2575 1481 l
5 sw
st
2575 1481 m
2575 2783 l
st
2451 2783 m
2451 1481 l
st
3227 665 m
3349 787 l
3 sw
st
3227 714 m
3349 836 l
st
3227 763 m
3349 885 l
st
3227 812 m
3349 934 l
st
3227 861 m
3349 983 l
st
3227 910 m
3349 1032 l
st
3227 959 m
3349 1081 l
st
3227 1008 m
3349 1130 l
st
3227 1057 m
3349 1179 l
st
3227 1106 m
3349 1228 l
st
3227 1155 m
3349 1277 l
st
3227 1204 m
3349 1326 l
st
3227 1253 m
3349 1375 l
st
3227 1302 m
3349 1424 l
st
3227 1351 m
3349 1473 l
st
3227 1400 m
3349 1522 l
st
3227 1449 m
3349 1571 l
st
3227 1498 m
3349 1620 l
st
3227 1547 m
3349 1669 l
st
3227 1596 m
3349 1718 l
st
3227 1645 m
3349 1767 l
st
3227 1694 m
3349 1816 l
st
3227 1743 m
3349 1865 l
st
3227 1792 m
3349 1914 l
st
3227 1841 m
3349 1963 l
st
3227 1890 m
3349 2012 l
st
3227 1939 m
3349 2061 l
st
3227 1988 m
3349 2110 l
st
3227 2037 m
3349 2159 l
st
3227 2086 m
3349 2208 l
st
3227 2135 m
3349 2257 l
st
3227 2184 m
3349 2306 l
st
3227 2233 m
3349 2355 l
st
3227 2282 m
3349 2404 l
st
3227 2331 m
3349 2453 l
st
3227 2380 m
3349 2502 l
st
3227 2429 m
3349 2551 l
st
3227 2478 m
3349 2600 l
st
3227 2527 m
3349 2649 l
st
3227 2576 m
3349 2698 l
st
3227 2625 m
3349 2747 l
st
3227 2674 m
3335 2782 l
st
3227 2723 m
3286 2782 l
st
3227 2772 m
3237 2782 l
st
3227 665 m
3349 787 l
st
3276 665 m
3349 738 l
st
3325 665 m
3349 689 l
st
3226 664 m
3350 664 l
5 sw
st
3350 664 m
3350 2783 l
st
3226 2783 m
3226 664 l
st
gr
gs
pathproc 453 428 3099 2356 np rectpath
/eocl cland
np exec
1026 1063 m
1150 1063 l
1150 2783 l
1026 2783 l
cp
gs
1 0 0 rgb
eofi
gr
5 sw
1 0 0 rgb
st
1026 1063 m
1150 1063 l
0 0 0 rgb
st
1150 1063 m
1150 2783 l
st
1026 2783 m
1026 1063 l
st
1801 986 m
1925 986 l
1925 2783 l
1801 2783 l
cp
gs
1 0 0 rgb
eofi
gr
1 0 0 rgb
st
1801 986 m
1925 986 l
0 0 0 rgb
st
1925 986 m
1925 2783 l
st
1801 2783 m
1801 986 l
st
2575 1444 m
2699 1444 l
2699 2783 l
2575 2783 l
cp
gs
1 0 0 rgb
eofi
gr
1 0 0 rgb
st
2575 1444 m
2699 1444 l
0 0 0 rgb
st
2699 1444 m
2699 2783 l
st
2575 2783 m
2575 1444 l
st
3350 664 m
3474 664 l
3474 2783 l
3350 2783 l
cp
gs
1 0 0 rgb
eofi
gr
1 0 0 rgb
st
3350 664 m
3474 664 l
0 0 0 rgb
st
3474 664 m
3474 2783 l
st
3350 2783 m
3350 664 l
st
gr
gs
1 -1 sc
/MC1_Arial 188 self 680 -2956 m
(DLL)[136 105 105 ] xs
1 -1 sc
gr
gs
1 -1 sc
/MC1_Arial 188 self 1371 -2956 m
(HTML)[136 115 157 105 ] xs
1 -1 sc
gr
gs
1 -1 sc
/MC1_Arial 188 self 2214 -2956 m
(EXE)[125 125 125 ] xs
1 -1 sc
gr
gs
1 -1 sc
/MC1_Arial 188 self 2983 -2956 m
(XML)[125 157 105 ] xs
1 -1 sc
gr
gs
1 -1 sc
/MC1_Arial 188 self 191 -2839 m
(0.0)[105 52 105 ] xs
1 -1 sc
gr
gs
1 -1 sc
/MC1_Arial 188 self 191 -2545 m
(0.5)[105 52 105 ] xs
1 -1 sc
gr
gs
1 -1 sc
/MC1_Arial 188 self 191 -2250 m
(1.0)[105 52 105 ] xs
1 -1 sc
gr
gs
1 -1 sc
/MC1_Arial 188 self 191 -1956 m
(1.5)[105 52 105 ] xs
1 -1 sc
gr
gs
1 -1 sc
/MC1_Arial 188 self 191 -1662 m
(2.0)[105 52 105 ] xs
1 -1 sc
gr
gs
1 -1 sc
/MC1_Arial 188 self 191 -1367 m
(2.5)[105 52 105 ] xs
1 -1 sc
gr
gs
1 -1 sc
/MC1_Arial 188 self 191 -1073 m
(3.0)[105 52 105 ] xs
1 -1 sc
gr
gs
1 -1 sc
/MC1_Arial 188 self 191 -778 m
(3.5)[105 52 105 ] xs
1 -1 sc
gr
gs
1 -1 sc
/MC1_Arial 188 self 191 -484 m
(4.0)[105 52 105 ] xs
1 -1 sc
gr
453 2783 m
453 2783 l
7 sw
st
840 2783 m
840 2783 l
st
1228 2783 m
1228 2783 l
st
1615 2783 m
1615 2783 l
st
2002 2783 m
2002 2783 l
st
2389 2783 m
2389 2783 l
st
2777 2783 m
2777 2783 l
st
3164 2783 m
3164 2783 l
st
3551 2783 m
3551 2783 l
st
453 2783 m
3551 2783 l
st
453 2783 m
3551 2783 l
st
453 2783 m
453 2783 l
st
453 2489 m
453 2489 l
st
453 2194 m
453 2194 l
st
453 1900 m
453 1900 l
st
453 1606 m
453 1606 l
st
453 1311 m
453 1311 l
st
453 1017 m
453 1017 l
st
453 722 m
453 722 l
st
453 428 m
453 428 l
st
453 2783 m
453 428 l
st
453 428 m
453 428 l
st
840 428 m
840 428 l
st
1228 428 m
1228 428 l
st
1615 428 m
1615 428 l
st
2002 428 m
2002 428 l
st
2389 428 m
2389 428 l
st
2777 428 m
2777 428 l
st
3164 428 m
3164 428 l
st
3551 428 m
3551 428 l
st
453 428 m
3551 428 l
st
453 2783 m
3551 2783 l
st
3551 2783 m
3551 2783 l
st
3551 2489 m
3551 2489 l
st
3551 2194 m
3551 2194 l
st
3551 1900 m
3551 1900 l
st
3551 1606 m
3551 1606 l
st
3551 1311 m
3551 1311 l
st
3551 1017 m
3551 1017 l
st
3551 722 m
3551 722 l
st
3551 428 m
3551 428 l
st
3551 2783 m
3551 428 l
st
gs
gs
1 -1 sc
151 -2545 tr
90 ro
/MC2_Arial 187 self 0 0 m
(Normalized Lifetime)[135 104 62 156 104 42 42 94 104 104 52 104 42 52 104 52 42 156 104 ] xs
1 -1 sc
gr
gr
501 10 m
3448 10 l
3448 620 l
501 620 l
cp
gs
1 1 1 rgb
eofi
gr
3 sw
st
gs
gs
gs
630 38 m
976 38 l
976 208 l
630 208 l
cp
gs
eofi
gr
5 sw
st
gr
gr
1 -1 sc
/MC3_Arial 158 self 979 -177 m
( )[44 ] xs
1 -1 sc
1 -1 sc
1023 -177 m
(CONV-D5s)[114 123 114 105 53 114 88 79 ] xs
1 -1 sc
1 -1 sc
1813 -177 m
( )[44 ] xs
1 -1 sc
gs
gs
1861 39 m
1861 39 l
st
1861 88 m
1910 39 l
st
1861 137 m
1959 39 l
st
1861 186 m
2008 39 l
st
1889 207 m
2057 39 l
st
1938 207 m
2106 39 l
st
1987 207 m
2155 39 l
st
2036 207 m
2204 39 l
st
2085 207 m
2205 87 l
st
2134 207 m
2205 136 l
st
2183 207 m
2205 185 l
st
1860 38 m
2206 38 l
5 sw
st
2206 38 m
2206 208 l
st
2206 208 m
1860 208 l
st
1860 208 m
1860 38 l
st
gr
gr
1 -1 sc
2209 -177 m
( )[44 ] xs
1 -1 sc
1 -1 sc
2253 -177 m
(CONV-D10s)[114 123 114 105 53 114 88 88 79 ] xs
1 -1 sc
1 -1 sc
3131 -177 m
( )[44 ] xs
1 -1 sc
gs
gs
630 232 m
976 232 l
976 402 l
630 402 l
cp
gs
0.753 0.753 0.753 rgb
eofi
gr
5 sw
st
gr
gr
1 -1 sc
979 -371 m
( )[44 ] xs
1 -1 sc
1 -1 sc
1023 -371 m
(CONV-D30s)[114 123 114 105 53 114 88 88 79 ] xs
1 -1 sc
1 -1 sc
1901 -371 m
( )[44 ] xs
1 -1 sc
gs
gs
1949 233 m
2117 401 l
st
1949 282 m
2068 401 l
st
1949 331 m
2019 401 l
st
1949 380 m
1970 401 l
st
1949 233 m
2117 401 l
st
1998 233 m
2166 401 l
st
2047 233 m
2215 401 l
st
2096 233 m
2264 401 l
st
2145 233 m
2293 381 l
st
2194 233 m
2293 332 l
st
2243 233 m
2293 283 l
st
2292 233 m
2293 234 l
st
1948 232 m
2294 232 l
5 sw
st
2294 232 m
2294 402 l
st
2294 402 m
1948 402 l
st
1948 402 m
1948 232 l
st
gr
gr
1 -1 sc
2297 -371 m
( )[44 ] xs
1 -1 sc
1 -1 sc
2341 -371 m
(CONV-D50s)[114 123 114 105 53 114 88 88 79 ] xs
1 -1 sc
gs
gs
630 426 m
976 426 l
976 596 l
630 596 l
cp
gs
1 0 0 rgb
eofi
gr
5 sw
st
gr
gr
1 -1 sc
979 -565 m
( )[44 ] xs
1 -1 sc
1 -1 sc
1023 -565 m
(PageSplit+)[105 88 88 88 105 88 35 35 44 92 ] xs
1 -1 sc
gr
gr
Save0 restore end
showpage
%%EOF
