%!PS-Adobe-3.0 EPSF-3.0
%%BoundingBox: 0 0 864 720
%%LanguageLevel: 2
%%Creator: OriginLab Corporation
%%Title: (C:\Users\Administrator\Documents\atc16-pagesplit\comp-ratio.eps)
%%CreationDate: Sat Jan 23 20:40:35 2016
%%EndComments

/OriginLab::PSL1 128 dict dup begin def
/Save0 save def
%%BeginResource: procset OriginLab::PSL1
/wd{1 index where{pop pop pop}{bind def}ifelse}bind def
/setcmykcolor{1 sub 4 1 roll 3{3 index add neg dup 0 lt{pop 0}if 3 1 roll}repeat setrgbcolor pop}wd
/selectfont{dup type/arraytype eq{exch findfont exch makefont setfont}{exch findfont exch scalefont setfont}ifelse}wd
/xshow{1 index length 0 le{}{currentpoint exch 3 index length 1 sub 0 exch 1 exch{dup 5 index exch 1 getinterval show 3 index exch get add 2 copy exch moveto}for pop pop}ifelse pop pop}wd
/glyphshow{matrix currentmatrix exch currentfont dup/FontMatrix get concat currentpoint translate
 dup/Metrics get 2 index get 0 4 2 roll gsave/CharProcs get exch 2 copy known not{pop/.notdef}if
 get exec fill grestore moveto setmatrix}wd
/grayimage/image load def/rgbtogray{cvx exec dup length 3 idiv 1 sub 0 exch 1 exch{dup 3 mul dup 3 index exch get 255 div .3 mul exch
 1 add dup 4 index exch get 255 div .59 mul exch 1 add 4 index exch get 255 div .11 mul add add
 255 mul dup 255 gt{255}if round cvi 2 index 3 1 roll put}for dup length 3 idiv 0 exch getinterval}bind def
/colorimage{0 setgray pop pop cvlit/rgbtogray cvx 2 packedarray cvx grayimage}wd
/bd{bind def}bind def/ld{load def}bd/ed{exch def}bd/xd{cvx def}bd
/np/newpath ld/a/arc ld/m/moveto ld/l/lineto ld/c/curveto ld/rm/rmoveto ld/rl/rlineto ld/rc/rcurveto ld/cp/closepath ld/cpt/currentpoint ld
/tr/translate ld/sc/scale ld/ro/rotate ld/t/transform ld/it/itransform ld/dt/dtransform ld/idt/idtransform ld
/mtx/matrix ld/cmtx/currentmatrix ld/dmtx/defaultmatrix ld/smtx/setmatrix ld/catmtx/concatmatrix ld
/sw/setlinewidth ld/scap/setlinecap ld/sj/setlinejoin ld/sm/setmiterlimit ld/sd/setdash ld/rgb/setrgbcolor ld/crgb/currentrgbcolor ld/cmyk/setcmykcolor ld/gs/gsave ld/gr/grestore ld
/st/stroke ld/fi/fill ld/eofi/eofill ld/cl/clip ld/eocl/eoclip ld
/df/definefont ld/ff/findfont ld/sf/setfont ld/scf/scalefont ld/self/selectfont ld/cf/currentfont ld
/s/show ld/xs/xshow ld/gls/glyphshow ld/xgls{cpt 3 1 roll add exch 3 -1 roll gls m}bd
/cd/currentdict ld/i/index ld
/DrawBox{4 2 roll m 1 index 0 rl 0 exch rl neg 0 rl cp}bd
/plus.re { 6 { 3 index } repeat moveto 0 exch rlineto 0 rlineto pop pop neg 0 exch rlineto pop lineto closepath } def
/DrawBcc{4 2 roll m 2 copy 0 lt exch 0 lt xor{dup 0 exch rl exch 0 rl neg 0 exch rl}{exch dup 0 rl exch 0 exch rl neg 0 rl}ifelse cp}bd
/rectline{dup type/arraytype eq{dup length 0 exch 4 exch 4 sub{0 1 3{3 copy add get 4 1 roll pop}for pop 5 1 roll DrawBox}for pop}{DrawBox}ifelse}bd
/rectpath{dup type/arraytype eq{dup length 0 exch 4 exch 4 sub{0 1 3{3 copy add get 4 1 roll pop}for pop 5 1 roll DrawBcc}for pop}{DrawBcc}ifelse}bd
/pathproc{[{/m cvx}{/l cvx}{/c cvx}{/cp cvx}pathforall]cvx}bd
/L1img/image ld/L1idx[{0}
 {dup 7 and 3 1 roll -3 bitshift get exch 7 sub 1 mul bitshift  1 and}bind 1 index dup
 {dup 1 and 3 1 roll -1 bitshift get exch 1 sub 4 mul bitshift 15 and}bind 1 index dup dup
 {get}bind]def
/image{dup type/dicttype eq {dup/ImgCS get 0 get/Indexed eq}{false}ifelse
 {begin Width Height 8 ImageMatrix {rgb_string rgb_lookup
 cd/DataSource get dup type/filetype eq
 {mystring readstring pop}{exec}ifelse
 dup length 0 ne
 {L1idx BitsPerComponent get 0 1 Width 1 sub
 {3 copy exch exec exch 3 mul exch
 3 mul dup 5 index exch get exch 1 add dup 6 index exch get exch 1 add 6 index exch get
 7 index exch 4 index 2 add exch put 6 index exch 3 index 1 add exch put 5 index exch 2 index exch put pop
 }for pop pop pop }{pop pop pop ()}ifelse }false 3 colorimage end} {dup type/dicttype eq
 {{dup mark exch L1img pop pop}stopped{cleartomark begin Width Height BitsPerComponent ImageMatrix
 {cd/DataSource get dup type/filetype eq {mystring readstring pop}{exec}ifelse
 }false 3 colorimage end} if}{L1img}ifelse}ifelse
 }bd
/L1imgmask/imagemask ld/imagemask{dup type/dicttype eq
 {{dup mark exch L1imgmask pop pop}stopped {cleartomark begin Width Height polarityflag ImageMatrix
 {cd/DataSource get dup type/filetype eq {mystring readstring pop}{exec}ifelse
 }L1imgmask end}if}{L1imgmask}ifelse
 }bd
% Gradient function
/GradientStep 1 150 div def
/GradientStartRGB { /R1 exch def /G1 exch def /B1 exch def } def
/GradientEndRGB { /R2 exch def /G2 exch def /B2 exch def
/GradientSteps GradientLength GradientStep div def
/GradientRStep R2 R1 sub GradientSteps div def
/GradientGStep G2 G1 sub GradientSteps div def
/GradientBStep B2 B1 sub GradientSteps div def
} def
/GradientStepRGB { /R1 R1 GradientRStep add def
/G1 G1 GradientGStep add def
/B1 B1 GradientBStep add def
R1 G1 B1 setrgbcolor
} def
%%EndResource
/rectclip{np rectpath clip np}wd
/rectfill{gs np rectpath fi gr}wd
/rectstroke{gs np dup type/arraytype eq{dup length 6 eq}{false}ifelse{1 index type/arraytype eq{exch}{5 1 roll}ifelse rectline concat st}{rectline st}ifelse gr}wd
%%BeginResource: procset OriginLab::Image
/OriginLab::Image 32 dict dup begin
/BinProc{[currentfile mystring /readstring cvx /pop cvx] cvx bind}bd
/HexProc{[currentfile mystring /readhexstring cvx /pop cvx] cvx bind}bd
/Ascii85Proc{currentfile /ASCII85Decode filter}bd
/LZWA85{currentfile /ASCII85Decode filter /LZWDecode filter}bd
/ImgProcArray[/BinProc /HexProc /Ascii85Proc /LZWA85]def
/ImgDict{/ImgDict 16 dict def ImgDict dup begin /ImageType 1 def /MultipleDataSource false def end}bd
/L2Dec{{[1 0]}{[0 1]}ifelse}bd
/BegImg{ /Img_sv save def
 /ImgDir ed ImgProcArray exch get /ImgProc exch ld
 dup /polarityflag ed L2Dec /polarity ed /smoothflag ed
 tr /dx 2 index def /dy 1 index abs def sc
 string /mystring ed /bpc ed /ih ed /iw ed
 }bd
/EndImg {Img_sv restore}bd
/DoXImg{ /rgb_lookup ed /hival ed ImgDict dup begin
 [/Indexed /DeviceRGB hival rgb_lookup] /L1img where{pop/ImgCS ed}{setcolorspace}ifelse
 /rgb_string iw 3 mul string def
 /Width iw def
 /Height ih def
 /Decode [0 1 bpc{2 mul}repeat 1 sub] def
 /ImageMatrix
  ImgDir 0 eq{[iw 0 0 ih 0 0]}if
  ImgDir 1 eq{[iw neg 0 0 ih iw 0]}if
  ImgDir 2 eq{[iw 0 0 ih neg 0 ih]}if
  ImgDir 3 eq{[iw neg 0 0 ih neg iw ih]}if
  def
 /DataSource ImgProc def
 /BitsPerComponent bpc def
 /Interpolate smoothflag def
 end image}bd
/DoImg{ ImgDict dup begin
 [/DeviceRGB] /L1img where{pop/ImgCS ed}{setcolorspace}ifelse
 /rgb_string iw 3 mul string def
 /Width iw def
 /Height ih def
 /Decode [0 1 0 1 0 1] def
 /ImageMatrix
  ImgDir 0 eq{[iw 0 0 ih 0 0]}if
  ImgDir 1 eq{[iw neg 0 0 ih iw 0]}if
  ImgDir 2 eq{[iw 0 0 ih neg 0 ih]}if
  ImgDir 3 eq{[iw neg 0 0 ih neg iw ih]}if
  def
 /DataSource ImgProc def
 /BitsPerComponent 8 def
 /Interpolate smoothflag def
 end image}bd
end def
%%EndResource
%%BeginFont: /MC1_Arial
12 dict begin
/FontInfo 8 dict dup begin
/ItalicAngle 0 def
/UnderlinePosition -217.00 def
/UnderlineThickness 150.00 def
/StrikeoutPosition 530.00 def
/StrikeoutThickness 102.00 def
/isFixedPitch false def
end readonly def
/FontName /MC1_Arial def
/FontType 3 def
/FontMatrix [1 2048 div 0 0 1 2048 div 0 0] def
/FontBBox [-1361 -665 4096 2060] def
/Encoding 256 array def 0 1 255{Encoding exch/.notdef put}for
Encoding 32/s32 put
Encoding 48/s48 put
Encoding 49/s49 put
Encoding 50/s50 put
Encoding 51/s51 put
Encoding 52/s52 put
Encoding 53/s53 put
Encoding 54/s54 put
Encoding 55/s55 put
Encoding 56/s56 put
Encoding 57/s57 put
Encoding 67/s67 put
Encoding 68/s68 put
Encoding 69/s69 put
Encoding 70/s70 put
Encoding 71/s71 put
Encoding 72/s72 put
Encoding 74/s74 put
Encoding 76/s76 put
Encoding 77/s77 put
Encoding 79/s79 put
Encoding 80/s80 put
Encoding 84/s84 put
Encoding 88/s88 put
/BoundingBoxes 25 dict def
BoundingBoxes begin
/s32 [0 -434 569 1854] def
/s48 [0 -434 1139 1854] def
/s49 [0 -434 1139 1854] def
/s50 [0 -434 1139 1854] def
/s51 [0 -434 1139 1854] def
/s52 [0 -434 1139 1854] def
/s53 [0 -434 1139 1854] def
/s54 [0 -434 1139 1854] def
/s55 [0 -434 1139 1854] def
/s56 [0 -434 1139 1854] def
/s57 [0 -434 1139 1854] def
/s67 [0 -434 1479 1854] def
/s68 [0 -434 1479 1854] def
/s69 [0 -434 1366 1854] def
/s70 [0 -434 1251 1854] def
/s71 [0 -434 1593 1854] def
/s72 [0 -434 1479 1854] def
/s74 [0 -434 1024 1854] def
/s76 [0 -434 1139 1854] def
/s77 [0 -434 1706 1854] def
/s79 [0 -434 1593 1854] def
/s80 [0 -434 1366 1854] def
/s84 [0 -434 1251 1854] def
/s88 [0 -434 1366 1854] def
end
/Metrics 25 dict def
 Metrics begin
/s32 569 def
/s48 1139 def
/s49 1139 def
/s50 1139 def
/s51 1139 def
/s52 1139 def
/s53 1139 def
/s54 1139 def
/s55 1139 def
/s56 1139 def
/s57 1139 def
/s67 1479 def
/s68 1479 def
/s69 1366 def
/s70 1251 def
/s71 1593 def
/s72 1479 def
/s74 1024 def
/s76 1139 def
/s77 1706 def
/s79 1593 def
/s80 1366 def
/s84 1251 def
/s88 1366 def
end
/CharProcs 25 dict def
CharProcs begin
/.notdef {} def
/s48 {
85 723 m
85 896.33 102.83 1035.83 138.5 1141.5 c
174.17 1247.17 227.17 1328.67 297.5 1386 c
367.83 1443.33 456.33 1472 563 1472 c
641.67 1472 710.67 1456.17 770 1424.5 c
829.33 1392.83 878.33 1347.17 917 1287.5 c
955.67 1227.83 986 1155.17 1008 1069.5 c
1030 983.83 1041 868.33 1041 723 c
1041 551 1023.33 412.17 988 306.5 c
952.67 200.83 899.83 119.17 829.5 61.5 c
759.17 3.83 670.33 -25 563 -25 c
421.67 -25 310.67 25.67 230 127 c
133.33 249 85 447.67 85 723 c
closepath 270 723 m
270 482.33 298.17 322.17 354.5 242.5 c
410.83 162.83 480.33 123 563 123 c
645.67 123 715.17 163 771.5 243 c
827.83 323 856 483 856 723 c
856 964.33 827.83 1124.67 771.5 1204 c
715.17 1283.33 645 1323 561 1323 c
478.33 1323 412.33 1288 363 1218 c
301 1128.67 270 963.67 270 723 c
closepath } bind def
/s49 {
763 0 m
583 0 763 0 583 0 c
583 1147 583 0 583 1147 c
539.67 1105.67 482.83 1064.33 412.5 1023 c
342.17 981.67 279 950.67 223 930 c
223 1104 223 930 223 1104 c
323.67 1151.33 411.67 1208.67 487 1276 c
562.33 1343.33 615.67 1408.67 647 1472 c
763 1472 647 1472 763 1472 c
763 0 763 1472 763 0 c
closepath } bind def
/s50 {
1031 173 m
1031 0 1031 173 1031 0 c
62 0 1031 0 62 0 c
60.67 43.33 67.67 85 83 125 c
107.67 191 147.17 256 201.5 320 c
255.83 384 334.33 458 437 542 c
596.33 672.67 704 776.17 760 852.5 c
816 928.83 844 1001 844 1069 c
844 1140.33 818.5 1200.5 767.5 1249.5 c
716.5 1298.5 650 1323 568 1323 c
481.33 1323 412 1297 360 1245 c
308 1193 281.67 1121 281 1029 c
96 1048 281 1029 96 1048 c
108.67 1186 156.33 1291.17 239 1363.5 c
321.67 1435.83 432.67 1472 572 1472 c
712.67 1472 824 1433 906 1355 c
988 1277 1029 1180.33 1029 1065 c
1029 1006.33 1017 948.67 993 892 c
969 835.33 929.17 775.67 873.5 713 c
817.83 650.33 725.33 564.33 596 455 c
488 364.33 418.67 302.83 388 270.5 c
357.33 238.17 332 205.67 312 173 c
1031 173 312 173 1031 173 c
closepath } bind def
/s51 {
86 387 m
266 411 86 387 266 411 c
286.67 309 321.83 235.5 371.5 190.5 c
421.17 145.5 481.67 123 553 123 c
637.67 123 709.17 152.33 767.5 211 c
825.83 269.67 855 342.33 855 429 c
855 511.67 828 579.83 774 633.5 c
720 687.17 651.33 714 568 714 c
534 714 491.67 707.33 441 694 c
461 852 441 694 461 852 c
473 850.67 482.67 850 490 850 c
566.67 850 635.67 870 697 910 c
758.33 950 789 1011.67 789 1095 c
789 1161 766.67 1215.67 722 1259 c
677.33 1302.33 619.67 1324 549 1324 c
479 1324 420.67 1302 374 1258 c
327.33 1214 297.33 1148 284 1060 c
104 1092 284 1060 104 1092 c
126 1212.67 176 1306.17 254 1372.5 c
332 1438.83 429 1472 545 1472 c
625 1472 698.67 1454.83 766 1420.5 c
833.33 1386.17 884.83 1339.33 920.5 1280 c
956.17 1220.67 974 1157.67 974 1091 c
974 1027.67 957 970 923 918 c
889 866 838.67 824.67 772 794 c
858.67 774 926 732.5 974 669.5 c
1022 606.5 1046 527.67 1046 433 c
1046 305 999.33 196.5 906 107.5 c
812.67 18.5 694.67 -26 552 -26 c
423.33 -26 316.5 12.33 231.5 89 c
146.5 165.67 98 265 86 387 c
closepath } bind def
/s52 {
662 0 m
662 351 662 0 662 351 c
26 351 662 351 26 351 c
26 516 26 351 26 516 c
695 1466 26 516 695 1466 c
842 1466 695 1466 842 1466 c
842 516 842 1466 842 516 c
1040 516 842 516 1040 516 c
1040 351 1040 516 1040 351 c
842 351 1040 351 842 351 c
842 0 842 351 842 0 c
662 0 842 0 662 0 c
closepath 662 516 m
662 1177 662 516 662 1177 c
203 516 662 1177 203 516 c
662 516 203 516 662 516 c
closepath } bind def
/s53 {
85 384 m
274 400 85 384 274 400 c
288 308 320.5 238.83 371.5 192.5 c
422.5 146.17 484 123 556 123 c
642.67 123 716 155.67 776 221 c
836 286.33 866 373 866 481 c
866 583.67 837.17 664.67 779.5 724 c
721.83 783.33 646.33 813 553 813 c
495 813 442.67 799.83 396 773.5 c
349.33 747.17 312.67 713 286 671 c
117 693 286 671 117 693 c
259 1446 117 693 259 1446 c
988 1446 259 1446 988 1446 c
988 1274 988 1446 988 1274 c
403 1274 988 1274 403 1274 c
324 880 403 1274 324 880 c
412 941.33 504.33 972 601 972 c
729 972 837 927.67 925 839 c
1013 750.33 1057 636.33 1057 497 c
1057 364.33 1018.33 249.67 941 153 c
847 34.33 718.67 -25 556 -25 c
422.67 -25 313.83 12.33 229.5 87 c
145.17 161.67 97 260.67 85 384 c
closepath } bind def
/s54 {
1019 1107 m
840 1093 1019 1107 840 1093 c
824 1163.67 801.33 1215 772 1247 c
723.33 1298.33 663.33 1324 592 1324 c
534.67 1324 484.33 1308 441 1276 c
384.33 1234.67 339.67 1174.33 307 1095 c
274.33 1015.67 257.33 902.67 256 756 c
299.33 822 352.33 871 415 903 c
477.67 935 543.33 951 612 951 c
732 951 834.17 906.83 918.5 818.5 c
1002.83 730.17 1045 616 1045 476 c
1045 384 1025.17 298.5 985.5 219.5 c
945.83 140.5 891.33 80 822 38 c
752.67 -4 674 -25 586 -25 c
436 -25 313.67 30.17 219 140.5 c
124.33 250.83 77 432.67 77 686 c
77 969.33 129.33 1175.33 234 1304 c
325.33 1416 448.33 1472 603 1472 c
718.33 1472 812.83 1439.67 886.5 1375 c
960.17 1310.33 1004.33 1221 1019 1107 c
closepath 284 475 m
284 413 297.17 353.67 323.5 297 c
349.83 240.33 386.67 197.17 434 167.5 c
481.33 137.83 531 123 583 123 c
659 123 724.33 153.67 779 215 c
833.67 276.33 861 359.67 861 465 c
861 566.33 834 646.17 780 704.5 c
726 762.83 658 792 576 792 c
494.67 792 425.67 762.83 369 704.5 c
312.33 646.17 284 569.67 284 475 c
closepath } bind def
/s55 {
97 1274 m
97 1447 97 1274 97 1447 c
1046 1447 97 1447 1046 1447 c
1046 1307 1046 1447 1046 1307 c
952.67 1207.67 860.17 1075.67 768.5 911 c
676.83 746.33 606 577 556 403 c
520 280.33 497 146 487 0 c
302 0 487 0 302 0 c
304 115.33 326.67 254.67 370 418 c
413.33 581.33 475.5 738.83 556.5 890.5 c
637.5 1042.17 723.67 1170 815 1274 c
97 1274 815 1274 97 1274 c
closepath } bind def
/s56 {
362 795 m
287.33 822.33 232 861.33 196 912 c
160 962.67 142 1023.33 142 1094 c
142 1200.67 180.33 1290.33 257 1363 c
333.67 1435.67 435.67 1472 563 1472 c
691 1472 794 1434.83 872 1360.5 c
950 1286.17 989 1195.67 989 1089 c
989 1021 971.17 961.83 935.5 911.5 c
899.83 861.17 845.67 822.33 773 795 c
863 765.67 931.5 718.33 978.5 653 c
1025.5 587.67 1049 509.67 1049 419 c
1049 293.67 1004.67 188.33 916 103 c
827.33 17.67 710.67 -25 566 -25 c
421.33 -25 304.67 17.83 216 103.5 c
127.33 189.17 83 296 83 424 c
83 519.33 107.17 599.17 155.5 663.5 c
203.83 727.83 272.67 771.67 362 795 c
closepath 326 1100 m
326 1030.67 348.33 974 393 930 c
437.67 886 495.67 864 567 864 c
636.33 864 693.17 885.83 737.5 929.5 c
781.83 973.17 804 1026.67 804 1090 c
804 1156 781.17 1211.5 735.5 1256.5 c
689.83 1301.5 633 1324 565 1324 c
496.33 1324 439.33 1302 394 1258 c
348.67 1214 326 1161.33 326 1100 c
closepath 268 423 m
268 371.67 280.17 322 304.5 274 c
328.83 226 365 188.83 413 162.5 c
461 136.17 512.67 123 568 123 c
654 123 725 150.67 781 206 c
837 261.33 865 331.67 865 417 c
865 503.67 836.17 575.33 778.5 632 c
720.83 688.67 648.67 717 562 717 c
477.33 717 407.17 689 351.5 633 c
295.83 577 268 507 268 423 c
closepath } bind def
/s57 {
112 339 m
285 355 112 339 285 355 c
299.67 273.67 327.67 214.67 369 178 c
410.33 141.33 463.33 123 528 123 c
583.33 123 631.83 135.67 673.5 161 c
715.17 186.33 749.33 220.17 776 262.5 c
802.67 304.83 825 362 843 434 c
861 506 870 579.33 870 654 c
870 662 869.67 674 869 690 c
833 632.67 783.83 586.17 721.5 550.5 c
659.17 514.83 591.67 497 519 497 c
397.67 497 295 541 211 629 c
127 717 85 833 85 977 c
85 1125.67 128.83 1245.33 216.5 1336 c
304.17 1426.67 414 1472 546 1472 c
641.33 1472 728.5 1446.33 807.5 1395 c
886.5 1343.67 946.5 1270.5 987.5 1175.5 c
1028.5 1080.5 1049 943 1049 763 c
1049 575.67 1028.67 426.5 988 315.5 c
947.33 204.5 886.83 120 806.5 62 c
726.17 4 632 -25 524 -25 c
409.33 -25 315.67 6.83 243 70.5 c
170.33 134.17 126.67 223.67 112 339 c
closepath 849 986 m
849 1089.33 821.5 1171.33 766.5 1232 c
711.5 1292.67 645.33 1323 568 1323 c
488 1323 418.33 1290.33 359 1225 c
299.67 1159.67 270 1075 270 971 c
270 877.67 298.17 801.83 354.5 743.5 c
410.83 685.17 480.33 656 563 656 c
646.33 656 714.83 685.17 768.5 743.5 c
822.17 801.83 849 882.67 849 986 c
closepath } bind def
/s67 {
1204 514 m
1398 465 1204 514 1398 465 c
1357.33 305.67 1284.17 184.17 1178.5 100.5 c
1072.83 16.83 943.67 -25 791 -25 c
633 -25 504.5 7.17 405.5 71.5 c
306.5 135.83 231.17 229 179.5 351 c
127.83 473 102 604 102 744 c
102 896.67 131.17 1029.83 189.5 1143.5 c
247.83 1257.17 330.83 1343.5 438.5 1402.5 c
546.17 1461.5 664.67 1491 794 1491 c
940.67 1491 1064 1453.67 1164 1379 c
1264 1304.33 1333.67 1199.33 1373 1064 c
1182 1019 1373 1064 1182 1019 c
1148 1125.67 1098.67 1203.33 1034 1252 c
969.33 1300.67 888 1325 790 1325 c
677.33 1325 583.17 1298 507.5 1244 c
431.83 1190 378.67 1117.5 348 1026.5 c
317.33 935.5 302 841.67 302 745 c
302 620.33 320.17 511.5 356.5 418.5 c
392.83 325.5 449.33 256 526 210 c
602.67 164 685.67 141 775 141 c
883.67 141 975.67 172.33 1051 235 c
1126.33 297.67 1177.33 390.67 1204 514 c
closepath } bind def
/s68 {
158 0 m
158 1466 158 0 158 1466 c
663 1466 158 1466 663 1466 c
777 1466 864 1459 924 1445 c
1008 1425.67 1079.67 1390.67 1139 1340 c
1216.33 1274.67 1274.17 1191.17 1312.5 1089.5 c
1350.83 987.83 1370 871.67 1370 741 c
1370 629.67 1357 531 1331 445 c
1305 359 1271.67 287.83 1231 231.5 c
1190.33 175.17 1145.83 130.83 1097.5 98.5 c
1049.17 66.17 990.83 41.67 922.5 25 c
854.17 8.33 775.67 0 687 0 c
158 0 687 0 158 0 c
closepath 352 173 m
665 173 352 173 665 173 c
761.67 173 837.5 182 892.5 200 c
947.5 218 991.33 243.33 1024 276 c
1070 322 1105.83 383.83 1131.5 461.5 c
1157.17 539.17 1170 633.33 1170 744 c
1170 897.33 1144.83 1015.17 1094.5 1097.5 c
1044.17 1179.83 983 1235 911 1263 c
859 1283 775.33 1293 660 1293 c
352 1293 660 1293 352 1293 c
352 173 352 1293 352 173 c
closepath } bind def
/s69 {
162 0 m
162 1466 162 0 162 1466 c
1222 1466 162 1466 1222 1466 c
1222 1293 1222 1466 1222 1293 c
356 1293 1222 1293 356 1293 c
356 844 356 1293 356 844 c
1167 844 356 844 1167 844 c
1167 672 1167 844 1167 672 c
356 672 1167 672 356 672 c
356 173 356 672 356 173 c
1256 173 356 173 1256 173 c
1256 0 1256 173 1256 0 c
162 0 1256 0 162 0 c
closepath } bind def
/s70 {
168 0 m
168 1466 168 0 168 1466 c
1157 1466 168 1466 1157 1466 c
1157 1293 1157 1466 1157 1293 c
362 1293 1157 1293 362 1293 c
362 839 362 1293 362 839 c
1050 839 362 839 1050 839 c
1050 666 1050 839 1050 666 c
362 666 1050 666 362 666 c
362 0 362 666 362 0 c
168 0 362 0 168 0 c
closepath } bind def
/s71 {
844 575 m
844 747 844 575 844 747 c
1465 748 844 747 1465 748 c
1465 204 1465 748 1465 204 c
1369.67 128 1271.33 70.83 1170 32.5 c
1068.67 -5.83 964.67 -25 858 -25 c
714 -25 583.17 5.83 465.5 67.5 c
347.83 129.17 259 218.33 199 335 c
139 451.67 109 582 109 726 c
109 868.67 138.83 1001.83 198.5 1125.5 c
258.17 1249.17 344 1341 456 1401 c
568 1461 697 1491 843 1491 c
949 1491 1044.83 1473.83 1130.5 1439.5 c
1216.17 1405.17 1283.33 1357.33 1332 1296 c
1380.67 1234.67 1417.67 1154.67 1443 1056 c
1268 1008 1443 1056 1268 1008 c
1246 1082.67 1218.67 1141.33 1186 1184 c
1153.33 1226.67 1106.67 1260.83 1046 1286.5 c
985.33 1312.17 918 1325 844 1325 c
755.33 1325 678.67 1311.5 614 1284.5 c
549.33 1257.5 497.17 1222 457.5 1178 c
417.83 1134 387 1085.67 365 1033 c
327.67 942.33 309 844 309 738 c
309 607.33 331.5 498 376.5 410 c
421.5 322 487 256.67 573 214 c
659 171.33 750.33 150 847 150 c
931 150 1013 166.17 1093 198.5 c
1173 230.83 1233.67 265.33 1275 302 c
1275 575 1275 302 1275 575 c
844 575 1275 575 844 575 c
closepath } bind def
/s72 {
164 0 m
164 1466 164 0 164 1466 c
358 1466 164 1466 358 1466 c
358 864 358 1466 358 864 c
1120 864 358 864 1120 864 c
1120 1466 1120 864 1120 1466 c
1314 1466 1120 1466 1314 1466 c
1314 0 1314 1466 1314 0 c
1120 0 1314 0 1120 0 c
1120 691 1120 0 1120 691 c
358 691 1120 691 358 691 c
358 0 358 691 358 0 c
164 0 358 0 164 0 c
closepath } bind def
/s74 {
59 416 m
234 440 59 416 234 440 c
238.67 328 259.67 251.33 297 210 c
334.33 168.67 386 148 452 148 c
500.67 148 542.67 159.17 578 181.5 c
613.33 203.83 637.67 234.17 651 272.5 c
664.33 310.83 671 372 671 456 c
671 1466 671 456 671 1466 c
865 1466 671 1466 865 1466 c
865 467 865 1466 865 467 c
865 344.33 850.17 249.33 820.5 182 c
790.83 114.67 743.83 63.33 679.5 28 c
615.17 -7.33 539.67 -25 453 -25 c
324.33 -25 225.83 12 157.5 86 c
89.17 160 56.33 270 59 416 c
closepath } bind def
/s76 {
150 0 m
150 1466 150 0 150 1466 c
344 1466 150 1466 344 1466 c
344 173 344 1466 344 173 c
1066 173 344 173 1066 173 c
1066 0 1066 173 1066 0 c
150 0 1066 0 150 0 c
closepath } bind def
/s77 {
152 0 m
152 1466 152 0 152 1466 c
444 1466 152 1466 444 1466 c
791 428 444 1466 791 428 c
823 331.33 846.33 259 861 211 c
877.67 264.33 903.67 342.67 939 446 c
1290 1466 939 446 1290 1466 c
1551 1466 1290 1466 1551 1466 c
1551 0 1551 1466 1551 0 c
1364 0 1551 0 1364 0 c
1364 1227 1364 0 1364 1227 c
938 0 1364 1227 938 0 c
763 0 938 0 763 0 c
339 1248 763 0 339 1248 c
339 0 339 1248 339 0 c
152 0 339 0 152 0 c
closepath } bind def
/s79 {
99 714 m
99 957.33 164.33 1147.83 295 1285.5 c
425.67 1423.17 594.33 1492 801 1492 c
936.33 1492 1058.33 1459.67 1167 1395 c
1275.67 1330.33 1358.5 1240.17 1415.5 1124.5 c
1472.5 1008.83 1501 877.67 1501 731 c
1501 582.33 1471 449.33 1411 332 c
1351 214.67 1266 125.83 1156 65.5 c
1046 5.17 927.33 -25 800 -25 c
662 -25 538.67 8.33 430 75 c
321.33 141.67 239 232.67 183 348 c
127 463.33 99 585.33 99 714 c
closepath 299 711 m
299 534.33 346.5 395.17 441.5 293.5 c
536.5 191.83 655.67 141 799 141 c
945 141 1065.17 192.33 1159.5 295 c
1253.83 397.67 1301 543.33 1301 732 c
1301 851.33 1280.83 955.5 1240.5 1044.5 c
1200.17 1133.5 1141.17 1202.5 1063.5 1251.5 c
985.83 1300.5 898.67 1325 802 1325 c
664.67 1325 546.5 1277.83 447.5 1183.5 c
348.5 1089.17 299 931.67 299 711 c
closepath } bind def
/s80 {
158 0 m
158 1466 158 0 158 1466 c
711 1466 158 1466 711 1466 c
808.33 1466 882.67 1461.33 934 1452 c
1006 1440 1066.33 1417.17 1115 1383.5 c
1163.67 1349.83 1202.83 1302.67 1232.5 1242 c
1262.17 1181.33 1277 1114.67 1277 1042 c
1277 917.33 1237.33 811.83 1158 725.5 c
1078.67 639.17 935.33 596 728 596 c
352 596 728 596 352 596 c
352 0 352 596 352 0 c
158 0 352 0 158 0 c
closepath 352 769 m
731 769 352 769 731 769 c
856.33 769 945.33 792.33 998 839 c
1050.67 885.67 1077 951.33 1077 1036 c
1077 1097.33 1061.5 1149.83 1030.5 1193.5 c
999.5 1237.17 958.67 1266 908 1280 c
875.33 1288.67 815 1293 727 1293 c
352 1293 727 1293 352 1293 c
352 769 352 1293 352 769 c
closepath } bind def
/s84 {
531 0 m
531 1293 531 0 531 1293 c
48 1293 531 1293 48 1293 c
48 1466 48 1293 48 1466 c
1210 1466 48 1466 1210 1466 c
1210 1293 1210 1466 1210 1293 c
725 1293 1210 1293 725 1293 c
725 0 725 1293 725 0 c
531 0 725 0 531 0 c
closepath } bind def
/s88 {
9 0 m
576 764 9 0 576 764 c
76 1466 576 764 76 1466 c
307 1466 76 1466 307 1466 c
573 1090 307 1466 573 1090 c
628.33 1012 667.67 952 691 910 c
723.67 963.33 762.33 1019 807 1077 c
1102 1466 807 1077 1102 1466 c
1313 1466 1102 1466 1313 1466 c
798 775 1313 1466 798 775 c
1353 0 798 775 1353 0 c
1113 0 1353 0 1113 0 c
744 523 1113 0 744 523 c
723.33 553 702 585.67 680 621 c
647.33 567.67 624 531 610 511 c
242 0 610 511 242 0 c
9 0 242 0 9 0 c
closepath } bind def
end
/BuildGlyph {
 exch dup /Metrics get 2 index get 0 setcharwidth
/CharProcs get exch 2 copy known not{pop/.notdef}if get exec fill}bind def
/BuildChar {
1 index /Encoding get exch get
1 index /BuildGlyph get exec
} bind def
currentdict end /MC1_Arial exch definefont pop
%%EndFont
%%BeginFont: /MC2_Arial
12 dict begin
/FontInfo 8 dict dup begin
/ItalicAngle 0 def
/UnderlinePosition -217.00 def
/UnderlineThickness 150.00 def
/StrikeoutPosition 530.00 def
/StrikeoutThickness 102.00 def
/isFixedPitch false def
end readonly def
/FontName /MC2_Arial def
/FontType 3 def
/FontMatrix [1 2048 div 0 0 1 2048 div 0 0] def
/FontBBox [-1361 -665 4096 2060] def
/Encoding 256 array def 0 1 255{Encoding exch/.notdef put}for
Encoding 32/s32 put
Encoding 67/s67 put
Encoding 68/s68 put
Encoding 70/s70 put
Encoding 82/s82 put
Encoding 97/s97 put
Encoding 101/s101 put
Encoding 102/s102 put
Encoding 105/s105 put
Encoding 109/s109 put
Encoding 110/s110 put
Encoding 111/s111 put
Encoding 112/s112 put
Encoding 114/s114 put
Encoding 115/s115 put
Encoding 116/s116 put
/BoundingBoxes 17 dict def
BoundingBoxes begin
/s32 [0 -434 569 1854] def
/s67 [0 -434 1479 1854] def
/s68 [0 -434 1479 1854] def
/s70 [0 -434 1251 1854] def
/s82 [0 -434 1479 1854] def
/s97 [0 -434 1139 1854] def
/s101 [0 -434 1139 1854] def
/s102 [0 -434 569 1854] def
/s105 [0 -434 455 1854] def
/s109 [0 -434 1706 1854] def
/s110 [0 -434 1139 1854] def
/s111 [0 -434 1139 1854] def
/s112 [0 -434 1139 1854] def
/s114 [0 -434 682 1854] def
/s115 [0 -434 1024 1854] def
/s116 [0 -434 569 1854] def
end
/Metrics 17 dict def
 Metrics begin
/s32 569 def
/s67 1479 def
/s68 1479 def
/s70 1251 def
/s82 1479 def
/s97 1139 def
/s101 1139 def
/s102 569 def
/s105 455 def
/s109 1706 def
/s110 1139 def
/s111 1139 def
/s112 1139 def
/s114 682 def
/s115 1024 def
/s116 569 def
end
/CharProcs 17 dict def
CharProcs begin
/.notdef {} def
/s67 {
1204 514 m
1398 465 1204 514 1398 465 c
1357.33 305.67 1284.17 184.17 1178.5 100.5 c
1072.83 16.83 943.67 -25 791 -25 c
633 -25 504.5 7.17 405.5 71.5 c
306.5 135.83 231.17 229 179.5 351 c
127.83 473 102 604 102 744 c
102 896.67 131.17 1029.83 189.5 1143.5 c
247.83 1257.17 330.83 1343.5 438.5 1402.5 c
546.17 1461.5 664.67 1491 794 1491 c
940.67 1491 1064 1453.67 1164 1379 c
1264 1304.33 1333.67 1199.33 1373 1064 c
1182 1019 1373 1064 1182 1019 c
1148 1125.67 1098.67 1203.33 1034 1252 c
969.33 1300.67 888 1325 790 1325 c
677.33 1325 583.17 1298 507.5 1244 c
431.83 1190 378.67 1117.5 348 1026.5 c
317.33 935.5 302 841.67 302 745 c
302 620.33 320.17 511.5 356.5 418.5 c
392.83 325.5 449.33 256 526 210 c
602.67 164 685.67 141 775 141 c
883.67 141 975.67 172.33 1051 235 c
1126.33 297.67 1177.33 390.67 1204 514 c
closepath } bind def
/s68 {
158 0 m
158 1466 158 0 158 1466 c
663 1466 158 1466 663 1466 c
777 1466 864 1459 924 1445 c
1008 1425.67 1079.67 1390.67 1139 1340 c
1216.33 1274.67 1274.17 1191.17 1312.5 1089.5 c
1350.83 987.83 1370 871.67 1370 741 c
1370 629.67 1357 531 1331 445 c
1305 359 1271.67 287.83 1231 231.5 c
1190.33 175.17 1145.83 130.83 1097.5 98.5 c
1049.17 66.17 990.83 41.67 922.5 25 c
854.17 8.33 775.67 0 687 0 c
158 0 687 0 158 0 c
closepath 352 173 m
665 173 352 173 665 173 c
761.67 173 837.5 182 892.5 200 c
947.5 218 991.33 243.33 1024 276 c
1070 322 1105.83 383.83 1131.5 461.5 c
1157.17 539.17 1170 633.33 1170 744 c
1170 897.33 1144.83 1015.17 1094.5 1097.5 c
1044.17 1179.83 983 1235 911 1263 c
859 1283 775.33 1293 660 1293 c
352 1293 660 1293 352 1293 c
352 173 352 1293 352 173 c
closepath } bind def
/s70 {
168 0 m
168 1466 168 0 168 1466 c
1157 1466 168 1466 1157 1466 c
1157 1293 1157 1466 1157 1293 c
362 1293 1157 1293 362 1293 c
362 839 362 1293 362 839 c
1050 839 362 839 1050 839 c
1050 666 1050 839 1050 666 c
362 666 1050 666 362 666 c
362 0 362 666 362 0 c
168 0 362 0 168 0 c
closepath } bind def
/s82 {
161 0 m
161 1466 161 0 161 1466 c
811 1466 161 1466 811 1466 c
941.67 1466 1041 1452.83 1109 1426.5 c
1177 1400.17 1231.33 1353.67 1272 1287 c
1312.67 1220.33 1333 1146.67 1333 1066 c
1333 962 1299.33 874.33 1232 803 c
1164.67 731.67 1060.67 686.33 920 667 c
971.33 642.33 1010.33 618 1037 594 c
1093.67 542 1147.33 477 1198 399 c
1453 0 1198 399 1453 0 c
1209 0 1453 0 1209 0 c
1015 305 1209 0 1015 305 c
958.33 393 911.67 460.33 875 507 c
838.33 553.67 805.5 586.33 776.5 605 c
747.5 623.67 718 636.67 688 644 c
666 648.67 630 651 580 651 c
355 651 580 651 355 651 c
355 0 355 651 355 0 c
161 0 355 0 161 0 c
closepath 355 819 m
772 819 355 819 772 819 c
860.67 819 930 828.17 980 846.5 c
1030 864.83 1068 894.17 1094 934.5 c
1120 974.83 1133 1018.67 1133 1066 c
1133 1135.33 1107.83 1192.33 1057.5 1237 c
1007.17 1281.67 927.67 1304 819 1304 c
355 1304 819 1304 355 1304 c
355 819 355 1304 355 819 c
closepath } bind def
/s97 {
828 131 m
761.33 74.33 697.17 34.33 635.5 11 c
573.83 -12.33 507.67 -24 437 -24 c
320.33 -24 230.67 4.5 168 61.5 c
105.33 118.5 74 191.33 74 280 c
74 332 85.83 379.5 109.5 422.5 c
133.17 465.5 164.17 500 202.5 526 c
240.83 552 284 571.67 332 585 c
367.33 594.33 420.67 603.33 492 612 c
637.33 629.33 744.33 650 813 674 c
813.67 698.67 814 714.33 814 721 c
814 794.33 797 846 763 876 c
717 916.67 648.67 937 558 937 c
473.33 937 410.83 922.17 370.5 892.5 c
330.17 862.83 300.33 810.33 281 735 c
105 759 281 735 105 759 c
121 834.33 147.33 895.17 184 941.5 c
220.67 987.83 273.67 1023.5 343 1048.5 c
412.33 1073.5 492.67 1086 584 1086 c
674.67 1086 748.33 1075.33 805 1054 c
861.67 1032.67 903.33 1005.83 930 973.5 c
956.67 941.17 975.33 900.33 986 851 c
992 820.33 995 765 995 685 c
995 445 995 685 995 445 c
995 277.67 998.83 171.83 1006.5 127.5 c
1014.17 83.17 1029.33 40.67 1052 0 c
864 0 1052 0 864 0 c
845.33 37.33 833.33 81 828 131 c
closepath 813 533 m
747.67 506.33 649.67 483.67 519 465 c
445 454.33 392.67 442.33 362 429 c
331.33 415.67 307.67 396.17 291 370.5 c
274.33 344.83 266 316.33 266 285 c
266 237 284.17 197 320.5 165 c
356.83 133 410 117 480 117 c
549.33 117 611 132.17 665 162.5 c
719 192.83 758.67 234.33 784 287 c
803.33 327.67 813 387.67 813 467 c
813 533 813 467 813 533 c
closepath } bind def
/s101 {
862 342 m
1048 319 862 342 1048 319 c
1018.67 210.33 964.33 126 885 66 c
805.67 6 704.33 -24 581 -24 c
425.67 -24 302.5 23.83 211.5 119.5 c
120.5 215.17 75 349.33 75 522 c
75 700.67 121 839.33 213 938 c
305 1036.67 424.33 1086 571 1086 c
713 1086 829 1037.67 919 941 c
1009 844.33 1054 708.33 1054 533 c
1054 522.33 1053.67 506.33 1053 485 c
261 485 1053 485 261 485 c
267.67 368.33 300.67 279 360 217 c
419.33 155 493.33 124 582 124 c
648 124 704.33 141.33 751 176 c
797.67 210.67 834.67 266 862 342 c
closepath 271 633 m
864 633 271 633 864 633 c
856 722.33 833.33 789.33 796 834 c
738.67 903.33 664.33 938 573 938 c
490.33 938 420.83 910.33 364.5 855 c
308.17 799.67 277 725.67 271 633 c
closepath } bind def
/s102 {
178 0 m
178 922 178 0 178 922 c
19 922 178 922 19 922 c
19 1062 19 922 19 1062 c
178 1062 19 1062 178 1062 c
178 1175 178 1062 178 1175 c
178 1246.33 184.33 1299.33 197 1334 c
214.33 1380.67 244.83 1418.5 288.5 1447.5 c
332.17 1476.5 393.33 1491 472 1491 c
522.67 1491 578.67 1485 640 1473 c
613 1316 640 1473 613 1316 c
575.67 1322.67 540.33 1326 507 1326 c
452.33 1326 413.67 1314.33 391 1291 c
368.33 1267.67 357 1224 357 1160 c
357 1062 357 1160 357 1062 c
564 1062 357 1062 564 1062 c
564 922 564 1062 564 922 c
357 922 564 922 357 922 c
357 0 357 922 357 0 c
178 0 357 0 178 0 c
closepath } bind def
/s105 {
136 1259 m
136 1466 136 1259 136 1466 c
316 1466 136 1466 316 1466 c
316 1259 316 1466 316 1259 c
136 1259 316 1259 136 1259 c
closepath 136 0 m
136 1062 136 0 136 1062 c
316 1062 136 1062 316 1062 c
316 0 316 1062 316 0 c
136 0 316 0 136 0 c
closepath } bind def
/s109 {
135 0 m
135 1062 135 0 135 1062 c
296 1062 135 1062 296 1062 c
296 913 296 1062 296 913 c
329.33 965 373.67 1006.83 429 1038.5 c
484.33 1070.17 547.33 1086 618 1086 c
696.67 1086 761.17 1069.67 811.5 1037 c
861.83 1004.33 897.33 958.67 918 900 c
1002 1024 1111.33 1086 1246 1086 c
1351.33 1086 1432.33 1056.83 1489 998.5 c
1545.67 940.17 1574 850.33 1574 729 c
1574 0 1574 729 1574 0 c
1395 0 1574 0 1395 0 c
1395 669 1395 0 1395 669 c
1395 741 1389.17 792.83 1377.5 824.5 c
1365.83 856.17 1344.67 881.67 1314 901 c
1283.33 920.33 1247.33 930 1206 930 c
1131.33 930 1069.33 905.17 1020 855.5 c
970.67 805.83 946 726.33 946 617 c
946 0 946 617 946 0 c
766 0 946 0 766 0 c
766 690 766 0 766 690 c
766 770 751.33 830 722 870 c
692.67 910 644.67 930 578 930 c
527.33 930 480.5 916.67 437.5 890 c
394.5 863.33 363.33 824.33 344 773 c
324.67 721.67 315 647.67 315 551 c
315 0 315 551 315 0 c
135 0 315 0 135 0 c
closepath } bind def
/s110 {
135 0 m
135 1062 135 0 135 1062 c
297 1062 135 1062 297 1062 c
297 911 297 1062 297 911 c
375 1027.67 487.67 1086 635 1086 c
699 1086 757.83 1074.5 811.5 1051.5 c
865.17 1028.5 905.33 998.33 932 961 c
958.67 923.67 977.33 879.33 988 828 c
994.67 794.67 998 736.33 998 653 c
998 0 998 653 998 0 c
818 0 998 0 818 0 c
818 646 818 0 818 646 c
818 719.33 811 774.17 797 810.5 c
783 846.83 758.17 875.83 722.5 897.5 c
686.83 919.17 645 930 597 930 c
520.33 930 454.17 905.67 398.5 857 c
342.83 808.33 315 716 315 580 c
315 0 315 580 315 0 c
135 0 315 0 135 0 c
closepath } bind def
/s111 {
68 531 m
68 727.67 122.67 873.33 232 968 c
323.33 1046.67 434.67 1086 566 1086 c
712 1086 831.33 1038.17 924 942.5 c
1016.67 846.83 1063 714.67 1063 546 c
1063 409.33 1042.5 301.83 1001.5 223.5 c
960.5 145.17 900.83 84.33 822.5 41 c
744.17 -2.33 658.67 -24 566 -24 c
417.33 -24 297.17 23.67 205.5 119 c
113.83 214.33 68 351.67 68 531 c
closepath 253 531 m
253 395 282.67 293.17 342 225.5 c
401.33 157.83 476 124 566 124 c
655.33 124 729.67 158 789 226 c
848.33 294 878 397.67 878 537 c
878 668.33 848.17 767.83 788.5 835.5 c
728.83 903.17 654.67 937 566 937 c
476 937 401.33 903.33 342 836 c
282.67 768.67 253 667 253 531 c
closepath } bind def
/s112 {
135 -407 m
135 1062 135 -407 135 1062 c
299 1062 135 1062 299 1062 c
299 924 299 1062 299 924 c
337.67 978 381.33 1018.5 430 1045.5 c
478.67 1072.5 537.67 1086 607 1086 c
697.67 1086 777.67 1062.67 847 1016 c
916.33 969.33 968.67 903.5 1004 818.5 c
1039.33 733.5 1057 640.33 1057 539 c
1057 430.33 1037.5 332.5 998.5 245.5 c
959.5 158.5 902.83 91.83 828.5 45.5 c
754.17 -0.83 676 -24 594 -24 c
534 -24 480.17 -11.33 432.5 14 c
384.83 39.33 345.67 71.33 315 110 c
315 -407 315 110 315 -407 c
135 -407 315 -407 135 -407 c
closepath 298 525 m
298 388.33 325.67 287.33 381 222 c
436.33 156.67 503.33 124 582 124 c
662 124 730.5 157.83 787.5 225.5 c
844.5 293.17 873 398 873 540 c
873 675.33 845.17 776.67 789.5 844 c
733.83 911.33 667.33 945 590 945 c
513.33 945 445.5 909.17 386.5 837.5 c
327.5 765.83 298 661.67 298 525 c
closepath } bind def
/s114 {
133 0 m
133 1062 133 0 133 1062 c
295 1062 133 1062 295 1062 c
295 901 295 1062 295 901 c
336.33 976.33 374.5 1026 409.5 1050 c
444.5 1074 483 1086 525 1086 c
585.67 1086 647.33 1066.67 710 1028 c
648 861 710 1028 648 861 c
604 887 560 900 516 900 c
476.67 900 441.33 888.17 410 864.5 c
378.67 840.83 356.33 808 343 766 c
323 702 313 632 313 556 c
313 0 313 556 313 0 c
133 0 313 0 133 0 c
closepath } bind def
/s115 {
63 317 m
241 345 63 317 241 345 c
251 273.67 278.83 219 324.5 181 c
370.17 143 434 124 516 124 c
598.67 124 660 140.83 700 174.5 c
740 208.17 760 247.67 760 293 c
760 333.67 742.33 365.67 707 389 c
682.33 405 621 425.33 523 450 c
391 483.33 299.5 512.17 248.5 536.5 c
197.5 560.83 158.83 594.5 132.5 637.5 c
106.17 680.5 93 728 93 780 c
93 827.33 103.83 871.17 125.5 911.5 c
147.17 951.83 176.67 985.33 214 1012 c
242 1032.67 280.17 1050.17 328.5 1064.5 c
376.83 1078.83 428.67 1086 484 1086 c
567.33 1086 640.5 1074 703.5 1050 c
766.5 1026 813 993.5 843 952.5 c
873 911.5 893.67 856.67 905 788 c
729 764 905 788 729 764 c
721 818.67 697.83 861.33 659.5 892 c
621.17 922.67 567 938 497 938 c
414.33 938 355.33 924.33 320 897 c
284.67 869.67 267 837.67 267 801 c
267 777.67 274.33 756.67 289 738 c
303.67 718.67 326.67 702.67 358 690 c
376 683.33 429 668 517 644 c
644.33 610 733.17 582.17 783.5 560.5 c
833.83 538.83 873.33 507.33 902 466 c
930.67 424.67 945 373.33 945 312 c
945 252 927.5 195.5 892.5 142.5 c
857.5 89.5 807 48.5 741 19.5 c
675 -9.5 600.33 -24 517 -24 c
379 -24 273.83 4.67 201.5 62 c
129.17 119.33 83 204.33 63 317 c
closepath } bind def
/s116 {
528 161 m
554 2 528 161 554 2 c
503.33 -8.67 458 -14 418 -14 c
352.67 -14 302 -3.67 266 17 c
230 37.67 204.67 64.83 190 98.5 c
175.33 132.17 168 203 168 311 c
168 922 168 311 168 922 c
36 922 168 922 36 922 c
36 1062 36 922 36 1062 c
168 1062 36 1062 168 1062 c
168 1325 168 1062 168 1325 c
347 1433 168 1325 347 1433 c
347 1062 347 1433 347 1062 c
528 1062 347 1062 528 1062 c
528 922 528 1062 528 922 c
347 922 528 922 347 922 c
347 301 347 922 347 301 c
347 249.67 350.17 216.67 356.5 202 c
362.83 187.33 373.17 175.67 387.5 167 c
401.83 158.33 422.33 154 449 154 c
469 154 495.33 156.33 528 161 c
closepath } bind def
end
/BuildGlyph {
 exch dup /Metrics get 2 index get 0 setcharwidth
/CharProcs get exch 2 copy known not{pop/.notdef}if get exec fill}bind def
/BuildChar {
1 index /Encoding get exch get
1 index /BuildGlyph get exec
} bind def
currentdict end /MC2_Arial exch definefont pop
%%EndFont
%%BeginFont: /MC3_Arial
12 dict begin
/FontInfo 8 dict dup begin
/ItalicAngle 0 def
/UnderlinePosition -217.00 def
/UnderlineThickness 150.00 def
/StrikeoutPosition 530.00 def
/StrikeoutThickness 102.00 def
/isFixedPitch false def
end readonly def
/FontName /MC3_Arial def
/FontType 3 def
/FontMatrix [1 2048 div 0 0 1 2048 div 0 0] def
/FontBBox [-1361 -665 4096 2060] def
/Encoding 256 array def 0 1 255{Encoding exch/.notdef put}for
Encoding 32/s32 put
Encoding 37/s37 put
Encoding 46/s46 put
Encoding 48/s48 put
Encoding 49/s49 put
Encoding 50/s50 put
Encoding 53/s53 put
Encoding 55/s55 put
Encoding 126/s126 put
/BoundingBoxes 10 dict def
BoundingBoxes begin
/s32 [0 -434 569 1854] def
/s37 [0 -434 1821 1854] def
/s46 [0 -434 569 1854] def
/s48 [0 -434 1139 1854] def
/s49 [0 -434 1139 1854] def
/s50 [0 -434 1139 1854] def
/s53 [0 -434 1139 1854] def
/s55 [0 -434 1139 1854] def
/s126 [0 -434 1196 1854] def
end
/Metrics 10 dict def
 Metrics begin
/s32 569 def
/s37 1821 def
/s46 569 def
/s48 1139 def
/s49 1139 def
/s50 1139 def
/s53 1139 def
/s55 1139 def
/s126 1196 def
end
/CharProcs 10 dict def
CharProcs begin
/.notdef {} def
/s37 {
119 1114 m
119 1218.67 145.33 1307.67 198 1381 c
250.67 1454.33 327 1491 427 1491 c
519 1491 595.17 1458.17 655.5 1392.5 c
715.83 1326.83 746 1230.33 746 1103 c
746 979 715.5 883.5 654.5 816.5 c
593.5 749.5 518.33 716 429 716 c
340.33 716 266.5 749 207.5 815 c
148.5 881 119 980.67 119 1114 c
closepath 432 1367 m
387.33 1367 350.17 1347.67 320.5 1309 c
290.83 1270.33 276 1199.33 276 1096 c
276 1002 291 935.83 321 897.5 c
351 859.17 388 840 432 840 c
477.33 840 514.83 859.33 544.5 898 c
574.17 936.67 589 1007.33 589 1110 c
589 1204.67 574 1271.17 544 1309.5 c
514 1347.83 476.67 1367 432 1367 c
closepath 433 -54 m
1235 1491 433 -54 1235 1491 c
1381 1491 1235 1491 1381 1491 c
582 -54 1381 1491 582 -54 c
433 -54 582 -54 433 -54 c
closepath 1067 344 m
1067 449.33 1093.33 538.5 1146 611.5 c
1198.67 684.5 1275.33 721 1376 721 c
1468 721 1544.17 688.17 1604.5 622.5 c
1664.83 556.83 1695 460.33 1695 333 c
1695 209 1664.5 113.5 1603.5 46.5 c
1542.5 -20.5 1467 -54 1377 -54 c
1288.33 -54 1214.5 -20.83 1155.5 45.5 c
1096.5 111.83 1067 211.33 1067 344 c
closepath 1381 597 m
1335.67 597 1298.17 577.67 1268.5 539 c
1238.83 500.33 1224 429.33 1224 326 c
1224 232.67 1239 166.67 1269 128 c
1299 89.33 1336 70 1380 70 c
1426 70 1463.83 89.33 1493.5 128 c
1523.17 166.67 1538 237.33 1538 340 c
1538 434.67 1523 501.17 1493 539.5 c
1463 577.83 1425.67 597 1381 597 c
closepath } bind def
/s46 {
186 0 m
186 205 186 0 186 205 c
391 205 186 205 391 205 c
391 0 391 205 391 0 c
186 0 391 0 186 0 c
closepath } bind def
/s48 {
85 723 m
85 896.33 102.83 1035.83 138.5 1141.5 c
174.17 1247.17 227.17 1328.67 297.5 1386 c
367.83 1443.33 456.33 1472 563 1472 c
641.67 1472 710.67 1456.17 770 1424.5 c
829.33 1392.83 878.33 1347.17 917 1287.5 c
955.67 1227.83 986 1155.17 1008 1069.5 c
1030 983.83 1041 868.33 1041 723 c
1041 551 1023.33 412.17 988 306.5 c
952.67 200.83 899.83 119.17 829.5 61.5 c
759.17 3.83 670.33 -25 563 -25 c
421.67 -25 310.67 25.67 230 127 c
133.33 249 85 447.67 85 723 c
closepath 270 723 m
270 482.33 298.17 322.17 354.5 242.5 c
410.83 162.83 480.33 123 563 123 c
645.67 123 715.17 163 771.5 243 c
827.83 323 856 483 856 723 c
856 964.33 827.83 1124.67 771.5 1204 c
715.17 1283.33 645 1323 561 1323 c
478.33 1323 412.33 1288 363 1218 c
301 1128.67 270 963.67 270 723 c
closepath } bind def
/s49 {
763 0 m
583 0 763 0 583 0 c
583 1147 583 0 583 1147 c
539.67 1105.67 482.83 1064.33 412.5 1023 c
342.17 981.67 279 950.67 223 930 c
223 1104 223 930 223 1104 c
323.67 1151.33 411.67 1208.67 487 1276 c
562.33 1343.33 615.67 1408.67 647 1472 c
763 1472 647 1472 763 1472 c
763 0 763 1472 763 0 c
closepath } bind def
/s50 {
1031 173 m
1031 0 1031 173 1031 0 c
62 0 1031 0 62 0 c
60.67 43.33 67.67 85 83 125 c
107.67 191 147.17 256 201.5 320 c
255.83 384 334.33 458 437 542 c
596.33 672.67 704 776.17 760 852.5 c
816 928.83 844 1001 844 1069 c
844 1140.33 818.5 1200.5 767.5 1249.5 c
716.5 1298.5 650 1323 568 1323 c
481.33 1323 412 1297 360 1245 c
308 1193 281.67 1121 281 1029 c
96 1048 281 1029 96 1048 c
108.67 1186 156.33 1291.17 239 1363.5 c
321.67 1435.83 432.67 1472 572 1472 c
712.67 1472 824 1433 906 1355 c
988 1277 1029 1180.33 1029 1065 c
1029 1006.33 1017 948.67 993 892 c
969 835.33 929.17 775.67 873.5 713 c
817.83 650.33 725.33 564.33 596 455 c
488 364.33 418.67 302.83 388 270.5 c
357.33 238.17 332 205.67 312 173 c
1031 173 312 173 1031 173 c
closepath } bind def
/s53 {
85 384 m
274 400 85 384 274 400 c
288 308 320.5 238.83 371.5 192.5 c
422.5 146.17 484 123 556 123 c
642.67 123 716 155.67 776 221 c
836 286.33 866 373 866 481 c
866 583.67 837.17 664.67 779.5 724 c
721.83 783.33 646.33 813 553 813 c
495 813 442.67 799.83 396 773.5 c
349.33 747.17 312.67 713 286 671 c
117 693 286 671 117 693 c
259 1446 117 693 259 1446 c
988 1446 259 1446 988 1446 c
988 1274 988 1446 988 1274 c
403 1274 988 1274 403 1274 c
324 880 403 1274 324 880 c
412 941.33 504.33 972 601 972 c
729 972 837 927.67 925 839 c
1013 750.33 1057 636.33 1057 497 c
1057 364.33 1018.33 249.67 941 153 c
847 34.33 718.67 -25 556 -25 c
422.67 -25 313.83 12.33 229.5 87 c
145.17 161.67 97 260.67 85 384 c
closepath } bind def
/s55 {
97 1274 m
97 1447 97 1274 97 1447 c
1046 1447 97 1447 1046 1447 c
1046 1307 1046 1447 1046 1307 c
952.67 1207.67 860.17 1075.67 768.5 911 c
676.83 746.33 606 577 556 403 c
520 280.33 497 146 487 0 c
302 0 487 0 302 0 c
304 115.33 326.67 254.67 370 418 c
413.33 581.33 475.5 738.83 556.5 890.5 c
637.5 1042.17 723.67 1170 815 1274 c
97 1274 815 1274 97 1274 c
closepath } bind def
/s126 {
87 557 m
87 762 87 557 87 762 c
157.67 842 250.33 882 365 882 c
405 882 447 876.17 491 864.5 c
535 852.83 597.67 829.67 679 795 c
725 775.67 759.5 763 782.5 757 c
805.5 751 828.67 748 852 748 c
895.33 748 940.17 761 986.5 787 c
1032.83 813 1074 845.67 1110 885 c
1110 673 1110 885 1110 673 c
1067.33 633 1024.17 604 980.5 586 c
936.83 568 887.67 559 833 559 c
793 559 754.83 563.67 718.5 573 c
682.17 582.33 624.5 604.67 545.5 640 c
466.5 675.33 400.67 693 348 693 c
305.33 693 265.17 683.83 227.5 665.5 c
189.83 647.17 143 611 87 557 c
closepath } bind def
end
/BuildGlyph {
 exch dup /Metrics get 2 index get 0 setcharwidth
/CharProcs get exch 2 copy known not{pop/.notdef}if get exec fill}bind def
/BuildChar {
1 index /Encoding get exch get
1 index /BuildGlyph get exec
} bind def
currentdict end /MC3_Arial exch definefont pop
%%EndFont
/clipproc{clippath{[{/m cvx}{/l cvx}{/c cvx}{/cp cvx}pathforall}stopped
{cleartomark[pathbbox exch 3 i sub exch 2 i sub/rectpath cvx}if]np}bd
/iclmtx mtx cmtx def/iclpath clipproc xd/clinit{pathproc initclip np iclpath cl np exec}bd
/clmove{pathproc 3 1 roll clippath pathproc 2 i neg 2 i neg tr initclip np exec cl tr np exec}bd
/clrect[gs np iclpath{pathbbox}stopped{0 0 864 720 }if gr]def
/cloper{mtx cmtx iclmtx smtx exch exec smtx}bd
/cland{{exch cvx exec}cloper}bd
/clcopy{{exch clinit cvx exec}cloper}bd
/cldiff{{exch pathbbox 4 -1 roll clrect 0 get 2 copy gt{exch}if pop 4 1 roll
 3 -1 roll clrect 1 get 2 copy gt{exch}if pop 3 1 roll
 2 -1 roll clrect 2 get 2 copy lt{exch}if pop 2 1 roll
 1 -1 roll clrect 3 get 2 copy lt{exch}if pop 1 1 roll
 exch 3 i sub exch 2 i sub rectpath cvx exec}cloper}bd
/icl{{clinit}cloper}bd
0.239949 0.239942 sc

/initmtx mtx cmtx def
[1.00022 -0 0 -1.00025 0 3000.73] concat
gs
gs
pathproc 375 282 3208 2481 np rectpath
/eocl cland
np exec
411 2588 m
696 2588 l
696 2762 l
411 2762 l
cp
gs
0.502 0.502 0.502 rgb
eofi
gr
5 sw
0.502 0.502 0.502 rgb
1 sj
1 scap
st
411 2588 m
696 2588 l
0 0 0 rgb
st
696 2588 m
696 2762 l
st
411 2762 m
411 2588 l
st
767 728 m
1052 728 l
1052 2762 l
767 2762 l
cp
gs
0.502 0.502 0.502 rgb
eofi
gr
0.502 0.502 0.502 rgb
st
767 728 m
1052 728 l
0 0 0 rgb
st
1052 728 m
1052 2762 l
st
767 2762 m
767 728 l
st
1123 828 m
1408 828 l
1408 2762 l
1123 2762 l
cp
gs
0.502 0.502 0.502 rgb
eofi
gr
0.502 0.502 0.502 rgb
st
1123 828 m
1408 828 l
0 0 0 rgb
st
1408 828 m
1408 2762 l
st
1123 2762 m
1123 828 l
st
1836 332 m
2121 332 l
2121 2762 l
1836 2762 l
cp
gs
0.502 0.502 0.502 rgb
eofi
gr
0.502 0.502 0.502 rgb
st
1836 332 m
2121 332 l
0 0 0 rgb
st
2121 332 m
2121 2762 l
st
1836 2762 m
1836 332 l
st
2549 629 m
2834 629 l
2834 2762 l
2549 2762 l
cp
gs
0.502 0.502 0.502 rgb
eofi
gr
0.502 0.502 0.502 rgb
st
2549 629 m
2834 629 l
0 0 0 rgb
st
2834 629 m
2834 2762 l
st
2549 2762 m
2549 629 l
st
2905 1671 m
3190 1671 l
3190 2762 l
2905 2762 l
cp
gs
0.502 0.502 0.502 rgb
eofi
gr
0.502 0.502 0.502 rgb
st
2905 1671 m
3190 1671 l
0 0 0 rgb
st
3190 1671 m
3190 2762 l
st
2905 2762 m
2905 1671 l
st
gr
gs
pathproc 375 282 3208 2481 np rectpath
/eocl cland
np exec
412 1573 m
695 1856 l
3 sw
1 sj
1 scap
st
412 1622 m
695 1905 l
st
412 1671 m
695 1954 l
st
412 1720 m
695 2003 l
st
412 1769 m
695 2052 l
st
412 1818 m
695 2101 l
st
412 1867 m
695 2150 l
st
412 1916 m
695 2199 l
st
412 1965 m
695 2248 l
st
412 2014 m
695 2297 l
st
412 2063 m
695 2346 l
st
412 2112 m
695 2395 l
st
412 2161 m
695 2444 l
st
412 2210 m
695 2493 l
st
412 2259 m
695 2542 l
st
412 2308 m
691 2587 l
st
412 2357 m
642 2587 l
st
412 2406 m
593 2587 l
st
412 2455 m
544 2587 l
st
412 2504 m
495 2587 l
st
412 2553 m
446 2587 l
st
412 1573 m
695 1856 l
st
461 1573 m
695 1807 l
st
510 1573 m
695 1758 l
st
559 1573 m
695 1709 l
st
608 1573 m
695 1660 l
st
657 1573 m
695 1611 l
st
411 1572 m
696 1572 l
5 sw
st
696 1572 m
696 2588 l
st
696 2588 m
411 2588 l
st
411 2588 m
411 1572 l
st
768 432 m
1051 715 l
3 sw
st
768 481 m
1014 727 l
st
768 530 m
965 727 l
st
768 579 m
916 727 l
st
768 628 m
867 727 l
st
768 677 m
818 727 l
st
768 726 m
769 727 l
st
768 432 m
1051 715 l
st
817 432 m
1051 666 l
st
866 432 m
1051 617 l
st
915 432 m
1051 568 l
st
964 432 m
1051 519 l
st
1013 432 m
1051 470 l
st
767 431 m
1052 431 l
5 sw
st
1052 431 m
1052 728 l
st
1052 728 m
767 728 l
st
767 728 m
767 431 l
st
1124 556 m
1395 827 l
3 sw
st
1124 605 m
1346 827 l
st
1124 654 m
1297 827 l
st
1124 703 m
1248 827 l
st
1124 752 m
1199 827 l
st
1124 801 m
1150 827 l
st
1124 556 m
1395 827 l
st
1173 556 m
1407 790 l
st
1222 556 m
1407 741 l
st
1271 556 m
1407 692 l
st
1320 556 m
1407 643 l
st
1369 556 m
1407 594 l
st
1123 555 m
1408 555 l
5 sw
st
1408 555 m
1408 828 l
st
1408 828 m
1123 828 l
st
1123 828 m
1123 555 l
st
1481 2614 m
1628 2761 l
3 sw
st
1481 2663 m
1579 2761 l
st
1481 2712 m
1530 2761 l
st
1481 2614 m
1628 2761 l
st
1530 2614 m
1677 2761 l
st
1579 2614 m
1726 2761 l
st
1628 2614 m
1764 2750 l
st
1677 2614 m
1764 2701 l
st
1726 2614 m
1764 2652 l
st
1480 2613 m
1765 2613 l
5 sw
st
1765 2613 m
1765 2762 l
st
1480 2762 m
1480 2613 l
st
2550 506 m
2672 628 l
3 sw
st
2550 555 m
2623 628 l
st
2550 604 m
2574 628 l
st
2550 506 m
2672 628 l
st
2599 506 m
2721 628 l
st
2648 506 m
2770 628 l
st
2697 506 m
2819 628 l
st
2746 506 m
2833 593 l
st
2795 506 m
2833 544 l
st
2549 505 m
2834 505 l
5 sw
st
2834 505 m
2834 629 l
st
2834 629 m
2549 629 l
st
2549 629 m
2549 505 l
st
2906 903 m
3189 1186 l
3 sw
st
2906 952 m
3189 1235 l
st
2906 1001 m
3189 1284 l
st
2906 1050 m
3189 1333 l
st
2906 1099 m
3189 1382 l
st
2906 1148 m
3189 1431 l
st
2906 1197 m
3189 1480 l
st
2906 1246 m
3189 1529 l
st
2906 1295 m
3189 1578 l
st
2906 1344 m
3189 1627 l
st
2906 1393 m
3183 1670 l
st
2906 1442 m
3134 1670 l
st
2906 1491 m
3085 1670 l
st
2906 1540 m
3036 1670 l
st
2906 1589 m
2987 1670 l
st
2906 1638 m
2938 1670 l
st
2906 903 m
3189 1186 l
st
2955 903 m
3189 1137 l
st
3004 903 m
3189 1088 l
st
3053 903 m
3189 1039 l
st
3102 903 m
3189 990 l
st
3151 903 m
3189 941 l
st
2905 902 m
3190 902 l
5 sw
st
3190 902 m
3190 1671 l
st
3190 1671 m
2905 1671 l
st
2905 1671 m
2905 902 l
st
gr
gs
pathproc 375 282 3208 2481 np rectpath
/eocl cland
np exec
411 828 m
696 828 l
696 1572 l
411 1572 l
cp
gs
0.753 0.753 0.753 rgb
eofi
gr
5 sw
1 sj
1 scap
st
767 356 m
1052 356 l
1052 431 l
767 431 l
cp
gs
0.753 0.753 0.753 rgb
eofi
gr
st
1123 431 m
1408 431 l
1408 555 l
1123 555 l
cp
gs
0.753 0.753 0.753 rgb
eofi
gr
st
1480 1100 m
1765 1100 l
1765 2613 l
1480 2613 l
cp
gs
0.753 0.753 0.753 rgb
eofi
gr
st
2192 778 m
2477 778 l
2477 2762 l
2192 2762 l
cp
gs
0.753 0.753 0.753 rgb
eofi
gr
0.753 0.753 0.753 rgb
st
2192 778 m
2477 778 l
0 0 0 rgb
st
2477 778 m
2477 2762 l
st
2192 2762 m
2192 778 l
st
2549 431 m
2834 431 l
2834 505 l
2549 505 l
cp
gs
0.753 0.753 0.753 rgb
eofi
gr
st
2905 530 m
3190 530 l
3190 902 l
2905 902 l
cp
gs
0.753 0.753 0.753 rgb
eofi
gr
st
3261 2390 m
3546 2390 l
3546 2762 l
3261 2762 l
cp
gs
0.753 0.753 0.753 rgb
eofi
gr
0.753 0.753 0.753 rgb
st
3261 2390 m
3546 2390 l
0 0 0 rgb
st
3546 2390 m
3546 2762 l
st
3261 2762 m
3261 2390 l
st
gr
gs
pathproc 375 282 3208 2481 np rectpath
/eocl cland
np exec
412 283 m
695 283 l
3 sw
1 sj
1 scap
st
412 318 m
695 318 l
st
412 353 m
695 353 l
st
412 388 m
695 388 l
st
412 423 m
695 423 l
st
412 458 m
695 458 l
st
412 493 m
695 493 l
st
412 528 m
695 528 l
st
412 563 m
695 563 l
st
412 598 m
695 598 l
st
412 633 m
695 633 l
st
412 668 m
695 668 l
st
412 703 m
695 703 l
st
412 738 m
695 738 l
st
412 773 m
695 773 l
st
412 808 m
695 808 l
st
412 283 m
412 827 l
st
447 283 m
447 827 l
st
482 283 m
482 827 l
st
517 283 m
517 827 l
st
552 283 m
552 827 l
st
587 283 m
587 827 l
st
622 283 m
622 827 l
st
657 283 m
657 827 l
st
692 283 m
692 827 l
st
696 282 m
696 828 l
5 sw
st
696 828 m
411 828 l
st
411 828 m
411 282 l
st
768 283 m
1051 283 l
3 sw
st
768 318 m
1051 318 l
st
768 353 m
1051 353 l
st
768 283 m
768 355 l
st
803 283 m
803 355 l
st
838 283 m
838 355 l
st
873 283 m
873 355 l
st
908 283 m
908 355 l
st
943 283 m
943 355 l
st
978 283 m
978 355 l
st
1013 283 m
1013 355 l
st
1048 283 m
1048 355 l
st
1052 282 m
1052 356 l
5 sw
st
1052 356 m
767 356 l
st
767 356 m
767 282 l
st
1124 283 m
1407 283 l
3 sw
st
1124 318 m
1407 318 l
st
1124 353 m
1407 353 l
st
1124 388 m
1407 388 l
st
1124 423 m
1407 423 l
st
1124 283 m
1124 430 l
st
1159 283 m
1159 430 l
st
1194 283 m
1194 430 l
st
1229 283 m
1229 430 l
st
1264 283 m
1264 430 l
st
1299 283 m
1299 430 l
st
1334 283 m
1334 430 l
st
1369 283 m
1369 430 l
st
1404 283 m
1404 430 l
st
1408 282 m
1408 431 l
5 sw
st
1408 431 m
1123 431 l
st
1123 431 m
1123 282 l
st
1481 283 m
1764 283 l
3 sw
st
1481 318 m
1764 318 l
st
1481 353 m
1764 353 l
st
1481 388 m
1764 388 l
st
1481 423 m
1764 423 l
st
1481 458 m
1764 458 l
st
1481 493 m
1764 493 l
st
1481 528 m
1764 528 l
st
1481 563 m
1764 563 l
st
1481 598 m
1764 598 l
st
1481 633 m
1764 633 l
st
1481 668 m
1764 668 l
st
1481 703 m
1764 703 l
st
1481 738 m
1764 738 l
st
1481 773 m
1764 773 l
st
1481 808 m
1764 808 l
st
1481 843 m
1764 843 l
st
1481 878 m
1764 878 l
st
1481 913 m
1764 913 l
st
1481 948 m
1764 948 l
st
1481 983 m
1764 983 l
st
1481 1018 m
1764 1018 l
st
1481 1053 m
1764 1053 l
st
1481 1088 m
1764 1088 l
st
1481 283 m
1481 1099 l
st
1516 283 m
1516 1099 l
st
1551 283 m
1551 1099 l
st
1586 283 m
1586 1099 l
st
1621 283 m
1621 1099 l
st
1656 283 m
1656 1099 l
st
1691 283 m
1691 1099 l
st
1726 283 m
1726 1099 l
st
1761 283 m
1761 1099 l
st
1765 282 m
1765 1100 l
5 sw
st
1765 1100 m
1480 1100 l
st
1480 1100 m
1480 282 l
st
1837 283 m
2120 283 l
3 sw
st
1837 318 m
2120 318 l
st
1837 283 m
1837 331 l
st
1872 283 m
1872 331 l
st
1907 283 m
1907 331 l
st
1942 283 m
1942 331 l
st
1977 283 m
1977 331 l
st
2012 283 m
2012 331 l
st
2047 283 m
2047 331 l
st
2082 283 m
2082 331 l
st
2117 283 m
2117 331 l
st
2121 282 m
2121 332 l
5 sw
st
2121 332 m
1836 332 l
st
1836 332 m
1836 282 l
st
2193 283 m
2476 283 l
3 sw
st
2193 318 m
2476 318 l
st
2193 353 m
2476 353 l
st
2193 388 m
2476 388 l
st
2193 423 m
2476 423 l
st
2193 458 m
2476 458 l
st
2193 493 m
2476 493 l
st
2193 528 m
2476 528 l
st
2193 563 m
2476 563 l
st
2193 598 m
2476 598 l
st
2193 633 m
2476 633 l
st
2193 668 m
2476 668 l
st
2193 703 m
2476 703 l
st
2193 738 m
2476 738 l
st
2193 773 m
2476 773 l
st
2193 283 m
2193 777 l
st
2228 283 m
2228 777 l
st
2263 283 m
2263 777 l
st
2298 283 m
2298 777 l
st
2333 283 m
2333 777 l
st
2368 283 m
2368 777 l
st
2403 283 m
2403 777 l
st
2438 283 m
2438 777 l
st
2473 283 m
2473 777 l
st
2477 282 m
2477 778 l
5 sw
st
2477 778 m
2192 778 l
st
2192 778 m
2192 282 l
st
2550 283 m
2833 283 l
3 sw
st
2550 318 m
2833 318 l
st
2550 353 m
2833 353 l
st
2550 388 m
2833 388 l
st
2550 423 m
2833 423 l
st
2550 283 m
2550 430 l
st
2585 283 m
2585 430 l
st
2620 283 m
2620 430 l
st
2655 283 m
2655 430 l
st
2690 283 m
2690 430 l
st
2725 283 m
2725 430 l
st
2760 283 m
2760 430 l
st
2795 283 m
2795 430 l
st
2830 283 m
2830 430 l
st
2834 282 m
2834 431 l
5 sw
st
2834 431 m
2549 431 l
st
2549 431 m
2549 282 l
st
2906 283 m
3189 283 l
3 sw
st
2906 318 m
3189 318 l
st
2906 353 m
3189 353 l
st
2906 388 m
3189 388 l
st
2906 423 m
3189 423 l
st
2906 458 m
3189 458 l
st
2906 493 m
3189 493 l
st
2906 528 m
3189 528 l
st
2906 283 m
2906 529 l
st
2941 283 m
2941 529 l
st
2976 283 m
2976 529 l
st
3011 283 m
3011 529 l
st
3046 283 m
3046 529 l
st
3081 283 m
3081 529 l
st
3116 283 m
3116 529 l
st
3151 283 m
3151 529 l
st
3186 283 m
3186 529 l
st
3190 282 m
3190 530 l
5 sw
st
3190 530 m
2905 530 l
st
2905 530 m
2905 282 l
st
3262 283 m
3545 283 l
3 sw
st
3262 318 m
3545 318 l
st
3262 353 m
3545 353 l
st
3262 388 m
3545 388 l
st
3262 423 m
3545 423 l
st
3262 458 m
3545 458 l
st
3262 493 m
3545 493 l
st
3262 528 m
3545 528 l
st
3262 563 m
3545 563 l
st
3262 598 m
3545 598 l
st
3262 633 m
3545 633 l
st
3262 668 m
3545 668 l
st
3262 703 m
3545 703 l
st
3262 738 m
3545 738 l
st
3262 773 m
3545 773 l
st
3262 808 m
3545 808 l
st
3262 843 m
3545 843 l
st
3262 878 m
3545 878 l
st
3262 913 m
3545 913 l
st
3262 948 m
3545 948 l
st
3262 983 m
3545 983 l
st
3262 1018 m
3545 1018 l
st
3262 1053 m
3545 1053 l
st
3262 1088 m
3545 1088 l
st
3262 1123 m
3545 1123 l
st
3262 1158 m
3545 1158 l
st
3262 1193 m
3545 1193 l
st
3262 1228 m
3545 1228 l
st
3262 1263 m
3545 1263 l
st
3262 1298 m
3545 1298 l
st
3262 1333 m
3545 1333 l
st
3262 1368 m
3545 1368 l
st
3262 1403 m
3545 1403 l
st
3262 1438 m
3545 1438 l
st
3262 1473 m
3545 1473 l
st
3262 1508 m
3545 1508 l
st
3262 1543 m
3545 1543 l
st
3262 1578 m
3545 1578 l
st
3262 1613 m
3545 1613 l
st
3262 1648 m
3545 1648 l
st
3262 1683 m
3545 1683 l
st
3262 1718 m
3545 1718 l
st
3262 1753 m
3545 1753 l
st
3262 1788 m
3545 1788 l
st
3262 1823 m
3545 1823 l
st
3262 1858 m
3545 1858 l
st
3262 1893 m
3545 1893 l
st
3262 1928 m
3545 1928 l
st
3262 1963 m
3545 1963 l
st
3262 1998 m
3545 1998 l
st
3262 2033 m
3545 2033 l
st
3262 2068 m
3545 2068 l
st
3262 2103 m
3545 2103 l
st
3262 2138 m
3545 2138 l
st
3262 2173 m
3545 2173 l
st
3262 2208 m
3545 2208 l
st
3262 2243 m
3545 2243 l
st
3262 2278 m
3545 2278 l
st
3262 2313 m
3545 2313 l
st
3262 2348 m
3545 2348 l
st
3262 2383 m
3545 2383 l
st
3262 283 m
3262 2389 l
st
3297 283 m
3297 2389 l
st
3332 283 m
3332 2389 l
st
3367 283 m
3367 2389 l
st
3402 283 m
3402 2389 l
st
3437 283 m
3437 2389 l
st
3472 283 m
3472 2389 l
st
3507 283 m
3507 2389 l
st
3542 283 m
3542 2389 l
st
3546 282 m
3546 2390 l
5 sw
st
3546 2390 m
3261 2390 l
st
3261 2390 m
3261 282 l
st
gr
gs
gs
1 -1 sc
415 -2977 tr
20 ro
/MC1_Arial 166 self 0 0 m
(DLL)[120 92 92 ] xs
1 -1 sc
gr
gr
gs
gs
1 -1 sc
711 -2999 tr
20 ro
/MC1_Arial 166 self 0 0 m
(DOC)[120 129 120 ] xs
1 -1 sc
gr
gr
gs
gs
1 -1 sc
1101 -2987 tr
20 ro
/MC1_Arial 166 self 0 0 m
(EXE)[111 111 111 ] xs
1 -1 sc
gr
gr
gs
gs
1 -1 sc
1346 -3027 tr
20 ro
/MC1_Arial 166 self 0 0 m
(HTML)[120 101 138 92 ] xs
1 -1 sc
gr
gr
gs
gs
1 -1 sc
1823 -2984 tr
20 ro
/MC1_Arial 166 self 0 0 m
(JPG)[83 111 129 ] xs
1 -1 sc
gr
gr
gs
gs
1 -1 sc
2154 -2993 tr
20 ro
/MC1_Arial 166 self 0 0 m
(LOG)[92 129 129 ] xs
1 -1 sc
gr
gr
gs
gs
1 -1 sc
2527 -2987 tr
20 ro
/MC1_Arial 166 self 0 0 m
(PDF)[111 120 101 ] xs
1 -1 sc
gr
gr
gs
gs
1 -1 sc
2902 -2980 tr
20 ro
/MC1_Arial 166 self 0 0 m
(TXT)[101 111 101 ] xs
1 -1 sc
gr
gr
gs
gs
1 -1 sc
3232 -2990 tr
20 ro
/MC1_Arial 166 self 0 0 m
(XML)[111 138 92 ] xs
1 -1 sc
gr
gr
gs
1 -1 sc
/MC1_Arial 188 self 270 -2856 m
(0)[105 ] xs
1 -1 sc
gr
gs
1 -1 sc
/MC1_Arial 188 self 165 -2608 m
(10)[105 105 ] xs
1 -1 sc
gr
gs
1 -1 sc
/MC1_Arial 188 self 165 -2360 m
(20)[105 105 ] xs
1 -1 sc
gr
gs
1 -1 sc
/MC1_Arial 188 self 165 -2112 m
(30)[105 105 ] xs
1 -1 sc
gr
gs
1 -1 sc
/MC1_Arial 188 self 165 -1864 m
(40)[105 105 ] xs
1 -1 sc
gr
gs
1 -1 sc
/MC1_Arial 188 self 165 -1616 m
(50)[105 105 ] xs
1 -1 sc
gr
gs
1 -1 sc
/MC1_Arial 188 self 165 -1368 m
(60)[105 105 ] xs
1 -1 sc
gr
gs
1 -1 sc
/MC1_Arial 188 self 165 -1120 m
(70)[105 105 ] xs
1 -1 sc
gr
gs
1 -1 sc
/MC1_Arial 188 self 165 -872 m
(80)[105 105 ] xs
1 -1 sc
gr
gs
1 -1 sc
/MC1_Arial 188 self 165 -624 m
(90)[105 105 ] xs
1 -1 sc
gr
gs
1 -1 sc
/MC1_Arial 188 self 60 -376 m
(100)[105 105 105 ] xs
1 -1 sc
gr
375 2762 m
375 2762 l
7 sw
1 sj
1 scap
st
553 2762 m
553 2762 l
st
731 2762 m
731 2762 l
st
910 2762 m
910 2762 l
st
1088 2762 m
1088 2762 l
st
1266 2762 m
1266 2762 l
st
1444 2762 m
1444 2762 l
st
1622 2762 m
1622 2762 l
st
1800 2762 m
1800 2762 l
st
1978 2762 m
1978 2762 l
st
2157 2762 m
2157 2762 l
st
2335 2762 m
2335 2762 l
st
2513 2762 m
2513 2762 l
st
2691 2762 m
2691 2762 l
st
2869 2762 m
2869 2762 l
st
3048 2762 m
3048 2762 l
st
3226 2762 m
3226 2762 l
st
3404 2762 m
3404 2762 l
st
3582 2762 m
3582 2762 l
st
375 2762 m
3582 2762 l
st
375 2762 m
375 2762 l
st
375 2638 m
375 2638 l
st
375 2514 m
375 2514 l
st
375 2390 m
375 2390 l
st
375 2266 m
375 2266 l
st
375 2142 m
375 2142 l
st
375 2018 m
375 2018 l
st
375 1894 m
375 1894 l
st
375 1770 m
375 1770 l
st
375 1646 m
375 1646 l
st
375 1522 m
375 1522 l
st
375 1398 m
375 1398 l
st
375 1274 m
375 1274 l
st
375 1150 m
375 1150 l
st
375 1026 m
375 1026 l
st
375 902 m
375 902 l
st
375 778 m
375 778 l
st
375 654 m
375 654 l
st
375 530 m
375 530 l
st
375 406 m
375 406 l
st
375 282 m
375 282 l
st
375 2762 m
375 282 l
st
375 282 m
375 282 l
st
553 282 m
553 282 l
st
731 282 m
731 282 l
st
910 282 m
910 282 l
st
1088 282 m
1088 282 l
st
1266 282 m
1266 282 l
st
1444 282 m
1444 282 l
st
1622 282 m
1622 282 l
st
1800 282 m
1800 282 l
st
1978 282 m
1978 282 l
st
2157 282 m
2157 282 l
st
2335 282 m
2335 282 l
st
2513 282 m
2513 282 l
st
2691 282 m
2691 282 l
st
2869 282 m
2869 282 l
st
3048 282 m
3048 282 l
st
3226 282 m
3226 282 l
st
3404 282 m
3404 282 l
st
3582 282 m
3582 282 l
st
375 282 m
3582 282 l
st
3582 2762 m
3582 2762 l
st
3582 2638 m
3582 2638 l
st
3582 2514 m
3582 2514 l
st
3582 2390 m
3582 2390 l
st
3582 2266 m
3582 2266 l
st
3582 2142 m
3582 2142 l
st
3582 2018 m
3582 2018 l
st
3582 1894 m
3582 1894 l
st
3582 1770 m
3582 1770 l
st
3582 1646 m
3582 1646 l
st
3582 1522 m
3582 1522 l
st
3582 1398 m
3582 1398 l
st
3582 1274 m
3582 1274 l
st
3582 1150 m
3582 1150 l
st
3582 1026 m
3582 1026 l
st
3582 902 m
3582 902 l
st
3582 778 m
3582 778 l
st
3582 654 m
3582 654 l
st
3582 530 m
3582 530 l
st
3582 406 m
3582 406 l
st
3582 282 m
3582 282 l
st
3582 2762 m
3582 282 l
st
gs
gs
1 -1 sc
3767 -1667 tr
90 ro
/MC2_Arial 200 self 0 0 m
( )[56 ] xs
1 -1 sc
gr
gr
gs
1 -1 sc
/MC3_Arial 200 self 1950 -183 m
( )[56 ] xs
1 -1 sc
gr
gs
gs
1 -1 sc
148 -2885 tr
90 ro
/MC2_Arial 188 self 0 0 m
(CDF of Compression Ratio)[136 136 115 52 105 52 52 136 105 157 105 63 105 94 94 42 105 105 52 136 105 52 42 105 ] xs
1 -1 sc
gr
gr
13 10 m
3573 10 l
3573 230 l
13 230 l
cp
gs
1 1 1 rgb
eofi
gr
3 sw
st
gs
gs
gs
66 33 m
432 33 l
432 213 l
66 213 l
cp
gs
0.502 0.502 0.502 rgb
eofi
gr
5 sw
st
gr
gr
1 -1 sc
/MC3_Arial 166 self 435 -179 m
(~12.5%)[97 92 92 46 92 148 ] xs
1 -1 sc
gs
gs
1006 34 m
1184 212 l
st
1006 83 m
1135 212 l
st
1006 132 m
1086 212 l
st
1006 181 m
1037 212 l
st
1006 34 m
1184 212 l
st
1055 34 m
1233 212 l
st
1104 34 m
1282 212 l
st
1153 34 m
1331 212 l
st
1202 34 m
1370 202 l
st
1251 34 m
1370 153 l
st
1300 34 m
1370 104 l
st
1349 34 m
1370 55 l
st
1005 33 m
1371 33 l
5 sw
st
1371 33 m
1371 213 l
st
1371 213 m
1005 213 l
st
1005 213 m
1005 33 l
st
gr
gr
1 -1 sc
1374 -179 m
(~50%)[97 92 92 148 ] xs
1 -1 sc
gs
gs
1806 33 m
2172 33 l
2172 213 l
1806 213 l
cp
gs
0.753 0.753 0.753 rgb
eofi
gr
5 sw
st
gr
gr
1 -1 sc
2175 -179 m
(~75%)[97 92 92 148 ] xs
1 -1 sc
gs
gs
2608 34 m
2972 34 l
st
2608 69 m
2972 69 l
st
2608 104 m
2972 104 l
st
2608 139 m
2972 139 l
st
2608 174 m
2972 174 l
st
2608 209 m
2972 209 l
st
2608 34 m
2608 212 l
st
2643 34 m
2643 212 l
st
2678 34 m
2678 212 l
st
2713 34 m
2713 212 l
st
2748 34 m
2748 212 l
st
2783 34 m
2783 212 l
st
2818 34 m
2818 212 l
st
2853 34 m
2853 212 l
st
2888 34 m
2888 212 l
st
2923 34 m
2923 212 l
st
2958 34 m
2958 212 l
st
2607 33 m
2973 33 l
5 sw
st
2973 33 m
2973 213 l
st
2973 213 m
2607 213 l
st
2607 213 m
2607 33 l
st
gr
gr
1 -1 sc
2976 -179 m
(~100%)[97 92 92 92 148 ] xs
1 -1 sc
gr
gr
Save0 restore end
showpage
%%EOF
