%!PS-Adobe-3.0 EPSF-3.0
%%BoundingBox: 0 0 864 720
%%LanguageLevel: 2
%%Creator: OriginLab Corporation
%%Title: (C:\Users\Administrator\Documents\atc16-pagesplit\comp-perf.eps)
%%CreationDate: Sun Jan 31 00:56:31 2016
%%EndComments

/OriginLab::PSL1 128 dict dup begin def
/Save0 save def
%%BeginResource: procset OriginLab::PSL1
/wd{1 index where{pop pop pop}{bind def}ifelse}bind def
/setcmykcolor{1 sub 4 1 roll 3{3 index add neg dup 0 lt{pop 0}if 3 1 roll}repeat setrgbcolor pop}wd
/selectfont{dup type/arraytype eq{exch findfont exch makefont setfont}{exch findfont exch scalefont setfont}ifelse}wd
/xshow{1 index length 0 le{}{currentpoint exch 3 index length 1 sub 0 exch 1 exch{dup 5 index exch 1 getinterval show 3 index exch get add 2 copy exch moveto}for pop pop}ifelse pop pop}wd
/glyphshow{matrix currentmatrix exch currentfont dup/FontMatrix get concat currentpoint translate
 dup/Metrics get 2 index get 0 4 2 roll gsave/CharProcs get exch 2 copy known not{pop/.notdef}if
 get exec fill grestore moveto setmatrix}wd
/grayimage/image load def/rgbtogray{cvx exec dup length 3 idiv 1 sub 0 exch 1 exch{dup 3 mul dup 3 index exch get 255 div .3 mul exch
 1 add dup 4 index exch get 255 div .59 mul exch 1 add 4 index exch get 255 div .11 mul add add
 255 mul dup 255 gt{255}if round cvi 2 index 3 1 roll put}for dup length 3 idiv 0 exch getinterval}bind def
/colorimage{0 setgray pop pop cvlit/rgbtogray cvx 2 packedarray cvx grayimage}wd
/bd{bind def}bind def/ld{load def}bd/ed{exch def}bd/xd{cvx def}bd
/np/newpath ld/a/arc ld/m/moveto ld/l/lineto ld/c/curveto ld/rm/rmoveto ld/rl/rlineto ld/rc/rcurveto ld/cp/closepath ld/cpt/currentpoint ld
/tr/translate ld/sc/scale ld/ro/rotate ld/t/transform ld/it/itransform ld/dt/dtransform ld/idt/idtransform ld
/mtx/matrix ld/cmtx/currentmatrix ld/dmtx/defaultmatrix ld/smtx/setmatrix ld/catmtx/concatmatrix ld
/sw/setlinewidth ld/scap/setlinecap ld/sj/setlinejoin ld/sm/setmiterlimit ld/sd/setdash ld/rgb/setrgbcolor ld/crgb/currentrgbcolor ld/cmyk/setcmykcolor ld/gs/gsave ld/gr/grestore ld
/st/stroke ld/fi/fill ld/eofi/eofill ld/cl/clip ld/eocl/eoclip ld
/df/definefont ld/ff/findfont ld/sf/setfont ld/scf/scalefont ld/self/selectfont ld/cf/currentfont ld
/s/show ld/xs/xshow ld/gls/glyphshow ld/xgls{cpt 3 1 roll add exch 3 -1 roll gls m}bd
/cd/currentdict ld/i/index ld
/DrawBox{4 2 roll m 1 index 0 rl 0 exch rl neg 0 rl cp}bd
/plus.re { 6 { 3 index } repeat moveto 0 exch rlineto 0 rlineto pop pop neg 0 exch rlineto pop lineto closepath } def
/DrawBcc{4 2 roll m 2 copy 0 lt exch 0 lt xor{dup 0 exch rl exch 0 rl neg 0 exch rl}{exch dup 0 rl exch 0 exch rl neg 0 rl}ifelse cp}bd
/rectline{dup type/arraytype eq{dup length 0 exch 4 exch 4 sub{0 1 3{3 copy add get 4 1 roll pop}for pop 5 1 roll DrawBox}for pop}{DrawBox}ifelse}bd
/rectpath{dup type/arraytype eq{dup length 0 exch 4 exch 4 sub{0 1 3{3 copy add get 4 1 roll pop}for pop 5 1 roll DrawBcc}for pop}{DrawBcc}ifelse}bd
/pathproc{[{/m cvx}{/l cvx}{/c cvx}{/cp cvx}pathforall]cvx}bd
/L1img/image ld/L1idx[{0}
 {dup 7 and 3 1 roll -3 bitshift get exch 7 sub 1 mul bitshift  1 and}bind 1 index dup
 {dup 1 and 3 1 roll -1 bitshift get exch 1 sub 4 mul bitshift 15 and}bind 1 index dup dup
 {get}bind]def
/image{dup type/dicttype eq {dup/ImgCS get 0 get/Indexed eq}{false}ifelse
 {begin Width Height 8 ImageMatrix {rgb_string rgb_lookup
 cd/DataSource get dup type/filetype eq
 {mystring readstring pop}{exec}ifelse
 dup length 0 ne
 {L1idx BitsPerComponent get 0 1 Width 1 sub
 {3 copy exch exec exch 3 mul exch
 3 mul dup 5 index exch get exch 1 add dup 6 index exch get exch 1 add 6 index exch get
 7 index exch 4 index 2 add exch put 6 index exch 3 index 1 add exch put 5 index exch 2 index exch put pop
 }for pop pop pop }{pop pop pop ()}ifelse }false 3 colorimage end} {dup type/dicttype eq
 {{dup mark exch L1img pop pop}stopped{cleartomark begin Width Height BitsPerComponent ImageMatrix
 {cd/DataSource get dup type/filetype eq {mystring readstring pop}{exec}ifelse
 }false 3 colorimage end} if}{L1img}ifelse}ifelse
 }bd
/L1imgmask/imagemask ld/imagemask{dup type/dicttype eq
 {{dup mark exch L1imgmask pop pop}stopped {cleartomark begin Width Height polarityflag ImageMatrix
 {cd/DataSource get dup type/filetype eq {mystring readstring pop}{exec}ifelse
 }L1imgmask end}if}{L1imgmask}ifelse
 }bd
% Gradient function
/GradientStep 1 150 div def
/GradientStartRGB { /R1 exch def /G1 exch def /B1 exch def } def
/GradientEndRGB { /R2 exch def /G2 exch def /B2 exch def
/GradientSteps GradientLength GradientStep div def
/GradientRStep R2 R1 sub GradientSteps div def
/GradientGStep G2 G1 sub GradientSteps div def
/GradientBStep B2 B1 sub GradientSteps div def
} def
/GradientStepRGB { /R1 R1 GradientRStep add def
/G1 G1 GradientGStep add def
/B1 B1 GradientBStep add def
R1 G1 B1 setrgbcolor
} def
%%EndResource
/rectclip{np rectpath clip np}wd
/rectfill{gs np rectpath fi gr}wd
/rectstroke{gs np dup type/arraytype eq{dup length 6 eq}{false}ifelse{1 index type/arraytype eq{exch}{5 1 roll}ifelse rectline concat st}{rectline st}ifelse gr}wd
%%BeginResource: procset OriginLab::Image
/OriginLab::Image 32 dict dup begin
/BinProc{[currentfile mystring /readstring cvx /pop cvx] cvx bind}bd
/HexProc{[currentfile mystring /readhexstring cvx /pop cvx] cvx bind}bd
/Ascii85Proc{currentfile /ASCII85Decode filter}bd
/LZWA85{currentfile /ASCII85Decode filter /LZWDecode filter}bd
/ImgProcArray[/BinProc /HexProc /Ascii85Proc /LZWA85]def
/ImgDict{/ImgDict 16 dict def ImgDict dup begin /ImageType 1 def /MultipleDataSource false def end}bd
/L2Dec{{[1 0]}{[0 1]}ifelse}bd
/BegImg{ /Img_sv save def
 /ImgDir ed ImgProcArray exch get /ImgProc exch ld
 dup /polarityflag ed L2Dec /polarity ed /smoothflag ed
 tr /dx 2 index def /dy 1 index abs def sc
 string /mystring ed /bpc ed /ih ed /iw ed
 }bd
/EndImg {Img_sv restore}bd
/DoXImg{ /rgb_lookup ed /hival ed ImgDict dup begin
 [/Indexed /DeviceRGB hival rgb_lookup] /L1img where{pop/ImgCS ed}{setcolorspace}ifelse
 /rgb_string iw 3 mul string def
 /Width iw def
 /Height ih def
 /Decode [0 1 bpc{2 mul}repeat 1 sub] def
 /ImageMatrix
  ImgDir 0 eq{[iw 0 0 ih 0 0]}if
  ImgDir 1 eq{[iw neg 0 0 ih iw 0]}if
  ImgDir 2 eq{[iw 0 0 ih neg 0 ih]}if
  ImgDir 3 eq{[iw neg 0 0 ih neg iw ih]}if
  def
 /DataSource ImgProc def
 /BitsPerComponent bpc def
 /Interpolate smoothflag def
 end image}bd
/DoImg{ ImgDict dup begin
 [/DeviceRGB] /L1img where{pop/ImgCS ed}{setcolorspace}ifelse
 /rgb_string iw 3 mul string def
 /Width iw def
 /Height ih def
 /Decode [0 1 0 1 0 1] def
 /ImageMatrix
  ImgDir 0 eq{[iw 0 0 ih 0 0]}if
  ImgDir 1 eq{[iw neg 0 0 ih iw 0]}if
  ImgDir 2 eq{[iw 0 0 ih neg 0 ih]}if
  ImgDir 3 eq{[iw neg 0 0 ih neg iw ih]}if
  def
 /DataSource ImgProc def
 /BitsPerComponent 8 def
 /Interpolate smoothflag def
 end image}bd
end def
%%EndResource
%%BeginFont: /MC1_Arial
12 dict begin
/FontInfo 8 dict dup begin
/ItalicAngle 0 def
/UnderlinePosition -217.00 def
/UnderlineThickness 150.00 def
/StrikeoutPosition 530.00 def
/StrikeoutThickness 102.00 def
/isFixedPitch false def
end readonly def
/FontName /MC1_Arial def
/FontType 3 def
/FontMatrix [1 2048 div 0 0 1 2048 div 0 0] def
/FontBBox [-1361 -665 4096 2060] def
/Encoding 256 array def 0 1 255{Encoding exch/.notdef put}for
Encoding 32/s32 put
Encoding 46/s46 put
Encoding 48/s48 put
Encoding 49/s49 put
Encoding 50/s50 put
Encoding 51/s51 put
Encoding 52/s52 put
Encoding 53/s53 put
Encoding 54/s54 put
Encoding 55/s55 put
Encoding 56/s56 put
Encoding 57/s57 put
Encoding 68/s68 put
Encoding 69/s69 put
Encoding 72/s72 put
Encoding 76/s76 put
Encoding 77/s77 put
Encoding 84/s84 put
Encoding 88/s88 put
/BoundingBoxes 20 dict def
BoundingBoxes begin
/s32 [0 -434 569 1854] def
/s46 [0 -434 569 1854] def
/s48 [0 -434 1139 1854] def
/s49 [0 -434 1139 1854] def
/s50 [0 -434 1139 1854] def
/s51 [0 -434 1139 1854] def
/s52 [0 -434 1139 1854] def
/s53 [0 -434 1139 1854] def
/s54 [0 -434 1139 1854] def
/s55 [0 -434 1139 1854] def
/s56 [0 -434 1139 1854] def
/s57 [0 -434 1139 1854] def
/s68 [0 -434 1479 1854] def
/s69 [0 -434 1366 1854] def
/s72 [0 -434 1479 1854] def
/s76 [0 -434 1139 1854] def
/s77 [0 -434 1706 1854] def
/s84 [0 -434 1251 1854] def
/s88 [0 -434 1366 1854] def
end
/Metrics 20 dict def
 Metrics begin
/s32 569 def
/s46 569 def
/s48 1139 def
/s49 1139 def
/s50 1139 def
/s51 1139 def
/s52 1139 def
/s53 1139 def
/s54 1139 def
/s55 1139 def
/s56 1139 def
/s57 1139 def
/s68 1479 def
/s69 1366 def
/s72 1479 def
/s76 1139 def
/s77 1706 def
/s84 1251 def
/s88 1366 def
end
/CharProcs 20 dict def
CharProcs begin
/.notdef {} def
/s46 {
186 0 m
186 205 186 0 186 205 c
391 205 186 205 391 205 c
391 0 391 205 391 0 c
186 0 391 0 186 0 c
closepath } bind def
/s48 {
85 723 m
85 896.33 102.83 1035.83 138.5 1141.5 c
174.17 1247.17 227.17 1328.67 297.5 1386 c
367.83 1443.33 456.33 1472 563 1472 c
641.67 1472 710.67 1456.17 770 1424.5 c
829.33 1392.83 878.33 1347.17 917 1287.5 c
955.67 1227.83 986 1155.17 1008 1069.5 c
1030 983.83 1041 868.33 1041 723 c
1041 551 1023.33 412.17 988 306.5 c
952.67 200.83 899.83 119.17 829.5 61.5 c
759.17 3.83 670.33 -25 563 -25 c
421.67 -25 310.67 25.67 230 127 c
133.33 249 85 447.67 85 723 c
closepath 270 723 m
270 482.33 298.17 322.17 354.5 242.5 c
410.83 162.83 480.33 123 563 123 c
645.67 123 715.17 163 771.5 243 c
827.83 323 856 483 856 723 c
856 964.33 827.83 1124.67 771.5 1204 c
715.17 1283.33 645 1323 561 1323 c
478.33 1323 412.33 1288 363 1218 c
301 1128.67 270 963.67 270 723 c
closepath } bind def
/s49 {
763 0 m
583 0 763 0 583 0 c
583 1147 583 0 583 1147 c
539.67 1105.67 482.83 1064.33 412.5 1023 c
342.17 981.67 279 950.67 223 930 c
223 1104 223 930 223 1104 c
323.67 1151.33 411.67 1208.67 487 1276 c
562.33 1343.33 615.67 1408.67 647 1472 c
763 1472 647 1472 763 1472 c
763 0 763 1472 763 0 c
closepath } bind def
/s50 {
1031 173 m
1031 0 1031 173 1031 0 c
62 0 1031 0 62 0 c
60.67 43.33 67.67 85 83 125 c
107.67 191 147.17 256 201.5 320 c
255.83 384 334.33 458 437 542 c
596.33 672.67 704 776.17 760 852.5 c
816 928.83 844 1001 844 1069 c
844 1140.33 818.5 1200.5 767.5 1249.5 c
716.5 1298.5 650 1323 568 1323 c
481.33 1323 412 1297 360 1245 c
308 1193 281.67 1121 281 1029 c
96 1048 281 1029 96 1048 c
108.67 1186 156.33 1291.17 239 1363.5 c
321.67 1435.83 432.67 1472 572 1472 c
712.67 1472 824 1433 906 1355 c
988 1277 1029 1180.33 1029 1065 c
1029 1006.33 1017 948.67 993 892 c
969 835.33 929.17 775.67 873.5 713 c
817.83 650.33 725.33 564.33 596 455 c
488 364.33 418.67 302.83 388 270.5 c
357.33 238.17 332 205.67 312 173 c
1031 173 312 173 1031 173 c
closepath } bind def
/s51 {
86 387 m
266 411 86 387 266 411 c
286.67 309 321.83 235.5 371.5 190.5 c
421.17 145.5 481.67 123 553 123 c
637.67 123 709.17 152.33 767.5 211 c
825.83 269.67 855 342.33 855 429 c
855 511.67 828 579.83 774 633.5 c
720 687.17 651.33 714 568 714 c
534 714 491.67 707.33 441 694 c
461 852 441 694 461 852 c
473 850.67 482.67 850 490 850 c
566.67 850 635.67 870 697 910 c
758.33 950 789 1011.67 789 1095 c
789 1161 766.67 1215.67 722 1259 c
677.33 1302.33 619.67 1324 549 1324 c
479 1324 420.67 1302 374 1258 c
327.33 1214 297.33 1148 284 1060 c
104 1092 284 1060 104 1092 c
126 1212.67 176 1306.17 254 1372.5 c
332 1438.83 429 1472 545 1472 c
625 1472 698.67 1454.83 766 1420.5 c
833.33 1386.17 884.83 1339.33 920.5 1280 c
956.17 1220.67 974 1157.67 974 1091 c
974 1027.67 957 970 923 918 c
889 866 838.67 824.67 772 794 c
858.67 774 926 732.5 974 669.5 c
1022 606.5 1046 527.67 1046 433 c
1046 305 999.33 196.5 906 107.5 c
812.67 18.5 694.67 -26 552 -26 c
423.33 -26 316.5 12.33 231.5 89 c
146.5 165.67 98 265 86 387 c
closepath } bind def
/s52 {
662 0 m
662 351 662 0 662 351 c
26 351 662 351 26 351 c
26 516 26 351 26 516 c
695 1466 26 516 695 1466 c
842 1466 695 1466 842 1466 c
842 516 842 1466 842 516 c
1040 516 842 516 1040 516 c
1040 351 1040 516 1040 351 c
842 351 1040 351 842 351 c
842 0 842 351 842 0 c
662 0 842 0 662 0 c
closepath 662 516 m
662 1177 662 516 662 1177 c
203 516 662 1177 203 516 c
662 516 203 516 662 516 c
closepath } bind def
/s53 {
85 384 m
274 400 85 384 274 400 c
288 308 320.5 238.83 371.5 192.5 c
422.5 146.17 484 123 556 123 c
642.67 123 716 155.67 776 221 c
836 286.33 866 373 866 481 c
866 583.67 837.17 664.67 779.5 724 c
721.83 783.33 646.33 813 553 813 c
495 813 442.67 799.83 396 773.5 c
349.33 747.17 312.67 713 286 671 c
117 693 286 671 117 693 c
259 1446 117 693 259 1446 c
988 1446 259 1446 988 1446 c
988 1274 988 1446 988 1274 c
403 1274 988 1274 403 1274 c
324 880 403 1274 324 880 c
412 941.33 504.33 972 601 972 c
729 972 837 927.67 925 839 c
1013 750.33 1057 636.33 1057 497 c
1057 364.33 1018.33 249.67 941 153 c
847 34.33 718.67 -25 556 -25 c
422.67 -25 313.83 12.33 229.5 87 c
145.17 161.67 97 260.67 85 384 c
closepath } bind def
/s54 {
1019 1107 m
840 1093 1019 1107 840 1093 c
824 1163.67 801.33 1215 772 1247 c
723.33 1298.33 663.33 1324 592 1324 c
534.67 1324 484.33 1308 441 1276 c
384.33 1234.67 339.67 1174.33 307 1095 c
274.33 1015.67 257.33 902.67 256 756 c
299.33 822 352.33 871 415 903 c
477.67 935 543.33 951 612 951 c
732 951 834.17 906.83 918.5 818.5 c
1002.83 730.17 1045 616 1045 476 c
1045 384 1025.17 298.5 985.5 219.5 c
945.83 140.5 891.33 80 822 38 c
752.67 -4 674 -25 586 -25 c
436 -25 313.67 30.17 219 140.5 c
124.33 250.83 77 432.67 77 686 c
77 969.33 129.33 1175.33 234 1304 c
325.33 1416 448.33 1472 603 1472 c
718.33 1472 812.83 1439.67 886.5 1375 c
960.17 1310.33 1004.33 1221 1019 1107 c
closepath 284 475 m
284 413 297.17 353.67 323.5 297 c
349.83 240.33 386.67 197.17 434 167.5 c
481.33 137.83 531 123 583 123 c
659 123 724.33 153.67 779 215 c
833.67 276.33 861 359.67 861 465 c
861 566.33 834 646.17 780 704.5 c
726 762.83 658 792 576 792 c
494.67 792 425.67 762.83 369 704.5 c
312.33 646.17 284 569.67 284 475 c
closepath } bind def
/s55 {
97 1274 m
97 1447 97 1274 97 1447 c
1046 1447 97 1447 1046 1447 c
1046 1307 1046 1447 1046 1307 c
952.67 1207.67 860.17 1075.67 768.5 911 c
676.83 746.33 606 577 556 403 c
520 280.33 497 146 487 0 c
302 0 487 0 302 0 c
304 115.33 326.67 254.67 370 418 c
413.33 581.33 475.5 738.83 556.5 890.5 c
637.5 1042.17 723.67 1170 815 1274 c
97 1274 815 1274 97 1274 c
closepath } bind def
/s56 {
362 795 m
287.33 822.33 232 861.33 196 912 c
160 962.67 142 1023.33 142 1094 c
142 1200.67 180.33 1290.33 257 1363 c
333.67 1435.67 435.67 1472 563 1472 c
691 1472 794 1434.83 872 1360.5 c
950 1286.17 989 1195.67 989 1089 c
989 1021 971.17 961.83 935.5 911.5 c
899.83 861.17 845.67 822.33 773 795 c
863 765.67 931.5 718.33 978.5 653 c
1025.5 587.67 1049 509.67 1049 419 c
1049 293.67 1004.67 188.33 916 103 c
827.33 17.67 710.67 -25 566 -25 c
421.33 -25 304.67 17.83 216 103.5 c
127.33 189.17 83 296 83 424 c
83 519.33 107.17 599.17 155.5 663.5 c
203.83 727.83 272.67 771.67 362 795 c
closepath 326 1100 m
326 1030.67 348.33 974 393 930 c
437.67 886 495.67 864 567 864 c
636.33 864 693.17 885.83 737.5 929.5 c
781.83 973.17 804 1026.67 804 1090 c
804 1156 781.17 1211.5 735.5 1256.5 c
689.83 1301.5 633 1324 565 1324 c
496.33 1324 439.33 1302 394 1258 c
348.67 1214 326 1161.33 326 1100 c
closepath 268 423 m
268 371.67 280.17 322 304.5 274 c
328.83 226 365 188.83 413 162.5 c
461 136.17 512.67 123 568 123 c
654 123 725 150.67 781 206 c
837 261.33 865 331.67 865 417 c
865 503.67 836.17 575.33 778.5 632 c
720.83 688.67 648.67 717 562 717 c
477.33 717 407.17 689 351.5 633 c
295.83 577 268 507 268 423 c
closepath } bind def
/s57 {
112 339 m
285 355 112 339 285 355 c
299.67 273.67 327.67 214.67 369 178 c
410.33 141.33 463.33 123 528 123 c
583.33 123 631.83 135.67 673.5 161 c
715.17 186.33 749.33 220.17 776 262.5 c
802.67 304.83 825 362 843 434 c
861 506 870 579.33 870 654 c
870 662 869.67 674 869 690 c
833 632.67 783.83 586.17 721.5 550.5 c
659.17 514.83 591.67 497 519 497 c
397.67 497 295 541 211 629 c
127 717 85 833 85 977 c
85 1125.67 128.83 1245.33 216.5 1336 c
304.17 1426.67 414 1472 546 1472 c
641.33 1472 728.5 1446.33 807.5 1395 c
886.5 1343.67 946.5 1270.5 987.5 1175.5 c
1028.5 1080.5 1049 943 1049 763 c
1049 575.67 1028.67 426.5 988 315.5 c
947.33 204.5 886.83 120 806.5 62 c
726.17 4 632 -25 524 -25 c
409.33 -25 315.67 6.83 243 70.5 c
170.33 134.17 126.67 223.67 112 339 c
closepath 849 986 m
849 1089.33 821.5 1171.33 766.5 1232 c
711.5 1292.67 645.33 1323 568 1323 c
488 1323 418.33 1290.33 359 1225 c
299.67 1159.67 270 1075 270 971 c
270 877.67 298.17 801.83 354.5 743.5 c
410.83 685.17 480.33 656 563 656 c
646.33 656 714.83 685.17 768.5 743.5 c
822.17 801.83 849 882.67 849 986 c
closepath } bind def
/s68 {
158 0 m
158 1466 158 0 158 1466 c
663 1466 158 1466 663 1466 c
777 1466 864 1459 924 1445 c
1008 1425.67 1079.67 1390.67 1139 1340 c
1216.33 1274.67 1274.17 1191.17 1312.5 1089.5 c
1350.83 987.83 1370 871.67 1370 741 c
1370 629.67 1357 531 1331 445 c
1305 359 1271.67 287.83 1231 231.5 c
1190.33 175.17 1145.83 130.83 1097.5 98.5 c
1049.17 66.17 990.83 41.67 922.5 25 c
854.17 8.33 775.67 0 687 0 c
158 0 687 0 158 0 c
closepath 352 173 m
665 173 352 173 665 173 c
761.67 173 837.5 182 892.5 200 c
947.5 218 991.33 243.33 1024 276 c
1070 322 1105.83 383.83 1131.5 461.5 c
1157.17 539.17 1170 633.33 1170 744 c
1170 897.33 1144.83 1015.17 1094.5 1097.5 c
1044.17 1179.83 983 1235 911 1263 c
859 1283 775.33 1293 660 1293 c
352 1293 660 1293 352 1293 c
352 173 352 1293 352 173 c
closepath } bind def
/s69 {
162 0 m
162 1466 162 0 162 1466 c
1222 1466 162 1466 1222 1466 c
1222 1293 1222 1466 1222 1293 c
356 1293 1222 1293 356 1293 c
356 844 356 1293 356 844 c
1167 844 356 844 1167 844 c
1167 672 1167 844 1167 672 c
356 672 1167 672 356 672 c
356 173 356 672 356 173 c
1256 173 356 173 1256 173 c
1256 0 1256 173 1256 0 c
162 0 1256 0 162 0 c
closepath } bind def
/s72 {
164 0 m
164 1466 164 0 164 1466 c
358 1466 164 1466 358 1466 c
358 864 358 1466 358 864 c
1120 864 358 864 1120 864 c
1120 1466 1120 864 1120 1466 c
1314 1466 1120 1466 1314 1466 c
1314 0 1314 1466 1314 0 c
1120 0 1314 0 1120 0 c
1120 691 1120 0 1120 691 c
358 691 1120 691 358 691 c
358 0 358 691 358 0 c
164 0 358 0 164 0 c
closepath } bind def
/s76 {
150 0 m
150 1466 150 0 150 1466 c
344 1466 150 1466 344 1466 c
344 173 344 1466 344 173 c
1066 173 344 173 1066 173 c
1066 0 1066 173 1066 0 c
150 0 1066 0 150 0 c
closepath } bind def
/s77 {
152 0 m
152 1466 152 0 152 1466 c
444 1466 152 1466 444 1466 c
791 428 444 1466 791 428 c
823 331.33 846.33 259 861 211 c
877.67 264.33 903.67 342.67 939 446 c
1290 1466 939 446 1290 1466 c
1551 1466 1290 1466 1551 1466 c
1551 0 1551 1466 1551 0 c
1364 0 1551 0 1364 0 c
1364 1227 1364 0 1364 1227 c
938 0 1364 1227 938 0 c
763 0 938 0 763 0 c
339 1248 763 0 339 1248 c
339 0 339 1248 339 0 c
152 0 339 0 152 0 c
closepath } bind def
/s84 {
531 0 m
531 1293 531 0 531 1293 c
48 1293 531 1293 48 1293 c
48 1466 48 1293 48 1466 c
1210 1466 48 1466 1210 1466 c
1210 1293 1210 1466 1210 1293 c
725 1293 1210 1293 725 1293 c
725 0 725 1293 725 0 c
531 0 725 0 531 0 c
closepath } bind def
/s88 {
9 0 m
576 764 9 0 576 764 c
76 1466 576 764 76 1466 c
307 1466 76 1466 307 1466 c
573 1090 307 1466 573 1090 c
628.33 1012 667.67 952 691 910 c
723.67 963.33 762.33 1019 807 1077 c
1102 1466 807 1077 1102 1466 c
1313 1466 1102 1466 1313 1466 c
798 775 1313 1466 798 775 c
1353 0 798 775 1353 0 c
1113 0 1353 0 1113 0 c
744 523 1113 0 744 523 c
723.33 553 702 585.67 680 621 c
647.33 567.67 624 531 610 511 c
242 0 610 511 242 0 c
9 0 242 0 9 0 c
closepath } bind def
end
/BuildGlyph {
 exch dup /Metrics get 2 index get 0 setcharwidth
/CharProcs get exch 2 copy known not{pop/.notdef}if get exec fill}bind def
/BuildChar {
1 index /Encoding get exch get
1 index /BuildGlyph get exec
} bind def
currentdict end /MC1_Arial exch definefont pop
%%EndFont
%%BeginFont: /MC2_Arial
12 dict begin
/FontInfo 8 dict dup begin
/ItalicAngle 0 def
/UnderlinePosition -217.00 def
/UnderlineThickness 150.00 def
/StrikeoutPosition 530.00 def
/StrikeoutThickness 102.00 def
/isFixedPitch false def
end readonly def
/FontName /MC2_Arial def
/FontType 3 def
/FontMatrix [1 2048 div 0 0 1 2048 div 0 0] def
/FontBBox [-1361 -665 4096 2060] def
/Encoding 256 array def 0 1 255{Encoding exch/.notdef put}for
Encoding 32/s32 put
Encoding 78/s78 put
Encoding 84/s84 put
Encoding 97/s97 put
Encoding 100/s100 put
Encoding 101/s101 put
Encoding 103/s103 put
Encoding 104/s104 put
Encoding 105/s105 put
Encoding 108/s108 put
Encoding 109/s109 put
Encoding 111/s111 put
Encoding 112/s112 put
Encoding 114/s114 put
Encoding 116/s116 put
Encoding 117/s117 put
Encoding 122/s122 put
/BoundingBoxes 18 dict def
BoundingBoxes begin
/s32 [0 -434 569 1854] def
/s78 [0 -434 1479 1854] def
/s84 [0 -434 1251 1854] def
/s97 [0 -434 1139 1854] def
/s100 [0 -434 1139 1854] def
/s101 [0 -434 1139 1854] def
/s103 [0 -434 1139 1854] def
/s104 [0 -434 1139 1854] def
/s105 [0 -434 455 1854] def
/s108 [0 -434 455 1854] def
/s109 [0 -434 1706 1854] def
/s111 [0 -434 1139 1854] def
/s112 [0 -434 1139 1854] def
/s114 [0 -434 682 1854] def
/s116 [0 -434 569 1854] def
/s117 [0 -434 1139 1854] def
/s122 [0 -434 1024 1854] def
end
/Metrics 18 dict def
 Metrics begin
/s32 569 def
/s78 1479 def
/s84 1251 def
/s97 1139 def
/s100 1139 def
/s101 1139 def
/s103 1139 def
/s104 1139 def
/s105 455 def
/s108 455 def
/s109 1706 def
/s111 1139 def
/s112 1139 def
/s114 682 def
/s116 569 def
/s117 1139 def
/s122 1024 def
end
/CharProcs 18 dict def
CharProcs begin
/.notdef {} def
/s78 {
156 0 m
156 1466 156 0 156 1466 c
355 1466 156 1466 355 1466 c
1125 315 355 1466 1125 315 c
1125 1466 1125 315 1125 1466 c
1311 1466 1125 1466 1311 1466 c
1311 0 1311 1466 1311 0 c
1112 0 1311 0 1112 0 c
342 1152 1112 0 342 1152 c
342 0 342 1152 342 0 c
156 0 342 0 156 0 c
closepath } bind def
/s84 {
531 0 m
531 1293 531 0 531 1293 c
48 1293 531 1293 48 1293 c
48 1466 48 1293 48 1466 c
1210 1466 48 1466 1210 1466 c
1210 1293 1210 1466 1210 1293 c
725 1293 1210 1293 725 1293 c
725 0 725 1293 725 0 c
531 0 725 0 531 0 c
closepath } bind def
/s97 {
828 131 m
761.33 74.33 697.17 34.33 635.5 11 c
573.83 -12.33 507.67 -24 437 -24 c
320.33 -24 230.67 4.5 168 61.5 c
105.33 118.5 74 191.33 74 280 c
74 332 85.83 379.5 109.5 422.5 c
133.17 465.5 164.17 500 202.5 526 c
240.83 552 284 571.67 332 585 c
367.33 594.33 420.67 603.33 492 612 c
637.33 629.33 744.33 650 813 674 c
813.67 698.67 814 714.33 814 721 c
814 794.33 797 846 763 876 c
717 916.67 648.67 937 558 937 c
473.33 937 410.83 922.17 370.5 892.5 c
330.17 862.83 300.33 810.33 281 735 c
105 759 281 735 105 759 c
121 834.33 147.33 895.17 184 941.5 c
220.67 987.83 273.67 1023.5 343 1048.5 c
412.33 1073.5 492.67 1086 584 1086 c
674.67 1086 748.33 1075.33 805 1054 c
861.67 1032.67 903.33 1005.83 930 973.5 c
956.67 941.17 975.33 900.33 986 851 c
992 820.33 995 765 995 685 c
995 445 995 685 995 445 c
995 277.67 998.83 171.83 1006.5 127.5 c
1014.17 83.17 1029.33 40.67 1052 0 c
864 0 1052 0 864 0 c
845.33 37.33 833.33 81 828 131 c
closepath 813 533 m
747.67 506.33 649.67 483.67 519 465 c
445 454.33 392.67 442.33 362 429 c
331.33 415.67 307.67 396.17 291 370.5 c
274.33 344.83 266 316.33 266 285 c
266 237 284.17 197 320.5 165 c
356.83 133 410 117 480 117 c
549.33 117 611 132.17 665 162.5 c
719 192.83 758.67 234.33 784 287 c
803.33 327.67 813 387.67 813 467 c
813 533 813 467 813 533 c
closepath } bind def
/s100 {
824 0 m
824 134 824 0 824 134 c
756.67 28.67 657.67 -24 527 -24 c
442.33 -24 364.5 -0.67 293.5 46 c
222.5 92.67 167.5 157.83 128.5 241.5 c
89.5 325.17 70 421.33 70 530 c
70 636 87.67 732.17 123 818.5 c
158.33 904.83 211.33 971 282 1017 c
352.67 1063 431.67 1086 519 1086 c
583 1086 640 1072.5 690 1045.5 c
740 1018.5 780.67 983.33 812 940 c
812 1466 812 940 812 1466 c
991 1466 812 1466 991 1466 c
991 0 991 1466 991 0 c
824 0 991 0 824 0 c
closepath 255 530 m
255 394 283.67 292.33 341 225 c
398.33 157.67 466 124 544 124 c
622.67 124 689.5 156.17 744.5 220.5 c
799.5 284.83 827 383 827 515 c
827 660.33 799 767 743 835 c
687 903 618 937 536 937 c
456 937 389.17 904.33 335.5 839 c
281.83 773.67 255 670.67 255 530 c
closepath } bind def
/s101 {
862 342 m
1048 319 862 342 1048 319 c
1018.67 210.33 964.33 126 885 66 c
805.67 6 704.33 -24 581 -24 c
425.67 -24 302.5 23.83 211.5 119.5 c
120.5 215.17 75 349.33 75 522 c
75 700.67 121 839.33 213 938 c
305 1036.67 424.33 1086 571 1086 c
713 1086 829 1037.67 919 941 c
1009 844.33 1054 708.33 1054 533 c
1054 522.33 1053.67 506.33 1053 485 c
261 485 1053 485 261 485 c
267.67 368.33 300.67 279 360 217 c
419.33 155 493.33 124 582 124 c
648 124 704.33 141.33 751 176 c
797.67 210.67 834.67 266 862 342 c
closepath 271 633 m
864 633 271 633 864 633 c
856 722.33 833.33 789.33 796 834 c
738.67 903.33 664.33 938 573 938 c
490.33 938 420.83 910.33 364.5 855 c
308.17 799.67 277 725.67 271 633 c
closepath } bind def
/s103 {
102 -88 m
277 -114 102 -88 277 -114 c
284.33 -168 304.67 -207.33 338 -232 c
382.67 -265.33 443.67 -282 521 -282 c
604.33 -282 668.67 -265.33 714 -232 c
759.33 -198.67 790 -152 806 -92 c
815.33 -55.33 819.67 21.67 819 139 c
740.33 46.33 642.33 0 525 0 c
379 0 266 52.67 186 158 c
106 263.33 66 389.67 66 537 c
66 638.33 84.33 731.83 121 817.5 c
157.67 903.17 210.83 969.33 280.5 1016 c
350.17 1062.67 432 1086 526 1086 c
651.33 1086 754.67 1035.33 836 934 c
836 1062 836 934 836 1062 c
1002 1062 836 1062 1002 1062 c
1002 144 1002 1062 1002 144 c
1002 -21.33 985.17 -138.5 951.5 -207.5 c
917.83 -276.5 864.5 -331 791.5 -371 c
718.5 -411 628.67 -431 522 -431 c
395.33 -431 293 -402.5 215 -345.5 c
137 -288.5 99.33 -202.67 102 -88 c
closepath 251 550 m
251 410.67 278.67 309 334 245 c
389.33 181 458.67 149 542 149 c
624.67 149 694 180.83 750 244.5 c
806 308.17 834 408 834 544 c
834 674 805.17 772 747.5 838 c
689.83 904 620.33 937 539 937 c
459 937 391 904.5 335 839.5 c
279 774.5 251 678 251 550 c
closepath } bind def
/s104 {
135 0 m
135 1466 135 0 135 1466 c
315 1466 135 1466 315 1466 c
315 940 315 1466 315 940 c
399 1037.33 505 1086 633 1086 c
711.67 1086 780 1070.5 838 1039.5 c
896 1008.5 937.5 965.67 962.5 911 c
987.5 856.33 1000 777 1000 673 c
1000 0 1000 673 1000 0 c
820 0 1000 0 820 0 c
820 673 820 0 820 673 c
820 763 800.5 828.5 761.5 869.5 c
722.5 910.5 667.33 931 596 931 c
542.67 931 492.5 917.17 445.5 889.5 c
398.5 861.83 365 824.33 345 777 c
325 729.67 315 664.33 315 581 c
315 0 315 581 315 0 c
135 0 315 0 135 0 c
closepath } bind def
/s105 {
136 1259 m
136 1466 136 1259 136 1466 c
316 1466 136 1466 316 1466 c
316 1259 316 1466 316 1259 c
136 1259 316 1259 136 1259 c
closepath 136 0 m
136 1062 136 0 136 1062 c
316 1062 136 1062 316 1062 c
316 0 316 1062 316 0 c
136 0 316 0 136 0 c
closepath } bind def
/s108 {
131 0 m
131 1466 131 0 131 1466 c
311 1466 131 1466 311 1466 c
311 0 311 1466 311 0 c
131 0 311 0 131 0 c
closepath } bind def
/s109 {
135 0 m
135 1062 135 0 135 1062 c
296 1062 135 1062 296 1062 c
296 913 296 1062 296 913 c
329.33 965 373.67 1006.83 429 1038.5 c
484.33 1070.17 547.33 1086 618 1086 c
696.67 1086 761.17 1069.67 811.5 1037 c
861.83 1004.33 897.33 958.67 918 900 c
1002 1024 1111.33 1086 1246 1086 c
1351.33 1086 1432.33 1056.83 1489 998.5 c
1545.67 940.17 1574 850.33 1574 729 c
1574 0 1574 729 1574 0 c
1395 0 1574 0 1395 0 c
1395 669 1395 0 1395 669 c
1395 741 1389.17 792.83 1377.5 824.5 c
1365.83 856.17 1344.67 881.67 1314 901 c
1283.33 920.33 1247.33 930 1206 930 c
1131.33 930 1069.33 905.17 1020 855.5 c
970.67 805.83 946 726.33 946 617 c
946 0 946 617 946 0 c
766 0 946 0 766 0 c
766 690 766 0 766 690 c
766 770 751.33 830 722 870 c
692.67 910 644.67 930 578 930 c
527.33 930 480.5 916.67 437.5 890 c
394.5 863.33 363.33 824.33 344 773 c
324.67 721.67 315 647.67 315 551 c
315 0 315 551 315 0 c
135 0 315 0 135 0 c
closepath } bind def
/s111 {
68 531 m
68 727.67 122.67 873.33 232 968 c
323.33 1046.67 434.67 1086 566 1086 c
712 1086 831.33 1038.17 924 942.5 c
1016.67 846.83 1063 714.67 1063 546 c
1063 409.33 1042.5 301.83 1001.5 223.5 c
960.5 145.17 900.83 84.33 822.5 41 c
744.17 -2.33 658.67 -24 566 -24 c
417.33 -24 297.17 23.67 205.5 119 c
113.83 214.33 68 351.67 68 531 c
closepath 253 531 m
253 395 282.67 293.17 342 225.5 c
401.33 157.83 476 124 566 124 c
655.33 124 729.67 158 789 226 c
848.33 294 878 397.67 878 537 c
878 668.33 848.17 767.83 788.5 835.5 c
728.83 903.17 654.67 937 566 937 c
476 937 401.33 903.33 342 836 c
282.67 768.67 253 667 253 531 c
closepath } bind def
/s112 {
135 -407 m
135 1062 135 -407 135 1062 c
299 1062 135 1062 299 1062 c
299 924 299 1062 299 924 c
337.67 978 381.33 1018.5 430 1045.5 c
478.67 1072.5 537.67 1086 607 1086 c
697.67 1086 777.67 1062.67 847 1016 c
916.33 969.33 968.67 903.5 1004 818.5 c
1039.33 733.5 1057 640.33 1057 539 c
1057 430.33 1037.5 332.5 998.5 245.5 c
959.5 158.5 902.83 91.83 828.5 45.5 c
754.17 -0.83 676 -24 594 -24 c
534 -24 480.17 -11.33 432.5 14 c
384.83 39.33 345.67 71.33 315 110 c
315 -407 315 110 315 -407 c
135 -407 315 -407 135 -407 c
closepath 298 525 m
298 388.33 325.67 287.33 381 222 c
436.33 156.67 503.33 124 582 124 c
662 124 730.5 157.83 787.5 225.5 c
844.5 293.17 873 398 873 540 c
873 675.33 845.17 776.67 789.5 844 c
733.83 911.33 667.33 945 590 945 c
513.33 945 445.5 909.17 386.5 837.5 c
327.5 765.83 298 661.67 298 525 c
closepath } bind def
/s114 {
133 0 m
133 1062 133 0 133 1062 c
295 1062 133 1062 295 1062 c
295 901 295 1062 295 901 c
336.33 976.33 374.5 1026 409.5 1050 c
444.5 1074 483 1086 525 1086 c
585.67 1086 647.33 1066.67 710 1028 c
648 861 710 1028 648 861 c
604 887 560 900 516 900 c
476.67 900 441.33 888.17 410 864.5 c
378.67 840.83 356.33 808 343 766 c
323 702 313 632 313 556 c
313 0 313 556 313 0 c
133 0 313 0 133 0 c
closepath } bind def
/s116 {
528 161 m
554 2 528 161 554 2 c
503.33 -8.67 458 -14 418 -14 c
352.67 -14 302 -3.67 266 17 c
230 37.67 204.67 64.83 190 98.5 c
175.33 132.17 168 203 168 311 c
168 922 168 311 168 922 c
36 922 168 922 36 922 c
36 1062 36 922 36 1062 c
168 1062 36 1062 168 1062 c
168 1325 168 1062 168 1325 c
347 1433 168 1325 347 1433 c
347 1062 347 1433 347 1062 c
528 1062 347 1062 528 1062 c
528 922 528 1062 528 922 c
347 922 528 922 347 922 c
347 301 347 922 347 301 c
347 249.67 350.17 216.67 356.5 202 c
362.83 187.33 373.17 175.67 387.5 167 c
401.83 158.33 422.33 154 449 154 c
469 154 495.33 156.33 528 161 c
closepath } bind def
/s117 {
831 0 m
831 156 831 0 831 156 c
748.33 36 636 -24 494 -24 c
431.33 -24 372.83 -12 318.5 12 c
264.17 36 223.83 66.17 197.5 102.5 c
171.17 138.83 152.67 183.33 142 236 c
134.67 271.33 131 327.33 131 404 c
131 1062 131 404 131 1062 c
311 1062 131 1062 311 1062 c
311 473 311 1062 311 473 c
311 379 314.67 315.67 322 283 c
333.33 235.67 357.33 198.5 394 171.5 c
430.67 144.5 476 131 530 131 c
584 131 634.67 144.83 682 172.5 c
729.33 200.17 762.83 237.83 782.5 285.5 c
802.17 333.17 812 402.33 812 493 c
812 1062 812 493 812 1062 c
992 1062 812 1062 992 1062 c
992 0 992 1062 992 0 c
831 0 992 0 831 0 c
closepath } bind def
/s122 {
40 0 m
40 146 40 0 40 146 c
716 922 40 146 716 922 c
639.33 918 571.67 916 513 916 c
80 916 513 916 80 916 c
80 1062 80 916 80 1062 c
948 1062 80 1062 948 1062 c
948 943 948 1062 948 943 c
373 269 948 943 373 269 c
262 146 373 269 262 146 c
342.67 152 418.33 155 489 155 c
980 155 489 155 980 155 c
980 0 980 155 980 0 c
40 0 980 0 40 0 c
closepath } bind def
end
/BuildGlyph {
 exch dup /Metrics get 2 index get 0 setcharwidth
/CharProcs get exch 2 copy known not{pop/.notdef}if get exec fill}bind def
/BuildChar {
1 index /Encoding get exch get
1 index /BuildGlyph get exec
} bind def
currentdict end /MC2_Arial exch definefont pop
%%EndFont
%%BeginFont: /MC3_Arial
12 dict begin
/FontInfo 8 dict dup begin
/ItalicAngle 0 def
/UnderlinePosition -217.00 def
/UnderlineThickness 150.00 def
/StrikeoutPosition 530.00 def
/StrikeoutThickness 102.00 def
/isFixedPitch false def
end readonly def
/FontName /MC3_Arial def
/FontType 3 def
/FontMatrix [1 2048 div 0 0 1 2048 div 0 0] def
/FontBBox [-1361 -665 4096 2060] def
/Encoding 256 array def 0 1 255{Encoding exch/.notdef put}for
Encoding 32/s32 put
Encoding 43/s43 put
Encoding 45/s45 put
Encoding 48/s48 put
Encoding 49/s49 put
Encoding 51/s51 put
Encoding 53/s53 put
Encoding 67/s67 put
Encoding 68/s68 put
Encoding 78/s78 put
Encoding 79/s79 put
Encoding 80/s80 put
Encoding 83/s83 put
Encoding 86/s86 put
Encoding 97/s97 put
Encoding 101/s101 put
Encoding 103/s103 put
Encoding 105/s105 put
Encoding 108/s108 put
Encoding 112/s112 put
Encoding 115/s115 put
Encoding 116/s116 put
/BoundingBoxes 23 dict def
BoundingBoxes begin
/s32 [0 -434 569 1854] def
/s43 [0 -434 1196 1854] def
/s45 [0 -434 682 1854] def
/s48 [0 -434 1139 1854] def
/s49 [0 -434 1139 1854] def
/s51 [0 -434 1139 1854] def
/s53 [0 -434 1139 1854] def
/s67 [0 -434 1479 1854] def
/s68 [0 -434 1479 1854] def
/s78 [0 -434 1479 1854] def
/s79 [0 -434 1593 1854] def
/s80 [0 -434 1366 1854] def
/s83 [0 -434 1366 1854] def
/s86 [0 -434 1366 1854] def
/s97 [0 -434 1139 1854] def
/s101 [0 -434 1139 1854] def
/s103 [0 -434 1139 1854] def
/s105 [0 -434 455 1854] def
/s108 [0 -434 455 1854] def
/s112 [0 -434 1139 1854] def
/s115 [0 -434 1024 1854] def
/s116 [0 -434 569 1854] def
end
/Metrics 23 dict def
 Metrics begin
/s32 569 def
/s43 1196 def
/s45 682 def
/s48 1139 def
/s49 1139 def
/s51 1139 def
/s53 1139 def
/s67 1479 def
/s68 1479 def
/s78 1479 def
/s79 1593 def
/s80 1366 def
/s83 1366 def
/s86 1366 def
/s97 1139 def
/s101 1139 def
/s103 1139 def
/s105 455 def
/s108 455 def
/s112 1139 def
/s115 1024 def
/s116 569 def
end
/CharProcs 23 dict def
CharProcs begin
/.notdef {} def
/s43 {
513 237 m
513 639 513 237 513 639 c
114 639 513 639 114 639 c
114 807 114 639 114 807 c
513 807 114 807 513 807 c
513 1206 513 807 513 1206 c
683 1206 513 1206 683 1206 c
683 807 683 1206 683 807 c
1082 807 683 807 1082 807 c
1082 639 1082 807 1082 639 c
683 639 1082 639 683 639 c
683 237 683 639 683 237 c
513 237 683 237 513 237 c
closepath } bind def
/s45 {
65 440 m
65 621 65 440 65 621 c
618 621 65 621 618 621 c
618 440 618 621 618 440 c
65 440 618 440 65 440 c
closepath } bind def
/s48 {
85 723 m
85 896.33 102.83 1035.83 138.5 1141.5 c
174.17 1247.17 227.17 1328.67 297.5 1386 c
367.83 1443.33 456.33 1472 563 1472 c
641.67 1472 710.67 1456.17 770 1424.5 c
829.33 1392.83 878.33 1347.17 917 1287.5 c
955.67 1227.83 986 1155.17 1008 1069.5 c
1030 983.83 1041 868.33 1041 723 c
1041 551 1023.33 412.17 988 306.5 c
952.67 200.83 899.83 119.17 829.5 61.5 c
759.17 3.83 670.33 -25 563 -25 c
421.67 -25 310.67 25.67 230 127 c
133.33 249 85 447.67 85 723 c
closepath 270 723 m
270 482.33 298.17 322.17 354.5 242.5 c
410.83 162.83 480.33 123 563 123 c
645.67 123 715.17 163 771.5 243 c
827.83 323 856 483 856 723 c
856 964.33 827.83 1124.67 771.5 1204 c
715.17 1283.33 645 1323 561 1323 c
478.33 1323 412.33 1288 363 1218 c
301 1128.67 270 963.67 270 723 c
closepath } bind def
/s49 {
763 0 m
583 0 763 0 583 0 c
583 1147 583 0 583 1147 c
539.67 1105.67 482.83 1064.33 412.5 1023 c
342.17 981.67 279 950.67 223 930 c
223 1104 223 930 223 1104 c
323.67 1151.33 411.67 1208.67 487 1276 c
562.33 1343.33 615.67 1408.67 647 1472 c
763 1472 647 1472 763 1472 c
763 0 763 1472 763 0 c
closepath } bind def
/s51 {
86 387 m
266 411 86 387 266 411 c
286.67 309 321.83 235.5 371.5 190.5 c
421.17 145.5 481.67 123 553 123 c
637.67 123 709.17 152.33 767.5 211 c
825.83 269.67 855 342.33 855 429 c
855 511.67 828 579.83 774 633.5 c
720 687.17 651.33 714 568 714 c
534 714 491.67 707.33 441 694 c
461 852 441 694 461 852 c
473 850.67 482.67 850 490 850 c
566.67 850 635.67 870 697 910 c
758.33 950 789 1011.67 789 1095 c
789 1161 766.67 1215.67 722 1259 c
677.33 1302.33 619.67 1324 549 1324 c
479 1324 420.67 1302 374 1258 c
327.33 1214 297.33 1148 284 1060 c
104 1092 284 1060 104 1092 c
126 1212.67 176 1306.17 254 1372.5 c
332 1438.83 429 1472 545 1472 c
625 1472 698.67 1454.83 766 1420.5 c
833.33 1386.17 884.83 1339.33 920.5 1280 c
956.17 1220.67 974 1157.67 974 1091 c
974 1027.67 957 970 923 918 c
889 866 838.67 824.67 772 794 c
858.67 774 926 732.5 974 669.5 c
1022 606.5 1046 527.67 1046 433 c
1046 305 999.33 196.5 906 107.5 c
812.67 18.5 694.67 -26 552 -26 c
423.33 -26 316.5 12.33 231.5 89 c
146.5 165.67 98 265 86 387 c
closepath } bind def
/s53 {
85 384 m
274 400 85 384 274 400 c
288 308 320.5 238.83 371.5 192.5 c
422.5 146.17 484 123 556 123 c
642.67 123 716 155.67 776 221 c
836 286.33 866 373 866 481 c
866 583.67 837.17 664.67 779.5 724 c
721.83 783.33 646.33 813 553 813 c
495 813 442.67 799.83 396 773.5 c
349.33 747.17 312.67 713 286 671 c
117 693 286 671 117 693 c
259 1446 117 693 259 1446 c
988 1446 259 1446 988 1446 c
988 1274 988 1446 988 1274 c
403 1274 988 1274 403 1274 c
324 880 403 1274 324 880 c
412 941.33 504.33 972 601 972 c
729 972 837 927.67 925 839 c
1013 750.33 1057 636.33 1057 497 c
1057 364.33 1018.33 249.67 941 153 c
847 34.33 718.67 -25 556 -25 c
422.67 -25 313.83 12.33 229.5 87 c
145.17 161.67 97 260.67 85 384 c
closepath } bind def
/s67 {
1204 514 m
1398 465 1204 514 1398 465 c
1357.33 305.67 1284.17 184.17 1178.5 100.5 c
1072.83 16.83 943.67 -25 791 -25 c
633 -25 504.5 7.17 405.5 71.5 c
306.5 135.83 231.17 229 179.5 351 c
127.83 473 102 604 102 744 c
102 896.67 131.17 1029.83 189.5 1143.5 c
247.83 1257.17 330.83 1343.5 438.5 1402.5 c
546.17 1461.5 664.67 1491 794 1491 c
940.67 1491 1064 1453.67 1164 1379 c
1264 1304.33 1333.67 1199.33 1373 1064 c
1182 1019 1373 1064 1182 1019 c
1148 1125.67 1098.67 1203.33 1034 1252 c
969.33 1300.67 888 1325 790 1325 c
677.33 1325 583.17 1298 507.5 1244 c
431.83 1190 378.67 1117.5 348 1026.5 c
317.33 935.5 302 841.67 302 745 c
302 620.33 320.17 511.5 356.5 418.5 c
392.83 325.5 449.33 256 526 210 c
602.67 164 685.67 141 775 141 c
883.67 141 975.67 172.33 1051 235 c
1126.33 297.67 1177.33 390.67 1204 514 c
closepath } bind def
/s68 {
158 0 m
158 1466 158 0 158 1466 c
663 1466 158 1466 663 1466 c
777 1466 864 1459 924 1445 c
1008 1425.67 1079.67 1390.67 1139 1340 c
1216.33 1274.67 1274.17 1191.17 1312.5 1089.5 c
1350.83 987.83 1370 871.67 1370 741 c
1370 629.67 1357 531 1331 445 c
1305 359 1271.67 287.83 1231 231.5 c
1190.33 175.17 1145.83 130.83 1097.5 98.5 c
1049.17 66.17 990.83 41.67 922.5 25 c
854.17 8.33 775.67 0 687 0 c
158 0 687 0 158 0 c
closepath 352 173 m
665 173 352 173 665 173 c
761.67 173 837.5 182 892.5 200 c
947.5 218 991.33 243.33 1024 276 c
1070 322 1105.83 383.83 1131.5 461.5 c
1157.17 539.17 1170 633.33 1170 744 c
1170 897.33 1144.83 1015.17 1094.5 1097.5 c
1044.17 1179.83 983 1235 911 1263 c
859 1283 775.33 1293 660 1293 c
352 1293 660 1293 352 1293 c
352 173 352 1293 352 173 c
closepath } bind def
/s78 {
156 0 m
156 1466 156 0 156 1466 c
355 1466 156 1466 355 1466 c
1125 315 355 1466 1125 315 c
1125 1466 1125 315 1125 1466 c
1311 1466 1125 1466 1311 1466 c
1311 0 1311 1466 1311 0 c
1112 0 1311 0 1112 0 c
342 1152 1112 0 342 1152 c
342 0 342 1152 342 0 c
156 0 342 0 156 0 c
closepath } bind def
/s79 {
99 714 m
99 957.33 164.33 1147.83 295 1285.5 c
425.67 1423.17 594.33 1492 801 1492 c
936.33 1492 1058.33 1459.67 1167 1395 c
1275.67 1330.33 1358.5 1240.17 1415.5 1124.5 c
1472.5 1008.83 1501 877.67 1501 731 c
1501 582.33 1471 449.33 1411 332 c
1351 214.67 1266 125.83 1156 65.5 c
1046 5.17 927.33 -25 800 -25 c
662 -25 538.67 8.33 430 75 c
321.33 141.67 239 232.67 183 348 c
127 463.33 99 585.33 99 714 c
closepath 299 711 m
299 534.33 346.5 395.17 441.5 293.5 c
536.5 191.83 655.67 141 799 141 c
945 141 1065.17 192.33 1159.5 295 c
1253.83 397.67 1301 543.33 1301 732 c
1301 851.33 1280.83 955.5 1240.5 1044.5 c
1200.17 1133.5 1141.17 1202.5 1063.5 1251.5 c
985.83 1300.5 898.67 1325 802 1325 c
664.67 1325 546.5 1277.83 447.5 1183.5 c
348.5 1089.17 299 931.67 299 711 c
closepath } bind def
/s80 {
158 0 m
158 1466 158 0 158 1466 c
711 1466 158 1466 711 1466 c
808.33 1466 882.67 1461.33 934 1452 c
1006 1440 1066.33 1417.17 1115 1383.5 c
1163.67 1349.83 1202.83 1302.67 1232.5 1242 c
1262.17 1181.33 1277 1114.67 1277 1042 c
1277 917.33 1237.33 811.83 1158 725.5 c
1078.67 639.17 935.33 596 728 596 c
352 596 728 596 352 596 c
352 0 352 596 352 0 c
158 0 352 0 158 0 c
closepath 352 769 m
731 769 352 769 731 769 c
856.33 769 945.33 792.33 998 839 c
1050.67 885.67 1077 951.33 1077 1036 c
1077 1097.33 1061.5 1149.83 1030.5 1193.5 c
999.5 1237.17 958.67 1266 908 1280 c
875.33 1288.67 815 1293 727 1293 c
352 1293 727 1293 352 1293 c
352 769 352 1293 352 769 c
closepath } bind def
/s83 {
92 471 m
275 487 92 471 275 487 c
283.67 413.67 303.83 353.5 335.5 306.5 c
367.17 259.5 416.33 221.5 483 192.5 c
549.67 163.5 624.67 149 708 149 c
782 149 847.33 160 904 182 c
960.67 204 1002.83 234.17 1030.5 272.5 c
1058.17 310.83 1072 352.67 1072 398 c
1072 444 1058.67 484.17 1032 518.5 c
1005.33 552.83 961.33 581.67 900 605 c
860.67 620.33 773.67 644.17 639 676.5 c
504.33 708.83 410 739.33 356 768 c
286 804.67 233.83 850.17 199.5 904.5 c
165.17 958.83 148 1019.67 148 1087 c
148 1161 169 1230.17 211 1294.5 c
253 1358.83 314.33 1407.67 395 1441 c
475.67 1474.33 565.33 1491 664 1491 c
772.67 1491 868.5 1473.5 951.5 1438.5 c
1034.5 1403.5 1098.33 1352 1143 1284 c
1187.67 1216 1211.67 1139 1215 1053 c
1029 1039 1215 1053 1029 1039 c
1019 1131.67 985.17 1201.67 927.5 1249 c
869.83 1296.33 784.67 1320 672 1320 c
554.67 1320 469.17 1298.5 415.5 1255.5 c
361.83 1212.5 335 1160.67 335 1100 c
335 1047.33 354 1004 392 970 c
429.33 936 526.83 901.17 684.5 865.5 c
842.17 829.83 950.33 798.67 1009 772 c
1094.33 732.67 1157.33 682.83 1198 622.5 c
1238.67 562.17 1259 492.67 1259 414 c
1259 336 1236.67 262.5 1192 193.5 c
1147.33 124.5 1083.17 70.83 999.5 32.5 c
915.83 -5.83 821.67 -25 717 -25 c
584.33 -25 473.17 -5.67 383.5 33 c
293.83 71.67 223.5 129.83 172.5 207.5 c
121.5 285.17 94.67 373 92 471 c
closepath } bind def
/s86 {
577 0 m
9 1466 577 0 9 1466 c
219 1466 9 1466 219 1466 c
600 401 219 1466 600 401 c
630.67 315.67 656.33 235.67 677 161 c
699.67 241 726 321 756 401 c
1152 1466 756 401 1152 1466 c
1350 1466 1152 1466 1350 1466 c
776 0 1350 1466 776 0 c
577 0 776 0 577 0 c
closepath } bind def
/s97 {
828 131 m
761.33 74.33 697.17 34.33 635.5 11 c
573.83 -12.33 507.67 -24 437 -24 c
320.33 -24 230.67 4.5 168 61.5 c
105.33 118.5 74 191.33 74 280 c
74 332 85.83 379.5 109.5 422.5 c
133.17 465.5 164.17 500 202.5 526 c
240.83 552 284 571.67 332 585 c
367.33 594.33 420.67 603.33 492 612 c
637.33 629.33 744.33 650 813 674 c
813.67 698.67 814 714.33 814 721 c
814 794.33 797 846 763 876 c
717 916.67 648.67 937 558 937 c
473.33 937 410.83 922.17 370.5 892.5 c
330.17 862.83 300.33 810.33 281 735 c
105 759 281 735 105 759 c
121 834.33 147.33 895.17 184 941.5 c
220.67 987.83 273.67 1023.5 343 1048.5 c
412.33 1073.5 492.67 1086 584 1086 c
674.67 1086 748.33 1075.33 805 1054 c
861.67 1032.67 903.33 1005.83 930 973.5 c
956.67 941.17 975.33 900.33 986 851 c
992 820.33 995 765 995 685 c
995 445 995 685 995 445 c
995 277.67 998.83 171.83 1006.5 127.5 c
1014.17 83.17 1029.33 40.67 1052 0 c
864 0 1052 0 864 0 c
845.33 37.33 833.33 81 828 131 c
closepath 813 533 m
747.67 506.33 649.67 483.67 519 465 c
445 454.33 392.67 442.33 362 429 c
331.33 415.67 307.67 396.17 291 370.5 c
274.33 344.83 266 316.33 266 285 c
266 237 284.17 197 320.5 165 c
356.83 133 410 117 480 117 c
549.33 117 611 132.17 665 162.5 c
719 192.83 758.67 234.33 784 287 c
803.33 327.67 813 387.67 813 467 c
813 533 813 467 813 533 c
closepath } bind def
/s101 {
862 342 m
1048 319 862 342 1048 319 c
1018.67 210.33 964.33 126 885 66 c
805.67 6 704.33 -24 581 -24 c
425.67 -24 302.5 23.83 211.5 119.5 c
120.5 215.17 75 349.33 75 522 c
75 700.67 121 839.33 213 938 c
305 1036.67 424.33 1086 571 1086 c
713 1086 829 1037.67 919 941 c
1009 844.33 1054 708.33 1054 533 c
1054 522.33 1053.67 506.33 1053 485 c
261 485 1053 485 261 485 c
267.67 368.33 300.67 279 360 217 c
419.33 155 493.33 124 582 124 c
648 124 704.33 141.33 751 176 c
797.67 210.67 834.67 266 862 342 c
closepath 271 633 m
864 633 271 633 864 633 c
856 722.33 833.33 789.33 796 834 c
738.67 903.33 664.33 938 573 938 c
490.33 938 420.83 910.33 364.5 855 c
308.17 799.67 277 725.67 271 633 c
closepath } bind def
/s103 {
102 -88 m
277 -114 102 -88 277 -114 c
284.33 -168 304.67 -207.33 338 -232 c
382.67 -265.33 443.67 -282 521 -282 c
604.33 -282 668.67 -265.33 714 -232 c
759.33 -198.67 790 -152 806 -92 c
815.33 -55.33 819.67 21.67 819 139 c
740.33 46.33 642.33 0 525 0 c
379 0 266 52.67 186 158 c
106 263.33 66 389.67 66 537 c
66 638.33 84.33 731.83 121 817.5 c
157.67 903.17 210.83 969.33 280.5 1016 c
350.17 1062.67 432 1086 526 1086 c
651.33 1086 754.67 1035.33 836 934 c
836 1062 836 934 836 1062 c
1002 1062 836 1062 1002 1062 c
1002 144 1002 1062 1002 144 c
1002 -21.33 985.17 -138.5 951.5 -207.5 c
917.83 -276.5 864.5 -331 791.5 -371 c
718.5 -411 628.67 -431 522 -431 c
395.33 -431 293 -402.5 215 -345.5 c
137 -288.5 99.33 -202.67 102 -88 c
closepath 251 550 m
251 410.67 278.67 309 334 245 c
389.33 181 458.67 149 542 149 c
624.67 149 694 180.83 750 244.5 c
806 308.17 834 408 834 544 c
834 674 805.17 772 747.5 838 c
689.83 904 620.33 937 539 937 c
459 937 391 904.5 335 839.5 c
279 774.5 251 678 251 550 c
closepath } bind def
/s105 {
136 1259 m
136 1466 136 1259 136 1466 c
316 1466 136 1466 316 1466 c
316 1259 316 1466 316 1259 c
136 1259 316 1259 136 1259 c
closepath 136 0 m
136 1062 136 0 136 1062 c
316 1062 136 1062 316 1062 c
316 0 316 1062 316 0 c
136 0 316 0 136 0 c
closepath } bind def
/s108 {
131 0 m
131 1466 131 0 131 1466 c
311 1466 131 1466 311 1466 c
311 0 311 1466 311 0 c
131 0 311 0 131 0 c
closepath } bind def
/s112 {
135 -407 m
135 1062 135 -407 135 1062 c
299 1062 135 1062 299 1062 c
299 924 299 1062 299 924 c
337.67 978 381.33 1018.5 430 1045.5 c
478.67 1072.5 537.67 1086 607 1086 c
697.67 1086 777.67 1062.67 847 1016 c
916.33 969.33 968.67 903.5 1004 818.5 c
1039.33 733.5 1057 640.33 1057 539 c
1057 430.33 1037.5 332.5 998.5 245.5 c
959.5 158.5 902.83 91.83 828.5 45.5 c
754.17 -0.83 676 -24 594 -24 c
534 -24 480.17 -11.33 432.5 14 c
384.83 39.33 345.67 71.33 315 110 c
315 -407 315 110 315 -407 c
135 -407 315 -407 135 -407 c
closepath 298 525 m
298 388.33 325.67 287.33 381 222 c
436.33 156.67 503.33 124 582 124 c
662 124 730.5 157.83 787.5 225.5 c
844.5 293.17 873 398 873 540 c
873 675.33 845.17 776.67 789.5 844 c
733.83 911.33 667.33 945 590 945 c
513.33 945 445.5 909.17 386.5 837.5 c
327.5 765.83 298 661.67 298 525 c
closepath } bind def
/s115 {
63 317 m
241 345 63 317 241 345 c
251 273.67 278.83 219 324.5 181 c
370.17 143 434 124 516 124 c
598.67 124 660 140.83 700 174.5 c
740 208.17 760 247.67 760 293 c
760 333.67 742.33 365.67 707 389 c
682.33 405 621 425.33 523 450 c
391 483.33 299.5 512.17 248.5 536.5 c
197.5 560.83 158.83 594.5 132.5 637.5 c
106.17 680.5 93 728 93 780 c
93 827.33 103.83 871.17 125.5 911.5 c
147.17 951.83 176.67 985.33 214 1012 c
242 1032.67 280.17 1050.17 328.5 1064.5 c
376.83 1078.83 428.67 1086 484 1086 c
567.33 1086 640.5 1074 703.5 1050 c
766.5 1026 813 993.5 843 952.5 c
873 911.5 893.67 856.67 905 788 c
729 764 905 788 729 764 c
721 818.67 697.83 861.33 659.5 892 c
621.17 922.67 567 938 497 938 c
414.33 938 355.33 924.33 320 897 c
284.67 869.67 267 837.67 267 801 c
267 777.67 274.33 756.67 289 738 c
303.67 718.67 326.67 702.67 358 690 c
376 683.33 429 668 517 644 c
644.33 610 733.17 582.17 783.5 560.5 c
833.83 538.83 873.33 507.33 902 466 c
930.67 424.67 945 373.33 945 312 c
945 252 927.5 195.5 892.5 142.5 c
857.5 89.5 807 48.5 741 19.5 c
675 -9.5 600.33 -24 517 -24 c
379 -24 273.83 4.67 201.5 62 c
129.17 119.33 83 204.33 63 317 c
closepath } bind def
/s116 {
528 161 m
554 2 528 161 554 2 c
503.33 -8.67 458 -14 418 -14 c
352.67 -14 302 -3.67 266 17 c
230 37.67 204.67 64.83 190 98.5 c
175.33 132.17 168 203 168 311 c
168 922 168 311 168 922 c
36 922 168 922 36 922 c
36 1062 36 922 36 1062 c
168 1062 36 1062 168 1062 c
168 1325 168 1062 168 1325 c
347 1433 168 1325 347 1433 c
347 1062 347 1433 347 1062 c
528 1062 347 1062 528 1062 c
528 922 528 1062 528 922 c
347 922 528 922 347 922 c
347 301 347 922 347 301 c
347 249.67 350.17 216.67 356.5 202 c
362.83 187.33 373.17 175.67 387.5 167 c
401.83 158.33 422.33 154 449 154 c
469 154 495.33 156.33 528 161 c
closepath } bind def
end
/BuildGlyph {
 exch dup /Metrics get 2 index get 0 setcharwidth
/CharProcs get exch 2 copy known not{pop/.notdef}if get exec fill}bind def
/BuildChar {
1 index /Encoding get exch get
1 index /BuildGlyph get exec
} bind def
currentdict end /MC3_Arial exch definefont pop
%%EndFont
/clipproc{clippath{[{/m cvx}{/l cvx}{/c cvx}{/cp cvx}pathforall}stopped
{cleartomark[pathbbox exch 3 i sub exch 2 i sub/rectpath cvx}if]np}bd
/iclmtx mtx cmtx def/iclpath clipproc xd/clinit{pathproc initclip np iclpath cl np exec}bd
/clmove{pathproc 3 1 roll clippath pathproc 2 i neg 2 i neg tr initclip np exec cl tr np exec}bd
/clrect[gs np iclpath{pathbbox}stopped{0 0 864 720 }if gr]def
/cloper{mtx cmtx iclmtx smtx exch exec smtx}bd
/cland{{exch cvx exec}cloper}bd
/clcopy{{exch clinit cvx exec}cloper}bd
/cldiff{{exch pathbbox 4 -1 roll clrect 0 get 2 copy gt{exch}if pop 4 1 roll
 3 -1 roll clrect 1 get 2 copy gt{exch}if pop 3 1 roll
 2 -1 roll clrect 2 get 2 copy lt{exch}if pop 2 1 roll
 1 -1 roll clrect 3 get 2 copy lt{exch}if pop 1 1 roll
 exch 3 i sub exch 2 i sub rectpath cvx exec}cloper}bd
/icl{{clinit}cloper}bd
0.239949 0.239942 sc

/initmtx mtx cmtx def
[1.00022 -0 0 -1.00025 0 3000.73] concat
gs
1228 2784 m
1228 616 l
3 sw
1 sj
1 scap
st
2002 2784 m
2002 616 l
st
2777 2784 m
2777 616 l
st
453 2567 m
3551 2567 l
st
453 2350 m
3551 2350 l
st
453 2134 m
3551 2134 l
st
453 1917 m
3551 1917 l
st
453 1700 m
3551 1700 l
st
453 1483 m
3551 1483 l
st
453 1266 m
3551 1266 l
st
453 1050 m
3551 1050 l
st
453 833 m
3551 833 l
st
gs
pathproc 453 616 3099 2169 np rectpath
/eocl cland
np exec
530 746 m
654 746 l
654 2784 l
530 2784 l
cp
gs
eofi
gr
5 sw
st
530 746 m
654 746 l
st
654 746 m
654 2784 l
st
530 2784 m
530 746 l
st
1305 703 m
1429 703 l
1429 2784 l
1305 2784 l
cp
gs
eofi
gr
st
1305 703 m
1429 703 l
st
1429 703 m
1429 2784 l
st
1305 2784 m
1305 703 l
st
2079 724 m
2203 724 l
2203 2784 l
2079 2784 l
cp
gs
eofi
gr
st
2079 724 m
2203 724 l
st
2203 724 m
2203 2784 l
st
2079 2784 m
2079 724 l
st
2854 638 m
2978 638 l
2978 2784 l
2854 2784 l
cp
gs
eofi
gr
st
2854 638 m
2978 638 l
st
2978 638 m
2978 2784 l
st
2854 2784 m
2854 638 l
st
gr
gs
pathproc 453 616 3099 2169 np rectpath
/eocl cland
np exec
655 890 m
655 890 l
st
655 939 m
704 890 l
st
655 988 m
753 890 l
st
655 1037 m
777 915 l
st
655 1086 m
777 964 l
st
655 1135 m
777 1013 l
st
655 1184 m
777 1062 l
st
655 1233 m
777 1111 l
st
655 1282 m
777 1160 l
st
655 1331 m
777 1209 l
st
655 1380 m
777 1258 l
st
655 1429 m
777 1307 l
st
655 1478 m
777 1356 l
st
655 1527 m
777 1405 l
st
655 1576 m
777 1454 l
st
655 1625 m
777 1503 l
st
655 1674 m
777 1552 l
st
655 1723 m
777 1601 l
st
655 1772 m
777 1650 l
st
655 1821 m
777 1699 l
st
655 1870 m
777 1748 l
st
655 1919 m
777 1797 l
st
655 1968 m
777 1846 l
st
655 2017 m
777 1895 l
st
655 2066 m
777 1944 l
st
655 2115 m
777 1993 l
st
655 2164 m
777 2042 l
st
655 2213 m
777 2091 l
st
655 2262 m
777 2140 l
st
655 2311 m
777 2189 l
st
655 2360 m
777 2238 l
st
655 2409 m
777 2287 l
st
655 2458 m
777 2336 l
st
655 2507 m
777 2385 l
st
655 2556 m
777 2434 l
st
655 2605 m
777 2483 l
st
655 2654 m
777 2532 l
st
655 2703 m
777 2581 l
st
655 2752 m
777 2630 l
st
673 2783 m
777 2679 l
st
722 2783 m
777 2728 l
st
771 2783 m
777 2777 l
st
654 889 m
778 889 l
5 sw
st
778 889 m
778 2784 l
st
654 2784 m
654 889 l
st
1430 976 m
1430 976 l
3 sw
st
1430 1025 m
1479 976 l
st
1430 1074 m
1528 976 l
st
1430 1123 m
1552 1001 l
st
1430 1172 m
1552 1050 l
st
1430 1221 m
1552 1099 l
st
1430 1270 m
1552 1148 l
st
1430 1319 m
1552 1197 l
st
1430 1368 m
1552 1246 l
st
1430 1417 m
1552 1295 l
st
1430 1466 m
1552 1344 l
st
1430 1515 m
1552 1393 l
st
1430 1564 m
1552 1442 l
st
1430 1613 m
1552 1491 l
st
1430 1662 m
1552 1540 l
st
1430 1711 m
1552 1589 l
st
1430 1760 m
1552 1638 l
st
1430 1809 m
1552 1687 l
st
1430 1858 m
1552 1736 l
st
1430 1907 m
1552 1785 l
st
1430 1956 m
1552 1834 l
st
1430 2005 m
1552 1883 l
st
1430 2054 m
1552 1932 l
st
1430 2103 m
1552 1981 l
st
1430 2152 m
1552 2030 l
st
1430 2201 m
1552 2079 l
st
1430 2250 m
1552 2128 l
st
1430 2299 m
1552 2177 l
st
1430 2348 m
1552 2226 l
st
1430 2397 m
1552 2275 l
st
1430 2446 m
1552 2324 l
st
1430 2495 m
1552 2373 l
st
1430 2544 m
1552 2422 l
st
1430 2593 m
1552 2471 l
st
1430 2642 m
1552 2520 l
st
1430 2691 m
1552 2569 l
st
1430 2740 m
1552 2618 l
st
1436 2783 m
1552 2667 l
st
1485 2783 m
1552 2716 l
st
1534 2783 m
1552 2765 l
st
1429 975 m
1553 975 l
5 sw
st
1553 975 m
1553 2784 l
st
1429 2784 m
1429 975 l
st
2204 877 m
2204 877 l
3 sw
st
2204 926 m
2253 877 l
st
2204 975 m
2302 877 l
st
2204 1024 m
2326 902 l
st
2204 1073 m
2326 951 l
st
2204 1122 m
2326 1000 l
st
2204 1171 m
2326 1049 l
st
2204 1220 m
2326 1098 l
st
2204 1269 m
2326 1147 l
st
2204 1318 m
2326 1196 l
st
2204 1367 m
2326 1245 l
st
2204 1416 m
2326 1294 l
st
2204 1465 m
2326 1343 l
st
2204 1514 m
2326 1392 l
st
2204 1563 m
2326 1441 l
st
2204 1612 m
2326 1490 l
st
2204 1661 m
2326 1539 l
st
2204 1710 m
2326 1588 l
st
2204 1759 m
2326 1637 l
st
2204 1808 m
2326 1686 l
st
2204 1857 m
2326 1735 l
st
2204 1906 m
2326 1784 l
st
2204 1955 m
2326 1833 l
st
2204 2004 m
2326 1882 l
st
2204 2053 m
2326 1931 l
st
2204 2102 m
2326 1980 l
st
2204 2151 m
2326 2029 l
st
2204 2200 m
2326 2078 l
st
2204 2249 m
2326 2127 l
st
2204 2298 m
2326 2176 l
st
2204 2347 m
2326 2225 l
st
2204 2396 m
2326 2274 l
st
2204 2445 m
2326 2323 l
st
2204 2494 m
2326 2372 l
st
2204 2543 m
2326 2421 l
st
2204 2592 m
2326 2470 l
st
2204 2641 m
2326 2519 l
st
2204 2690 m
2326 2568 l
st
2204 2739 m
2326 2617 l
st
2209 2783 m
2326 2666 l
st
2258 2783 m
2326 2715 l
st
2307 2783 m
2326 2764 l
st
2203 876 m
2327 876 l
5 sw
st
2327 876 m
2327 2784 l
st
2203 2784 m
2203 876 l
st
2979 660 m
2979 660 l
3 sw
st
2979 709 m
3028 660 l
st
2979 758 m
3077 660 l
st
2979 807 m
3101 685 l
st
2979 856 m
3101 734 l
st
2979 905 m
3101 783 l
st
2979 954 m
3101 832 l
st
2979 1003 m
3101 881 l
st
2979 1052 m
3101 930 l
st
2979 1101 m
3101 979 l
st
2979 1150 m
3101 1028 l
st
2979 1199 m
3101 1077 l
st
2979 1248 m
3101 1126 l
st
2979 1297 m
3101 1175 l
st
2979 1346 m
3101 1224 l
st
2979 1395 m
3101 1273 l
st
2979 1444 m
3101 1322 l
st
2979 1493 m
3101 1371 l
st
2979 1542 m
3101 1420 l
st
2979 1591 m
3101 1469 l
st
2979 1640 m
3101 1518 l
st
2979 1689 m
3101 1567 l
st
2979 1738 m
3101 1616 l
st
2979 1787 m
3101 1665 l
st
2979 1836 m
3101 1714 l
st
2979 1885 m
3101 1763 l
st
2979 1934 m
3101 1812 l
st
2979 1983 m
3101 1861 l
st
2979 2032 m
3101 1910 l
st
2979 2081 m
3101 1959 l
st
2979 2130 m
3101 2008 l
st
2979 2179 m
3101 2057 l
st
2979 2228 m
3101 2106 l
st
2979 2277 m
3101 2155 l
st
2979 2326 m
3101 2204 l
st
2979 2375 m
3101 2253 l
st
2979 2424 m
3101 2302 l
st
2979 2473 m
3101 2351 l
st
2979 2522 m
3101 2400 l
st
2979 2571 m
3101 2449 l
st
2979 2620 m
3101 2498 l
st
2979 2669 m
3101 2547 l
st
2979 2718 m
3101 2596 l
st
2979 2767 m
3101 2645 l
st
3012 2783 m
3101 2694 l
st
3061 2783 m
3101 2743 l
st
2978 659 m
3102 659 l
5 sw
st
3102 659 m
3102 2784 l
st
2978 2784 m
2978 659 l
st
gr
gs
pathproc 453 616 3099 2169 np rectpath
/eocl cland
np exec
778 1505 m
902 1505 l
902 2784 l
778 2784 l
cp
gs
0.753 0.753 0.753 rgb
eofi
gr
5 sw
0.753 0.753 0.753 rgb
st
778 1505 m
902 1505 l
0 0 0 rgb
st
902 1505 m
902 2784 l
st
778 2784 m
778 1505 l
st
1553 1196 m
1677 1196 l
1677 2784 l
1553 2784 l
cp
gs
0.753 0.753 0.753 rgb
eofi
gr
0.753 0.753 0.753 rgb
st
1553 1196 m
1677 1196 l
0 0 0 rgb
st
1677 1196 m
1677 2784 l
st
1553 2784 m
1553 1196 l
st
2327 1353 m
2451 1353 l
2451 2784 l
2327 2784 l
cp
gs
0.753 0.753 0.753 rgb
eofi
gr
0.753 0.753 0.753 rgb
st
2327 1353 m
2451 1353 l
0 0 0 rgb
st
2451 1353 m
2451 2784 l
st
2327 2784 m
2327 1353 l
st
3102 724 m
3226 724 l
3226 2784 l
3102 2784 l
cp
gs
0.753 0.753 0.753 rgb
eofi
gr
0.753 0.753 0.753 rgb
st
3102 724 m
3226 724 l
0 0 0 rgb
st
3226 724 m
3226 2784 l
st
3102 2784 m
3102 724 l
st
gr
gs
pathproc 453 616 3099 2169 np rectpath
/eocl cland
np exec
903 1744 m
1025 1866 l
st
903 1793 m
1025 1915 l
st
903 1842 m
1025 1964 l
st
903 1891 m
1025 2013 l
st
903 1940 m
1025 2062 l
st
903 1989 m
1025 2111 l
st
903 2038 m
1025 2160 l
st
903 2087 m
1025 2209 l
st
903 2136 m
1025 2258 l
st
903 2185 m
1025 2307 l
st
903 2234 m
1025 2356 l
st
903 2283 m
1025 2405 l
st
903 2332 m
1025 2454 l
st
903 2381 m
1025 2503 l
st
903 2430 m
1025 2552 l
st
903 2479 m
1025 2601 l
st
903 2528 m
1025 2650 l
st
903 2577 m
1025 2699 l
st
903 2626 m
1025 2748 l
st
903 2675 m
1011 2783 l
st
903 2724 m
962 2783 l
st
903 2773 m
913 2783 l
st
903 1744 m
1025 1866 l
st
952 1744 m
1025 1817 l
st
1001 1744 m
1025 1768 l
st
902 1743 m
1026 1743 l
5 sw
st
1026 1743 m
1026 2784 l
st
902 2784 m
902 1743 l
st
1678 1562 m
1800 1684 l
3 sw
st
1678 1611 m
1800 1733 l
st
1678 1660 m
1800 1782 l
st
1678 1709 m
1800 1831 l
st
1678 1758 m
1800 1880 l
st
1678 1807 m
1800 1929 l
st
1678 1856 m
1800 1978 l
st
1678 1905 m
1800 2027 l
st
1678 1954 m
1800 2076 l
st
1678 2003 m
1800 2125 l
st
1678 2052 m
1800 2174 l
st
1678 2101 m
1800 2223 l
st
1678 2150 m
1800 2272 l
st
1678 2199 m
1800 2321 l
st
1678 2248 m
1800 2370 l
st
1678 2297 m
1800 2419 l
st
1678 2346 m
1800 2468 l
st
1678 2395 m
1800 2517 l
st
1678 2444 m
1800 2566 l
st
1678 2493 m
1800 2615 l
st
1678 2542 m
1800 2664 l
st
1678 2591 m
1800 2713 l
st
1678 2640 m
1800 2762 l
st
1678 2689 m
1772 2783 l
st
1678 2738 m
1723 2783 l
st
1678 1562 m
1800 1684 l
st
1727 1562 m
1800 1635 l
st
1776 1562 m
1800 1586 l
st
1677 1561 m
1801 1561 l
5 sw
st
1801 1561 m
1801 2784 l
st
1677 2784 m
1677 1561 l
st
2452 1896 m
2574 2018 l
3 sw
st
2452 1945 m
2574 2067 l
st
2452 1994 m
2574 2116 l
st
2452 2043 m
2574 2165 l
st
2452 2092 m
2574 2214 l
st
2452 2141 m
2574 2263 l
st
2452 2190 m
2574 2312 l
st
2452 2239 m
2574 2361 l
st
2452 2288 m
2574 2410 l
st
2452 2337 m
2574 2459 l
st
2452 2386 m
2574 2508 l
st
2452 2435 m
2574 2557 l
st
2452 2484 m
2574 2606 l
st
2452 2533 m
2574 2655 l
st
2452 2582 m
2574 2704 l
st
2452 2631 m
2574 2753 l
st
2452 2680 m
2555 2783 l
st
2452 2729 m
2506 2783 l
st
2452 2778 m
2457 2783 l
st
2452 1896 m
2574 2018 l
st
2501 1896 m
2574 1969 l
st
2550 1896 m
2574 1920 l
st
2451 1895 m
2575 1895 l
5 sw
st
2575 1895 m
2575 2784 l
st
2451 2784 m
2451 1895 l
st
3227 790 m
3349 912 l
3 sw
st
3227 839 m
3349 961 l
st
3227 888 m
3349 1010 l
st
3227 937 m
3349 1059 l
st
3227 986 m
3349 1108 l
st
3227 1035 m
3349 1157 l
st
3227 1084 m
3349 1206 l
st
3227 1133 m
3349 1255 l
st
3227 1182 m
3349 1304 l
st
3227 1231 m
3349 1353 l
st
3227 1280 m
3349 1402 l
st
3227 1329 m
3349 1451 l
st
3227 1378 m
3349 1500 l
st
3227 1427 m
3349 1549 l
st
3227 1476 m
3349 1598 l
st
3227 1525 m
3349 1647 l
st
3227 1574 m
3349 1696 l
st
3227 1623 m
3349 1745 l
st
3227 1672 m
3349 1794 l
st
3227 1721 m
3349 1843 l
st
3227 1770 m
3349 1892 l
st
3227 1819 m
3349 1941 l
st
3227 1868 m
3349 1990 l
st
3227 1917 m
3349 2039 l
st
3227 1966 m
3349 2088 l
st
3227 2015 m
3349 2137 l
st
3227 2064 m
3349 2186 l
st
3227 2113 m
3349 2235 l
st
3227 2162 m
3349 2284 l
st
3227 2211 m
3349 2333 l
st
3227 2260 m
3349 2382 l
st
3227 2309 m
3349 2431 l
st
3227 2358 m
3349 2480 l
st
3227 2407 m
3349 2529 l
st
3227 2456 m
3349 2578 l
st
3227 2505 m
3349 2627 l
st
3227 2554 m
3349 2676 l
st
3227 2603 m
3349 2725 l
st
3227 2652 m
3349 2774 l
st
3227 2701 m
3309 2783 l
st
3227 2750 m
3260 2783 l
st
3227 790 m
3349 912 l
st
3276 790 m
3349 863 l
st
3325 790 m
3349 814 l
st
3226 789 m
3350 789 l
5 sw
st
3350 789 m
3350 2784 l
st
3226 2784 m
3226 789 l
st
gr
gs
pathproc 453 616 3099 2169 np rectpath
/eocl cland
np exec
1026 616 m
1150 616 l
1150 2784 l
1026 2784 l
cp
gs
1 0 0 rgb
eofi
gr
5 sw
1 0 0 rgb
st
1150 616 m
1150 2784 l
0 0 0 rgb
st
1026 2784 m
1026 616 l
st
1801 616 m
1925 616 l
1925 2784 l
1801 2784 l
cp
gs
1 0 0 rgb
eofi
gr
1 0 0 rgb
st
1925 616 m
1925 2784 l
0 0 0 rgb
st
1801 2784 m
1801 616 l
st
2575 616 m
2699 616 l
2699 2784 l
2575 2784 l
cp
gs
1 0 0 rgb
eofi
gr
1 0 0 rgb
st
2699 616 m
2699 2784 l
0 0 0 rgb
st
2575 2784 m
2575 616 l
st
3350 616 m
3474 616 l
3474 2784 l
3350 2784 l
cp
gs
1 0 0 rgb
eofi
gr
1 0 0 rgb
st
3474 616 m
3474 2784 l
0 0 0 rgb
st
3350 2784 m
3350 616 l
st
gr
gs
1 -1 sc
/MC1_Arial 188 self 680 -2957 m
(DLL)[136 105 105 ] xs
1 -1 sc
gr
gs
1 -1 sc
/MC1_Arial 188 self 1371 -2957 m
(HTML)[136 115 157 105 ] xs
1 -1 sc
gr
gs
1 -1 sc
/MC1_Arial 188 self 2214 -2957 m
(EXE)[125 125 125 ] xs
1 -1 sc
gr
gs
1 -1 sc
/MC1_Arial 188 self 2983 -2957 m
(XML)[125 157 105 ] xs
1 -1 sc
gr
gs
1 -1 sc
/MC1_Arial 188 self 191 -2840 m
(0.0)[105 52 105 ] xs
1 -1 sc
gr
gs
1 -1 sc
/MC1_Arial 188 self 191 -2623 m
(0.1)[105 52 105 ] xs
1 -1 sc
gr
gs
1 -1 sc
/MC1_Arial 188 self 191 -2406 m
(0.2)[105 52 105 ] xs
1 -1 sc
gr
gs
1 -1 sc
/MC1_Arial 188 self 191 -2190 m
(0.3)[105 52 105 ] xs
1 -1 sc
gr
gs
1 -1 sc
/MC1_Arial 188 self 191 -1973 m
(0.4)[105 52 105 ] xs
1 -1 sc
gr
gs
1 -1 sc
/MC1_Arial 188 self 191 -1756 m
(0.5)[105 52 105 ] xs
1 -1 sc
gr
gs
1 -1 sc
/MC1_Arial 188 self 191 -1539 m
(0.6)[105 52 105 ] xs
1 -1 sc
gr
gs
1 -1 sc
/MC1_Arial 188 self 191 -1322 m
(0.7)[105 52 105 ] xs
1 -1 sc
gr
gs
1 -1 sc
/MC1_Arial 188 self 191 -1106 m
(0.8)[105 52 105 ] xs
1 -1 sc
gr
gs
1 -1 sc
/MC1_Arial 188 self 191 -889 m
(0.9)[105 52 105 ] xs
1 -1 sc
gr
gs
1 -1 sc
/MC1_Arial 188 self 191 -672 m
(1.0)[105 52 105 ] xs
1 -1 sc
gr
453 2784 m
453 2784 l
7 sw
st
840 2784 m
840 2784 l
st
1228 2784 m
1228 2784 l
st
1615 2784 m
1615 2784 l
st
2002 2784 m
2002 2784 l
st
2389 2784 m
2389 2784 l
st
2777 2784 m
2777 2784 l
st
3164 2784 m
3164 2784 l
st
3551 2784 m
3551 2784 l
st
453 2784 m
3551 2784 l
st
453 2784 m
3551 2784 l
st
453 2784 m
453 2784 l
st
453 2567 m
453 2567 l
st
453 2350 m
453 2350 l
st
453 2134 m
453 2134 l
st
453 1917 m
453 1917 l
st
453 1700 m
453 1700 l
st
453 1483 m
453 1483 l
st
453 1266 m
453 1266 l
st
453 1050 m
453 1050 l
st
453 833 m
453 833 l
st
453 616 m
453 616 l
st
453 2784 m
453 616 l
st
453 616 m
453 616 l
st
840 616 m
840 616 l
st
1228 616 m
1228 616 l
st
1615 616 m
1615 616 l
st
2002 616 m
2002 616 l
st
2389 616 m
2389 616 l
st
2777 616 m
2777 616 l
st
3164 616 m
3164 616 l
st
3551 616 m
3551 616 l
st
453 616 m
3551 616 l
st
453 2784 m
3551 2784 l
st
3551 2784 m
3551 2784 l
st
3551 2567 m
3551 2567 l
st
3551 2350 m
3551 2350 l
st
3551 2134 m
3551 2134 l
st
3551 1917 m
3551 1917 l
st
3551 1700 m
3551 1700 l
st
3551 1483 m
3551 1483 l
st
3551 1266 m
3551 1266 l
st
3551 1050 m
3551 1050 l
st
3551 833 m
3551 833 l
st
3551 616 m
3551 616 l
st
3551 2784 m
3551 616 l
st
gs
gs
1 -1 sc
151 -2692 tr
90 ro
/MC2_Arial 187 self 0 0 m
(Normalized Throughput)[135 104 62 156 104 42 42 94 104 104 52 114 104 62 104 104 104 104 104 104 52 ] xs
1 -1 sc
gr
gr
526 -2 m
3473 -2 l
3473 607 l
526 607 l
cp
gs
1 1 1 rgb
eofi
gr
3 sw
st
gs
gs
gs
655 25 m
1001 25 l
1001 195 l
655 195 l
cp
gs
eofi
gr
5 sw
st
gr
gr
1 -1 sc
/MC3_Arial 158 self 1004 -164 m
( )[44 ] xs
1 -1 sc
1 -1 sc
1048 -164 m
(CONV-D5s)[114 123 114 105 53 114 88 79 ] xs
1 -1 sc
1 -1 sc
1838 -164 m
( )[44 ] xs
1 -1 sc
gs
gs
1886 26 m
1886 26 l
st
1886 75 m
1935 26 l
st
1886 124 m
1984 26 l
st
1886 173 m
2033 26 l
st
1914 194 m
2082 26 l
st
1963 194 m
2131 26 l
st
2012 194 m
2180 26 l
st
2061 194 m
2229 26 l
st
2110 194 m
2230 74 l
st
2159 194 m
2230 123 l
st
2208 194 m
2230 172 l
st
1885 25 m
2231 25 l
5 sw
st
2231 25 m
2231 195 l
st
2231 195 m
1885 195 l
st
1885 195 m
1885 25 l
st
gr
gr
1 -1 sc
2234 -164 m
( )[44 ] xs
1 -1 sc
1 -1 sc
2278 -164 m
(CONV-D10s)[114 123 114 105 53 114 88 88 79 ] xs
1 -1 sc
1 -1 sc
3156 -164 m
( )[44 ] xs
1 -1 sc
gs
gs
655 219 m
1001 219 l
1001 389 l
655 389 l
cp
gs
0.753 0.753 0.753 rgb
eofi
gr
5 sw
st
gr
gr
1 -1 sc
1004 -358 m
( )[44 ] xs
1 -1 sc
1 -1 sc
1048 -358 m
(CONV-D30s)[114 123 114 105 53 114 88 88 79 ] xs
1 -1 sc
1 -1 sc
1926 -358 m
( )[44 ] xs
1 -1 sc
gs
gs
1974 220 m
2142 388 l
st
1974 269 m
2093 388 l
st
1974 318 m
2044 388 l
st
1974 367 m
1995 388 l
st
1974 220 m
2142 388 l
st
2023 220 m
2191 388 l
st
2072 220 m
2240 388 l
st
2121 220 m
2289 388 l
st
2170 220 m
2318 368 l
st
2219 220 m
2318 319 l
st
2268 220 m
2318 270 l
st
2317 220 m
2318 221 l
st
1973 219 m
2319 219 l
5 sw
st
2319 219 m
2319 389 l
st
2319 389 m
1973 389 l
st
1973 389 m
1973 219 l
st
gr
gr
1 -1 sc
2322 -358 m
( )[44 ] xs
1 -1 sc
1 -1 sc
2366 -358 m
(CONV-D50s)[114 123 114 105 53 114 88 88 79 ] xs
1 -1 sc
gs
gs
655 413 m
1001 413 l
1001 583 l
655 583 l
cp
gs
1 0 0 rgb
eofi
gr
5 sw
st
gr
gr
1 -1 sc
1004 -552 m
( )[44 ] xs
1 -1 sc
1 -1 sc
1048 -552 m
(PageSplit+)[105 88 88 88 105 88 35 35 44 92 ] xs
1 -1 sc
gr
gr
Save0 restore end
showpage
%%EOF
