%!PS-Adobe-3.0 EPSF-3.0
%%BoundingBox: 0 0 1224 576
%%LanguageLevel: 2
%%Creator: OriginLab Corporation
%%Title: (C:\Users\Administrator\Documents\atc16-pagesplit\eval-perf.eps)
%%CreationDate: Sun Jan 31 01:25:54 2016
%%EndComments

/OriginLab::PSL1 128 dict dup begin def
/Save0 save def
%%BeginResource: procset OriginLab::PSL1
/wd{1 index where{pop pop pop}{bind def}ifelse}bind def
/setcmykcolor{1 sub 4 1 roll 3{3 index add neg dup 0 lt{pop 0}if 3 1 roll}repeat setrgbcolor pop}wd
/selectfont{dup type/arraytype eq{exch findfont exch makefont setfont}{exch findfont exch scalefont setfont}ifelse}wd
/xshow{1 index length 0 le{}{currentpoint exch 3 index length 1 sub 0 exch 1 exch{dup 5 index exch 1 getinterval show 3 index exch get add 2 copy exch moveto}for pop pop}ifelse pop pop}wd
/glyphshow{matrix currentmatrix exch currentfont dup/FontMatrix get concat currentpoint translate
 dup/Metrics get 2 index get 0 4 2 roll gsave/CharProcs get exch 2 copy known not{pop/.notdef}if
 get exec fill grestore moveto setmatrix}wd
/grayimage/image load def/rgbtogray{cvx exec dup length 3 idiv 1 sub 0 exch 1 exch{dup 3 mul dup 3 index exch get 255 div .3 mul exch
 1 add dup 4 index exch get 255 div .59 mul exch 1 add 4 index exch get 255 div .11 mul add add
 255 mul dup 255 gt{255}if round cvi 2 index 3 1 roll put}for dup length 3 idiv 0 exch getinterval}bind def
/colorimage{0 setgray pop pop cvlit/rgbtogray cvx 2 packedarray cvx grayimage}wd
/bd{bind def}bind def/ld{load def}bd/ed{exch def}bd/xd{cvx def}bd
/np/newpath ld/a/arc ld/m/moveto ld/l/lineto ld/c/curveto ld/rm/rmoveto ld/rl/rlineto ld/rc/rcurveto ld/cp/closepath ld/cpt/currentpoint ld
/tr/translate ld/sc/scale ld/ro/rotate ld/t/transform ld/it/itransform ld/dt/dtransform ld/idt/idtransform ld
/mtx/matrix ld/cmtx/currentmatrix ld/dmtx/defaultmatrix ld/smtx/setmatrix ld/catmtx/concatmatrix ld
/sw/setlinewidth ld/scap/setlinecap ld/sj/setlinejoin ld/sm/setmiterlimit ld/sd/setdash ld/rgb/setrgbcolor ld/crgb/currentrgbcolor ld/cmyk/setcmykcolor ld/gs/gsave ld/gr/grestore ld
/st/stroke ld/fi/fill ld/eofi/eofill ld/cl/clip ld/eocl/eoclip ld
/df/definefont ld/ff/findfont ld/sf/setfont ld/scf/scalefont ld/self/selectfont ld/cf/currentfont ld
/s/show ld/xs/xshow ld/gls/glyphshow ld/xgls{cpt 3 1 roll add exch 3 -1 roll gls m}bd
/cd/currentdict ld/i/index ld
/DrawBox{4 2 roll m 1 index 0 rl 0 exch rl neg 0 rl cp}bd
/plus.re { 6 { 3 index } repeat moveto 0 exch rlineto 0 rlineto pop pop neg 0 exch rlineto pop lineto closepath } def
/DrawBcc{4 2 roll m 2 copy 0 lt exch 0 lt xor{dup 0 exch rl exch 0 rl neg 0 exch rl}{exch dup 0 rl exch 0 exch rl neg 0 rl}ifelse cp}bd
/rectline{dup type/arraytype eq{dup length 0 exch 4 exch 4 sub{0 1 3{3 copy add get 4 1 roll pop}for pop 5 1 roll DrawBox}for pop}{DrawBox}ifelse}bd
/rectpath{dup type/arraytype eq{dup length 0 exch 4 exch 4 sub{0 1 3{3 copy add get 4 1 roll pop}for pop 5 1 roll DrawBcc}for pop}{DrawBcc}ifelse}bd
/pathproc{[{/m cvx}{/l cvx}{/c cvx}{/cp cvx}pathforall]cvx}bd
/L1img/image ld/L1idx[{0}
 {dup 7 and 3 1 roll -3 bitshift get exch 7 sub 1 mul bitshift  1 and}bind 1 index dup
 {dup 1 and 3 1 roll -1 bitshift get exch 1 sub 4 mul bitshift 15 and}bind 1 index dup dup
 {get}bind]def
/image{dup type/dicttype eq {dup/ImgCS get 0 get/Indexed eq}{false}ifelse
 {begin Width Height 8 ImageMatrix {rgb_string rgb_lookup
 cd/DataSource get dup type/filetype eq
 {mystring readstring pop}{exec}ifelse
 dup length 0 ne
 {L1idx BitsPerComponent get 0 1 Width 1 sub
 {3 copy exch exec exch 3 mul exch
 3 mul dup 5 index exch get exch 1 add dup 6 index exch get exch 1 add 6 index exch get
 7 index exch 4 index 2 add exch put 6 index exch 3 index 1 add exch put 5 index exch 2 index exch put pop
 }for pop pop pop }{pop pop pop ()}ifelse }false 3 colorimage end} {dup type/dicttype eq
 {{dup mark exch L1img pop pop}stopped{cleartomark begin Width Height BitsPerComponent ImageMatrix
 {cd/DataSource get dup type/filetype eq {mystring readstring pop}{exec}ifelse
 }false 3 colorimage end} if}{L1img}ifelse}ifelse
 }bd
/L1imgmask/imagemask ld/imagemask{dup type/dicttype eq
 {{dup mark exch L1imgmask pop pop}stopped {cleartomark begin Width Height polarityflag ImageMatrix
 {cd/DataSource get dup type/filetype eq {mystring readstring pop}{exec}ifelse
 }L1imgmask end}if}{L1imgmask}ifelse
 }bd
% Gradient function
/GradientStep 1 150 div def
/GradientStartRGB { /R1 exch def /G1 exch def /B1 exch def } def
/GradientEndRGB { /R2 exch def /G2 exch def /B2 exch def
/GradientSteps GradientLength GradientStep div def
/GradientRStep R2 R1 sub GradientSteps div def
/GradientGStep G2 G1 sub GradientSteps div def
/GradientBStep B2 B1 sub GradientSteps div def
} def
/GradientStepRGB { /R1 R1 GradientRStep add def
/G1 G1 GradientGStep add def
/B1 B1 GradientBStep add def
R1 G1 B1 setrgbcolor
} def
%%EndResource
/rectclip{np rectpath clip np}wd
/rectfill{gs np rectpath fi gr}wd
/rectstroke{gs np dup type/arraytype eq{dup length 6 eq}{false}ifelse{1 index type/arraytype eq{exch}{5 1 roll}ifelse rectline concat st}{rectline st}ifelse gr}wd
%%BeginResource: procset OriginLab::Image
/OriginLab::Image 32 dict dup begin
/BinProc{[currentfile mystring /readstring cvx /pop cvx] cvx bind}bd
/HexProc{[currentfile mystring /readhexstring cvx /pop cvx] cvx bind}bd
/Ascii85Proc{currentfile /ASCII85Decode filter}bd
/LZWA85{currentfile /ASCII85Decode filter /LZWDecode filter}bd
/ImgProcArray[/BinProc /HexProc /Ascii85Proc /LZWA85]def
/ImgDict{/ImgDict 16 dict def ImgDict dup begin /ImageType 1 def /MultipleDataSource false def end}bd
/L2Dec{{[1 0]}{[0 1]}ifelse}bd
/BegImg{ /Img_sv save def
 /ImgDir ed ImgProcArray exch get /ImgProc exch ld
 dup /polarityflag ed L2Dec /polarity ed /smoothflag ed
 tr /dx 2 index def /dy 1 index abs def sc
 string /mystring ed /bpc ed /ih ed /iw ed
 }bd
/EndImg {Img_sv restore}bd
/DoXImg{ /rgb_lookup ed /hival ed ImgDict dup begin
 [/Indexed /DeviceRGB hival rgb_lookup] /L1img where{pop/ImgCS ed}{setcolorspace}ifelse
 /rgb_string iw 3 mul string def
 /Width iw def
 /Height ih def
 /Decode [0 1 bpc{2 mul}repeat 1 sub] def
 /ImageMatrix
  ImgDir 0 eq{[iw 0 0 ih 0 0]}if
  ImgDir 1 eq{[iw neg 0 0 ih iw 0]}if
  ImgDir 2 eq{[iw 0 0 ih neg 0 ih]}if
  ImgDir 3 eq{[iw neg 0 0 ih neg iw ih]}if
  def
 /DataSource ImgProc def
 /BitsPerComponent bpc def
 /Interpolate smoothflag def
 end image}bd
/DoImg{ ImgDict dup begin
 [/DeviceRGB] /L1img where{pop/ImgCS ed}{setcolorspace}ifelse
 /rgb_string iw 3 mul string def
 /Width iw def
 /Height ih def
 /Decode [0 1 0 1 0 1] def
 /ImageMatrix
  ImgDir 0 eq{[iw 0 0 ih 0 0]}if
  ImgDir 1 eq{[iw neg 0 0 ih iw 0]}if
  ImgDir 2 eq{[iw 0 0 ih neg 0 ih]}if
  ImgDir 3 eq{[iw neg 0 0 ih neg iw ih]}if
  def
 /DataSource ImgProc def
 /BitsPerComponent 8 def
 /Interpolate smoothflag def
 end image}bd
end def
%%EndResource
%%BeginFont: /MC1_Arial
12 dict begin
/FontInfo 8 dict dup begin
/ItalicAngle 0 def
/UnderlinePosition -217.00 def
/UnderlineThickness 150.00 def
/StrikeoutPosition 530.00 def
/StrikeoutThickness 102.00 def
/isFixedPitch false def
end readonly def
/FontName /MC1_Arial def
/FontType 3 def
/FontMatrix [1 2048 div 0 0 1 2048 div 0 0] def
/FontBBox [-1361 -665 4096 2060] def
/Encoding 256 array def 0 1 255{Encoding exch/.notdef put}for
Encoding 32/s32 put
Encoding 46/s46 put
Encoding 48/s48 put
Encoding 49/s49 put
Encoding 50/s50 put
Encoding 51/s51 put
Encoding 53/s53 put
Encoding 99/s99 put
Encoding 100/s100 put
Encoding 102/s102 put
Encoding 104/s104 put
Encoding 105/s105 put
Encoding 106/s106 put
Encoding 109/s109 put
Encoding 110/s110 put
Encoding 111/s111 put
Encoding 112/s112 put
Encoding 114/s114 put
Encoding 115/s115 put
Encoding 117/s117 put
Encoding 120/s120 put
Encoding 121/s121 put
/BoundingBoxes 23 dict def
BoundingBoxes begin
/s32 [0 -434 569 1854] def
/s46 [0 -434 569 1854] def
/s48 [0 -434 1139 1854] def
/s49 [0 -434 1139 1854] def
/s50 [0 -434 1139 1854] def
/s51 [0 -434 1139 1854] def
/s53 [0 -434 1139 1854] def
/s99 [0 -434 1024 1854] def
/s100 [0 -434 1139 1854] def
/s102 [0 -434 569 1854] def
/s104 [0 -434 1139 1854] def
/s105 [0 -434 455 1854] def
/s106 [-94 -434 455 1854] def
/s109 [0 -434 1706 1854] def
/s110 [0 -434 1139 1854] def
/s111 [0 -434 1139 1854] def
/s112 [0 -434 1139 1854] def
/s114 [0 -434 682 1854] def
/s115 [0 -434 1024 1854] def
/s117 [0 -434 1139 1854] def
/s120 [0 -434 1024 1854] def
/s121 [0 -434 1024 1854] def
end
/Metrics 23 dict def
 Metrics begin
/s32 569 def
/s46 569 def
/s48 1139 def
/s49 1139 def
/s50 1139 def
/s51 1139 def
/s53 1139 def
/s99 1024 def
/s100 1139 def
/s102 569 def
/s104 1139 def
/s105 455 def
/s106 455 def
/s109 1706 def
/s110 1139 def
/s111 1139 def
/s112 1139 def
/s114 682 def
/s115 1024 def
/s117 1139 def
/s120 1024 def
/s121 1024 def
end
/CharProcs 23 dict def
CharProcs begin
/.notdef {} def
/s46 {
186 0 m
186 205 186 0 186 205 c
391 205 186 205 391 205 c
391 0 391 205 391 0 c
186 0 391 0 186 0 c
closepath } bind def
/s48 {
85 723 m
85 896.33 102.83 1035.83 138.5 1141.5 c
174.17 1247.17 227.17 1328.67 297.5 1386 c
367.83 1443.33 456.33 1472 563 1472 c
641.67 1472 710.67 1456.17 770 1424.5 c
829.33 1392.83 878.33 1347.17 917 1287.5 c
955.67 1227.83 986 1155.17 1008 1069.5 c
1030 983.83 1041 868.33 1041 723 c
1041 551 1023.33 412.17 988 306.5 c
952.67 200.83 899.83 119.17 829.5 61.5 c
759.17 3.83 670.33 -25 563 -25 c
421.67 -25 310.67 25.67 230 127 c
133.33 249 85 447.67 85 723 c
closepath 270 723 m
270 482.33 298.17 322.17 354.5 242.5 c
410.83 162.83 480.33 123 563 123 c
645.67 123 715.17 163 771.5 243 c
827.83 323 856 483 856 723 c
856 964.33 827.83 1124.67 771.5 1204 c
715.17 1283.33 645 1323 561 1323 c
478.33 1323 412.33 1288 363 1218 c
301 1128.67 270 963.67 270 723 c
closepath } bind def
/s49 {
763 0 m
583 0 763 0 583 0 c
583 1147 583 0 583 1147 c
539.67 1105.67 482.83 1064.33 412.5 1023 c
342.17 981.67 279 950.67 223 930 c
223 1104 223 930 223 1104 c
323.67 1151.33 411.67 1208.67 487 1276 c
562.33 1343.33 615.67 1408.67 647 1472 c
763 1472 647 1472 763 1472 c
763 0 763 1472 763 0 c
closepath } bind def
/s50 {
1031 173 m
1031 0 1031 173 1031 0 c
62 0 1031 0 62 0 c
60.67 43.33 67.67 85 83 125 c
107.67 191 147.17 256 201.5 320 c
255.83 384 334.33 458 437 542 c
596.33 672.67 704 776.17 760 852.5 c
816 928.83 844 1001 844 1069 c
844 1140.33 818.5 1200.5 767.5 1249.5 c
716.5 1298.5 650 1323 568 1323 c
481.33 1323 412 1297 360 1245 c
308 1193 281.67 1121 281 1029 c
96 1048 281 1029 96 1048 c
108.67 1186 156.33 1291.17 239 1363.5 c
321.67 1435.83 432.67 1472 572 1472 c
712.67 1472 824 1433 906 1355 c
988 1277 1029 1180.33 1029 1065 c
1029 1006.33 1017 948.67 993 892 c
969 835.33 929.17 775.67 873.5 713 c
817.83 650.33 725.33 564.33 596 455 c
488 364.33 418.67 302.83 388 270.5 c
357.33 238.17 332 205.67 312 173 c
1031 173 312 173 1031 173 c
closepath } bind def
/s51 {
86 387 m
266 411 86 387 266 411 c
286.67 309 321.83 235.5 371.5 190.5 c
421.17 145.5 481.67 123 553 123 c
637.67 123 709.17 152.33 767.5 211 c
825.83 269.67 855 342.33 855 429 c
855 511.67 828 579.83 774 633.5 c
720 687.17 651.33 714 568 714 c
534 714 491.67 707.33 441 694 c
461 852 441 694 461 852 c
473 850.67 482.67 850 490 850 c
566.67 850 635.67 870 697 910 c
758.33 950 789 1011.67 789 1095 c
789 1161 766.67 1215.67 722 1259 c
677.33 1302.33 619.67 1324 549 1324 c
479 1324 420.67 1302 374 1258 c
327.33 1214 297.33 1148 284 1060 c
104 1092 284 1060 104 1092 c
126 1212.67 176 1306.17 254 1372.5 c
332 1438.83 429 1472 545 1472 c
625 1472 698.67 1454.83 766 1420.5 c
833.33 1386.17 884.83 1339.33 920.5 1280 c
956.17 1220.67 974 1157.67 974 1091 c
974 1027.67 957 970 923 918 c
889 866 838.67 824.67 772 794 c
858.67 774 926 732.5 974 669.5 c
1022 606.5 1046 527.67 1046 433 c
1046 305 999.33 196.5 906 107.5 c
812.67 18.5 694.67 -26 552 -26 c
423.33 -26 316.5 12.33 231.5 89 c
146.5 165.67 98 265 86 387 c
closepath } bind def
/s53 {
85 384 m
274 400 85 384 274 400 c
288 308 320.5 238.83 371.5 192.5 c
422.5 146.17 484 123 556 123 c
642.67 123 716 155.67 776 221 c
836 286.33 866 373 866 481 c
866 583.67 837.17 664.67 779.5 724 c
721.83 783.33 646.33 813 553 813 c
495 813 442.67 799.83 396 773.5 c
349.33 747.17 312.67 713 286 671 c
117 693 286 671 117 693 c
259 1446 117 693 259 1446 c
988 1446 259 1446 988 1446 c
988 1274 988 1446 988 1274 c
403 1274 988 1274 403 1274 c
324 880 403 1274 324 880 c
412 941.33 504.33 972 601 972 c
729 972 837 927.67 925 839 c
1013 750.33 1057 636.33 1057 497 c
1057 364.33 1018.33 249.67 941 153 c
847 34.33 718.67 -25 556 -25 c
422.67 -25 313.83 12.33 229.5 87 c
145.17 161.67 97 260.67 85 384 c
closepath } bind def
/s99 {
828 389 m
1005 366 828 389 1005 366 c
985.67 244 936.17 148.5 856.5 79.5 c
776.83 10.5 679 -24 563 -24 c
417.67 -24 300.83 23.5 212.5 118.5 c
124.17 213.5 80 349.67 80 527 c
80 641.67 99 742 137 828 c
175 914 232.83 978.5 310.5 1021.5 c
388.17 1064.5 472.67 1086 564 1086 c
679.33 1086 773.67 1056.83 847 998.5 c
920.33 940.17 967.33 857.33 988 750 c
813 723 988 750 813 723 c
796.33 794.33 766.83 848 724.5 884 c
682.17 920 631 938 571 938 c
480.33 938 406.67 905.5 350 840.5 c
293.33 775.5 265 672.67 265 532 c
265 389.33 292.33 285.67 347 221 c
401.67 156.33 473 124 561 124 c
631.67 124 690.67 145.67 738 189 c
785.33 232.33 815.33 299 828 389 c
closepath } bind def
/s100 {
824 0 m
824 134 824 0 824 134 c
756.67 28.67 657.67 -24 527 -24 c
442.33 -24 364.5 -0.67 293.5 46 c
222.5 92.67 167.5 157.83 128.5 241.5 c
89.5 325.17 70 421.33 70 530 c
70 636 87.67 732.17 123 818.5 c
158.33 904.83 211.33 971 282 1017 c
352.67 1063 431.67 1086 519 1086 c
583 1086 640 1072.5 690 1045.5 c
740 1018.5 780.67 983.33 812 940 c
812 1466 812 940 812 1466 c
991 1466 812 1466 991 1466 c
991 0 991 1466 991 0 c
824 0 991 0 824 0 c
closepath 255 530 m
255 394 283.67 292.33 341 225 c
398.33 157.67 466 124 544 124 c
622.67 124 689.5 156.17 744.5 220.5 c
799.5 284.83 827 383 827 515 c
827 660.33 799 767 743 835 c
687 903 618 937 536 937 c
456 937 389.17 904.33 335.5 839 c
281.83 773.67 255 670.67 255 530 c
closepath } bind def
/s102 {
178 0 m
178 922 178 0 178 922 c
19 922 178 922 19 922 c
19 1062 19 922 19 1062 c
178 1062 19 1062 178 1062 c
178 1175 178 1062 178 1175 c
178 1246.33 184.33 1299.33 197 1334 c
214.33 1380.67 244.83 1418.5 288.5 1447.5 c
332.17 1476.5 393.33 1491 472 1491 c
522.67 1491 578.67 1485 640 1473 c
613 1316 640 1473 613 1316 c
575.67 1322.67 540.33 1326 507 1326 c
452.33 1326 413.67 1314.33 391 1291 c
368.33 1267.67 357 1224 357 1160 c
357 1062 357 1160 357 1062 c
564 1062 357 1062 564 1062 c
564 922 564 1062 564 922 c
357 922 564 922 357 922 c
357 0 357 922 357 0 c
178 0 357 0 178 0 c
closepath } bind def
/s104 {
135 0 m
135 1466 135 0 135 1466 c
315 1466 135 1466 315 1466 c
315 940 315 1466 315 940 c
399 1037.33 505 1086 633 1086 c
711.67 1086 780 1070.5 838 1039.5 c
896 1008.5 937.5 965.67 962.5 911 c
987.5 856.33 1000 777 1000 673 c
1000 0 1000 673 1000 0 c
820 0 1000 0 820 0 c
820 673 820 0 820 673 c
820 763 800.5 828.5 761.5 869.5 c
722.5 910.5 667.33 931 596 931 c
542.67 931 492.5 917.17 445.5 889.5 c
398.5 861.83 365 824.33 345 777 c
325 729.67 315 664.33 315 581 c
315 0 315 581 315 0 c
135 0 315 0 135 0 c
closepath } bind def
/s105 {
136 1259 m
136 1466 136 1259 136 1466 c
316 1466 136 1466 316 1466 c
316 1259 316 1466 316 1259 c
136 1259 316 1259 136 1259 c
closepath 136 0 m
136 1062 136 0 136 1062 c
316 1062 136 1062 316 1062 c
316 0 316 1062 316 0 c
136 0 316 0 136 0 c
closepath } bind def
/s106 {
134 1257 m
134 1466 134 1257 134 1466 c
314 1466 134 1466 314 1466 c
314 1257 314 1466 314 1257 c
134 1257 314 1257 134 1257 c
closepath -94 -412 m
-60 -259 -94 -412 -60 -259 c
-24 -268.33 4.33 -273 25 -273 c
61.67 -273 89 -260.83 107 -236.5 c
125 -212.17 134 -151.33 134 -54 c
134 1062 134 -54 134 1062 c
314 1062 134 1062 314 1062 c
314 -58 314 1062 314 -58 c
314 -188.67 297 -279.67 263 -331 c
219.67 -397.67 147.67 -431 47 -431 c
-1.67 -431 -48.67 -424.67 -94 -412 c
closepath } bind def
/s109 {
135 0 m
135 1062 135 0 135 1062 c
296 1062 135 1062 296 1062 c
296 913 296 1062 296 913 c
329.33 965 373.67 1006.83 429 1038.5 c
484.33 1070.17 547.33 1086 618 1086 c
696.67 1086 761.17 1069.67 811.5 1037 c
861.83 1004.33 897.33 958.67 918 900 c
1002 1024 1111.33 1086 1246 1086 c
1351.33 1086 1432.33 1056.83 1489 998.5 c
1545.67 940.17 1574 850.33 1574 729 c
1574 0 1574 729 1574 0 c
1395 0 1574 0 1395 0 c
1395 669 1395 0 1395 669 c
1395 741 1389.17 792.83 1377.5 824.5 c
1365.83 856.17 1344.67 881.67 1314 901 c
1283.33 920.33 1247.33 930 1206 930 c
1131.33 930 1069.33 905.17 1020 855.5 c
970.67 805.83 946 726.33 946 617 c
946 0 946 617 946 0 c
766 0 946 0 766 0 c
766 690 766 0 766 690 c
766 770 751.33 830 722 870 c
692.67 910 644.67 930 578 930 c
527.33 930 480.5 916.67 437.5 890 c
394.5 863.33 363.33 824.33 344 773 c
324.67 721.67 315 647.67 315 551 c
315 0 315 551 315 0 c
135 0 315 0 135 0 c
closepath } bind def
/s110 {
135 0 m
135 1062 135 0 135 1062 c
297 1062 135 1062 297 1062 c
297 911 297 1062 297 911 c
375 1027.67 487.67 1086 635 1086 c
699 1086 757.83 1074.5 811.5 1051.5 c
865.17 1028.5 905.33 998.33 932 961 c
958.67 923.67 977.33 879.33 988 828 c
994.67 794.67 998 736.33 998 653 c
998 0 998 653 998 0 c
818 0 998 0 818 0 c
818 646 818 0 818 646 c
818 719.33 811 774.17 797 810.5 c
783 846.83 758.17 875.83 722.5 897.5 c
686.83 919.17 645 930 597 930 c
520.33 930 454.17 905.67 398.5 857 c
342.83 808.33 315 716 315 580 c
315 0 315 580 315 0 c
135 0 315 0 135 0 c
closepath } bind def
/s111 {
68 531 m
68 727.67 122.67 873.33 232 968 c
323.33 1046.67 434.67 1086 566 1086 c
712 1086 831.33 1038.17 924 942.5 c
1016.67 846.83 1063 714.67 1063 546 c
1063 409.33 1042.5 301.83 1001.5 223.5 c
960.5 145.17 900.83 84.33 822.5 41 c
744.17 -2.33 658.67 -24 566 -24 c
417.33 -24 297.17 23.67 205.5 119 c
113.83 214.33 68 351.67 68 531 c
closepath 253 531 m
253 395 282.67 293.17 342 225.5 c
401.33 157.83 476 124 566 124 c
655.33 124 729.67 158 789 226 c
848.33 294 878 397.67 878 537 c
878 668.33 848.17 767.83 788.5 835.5 c
728.83 903.17 654.67 937 566 937 c
476 937 401.33 903.33 342 836 c
282.67 768.67 253 667 253 531 c
closepath } bind def
/s112 {
135 -407 m
135 1062 135 -407 135 1062 c
299 1062 135 1062 299 1062 c
299 924 299 1062 299 924 c
337.67 978 381.33 1018.5 430 1045.5 c
478.67 1072.5 537.67 1086 607 1086 c
697.67 1086 777.67 1062.67 847 1016 c
916.33 969.33 968.67 903.5 1004 818.5 c
1039.33 733.5 1057 640.33 1057 539 c
1057 430.33 1037.5 332.5 998.5 245.5 c
959.5 158.5 902.83 91.83 828.5 45.5 c
754.17 -0.83 676 -24 594 -24 c
534 -24 480.17 -11.33 432.5 14 c
384.83 39.33 345.67 71.33 315 110 c
315 -407 315 110 315 -407 c
135 -407 315 -407 135 -407 c
closepath 298 525 m
298 388.33 325.67 287.33 381 222 c
436.33 156.67 503.33 124 582 124 c
662 124 730.5 157.83 787.5 225.5 c
844.5 293.17 873 398 873 540 c
873 675.33 845.17 776.67 789.5 844 c
733.83 911.33 667.33 945 590 945 c
513.33 945 445.5 909.17 386.5 837.5 c
327.5 765.83 298 661.67 298 525 c
closepath } bind def
/s114 {
133 0 m
133 1062 133 0 133 1062 c
295 1062 133 1062 295 1062 c
295 901 295 1062 295 901 c
336.33 976.33 374.5 1026 409.5 1050 c
444.5 1074 483 1086 525 1086 c
585.67 1086 647.33 1066.67 710 1028 c
648 861 710 1028 648 861 c
604 887 560 900 516 900 c
476.67 900 441.33 888.17 410 864.5 c
378.67 840.83 356.33 808 343 766 c
323 702 313 632 313 556 c
313 0 313 556 313 0 c
133 0 313 0 133 0 c
closepath } bind def
/s115 {
63 317 m
241 345 63 317 241 345 c
251 273.67 278.83 219 324.5 181 c
370.17 143 434 124 516 124 c
598.67 124 660 140.83 700 174.5 c
740 208.17 760 247.67 760 293 c
760 333.67 742.33 365.67 707 389 c
682.33 405 621 425.33 523 450 c
391 483.33 299.5 512.17 248.5 536.5 c
197.5 560.83 158.83 594.5 132.5 637.5 c
106.17 680.5 93 728 93 780 c
93 827.33 103.83 871.17 125.5 911.5 c
147.17 951.83 176.67 985.33 214 1012 c
242 1032.67 280.17 1050.17 328.5 1064.5 c
376.83 1078.83 428.67 1086 484 1086 c
567.33 1086 640.5 1074 703.5 1050 c
766.5 1026 813 993.5 843 952.5 c
873 911.5 893.67 856.67 905 788 c
729 764 905 788 729 764 c
721 818.67 697.83 861.33 659.5 892 c
621.17 922.67 567 938 497 938 c
414.33 938 355.33 924.33 320 897 c
284.67 869.67 267 837.67 267 801 c
267 777.67 274.33 756.67 289 738 c
303.67 718.67 326.67 702.67 358 690 c
376 683.33 429 668 517 644 c
644.33 610 733.17 582.17 783.5 560.5 c
833.83 538.83 873.33 507.33 902 466 c
930.67 424.67 945 373.33 945 312 c
945 252 927.5 195.5 892.5 142.5 c
857.5 89.5 807 48.5 741 19.5 c
675 -9.5 600.33 -24 517 -24 c
379 -24 273.83 4.67 201.5 62 c
129.17 119.33 83 204.33 63 317 c
closepath } bind def
/s117 {
831 0 m
831 156 831 0 831 156 c
748.33 36 636 -24 494 -24 c
431.33 -24 372.83 -12 318.5 12 c
264.17 36 223.83 66.17 197.5 102.5 c
171.17 138.83 152.67 183.33 142 236 c
134.67 271.33 131 327.33 131 404 c
131 1062 131 404 131 1062 c
311 1062 131 1062 311 1062 c
311 473 311 1062 311 473 c
311 379 314.67 315.67 322 283 c
333.33 235.67 357.33 198.5 394 171.5 c
430.67 144.5 476 131 530 131 c
584 131 634.67 144.83 682 172.5 c
729.33 200.17 762.83 237.83 782.5 285.5 c
802.17 333.17 812 402.33 812 493 c
812 1062 812 493 812 1062 c
992 1062 812 1062 992 1062 c
992 0 992 1062 992 0 c
831 0 992 0 831 0 c
closepath } bind def
/s120 {
15 0 m
403 552 15 0 403 552 c
44 1062 403 552 44 1062 c
269 1062 44 1062 269 1062 c
432 813 269 1062 432 813 c
462.67 765.67 487.33 726 506 694 c
535.33 738 562.33 777 587 811 c
766 1062 587 811 766 1062 c
981 1062 766 1062 981 1062 c
614 562 981 1062 614 562 c
1009 0 614 562 1009 0 c
788 0 1009 0 788 0 c
570 330 788 0 570 330 c
512 419 570 330 512 419 c
233 0 512 419 233 0 c
15 0 233 0 15 0 c
closepath } bind def
/s121 {
127 -409 m
107 -240 127 -409 107 -240 c
146.33 -250.67 180.67 -256 210 -256 c
250 -256 282 -249.33 306 -236 c
330 -222.67 349.67 -204 365 -180 c
376.33 -162 394.67 -117.33 420 -46 c
423.33 -36 428.67 -21.33 436 -2 c
33 1062 436 -2 33 1062 c
227 1062 33 1062 227 1062 c
448 447 227 1062 448 447 c
476.67 369 502.33 287 525 201 c
545.67 283.67 570.33 364.33 599 443 c
826 1062 599 443 826 1062 c
1006 1062 826 1062 1006 1062 c
602 -18 1006 1062 602 -18 c
558.67 -134.67 525 -215 501 -259 c
469 -318.33 432.33 -361.83 391 -389.5 c
349.67 -417.17 300.33 -431 243 -431 c
208.33 -431 169.67 -423.67 127 -409 c
closepath } bind def
end
/BuildGlyph {
 exch dup /Metrics get 2 index get 0 setcharwidth
/CharProcs get exch 2 copy known not{pop/.notdef}if get exec fill}bind def
/BuildChar {
1 index /Encoding get exch get
1 index /BuildGlyph get exec
} bind def
currentdict end /MC1_Arial exch definefont pop
%%EndFont
%%BeginFont: /MC2_Arial
12 dict begin
/FontInfo 8 dict dup begin
/ItalicAngle 0 def
/UnderlinePosition -217.00 def
/UnderlineThickness 150.00 def
/StrikeoutPosition 530.00 def
/StrikeoutThickness 102.00 def
/isFixedPitch false def
end readonly def
/FontName /MC2_Arial def
/FontType 3 def
/FontMatrix [1 2048 div 0 0 1 2048 div 0 0] def
/FontBBox [-1361 -665 4096 2060] def
/Encoding 256 array def 0 1 255{Encoding exch/.notdef put}for
Encoding 32/s32 put
Encoding 78/s78 put
Encoding 84/s84 put
Encoding 97/s97 put
Encoding 100/s100 put
Encoding 101/s101 put
Encoding 103/s103 put
Encoding 104/s104 put
Encoding 105/s105 put
Encoding 108/s108 put
Encoding 109/s109 put
Encoding 111/s111 put
Encoding 112/s112 put
Encoding 114/s114 put
Encoding 116/s116 put
Encoding 117/s117 put
Encoding 122/s122 put
/BoundingBoxes 18 dict def
BoundingBoxes begin
/s32 [0 -434 569 1854] def
/s78 [0 -434 1479 1854] def
/s84 [0 -434 1251 1854] def
/s97 [0 -434 1139 1854] def
/s100 [0 -434 1139 1854] def
/s101 [0 -434 1139 1854] def
/s103 [0 -434 1139 1854] def
/s104 [0 -434 1139 1854] def
/s105 [0 -434 455 1854] def
/s108 [0 -434 455 1854] def
/s109 [0 -434 1706 1854] def
/s111 [0 -434 1139 1854] def
/s112 [0 -434 1139 1854] def
/s114 [0 -434 682 1854] def
/s116 [0 -434 569 1854] def
/s117 [0 -434 1139 1854] def
/s122 [0 -434 1024 1854] def
end
/Metrics 18 dict def
 Metrics begin
/s32 569 def
/s78 1479 def
/s84 1251 def
/s97 1139 def
/s100 1139 def
/s101 1139 def
/s103 1139 def
/s104 1139 def
/s105 455 def
/s108 455 def
/s109 1706 def
/s111 1139 def
/s112 1139 def
/s114 682 def
/s116 569 def
/s117 1139 def
/s122 1024 def
end
/CharProcs 18 dict def
CharProcs begin
/.notdef {} def
/s78 {
156 0 m
156 1466 156 0 156 1466 c
355 1466 156 1466 355 1466 c
1125 315 355 1466 1125 315 c
1125 1466 1125 315 1125 1466 c
1311 1466 1125 1466 1311 1466 c
1311 0 1311 1466 1311 0 c
1112 0 1311 0 1112 0 c
342 1152 1112 0 342 1152 c
342 0 342 1152 342 0 c
156 0 342 0 156 0 c
closepath } bind def
/s84 {
531 0 m
531 1293 531 0 531 1293 c
48 1293 531 1293 48 1293 c
48 1466 48 1293 48 1466 c
1210 1466 48 1466 1210 1466 c
1210 1293 1210 1466 1210 1293 c
725 1293 1210 1293 725 1293 c
725 0 725 1293 725 0 c
531 0 725 0 531 0 c
closepath } bind def
/s97 {
828 131 m
761.33 74.33 697.17 34.33 635.5 11 c
573.83 -12.33 507.67 -24 437 -24 c
320.33 -24 230.67 4.5 168 61.5 c
105.33 118.5 74 191.33 74 280 c
74 332 85.83 379.5 109.5 422.5 c
133.17 465.5 164.17 500 202.5 526 c
240.83 552 284 571.67 332 585 c
367.33 594.33 420.67 603.33 492 612 c
637.33 629.33 744.33 650 813 674 c
813.67 698.67 814 714.33 814 721 c
814 794.33 797 846 763 876 c
717 916.67 648.67 937 558 937 c
473.33 937 410.83 922.17 370.5 892.5 c
330.17 862.83 300.33 810.33 281 735 c
105 759 281 735 105 759 c
121 834.33 147.33 895.17 184 941.5 c
220.67 987.83 273.67 1023.5 343 1048.5 c
412.33 1073.5 492.67 1086 584 1086 c
674.67 1086 748.33 1075.33 805 1054 c
861.67 1032.67 903.33 1005.83 930 973.5 c
956.67 941.17 975.33 900.33 986 851 c
992 820.33 995 765 995 685 c
995 445 995 685 995 445 c
995 277.67 998.83 171.83 1006.5 127.5 c
1014.17 83.17 1029.33 40.67 1052 0 c
864 0 1052 0 864 0 c
845.33 37.33 833.33 81 828 131 c
closepath 813 533 m
747.67 506.33 649.67 483.67 519 465 c
445 454.33 392.67 442.33 362 429 c
331.33 415.67 307.67 396.17 291 370.5 c
274.33 344.83 266 316.33 266 285 c
266 237 284.17 197 320.5 165 c
356.83 133 410 117 480 117 c
549.33 117 611 132.17 665 162.5 c
719 192.83 758.67 234.33 784 287 c
803.33 327.67 813 387.67 813 467 c
813 533 813 467 813 533 c
closepath } bind def
/s100 {
824 0 m
824 134 824 0 824 134 c
756.67 28.67 657.67 -24 527 -24 c
442.33 -24 364.5 -0.67 293.5 46 c
222.5 92.67 167.5 157.83 128.5 241.5 c
89.5 325.17 70 421.33 70 530 c
70 636 87.67 732.17 123 818.5 c
158.33 904.83 211.33 971 282 1017 c
352.67 1063 431.67 1086 519 1086 c
583 1086 640 1072.5 690 1045.5 c
740 1018.5 780.67 983.33 812 940 c
812 1466 812 940 812 1466 c
991 1466 812 1466 991 1466 c
991 0 991 1466 991 0 c
824 0 991 0 824 0 c
closepath 255 530 m
255 394 283.67 292.33 341 225 c
398.33 157.67 466 124 544 124 c
622.67 124 689.5 156.17 744.5 220.5 c
799.5 284.83 827 383 827 515 c
827 660.33 799 767 743 835 c
687 903 618 937 536 937 c
456 937 389.17 904.33 335.5 839 c
281.83 773.67 255 670.67 255 530 c
closepath } bind def
/s101 {
862 342 m
1048 319 862 342 1048 319 c
1018.67 210.33 964.33 126 885 66 c
805.67 6 704.33 -24 581 -24 c
425.67 -24 302.5 23.83 211.5 119.5 c
120.5 215.17 75 349.33 75 522 c
75 700.67 121 839.33 213 938 c
305 1036.67 424.33 1086 571 1086 c
713 1086 829 1037.67 919 941 c
1009 844.33 1054 708.33 1054 533 c
1054 522.33 1053.67 506.33 1053 485 c
261 485 1053 485 261 485 c
267.67 368.33 300.67 279 360 217 c
419.33 155 493.33 124 582 124 c
648 124 704.33 141.33 751 176 c
797.67 210.67 834.67 266 862 342 c
closepath 271 633 m
864 633 271 633 864 633 c
856 722.33 833.33 789.33 796 834 c
738.67 903.33 664.33 938 573 938 c
490.33 938 420.83 910.33 364.5 855 c
308.17 799.67 277 725.67 271 633 c
closepath } bind def
/s103 {
102 -88 m
277 -114 102 -88 277 -114 c
284.33 -168 304.67 -207.33 338 -232 c
382.67 -265.33 443.67 -282 521 -282 c
604.33 -282 668.67 -265.33 714 -232 c
759.33 -198.67 790 -152 806 -92 c
815.33 -55.33 819.67 21.67 819 139 c
740.33 46.33 642.33 0 525 0 c
379 0 266 52.67 186 158 c
106 263.33 66 389.67 66 537 c
66 638.33 84.33 731.83 121 817.5 c
157.67 903.17 210.83 969.33 280.5 1016 c
350.17 1062.67 432 1086 526 1086 c
651.33 1086 754.67 1035.33 836 934 c
836 1062 836 934 836 1062 c
1002 1062 836 1062 1002 1062 c
1002 144 1002 1062 1002 144 c
1002 -21.33 985.17 -138.5 951.5 -207.5 c
917.83 -276.5 864.5 -331 791.5 -371 c
718.5 -411 628.67 -431 522 -431 c
395.33 -431 293 -402.5 215 -345.5 c
137 -288.5 99.33 -202.67 102 -88 c
closepath 251 550 m
251 410.67 278.67 309 334 245 c
389.33 181 458.67 149 542 149 c
624.67 149 694 180.83 750 244.5 c
806 308.17 834 408 834 544 c
834 674 805.17 772 747.5 838 c
689.83 904 620.33 937 539 937 c
459 937 391 904.5 335 839.5 c
279 774.5 251 678 251 550 c
closepath } bind def
/s104 {
135 0 m
135 1466 135 0 135 1466 c
315 1466 135 1466 315 1466 c
315 940 315 1466 315 940 c
399 1037.33 505 1086 633 1086 c
711.67 1086 780 1070.5 838 1039.5 c
896 1008.5 937.5 965.67 962.5 911 c
987.5 856.33 1000 777 1000 673 c
1000 0 1000 673 1000 0 c
820 0 1000 0 820 0 c
820 673 820 0 820 673 c
820 763 800.5 828.5 761.5 869.5 c
722.5 910.5 667.33 931 596 931 c
542.67 931 492.5 917.17 445.5 889.5 c
398.5 861.83 365 824.33 345 777 c
325 729.67 315 664.33 315 581 c
315 0 315 581 315 0 c
135 0 315 0 135 0 c
closepath } bind def
/s105 {
136 1259 m
136 1466 136 1259 136 1466 c
316 1466 136 1466 316 1466 c
316 1259 316 1466 316 1259 c
136 1259 316 1259 136 1259 c
closepath 136 0 m
136 1062 136 0 136 1062 c
316 1062 136 1062 316 1062 c
316 0 316 1062 316 0 c
136 0 316 0 136 0 c
closepath } bind def
/s108 {
131 0 m
131 1466 131 0 131 1466 c
311 1466 131 1466 311 1466 c
311 0 311 1466 311 0 c
131 0 311 0 131 0 c
closepath } bind def
/s109 {
135 0 m
135 1062 135 0 135 1062 c
296 1062 135 1062 296 1062 c
296 913 296 1062 296 913 c
329.33 965 373.67 1006.83 429 1038.5 c
484.33 1070.17 547.33 1086 618 1086 c
696.67 1086 761.17 1069.67 811.5 1037 c
861.83 1004.33 897.33 958.67 918 900 c
1002 1024 1111.33 1086 1246 1086 c
1351.33 1086 1432.33 1056.83 1489 998.5 c
1545.67 940.17 1574 850.33 1574 729 c
1574 0 1574 729 1574 0 c
1395 0 1574 0 1395 0 c
1395 669 1395 0 1395 669 c
1395 741 1389.17 792.83 1377.5 824.5 c
1365.83 856.17 1344.67 881.67 1314 901 c
1283.33 920.33 1247.33 930 1206 930 c
1131.33 930 1069.33 905.17 1020 855.5 c
970.67 805.83 946 726.33 946 617 c
946 0 946 617 946 0 c
766 0 946 0 766 0 c
766 690 766 0 766 690 c
766 770 751.33 830 722 870 c
692.67 910 644.67 930 578 930 c
527.33 930 480.5 916.67 437.5 890 c
394.5 863.33 363.33 824.33 344 773 c
324.67 721.67 315 647.67 315 551 c
315 0 315 551 315 0 c
135 0 315 0 135 0 c
closepath } bind def
/s111 {
68 531 m
68 727.67 122.67 873.33 232 968 c
323.33 1046.67 434.67 1086 566 1086 c
712 1086 831.33 1038.17 924 942.5 c
1016.67 846.83 1063 714.67 1063 546 c
1063 409.33 1042.5 301.83 1001.5 223.5 c
960.5 145.17 900.83 84.33 822.5 41 c
744.17 -2.33 658.67 -24 566 -24 c
417.33 -24 297.17 23.67 205.5 119 c
113.83 214.33 68 351.67 68 531 c
closepath 253 531 m
253 395 282.67 293.17 342 225.5 c
401.33 157.83 476 124 566 124 c
655.33 124 729.67 158 789 226 c
848.33 294 878 397.67 878 537 c
878 668.33 848.17 767.83 788.5 835.5 c
728.83 903.17 654.67 937 566 937 c
476 937 401.33 903.33 342 836 c
282.67 768.67 253 667 253 531 c
closepath } bind def
/s112 {
135 -407 m
135 1062 135 -407 135 1062 c
299 1062 135 1062 299 1062 c
299 924 299 1062 299 924 c
337.67 978 381.33 1018.5 430 1045.5 c
478.67 1072.5 537.67 1086 607 1086 c
697.67 1086 777.67 1062.67 847 1016 c
916.33 969.33 968.67 903.5 1004 818.5 c
1039.33 733.5 1057 640.33 1057 539 c
1057 430.33 1037.5 332.5 998.5 245.5 c
959.5 158.5 902.83 91.83 828.5 45.5 c
754.17 -0.83 676 -24 594 -24 c
534 -24 480.17 -11.33 432.5 14 c
384.83 39.33 345.67 71.33 315 110 c
315 -407 315 110 315 -407 c
135 -407 315 -407 135 -407 c
closepath 298 525 m
298 388.33 325.67 287.33 381 222 c
436.33 156.67 503.33 124 582 124 c
662 124 730.5 157.83 787.5 225.5 c
844.5 293.17 873 398 873 540 c
873 675.33 845.17 776.67 789.5 844 c
733.83 911.33 667.33 945 590 945 c
513.33 945 445.5 909.17 386.5 837.5 c
327.5 765.83 298 661.67 298 525 c
closepath } bind def
/s114 {
133 0 m
133 1062 133 0 133 1062 c
295 1062 133 1062 295 1062 c
295 901 295 1062 295 901 c
336.33 976.33 374.5 1026 409.5 1050 c
444.5 1074 483 1086 525 1086 c
585.67 1086 647.33 1066.67 710 1028 c
648 861 710 1028 648 861 c
604 887 560 900 516 900 c
476.67 900 441.33 888.17 410 864.5 c
378.67 840.83 356.33 808 343 766 c
323 702 313 632 313 556 c
313 0 313 556 313 0 c
133 0 313 0 133 0 c
closepath } bind def
/s116 {
528 161 m
554 2 528 161 554 2 c
503.33 -8.67 458 -14 418 -14 c
352.67 -14 302 -3.67 266 17 c
230 37.67 204.67 64.83 190 98.5 c
175.33 132.17 168 203 168 311 c
168 922 168 311 168 922 c
36 922 168 922 36 922 c
36 1062 36 922 36 1062 c
168 1062 36 1062 168 1062 c
168 1325 168 1062 168 1325 c
347 1433 168 1325 347 1433 c
347 1062 347 1433 347 1062 c
528 1062 347 1062 528 1062 c
528 922 528 1062 528 922 c
347 922 528 922 347 922 c
347 301 347 922 347 301 c
347 249.67 350.17 216.67 356.5 202 c
362.83 187.33 373.17 175.67 387.5 167 c
401.83 158.33 422.33 154 449 154 c
469 154 495.33 156.33 528 161 c
closepath } bind def
/s117 {
831 0 m
831 156 831 0 831 156 c
748.33 36 636 -24 494 -24 c
431.33 -24 372.83 -12 318.5 12 c
264.17 36 223.83 66.17 197.5 102.5 c
171.17 138.83 152.67 183.33 142 236 c
134.67 271.33 131 327.33 131 404 c
131 1062 131 404 131 1062 c
311 1062 131 1062 311 1062 c
311 473 311 1062 311 473 c
311 379 314.67 315.67 322 283 c
333.33 235.67 357.33 198.5 394 171.5 c
430.67 144.5 476 131 530 131 c
584 131 634.67 144.83 682 172.5 c
729.33 200.17 762.83 237.83 782.5 285.5 c
802.17 333.17 812 402.33 812 493 c
812 1062 812 493 812 1062 c
992 1062 812 1062 992 1062 c
992 0 992 1062 992 0 c
831 0 992 0 831 0 c
closepath } bind def
/s122 {
40 0 m
40 146 40 0 40 146 c
716 922 40 146 716 922 c
639.33 918 571.67 916 513 916 c
80 916 513 916 80 916 c
80 1062 80 916 80 1062 c
948 1062 80 1062 948 1062 c
948 943 948 1062 948 943 c
373 269 948 943 373 269 c
262 146 373 269 262 146 c
342.67 152 418.33 155 489 155 c
980 155 489 155 980 155 c
980 0 980 155 980 0 c
40 0 980 0 40 0 c
closepath } bind def
end
/BuildGlyph {
 exch dup /Metrics get 2 index get 0 setcharwidth
/CharProcs get exch 2 copy known not{pop/.notdef}if get exec fill}bind def
/BuildChar {
1 index /Encoding get exch get
1 index /BuildGlyph get exec
} bind def
currentdict end /MC2_Arial exch definefont pop
%%EndFont
%%BeginFont: /MC3_Arial
12 dict begin
/FontInfo 8 dict dup begin
/ItalicAngle 0 def
/UnderlinePosition -217.00 def
/UnderlineThickness 150.00 def
/StrikeoutPosition 530.00 def
/StrikeoutThickness 102.00 def
/isFixedPitch false def
end readonly def
/FontName /MC3_Arial def
/FontType 3 def
/FontMatrix [1 2048 div 0 0 1 2048 div 0 0] def
/FontBBox [-1361 -665 4096 2060] def
/Encoding 256 array def 0 1 255{Encoding exch/.notdef put}for
Encoding 32/s32 put
Encoding 49/s49 put
Encoding 50/s50 put
Encoding 51/s51 put
Encoding 52/s52 put
Encoding 54/s54 put
Encoding 56/s56 put
Encoding 66/s66 put
Encoding 75/s75 put
/BoundingBoxes 10 dict def
BoundingBoxes begin
/s32 [0 -434 569 1854] def
/s49 [0 -434 1139 1854] def
/s50 [0 -434 1139 1854] def
/s51 [0 -434 1139 1854] def
/s52 [0 -434 1139 1854] def
/s54 [0 -434 1139 1854] def
/s56 [0 -434 1139 1854] def
/s66 [0 -434 1366 1854] def
/s75 [0 -434 1366 1854] def
end
/Metrics 10 dict def
 Metrics begin
/s32 569 def
/s49 1139 def
/s50 1139 def
/s51 1139 def
/s52 1139 def
/s54 1139 def
/s56 1139 def
/s66 1366 def
/s75 1366 def
end
/CharProcs 10 dict def
CharProcs begin
/.notdef {} def
/s49 {
763 0 m
583 0 763 0 583 0 c
583 1147 583 0 583 1147 c
539.67 1105.67 482.83 1064.33 412.5 1023 c
342.17 981.67 279 950.67 223 930 c
223 1104 223 930 223 1104 c
323.67 1151.33 411.67 1208.67 487 1276 c
562.33 1343.33 615.67 1408.67 647 1472 c
763 1472 647 1472 763 1472 c
763 0 763 1472 763 0 c
closepath } bind def
/s50 {
1031 173 m
1031 0 1031 173 1031 0 c
62 0 1031 0 62 0 c
60.67 43.33 67.67 85 83 125 c
107.67 191 147.17 256 201.5 320 c
255.83 384 334.33 458 437 542 c
596.33 672.67 704 776.17 760 852.5 c
816 928.83 844 1001 844 1069 c
844 1140.33 818.5 1200.5 767.5 1249.5 c
716.5 1298.5 650 1323 568 1323 c
481.33 1323 412 1297 360 1245 c
308 1193 281.67 1121 281 1029 c
96 1048 281 1029 96 1048 c
108.67 1186 156.33 1291.17 239 1363.5 c
321.67 1435.83 432.67 1472 572 1472 c
712.67 1472 824 1433 906 1355 c
988 1277 1029 1180.33 1029 1065 c
1029 1006.33 1017 948.67 993 892 c
969 835.33 929.17 775.67 873.5 713 c
817.83 650.33 725.33 564.33 596 455 c
488 364.33 418.67 302.83 388 270.5 c
357.33 238.17 332 205.67 312 173 c
1031 173 312 173 1031 173 c
closepath } bind def
/s51 {
86 387 m
266 411 86 387 266 411 c
286.67 309 321.83 235.5 371.5 190.5 c
421.17 145.5 481.67 123 553 123 c
637.67 123 709.17 152.33 767.5 211 c
825.83 269.67 855 342.33 855 429 c
855 511.67 828 579.83 774 633.5 c
720 687.17 651.33 714 568 714 c
534 714 491.67 707.33 441 694 c
461 852 441 694 461 852 c
473 850.67 482.67 850 490 850 c
566.67 850 635.67 870 697 910 c
758.33 950 789 1011.67 789 1095 c
789 1161 766.67 1215.67 722 1259 c
677.33 1302.33 619.67 1324 549 1324 c
479 1324 420.67 1302 374 1258 c
327.33 1214 297.33 1148 284 1060 c
104 1092 284 1060 104 1092 c
126 1212.67 176 1306.17 254 1372.5 c
332 1438.83 429 1472 545 1472 c
625 1472 698.67 1454.83 766 1420.5 c
833.33 1386.17 884.83 1339.33 920.5 1280 c
956.17 1220.67 974 1157.67 974 1091 c
974 1027.67 957 970 923 918 c
889 866 838.67 824.67 772 794 c
858.67 774 926 732.5 974 669.5 c
1022 606.5 1046 527.67 1046 433 c
1046 305 999.33 196.5 906 107.5 c
812.67 18.5 694.67 -26 552 -26 c
423.33 -26 316.5 12.33 231.5 89 c
146.5 165.67 98 265 86 387 c
closepath } bind def
/s52 {
662 0 m
662 351 662 0 662 351 c
26 351 662 351 26 351 c
26 516 26 351 26 516 c
695 1466 26 516 695 1466 c
842 1466 695 1466 842 1466 c
842 516 842 1466 842 516 c
1040 516 842 516 1040 516 c
1040 351 1040 516 1040 351 c
842 351 1040 351 842 351 c
842 0 842 351 842 0 c
662 0 842 0 662 0 c
closepath 662 516 m
662 1177 662 516 662 1177 c
203 516 662 1177 203 516 c
662 516 203 516 662 516 c
closepath } bind def
/s54 {
1019 1107 m
840 1093 1019 1107 840 1093 c
824 1163.67 801.33 1215 772 1247 c
723.33 1298.33 663.33 1324 592 1324 c
534.67 1324 484.33 1308 441 1276 c
384.33 1234.67 339.67 1174.33 307 1095 c
274.33 1015.67 257.33 902.67 256 756 c
299.33 822 352.33 871 415 903 c
477.67 935 543.33 951 612 951 c
732 951 834.17 906.83 918.5 818.5 c
1002.83 730.17 1045 616 1045 476 c
1045 384 1025.17 298.5 985.5 219.5 c
945.83 140.5 891.33 80 822 38 c
752.67 -4 674 -25 586 -25 c
436 -25 313.67 30.17 219 140.5 c
124.33 250.83 77 432.67 77 686 c
77 969.33 129.33 1175.33 234 1304 c
325.33 1416 448.33 1472 603 1472 c
718.33 1472 812.83 1439.67 886.5 1375 c
960.17 1310.33 1004.33 1221 1019 1107 c
closepath 284 475 m
284 413 297.17 353.67 323.5 297 c
349.83 240.33 386.67 197.17 434 167.5 c
481.33 137.83 531 123 583 123 c
659 123 724.33 153.67 779 215 c
833.67 276.33 861 359.67 861 465 c
861 566.33 834 646.17 780 704.5 c
726 762.83 658 792 576 792 c
494.67 792 425.67 762.83 369 704.5 c
312.33 646.17 284 569.67 284 475 c
closepath } bind def
/s56 {
362 795 m
287.33 822.33 232 861.33 196 912 c
160 962.67 142 1023.33 142 1094 c
142 1200.67 180.33 1290.33 257 1363 c
333.67 1435.67 435.67 1472 563 1472 c
691 1472 794 1434.83 872 1360.5 c
950 1286.17 989 1195.67 989 1089 c
989 1021 971.17 961.83 935.5 911.5 c
899.83 861.17 845.67 822.33 773 795 c
863 765.67 931.5 718.33 978.5 653 c
1025.5 587.67 1049 509.67 1049 419 c
1049 293.67 1004.67 188.33 916 103 c
827.33 17.67 710.67 -25 566 -25 c
421.33 -25 304.67 17.83 216 103.5 c
127.33 189.17 83 296 83 424 c
83 519.33 107.17 599.17 155.5 663.5 c
203.83 727.83 272.67 771.67 362 795 c
closepath 326 1100 m
326 1030.67 348.33 974 393 930 c
437.67 886 495.67 864 567 864 c
636.33 864 693.17 885.83 737.5 929.5 c
781.83 973.17 804 1026.67 804 1090 c
804 1156 781.17 1211.5 735.5 1256.5 c
689.83 1301.5 633 1324 565 1324 c
496.33 1324 439.33 1302 394 1258 c
348.67 1214 326 1161.33 326 1100 c
closepath 268 423 m
268 371.67 280.17 322 304.5 274 c
328.83 226 365 188.83 413 162.5 c
461 136.17 512.67 123 568 123 c
654 123 725 150.67 781 206 c
837 261.33 865 331.67 865 417 c
865 503.67 836.17 575.33 778.5 632 c
720.83 688.67 648.67 717 562 717 c
477.33 717 407.17 689 351.5 633 c
295.83 577 268 507 268 423 c
closepath } bind def
/s66 {
150 0 m
150 1466 150 0 150 1466 c
700 1466 150 1466 700 1466 c
812 1466 901.83 1451.17 969.5 1421.5 c
1037.17 1391.83 1090.17 1346.17 1128.5 1284.5 c
1166.83 1222.83 1186 1158.33 1186 1091 c
1186 1028.33 1169 969.33 1135 914 c
1101 858.67 1049.67 814 981 780 c
1069.67 754 1137.83 709.67 1185.5 647 c
1233.17 584.33 1257 510.33 1257 425 c
1257 356.33 1242.5 292.5 1213.5 233.5 c
1184.5 174.5 1148.67 129 1106 97 c
1063.33 65 1009.83 40.83 945.5 24.5 c
881.17 8.17 802.33 0 709 0 c
150 0 709 0 150 0 c
closepath 344 850 m
661 850 344 850 661 850 c
747 850 808.67 855.67 846 867 c
895.33 881.67 932.5 906 957.5 940 c
982.5 974 995 1016.67 995 1068 c
995 1116.67 983.33 1159.5 960 1196.5 c
936.67 1233.5 903.33 1258.83 860 1272.5 c
816.67 1286.17 742.33 1293 637 1293 c
344 1293 637 1293 344 1293 c
344 850 344 1293 344 850 c
closepath 344 173 m
709 173 344 173 709 173 c
771.67 173 815.67 175.33 841 180 c
885.67 188 923 201.33 953 220 c
983 238.67 1007.67 265.83 1027 301.5 c
1046.33 337.17 1056 378.33 1056 425 c
1056 479.67 1042 527.17 1014 567.5 c
986 607.83 947.17 636.17 897.5 652.5 c
847.83 668.83 776.33 677 683 677 c
344 677 683 677 344 677 c
344 173 344 677 344 173 c
closepath } bind def
/s75 {
150 0 m
150 1466 150 0 150 1466 c
344 1466 150 1466 344 1466 c
344 739 344 1466 344 739 c
1072 1466 344 739 1072 1466 c
1335 1466 1072 1466 1335 1466 c
720 872 1335 1466 720 872 c
1362 0 720 872 1362 0 c
1106 0 1362 0 1106 0 c
584 742 1106 0 584 742 c
344 508 584 742 344 508 c
344 0 344 508 344 0 c
150 0 344 0 150 0 c
closepath } bind def
end
/BuildGlyph {
 exch dup /Metrics get 2 index get 0 setcharwidth
/CharProcs get exch 2 copy known not{pop/.notdef}if get exec fill}bind def
/BuildChar {
1 index /Encoding get exch get
1 index /BuildGlyph get exec
} bind def
currentdict end /MC3_Arial exch definefont pop
%%EndFont
/clipproc{clippath{[{/m cvx}{/l cvx}{/c cvx}{/cp cvx}pathforall}stopped
{cleartomark[pathbbox exch 3 i sub exch 2 i sub/rectpath cvx}if]np}bd
/iclmtx mtx cmtx def/iclpath clipproc xd/clinit{pathproc initclip np iclpath cl np exec}bd
/clmove{pathproc 3 1 roll clippath pathproc 2 i neg 2 i neg tr initclip np exec cl tr np exec}bd
/clrect[gs np iclpath{pathbbox}stopped{0 0 1224 576 }if gr]def
/cloper{mtx cmtx iclmtx smtx exch exec smtx}bd
/cland{{exch cvx exec}cloper}bd
/clcopy{{exch clinit cvx exec}cloper}bd
/cldiff{{exch pathbbox 4 -1 roll clrect 0 get 2 copy gt{exch}if pop 4 1 roll
 3 -1 roll clrect 1 get 2 copy gt{exch}if pop 3 1 roll
 2 -1 roll clrect 2 get 2 copy lt{exch}if pop 2 1 roll
 1 -1 roll clrect 3 get 2 copy lt{exch}if pop 1 1 roll
 exch 3 i sub exch 2 i sub rectpath cvx exec}cloper}bd
/icl{{clinit}cloper}bd
0.239948 0.239942 sc

/initmtx mtx cmtx def
[1.00022 -0 0 -1.00025 0 2400.58] concat
gs
913 2234 m
913 283 l
2 sw
1 sj
1 scap
st
1374 2234 m
1374 283 l
st
1834 2234 m
1834 283 l
st
2295 2234 m
2295 283 l
st
2755 2234 m
2755 283 l
st
3215 2234 m
3215 283 l
st
3676 2234 m
3676 283 l
st
4136 2234 m
4136 283 l
st
4597 2234 m
4597 283 l
st
453 1955 m
5057 1955 l
3 sw
0.502 0.502 0.502 rgb
st
453 1677 m
5057 1677 l
st
453 1398 m
5057 1398 l
st
453 1119 m
5057 1119 l
st
453 840 m
5057 840 l
st
453 562 m
5057 562 l
st
gs
pathproc 453 283 4605 1952 np rectpath
/eocl cland
np exec
499 1608 m
591 1608 l
591 2234 l
499 2234 l
cp
gs
0 0 0 rgb
eofi
gr
5 sw
0 0 0 rgb
st
499 1608 m
591 1608 l
st
591 1608 m
591 2234 l
st
499 2234 m
499 1608 l
st
959 1591 m
1052 1591 l
1052 2234 l
959 2234 l
cp
gs
eofi
gr
st
959 1591 m
1052 1591 l
st
1052 1591 m
1052 2234 l
st
959 2234 m
959 1591 l
st
1420 1663 m
1512 1663 l
1512 2234 l
1420 2234 l
cp
gs
eofi
gr
st
1420 1663 m
1512 1663 l
st
1512 1663 m
1512 2234 l
st
1420 2234 m
1420 1663 l
st
1880 1473 m
1972 1473 l
1972 2234 l
1880 2234 l
cp
gs
eofi
gr
st
1880 1473 m
1972 1473 l
st
1972 1473 m
1972 2234 l
st
1880 2234 m
1880 1473 l
st
2341 1548 m
2433 1548 l
2433 2234 l
2341 2234 l
cp
gs
eofi
gr
st
2341 1548 m
2433 1548 l
st
2433 1548 m
2433 2234 l
st
2341 2234 m
2341 1548 l
st
2801 1670 m
2893 1670 l
2893 2234 l
2801 2234 l
cp
gs
eofi
gr
st
2801 1670 m
2893 1670 l
st
2893 1670 m
2893 2234 l
st
2801 2234 m
2801 1670 l
st
3261 1658 m
3354 1658 l
3354 2234 l
3261 2234 l
cp
gs
eofi
gr
st
3261 1658 m
3354 1658 l
st
3354 1658 m
3354 2234 l
st
3261 2234 m
3261 1658 l
st
3722 1389 m
3814 1389 l
3814 2234 l
3722 2234 l
cp
gs
eofi
gr
st
3722 1389 m
3814 1389 l
st
3814 1389 m
3814 2234 l
st
3722 2234 m
3722 1389 l
st
4182 1608 m
4274 1608 l
4274 2234 l
4182 2234 l
cp
gs
eofi
gr
st
4182 1608 m
4274 1608 l
st
4274 1608 m
4274 2234 l
st
4182 2234 m
4182 1608 l
st
4643 1326 m
4735 1326 l
4735 2234 l
4643 2234 l
cp
gs
eofi
gr
st
4643 1326 m
4735 1326 l
st
4735 1326 m
4735 2234 l
st
4643 2234 m
4643 1326 l
st
gr
gs
pathproc 453 283 4605 1952 np rectpath
/eocl cland
np exec
591 1537 m
683 1537 l
683 2234 l
591 2234 l
cp
gs
1 1 1 rgb
eofi
gr
5 sw
1 1 1 rgb
st
592 1538 m
682 1628 l
3 sw
0 0 0 rgb
st
592 1570 m
682 1660 l
st
592 1602 m
682 1692 l
st
592 1634 m
682 1724 l
st
592 1666 m
682 1756 l
st
592 1698 m
682 1788 l
st
592 1730 m
682 1820 l
st
592 1762 m
682 1852 l
st
592 1794 m
682 1884 l
st
592 1826 m
682 1916 l
st
592 1858 m
682 1948 l
st
592 1890 m
682 1980 l
st
592 1922 m
682 2012 l
st
592 1954 m
682 2044 l
st
592 1986 m
682 2076 l
st
592 2018 m
682 2108 l
st
592 2050 m
682 2140 l
st
592 2082 m
682 2172 l
st
592 2114 m
682 2204 l
st
592 2146 m
679 2233 l
st
592 2178 m
647 2233 l
st
592 2210 m
615 2233 l
st
592 1538 m
682 1628 l
st
624 1538 m
682 1596 l
st
656 1538 m
682 1564 l
st
591 1537 m
683 1537 l
5 sw
st
683 1537 m
683 2234 l
st
591 2234 m
591 1537 l
st
1052 1480 m
1144 1480 l
1144 2234 l
1052 2234 l
cp
gs
1 1 1 rgb
eofi
gr
1 1 1 rgb
st
1053 1481 m
1143 1571 l
3 sw
0 0 0 rgb
st
1053 1513 m
1143 1603 l
st
1053 1545 m
1143 1635 l
st
1053 1577 m
1143 1667 l
st
1053 1609 m
1143 1699 l
st
1053 1641 m
1143 1731 l
st
1053 1673 m
1143 1763 l
st
1053 1705 m
1143 1795 l
st
1053 1737 m
1143 1827 l
st
1053 1769 m
1143 1859 l
st
1053 1801 m
1143 1891 l
st
1053 1833 m
1143 1923 l
st
1053 1865 m
1143 1955 l
st
1053 1897 m
1143 1987 l
st
1053 1929 m
1143 2019 l
st
1053 1961 m
1143 2051 l
st
1053 1993 m
1143 2083 l
st
1053 2025 m
1143 2115 l
st
1053 2057 m
1143 2147 l
st
1053 2089 m
1143 2179 l
st
1053 2121 m
1143 2211 l
st
1053 2153 m
1133 2233 l
st
1053 2185 m
1101 2233 l
st
1053 2217 m
1069 2233 l
st
1053 1481 m
1143 1571 l
st
1085 1481 m
1143 1539 l
st
1117 1481 m
1143 1507 l
st
1052 1480 m
1144 1480 l
5 sw
st
1144 1480 m
1144 2234 l
st
1052 2234 m
1052 1480 l
st
1512 1513 m
1604 1513 l
1604 2234 l
1512 2234 l
cp
gs
1 1 1 rgb
eofi
gr
1 1 1 rgb
st
1513 1514 m
1603 1604 l
3 sw
0 0 0 rgb
st
1513 1546 m
1603 1636 l
st
1513 1578 m
1603 1668 l
st
1513 1610 m
1603 1700 l
st
1513 1642 m
1603 1732 l
st
1513 1674 m
1603 1764 l
st
1513 1706 m
1603 1796 l
st
1513 1738 m
1603 1828 l
st
1513 1770 m
1603 1860 l
st
1513 1802 m
1603 1892 l
st
1513 1834 m
1603 1924 l
st
1513 1866 m
1603 1956 l
st
1513 1898 m
1603 1988 l
st
1513 1930 m
1603 2020 l
st
1513 1962 m
1603 2052 l
st
1513 1994 m
1603 2084 l
st
1513 2026 m
1603 2116 l
st
1513 2058 m
1603 2148 l
st
1513 2090 m
1603 2180 l
st
1513 2122 m
1603 2212 l
st
1513 2154 m
1592 2233 l
st
1513 2186 m
1560 2233 l
st
1513 2218 m
1528 2233 l
st
1513 1514 m
1603 1604 l
st
1545 1514 m
1603 1572 l
st
1577 1514 m
1603 1540 l
st
1512 1513 m
1604 1513 l
5 sw
st
1604 1513 m
1604 2234 l
st
1512 2234 m
1512 1513 l
st
1972 1149 m
2064 1149 l
2064 2234 l
1972 2234 l
cp
gs
1 1 1 rgb
eofi
gr
1 1 1 rgb
st
1973 1150 m
2063 1240 l
3 sw
0 0 0 rgb
st
1973 1182 m
2063 1272 l
st
1973 1214 m
2063 1304 l
st
1973 1246 m
2063 1336 l
st
1973 1278 m
2063 1368 l
st
1973 1310 m
2063 1400 l
st
1973 1342 m
2063 1432 l
st
1973 1374 m
2063 1464 l
st
1973 1406 m
2063 1496 l
st
1973 1438 m
2063 1528 l
st
1973 1470 m
2063 1560 l
st
1973 1502 m
2063 1592 l
st
1973 1534 m
2063 1624 l
st
1973 1566 m
2063 1656 l
st
1973 1598 m
2063 1688 l
st
1973 1630 m
2063 1720 l
st
1973 1662 m
2063 1752 l
st
1973 1694 m
2063 1784 l
st
1973 1726 m
2063 1816 l
st
1973 1758 m
2063 1848 l
st
1973 1790 m
2063 1880 l
st
1973 1822 m
2063 1912 l
st
1973 1854 m
2063 1944 l
st
1973 1886 m
2063 1976 l
st
1973 1918 m
2063 2008 l
st
1973 1950 m
2063 2040 l
st
1973 1982 m
2063 2072 l
st
1973 2014 m
2063 2104 l
st
1973 2046 m
2063 2136 l
st
1973 2078 m
2063 2168 l
st
1973 2110 m
2063 2200 l
st
1973 2142 m
2063 2232 l
st
1973 2174 m
2032 2233 l
st
1973 2206 m
2000 2233 l
st
1973 1150 m
2063 1240 l
st
2005 1150 m
2063 1208 l
st
2037 1150 m
2063 1176 l
st
1972 1149 m
2064 1149 l
5 sw
st
2064 1149 m
2064 2234 l
st
1972 2234 m
1972 1149 l
st
2433 1379 m
2525 1379 l
2525 2234 l
2433 2234 l
cp
gs
1 1 1 rgb
eofi
gr
1 1 1 rgb
st
2434 1380 m
2524 1470 l
3 sw
0 0 0 rgb
st
2434 1412 m
2524 1502 l
st
2434 1444 m
2524 1534 l
st
2434 1476 m
2524 1566 l
st
2434 1508 m
2524 1598 l
st
2434 1540 m
2524 1630 l
st
2434 1572 m
2524 1662 l
st
2434 1604 m
2524 1694 l
st
2434 1636 m
2524 1726 l
st
2434 1668 m
2524 1758 l
st
2434 1700 m
2524 1790 l
st
2434 1732 m
2524 1822 l
st
2434 1764 m
2524 1854 l
st
2434 1796 m
2524 1886 l
st
2434 1828 m
2524 1918 l
st
2434 1860 m
2524 1950 l
st
2434 1892 m
2524 1982 l
st
2434 1924 m
2524 2014 l
st
2434 1956 m
2524 2046 l
st
2434 1988 m
2524 2078 l
st
2434 2020 m
2524 2110 l
st
2434 2052 m
2524 2142 l
st
2434 2084 m
2524 2174 l
st
2434 2116 m
2524 2206 l
st
2434 2148 m
2519 2233 l
st
2434 2180 m
2487 2233 l
st
2434 2212 m
2455 2233 l
st
2434 1380 m
2524 1470 l
st
2466 1380 m
2524 1438 l
st
2498 1380 m
2524 1406 l
st
2433 1379 m
2525 1379 l
5 sw
st
2525 1379 m
2525 2234 l
st
2433 2234 m
2433 1379 l
st
2893 1496 m
2985 1496 l
2985 2234 l
2893 2234 l
cp
gs
1 1 1 rgb
eofi
gr
1 1 1 rgb
st
2894 1497 m
2984 1587 l
3 sw
0 0 0 rgb
st
2894 1529 m
2984 1619 l
st
2894 1561 m
2984 1651 l
st
2894 1593 m
2984 1683 l
st
2894 1625 m
2984 1715 l
st
2894 1657 m
2984 1747 l
st
2894 1689 m
2984 1779 l
st
2894 1721 m
2984 1811 l
st
2894 1753 m
2984 1843 l
st
2894 1785 m
2984 1875 l
st
2894 1817 m
2984 1907 l
st
2894 1849 m
2984 1939 l
st
2894 1881 m
2984 1971 l
st
2894 1913 m
2984 2003 l
st
2894 1945 m
2984 2035 l
st
2894 1977 m
2984 2067 l
st
2894 2009 m
2984 2099 l
st
2894 2041 m
2984 2131 l
st
2894 2073 m
2984 2163 l
st
2894 2105 m
2984 2195 l
st
2894 2137 m
2984 2227 l
st
2894 2169 m
2958 2233 l
st
2894 2201 m
2926 2233 l
st
2894 1497 m
2984 1587 l
st
2926 1497 m
2984 1555 l
st
2958 1497 m
2984 1523 l
st
2893 1496 m
2985 1496 l
5 sw
st
2985 1496 m
2985 2234 l
st
2893 2234 m
2893 1496 l
st
3354 1613 m
3446 1613 l
3446 2234 l
3354 2234 l
cp
gs
1 1 1 rgb
eofi
gr
1 1 1 rgb
st
3355 1614 m
3445 1704 l
3 sw
0 0 0 rgb
st
3355 1646 m
3445 1736 l
st
3355 1678 m
3445 1768 l
st
3355 1710 m
3445 1800 l
st
3355 1742 m
3445 1832 l
st
3355 1774 m
3445 1864 l
st
3355 1806 m
3445 1896 l
st
3355 1838 m
3445 1928 l
st
3355 1870 m
3445 1960 l
st
3355 1902 m
3445 1992 l
st
3355 1934 m
3445 2024 l
st
3355 1966 m
3445 2056 l
st
3355 1998 m
3445 2088 l
st
3355 2030 m
3445 2120 l
st
3355 2062 m
3445 2152 l
st
3355 2094 m
3445 2184 l
st
3355 2126 m
3445 2216 l
st
3355 2158 m
3430 2233 l
st
3355 2190 m
3398 2233 l
st
3355 2222 m
3366 2233 l
st
3355 1614 m
3445 1704 l
st
3387 1614 m
3445 1672 l
st
3419 1614 m
3445 1640 l
st
3354 1613 m
3446 1613 l
5 sw
st
3446 1613 m
3446 2234 l
st
3354 2234 m
3354 1613 l
st
3814 1135 m
3906 1135 l
3906 2234 l
3814 2234 l
cp
gs
1 1 1 rgb
eofi
gr
1 1 1 rgb
st
3815 1136 m
3905 1226 l
3 sw
0 0 0 rgb
st
3815 1168 m
3905 1258 l
st
3815 1200 m
3905 1290 l
st
3815 1232 m
3905 1322 l
st
3815 1264 m
3905 1354 l
st
3815 1296 m
3905 1386 l
st
3815 1328 m
3905 1418 l
st
3815 1360 m
3905 1450 l
st
3815 1392 m
3905 1482 l
st
3815 1424 m
3905 1514 l
st
3815 1456 m
3905 1546 l
st
3815 1488 m
3905 1578 l
st
3815 1520 m
3905 1610 l
st
3815 1552 m
3905 1642 l
st
3815 1584 m
3905 1674 l
st
3815 1616 m
3905 1706 l
st
3815 1648 m
3905 1738 l
st
3815 1680 m
3905 1770 l
st
3815 1712 m
3905 1802 l
st
3815 1744 m
3905 1834 l
st
3815 1776 m
3905 1866 l
st
3815 1808 m
3905 1898 l
st
3815 1840 m
3905 1930 l
st
3815 1872 m
3905 1962 l
st
3815 1904 m
3905 1994 l
st
3815 1936 m
3905 2026 l
st
3815 1968 m
3905 2058 l
st
3815 2000 m
3905 2090 l
st
3815 2032 m
3905 2122 l
st
3815 2064 m
3905 2154 l
st
3815 2096 m
3905 2186 l
st
3815 2128 m
3905 2218 l
st
3815 2160 m
3888 2233 l
st
3815 2192 m
3856 2233 l
st
3815 2224 m
3824 2233 l
st
3815 1136 m
3905 1226 l
st
3847 1136 m
3905 1194 l
st
3879 1136 m
3905 1162 l
st
3814 1135 m
3906 1135 l
5 sw
st
3906 1135 m
3906 2234 l
st
3814 2234 m
3814 1135 l
st
4274 1267 m
4366 1267 l
4366 2234 l
4274 2234 l
cp
gs
1 1 1 rgb
eofi
gr
1 1 1 rgb
st
4275 1268 m
4365 1358 l
3 sw
0 0 0 rgb
st
4275 1300 m
4365 1390 l
st
4275 1332 m
4365 1422 l
st
4275 1364 m
4365 1454 l
st
4275 1396 m
4365 1486 l
st
4275 1428 m
4365 1518 l
st
4275 1460 m
4365 1550 l
st
4275 1492 m
4365 1582 l
st
4275 1524 m
4365 1614 l
st
4275 1556 m
4365 1646 l
st
4275 1588 m
4365 1678 l
st
4275 1620 m
4365 1710 l
st
4275 1652 m
4365 1742 l
st
4275 1684 m
4365 1774 l
st
4275 1716 m
4365 1806 l
st
4275 1748 m
4365 1838 l
st
4275 1780 m
4365 1870 l
st
4275 1812 m
4365 1902 l
st
4275 1844 m
4365 1934 l
st
4275 1876 m
4365 1966 l
st
4275 1908 m
4365 1998 l
st
4275 1940 m
4365 2030 l
st
4275 1972 m
4365 2062 l
st
4275 2004 m
4365 2094 l
st
4275 2036 m
4365 2126 l
st
4275 2068 m
4365 2158 l
st
4275 2100 m
4365 2190 l
st
4275 2132 m
4365 2222 l
st
4275 2164 m
4344 2233 l
st
4275 2196 m
4312 2233 l
st
4275 2228 m
4280 2233 l
st
4275 1268 m
4365 1358 l
st
4307 1268 m
4365 1326 l
st
4339 1268 m
4365 1294 l
st
4274 1267 m
4366 1267 l
5 sw
st
4366 1267 m
4366 2234 l
st
4274 2234 m
4274 1267 l
st
4735 1172 m
4827 1172 l
4827 2234 l
4735 2234 l
cp
gs
1 1 1 rgb
eofi
gr
1 1 1 rgb
st
4736 1173 m
4826 1263 l
3 sw
0 0 0 rgb
st
4736 1205 m
4826 1295 l
st
4736 1237 m
4826 1327 l
st
4736 1269 m
4826 1359 l
st
4736 1301 m
4826 1391 l
st
4736 1333 m
4826 1423 l
st
4736 1365 m
4826 1455 l
st
4736 1397 m
4826 1487 l
st
4736 1429 m
4826 1519 l
st
4736 1461 m
4826 1551 l
st
4736 1493 m
4826 1583 l
st
4736 1525 m
4826 1615 l
st
4736 1557 m
4826 1647 l
st
4736 1589 m
4826 1679 l
st
4736 1621 m
4826 1711 l
st
4736 1653 m
4826 1743 l
st
4736 1685 m
4826 1775 l
st
4736 1717 m
4826 1807 l
st
4736 1749 m
4826 1839 l
st
4736 1781 m
4826 1871 l
st
4736 1813 m
4826 1903 l
st
4736 1845 m
4826 1935 l
st
4736 1877 m
4826 1967 l
st
4736 1909 m
4826 1999 l
st
4736 1941 m
4826 2031 l
st
4736 1973 m
4826 2063 l
st
4736 2005 m
4826 2095 l
st
4736 2037 m
4826 2127 l
st
4736 2069 m
4826 2159 l
st
4736 2101 m
4826 2191 l
st
4736 2133 m
4826 2223 l
st
4736 2165 m
4804 2233 l
st
4736 2197 m
4772 2233 l
st
4736 2229 m
4740 2233 l
st
4736 1173 m
4826 1263 l
st
4768 1173 m
4826 1231 l
st
4800 1173 m
4826 1199 l
st
4735 1172 m
4827 1172 l
5 sw
st
4827 1172 m
4827 2234 l
st
4735 2234 m
4735 1172 l
st
gr
gs
pathproc 453 283 4605 1952 np rectpath
/eocl cland
np exec
683 1332 m
775 1332 l
775 2234 l
683 2234 l
cp
gs
1 0 0 rgb
eofi
gr
5 sw
1 0 0 rgb
st
683 1332 m
775 1332 l
0 0 0 rgb
st
775 1332 m
775 2234 l
st
683 2234 m
683 1332 l
st
1144 1264 m
1236 1264 l
1236 2234 l
1144 2234 l
cp
gs
1 0 0 rgb
eofi
gr
1 0 0 rgb
st
1144 1264 m
1236 1264 l
0 0 0 rgb
st
1236 1264 m
1236 2234 l
st
1144 2234 m
1144 1264 l
st
1604 1380 m
1696 1380 l
1696 2234 l
1604 2234 l
cp
gs
1 0 0 rgb
eofi
gr
1 0 0 rgb
st
1604 1380 m
1696 1380 l
0 0 0 rgb
st
1696 1380 m
1696 2234 l
st
1604 2234 m
1604 1380 l
st
2064 799 m
2156 799 l
2156 2234 l
2064 2234 l
cp
gs
1 0 0 rgb
eofi
gr
1 0 0 rgb
st
2064 799 m
2156 799 l
0 0 0 rgb
st
2156 799 m
2156 2234 l
st
2064 2234 m
2064 799 l
st
2525 929 m
2617 929 l
2617 2234 l
2525 2234 l
cp
gs
1 0 0 rgb
eofi
gr
1 0 0 rgb
st
2525 929 m
2617 929 l
0 0 0 rgb
st
2617 929 m
2617 2234 l
st
2525 2234 m
2525 929 l
st
2985 1416 m
3077 1416 l
3077 2234 l
2985 2234 l
cp
gs
1 0 0 rgb
eofi
gr
1 0 0 rgb
st
2985 1416 m
3077 1416 l
0 0 0 rgb
st
3077 1416 m
3077 2234 l
st
2985 2234 m
2985 1416 l
st
3446 1535 m
3538 1535 l
3538 2234 l
3446 2234 l
cp
gs
1 0 0 rgb
eofi
gr
1 0 0 rgb
st
3446 1535 m
3538 1535 l
0 0 0 rgb
st
3538 1535 m
3538 2234 l
st
3446 2234 m
3446 1535 l
st
3906 910 m
3998 910 l
3998 2234 l
3906 2234 l
cp
gs
1 0 0 rgb
eofi
gr
1 0 0 rgb
st
3906 910 m
3998 910 l
0 0 0 rgb
st
3998 910 m
3998 2234 l
st
3906 2234 m
3906 910 l
st
4366 989 m
4458 989 l
4458 2234 l
4366 2234 l
cp
gs
1 0 0 rgb
eofi
gr
1 0 0 rgb
st
4366 989 m
4458 989 l
0 0 0 rgb
st
4458 989 m
4458 2234 l
st
4366 2234 m
4366 989 l
st
4827 975 m
4919 975 l
4919 2234 l
4827 2234 l
cp
gs
1 0 0 rgb
eofi
gr
1 0 0 rgb
st
4827 975 m
4919 975 l
0 0 0 rgb
st
4919 975 m
4919 2234 l
st
4827 2234 m
4827 975 l
st
gr
gs
pathproc 453 283 4605 1952 np rectpath
/eocl cland
np exec
775 1141 m
867 1141 l
867 2234 l
775 2234 l
cp
gs
1 1 1 rgb
eofi
gr
5 sw
1 1 1 rgb
st
776 1142 m
776 1142 l
3 sw
0 0 0 rgb
st
776 1191 m
825 1142 l
st
776 1240 m
866 1150 l
st
776 1289 m
866 1199 l
st
776 1338 m
866 1248 l
st
776 1387 m
866 1297 l
st
776 1436 m
866 1346 l
st
776 1485 m
866 1395 l
st
776 1534 m
866 1444 l
st
776 1583 m
866 1493 l
st
776 1632 m
866 1542 l
st
776 1681 m
866 1591 l
st
776 1730 m
866 1640 l
st
776 1779 m
866 1689 l
st
776 1828 m
866 1738 l
st
776 1877 m
866 1787 l
st
776 1926 m
866 1836 l
st
776 1975 m
866 1885 l
st
776 2024 m
866 1934 l
st
776 2073 m
866 1983 l
st
776 2122 m
866 2032 l
st
776 2171 m
866 2081 l
st
776 2220 m
866 2130 l
st
812 2233 m
866 2179 l
st
861 2233 m
866 2228 l
st
775 1141 m
867 1141 l
5 sw
st
867 1141 m
867 2234 l
st
775 2234 m
775 1141 l
st
1236 1050 m
1328 1050 l
1328 2234 l
1236 2234 l
cp
gs
1 1 1 rgb
eofi
gr
1 1 1 rgb
st
1237 1051 m
1237 1051 l
3 sw
0 0 0 rgb
st
1237 1100 m
1286 1051 l
st
1237 1149 m
1327 1059 l
st
1237 1198 m
1327 1108 l
st
1237 1247 m
1327 1157 l
st
1237 1296 m
1327 1206 l
st
1237 1345 m
1327 1255 l
st
1237 1394 m
1327 1304 l
st
1237 1443 m
1327 1353 l
st
1237 1492 m
1327 1402 l
st
1237 1541 m
1327 1451 l
st
1237 1590 m
1327 1500 l
st
1237 1639 m
1327 1549 l
st
1237 1688 m
1327 1598 l
st
1237 1737 m
1327 1647 l
st
1237 1786 m
1327 1696 l
st
1237 1835 m
1327 1745 l
st
1237 1884 m
1327 1794 l
st
1237 1933 m
1327 1843 l
st
1237 1982 m
1327 1892 l
st
1237 2031 m
1327 1941 l
st
1237 2080 m
1327 1990 l
st
1237 2129 m
1327 2039 l
st
1237 2178 m
1327 2088 l
st
1237 2227 m
1327 2137 l
st
1280 2233 m
1327 2186 l
st
1236 1050 m
1328 1050 l
5 sw
st
1328 1050 m
1328 2234 l
st
1236 2234 m
1236 1050 l
st
1696 1150 m
1788 1150 l
1788 2234 l
1696 2234 l
cp
gs
1 1 1 rgb
eofi
gr
1 1 1 rgb
st
1697 1151 m
1697 1151 l
3 sw
0 0 0 rgb
st
1697 1200 m
1746 1151 l
st
1697 1249 m
1787 1159 l
st
1697 1298 m
1787 1208 l
st
1697 1347 m
1787 1257 l
st
1697 1396 m
1787 1306 l
st
1697 1445 m
1787 1355 l
st
1697 1494 m
1787 1404 l
st
1697 1543 m
1787 1453 l
st
1697 1592 m
1787 1502 l
st
1697 1641 m
1787 1551 l
st
1697 1690 m
1787 1600 l
st
1697 1739 m
1787 1649 l
st
1697 1788 m
1787 1698 l
st
1697 1837 m
1787 1747 l
st
1697 1886 m
1787 1796 l
st
1697 1935 m
1787 1845 l
st
1697 1984 m
1787 1894 l
st
1697 2033 m
1787 1943 l
st
1697 2082 m
1787 1992 l
st
1697 2131 m
1787 2041 l
st
1697 2180 m
1787 2090 l
st
1697 2229 m
1787 2139 l
st
1742 2233 m
1787 2188 l
st
1696 1150 m
1788 1150 l
5 sw
st
1788 1150 m
1788 2234 l
st
1696 2234 m
1696 1150 l
st
2156 462 m
2249 462 l
2249 2234 l
2156 2234 l
cp
gs
1 1 1 rgb
eofi
gr
1 1 1 rgb
st
2157 463 m
2157 463 l
3 sw
0 0 0 rgb
st
2157 512 m
2206 463 l
st
2157 561 m
2248 470 l
st
2157 610 m
2248 519 l
st
2157 659 m
2248 568 l
st
2157 708 m
2248 617 l
st
2157 757 m
2248 666 l
st
2157 806 m
2248 715 l
st
2157 855 m
2248 764 l
st
2157 904 m
2248 813 l
st
2157 953 m
2248 862 l
st
2157 1002 m
2248 911 l
st
2157 1051 m
2248 960 l
st
2157 1100 m
2248 1009 l
st
2157 1149 m
2248 1058 l
st
2157 1198 m
2248 1107 l
st
2157 1247 m
2248 1156 l
st
2157 1296 m
2248 1205 l
st
2157 1345 m
2248 1254 l
st
2157 1394 m
2248 1303 l
st
2157 1443 m
2248 1352 l
st
2157 1492 m
2248 1401 l
st
2157 1541 m
2248 1450 l
st
2157 1590 m
2248 1499 l
st
2157 1639 m
2248 1548 l
st
2157 1688 m
2248 1597 l
st
2157 1737 m
2248 1646 l
st
2157 1786 m
2248 1695 l
st
2157 1835 m
2248 1744 l
st
2157 1884 m
2248 1793 l
st
2157 1933 m
2248 1842 l
st
2157 1982 m
2248 1891 l
st
2157 2031 m
2248 1940 l
st
2157 2080 m
2248 1989 l
st
2157 2129 m
2248 2038 l
st
2157 2178 m
2248 2087 l
st
2157 2227 m
2248 2136 l
st
2200 2233 m
2248 2185 l
st
2156 462 m
2249 462 l
5 sw
st
2249 462 m
2249 2234 l
st
2156 2234 m
2156 462 l
st
2617 566 m
2709 566 l
2709 2234 l
2617 2234 l
cp
gs
1 1 1 rgb
eofi
gr
1 1 1 rgb
st
2618 567 m
2618 567 l
3 sw
0 0 0 rgb
st
2618 616 m
2667 567 l
st
2618 665 m
2708 575 l
st
2618 714 m
2708 624 l
st
2618 763 m
2708 673 l
st
2618 812 m
2708 722 l
st
2618 861 m
2708 771 l
st
2618 910 m
2708 820 l
st
2618 959 m
2708 869 l
st
2618 1008 m
2708 918 l
st
2618 1057 m
2708 967 l
st
2618 1106 m
2708 1016 l
st
2618 1155 m
2708 1065 l
st
2618 1204 m
2708 1114 l
st
2618 1253 m
2708 1163 l
st
2618 1302 m
2708 1212 l
st
2618 1351 m
2708 1261 l
st
2618 1400 m
2708 1310 l
st
2618 1449 m
2708 1359 l
st
2618 1498 m
2708 1408 l
st
2618 1547 m
2708 1457 l
st
2618 1596 m
2708 1506 l
st
2618 1645 m
2708 1555 l
st
2618 1694 m
2708 1604 l
st
2618 1743 m
2708 1653 l
st
2618 1792 m
2708 1702 l
st
2618 1841 m
2708 1751 l
st
2618 1890 m
2708 1800 l
st
2618 1939 m
2708 1849 l
st
2618 1988 m
2708 1898 l
st
2618 2037 m
2708 1947 l
st
2618 2086 m
2708 1996 l
st
2618 2135 m
2708 2045 l
st
2618 2184 m
2708 2094 l
st
2618 2233 m
2708 2143 l
st
2667 2233 m
2708 2192 l
st
2617 566 m
2709 566 l
5 sw
st
2709 566 m
2709 2234 l
st
2617 2234 m
2617 566 l
st
3077 1145 m
3169 1145 l
3169 2234 l
3077 2234 l
cp
gs
1 1 1 rgb
eofi
gr
1 1 1 rgb
st
3078 1146 m
3078 1146 l
3 sw
0 0 0 rgb
st
3078 1195 m
3127 1146 l
st
3078 1244 m
3168 1154 l
st
3078 1293 m
3168 1203 l
st
3078 1342 m
3168 1252 l
st
3078 1391 m
3168 1301 l
st
3078 1440 m
3168 1350 l
st
3078 1489 m
3168 1399 l
st
3078 1538 m
3168 1448 l
st
3078 1587 m
3168 1497 l
st
3078 1636 m
3168 1546 l
st
3078 1685 m
3168 1595 l
st
3078 1734 m
3168 1644 l
st
3078 1783 m
3168 1693 l
st
3078 1832 m
3168 1742 l
st
3078 1881 m
3168 1791 l
st
3078 1930 m
3168 1840 l
st
3078 1979 m
3168 1889 l
st
3078 2028 m
3168 1938 l
st
3078 2077 m
3168 1987 l
st
3078 2126 m
3168 2036 l
st
3078 2175 m
3168 2085 l
st
3078 2224 m
3168 2134 l
st
3118 2233 m
3168 2183 l
st
3167 2233 m
3168 2232 l
st
3077 1145 m
3169 1145 l
5 sw
st
3169 1145 m
3169 2234 l
st
3077 2234 m
3077 1145 l
st
3538 1496 m
3630 1496 l
3630 2234 l
3538 2234 l
cp
gs
1 1 1 rgb
eofi
gr
1 1 1 rgb
st
3539 1497 m
3539 1497 l
3 sw
0 0 0 rgb
st
3539 1546 m
3588 1497 l
st
3539 1595 m
3629 1505 l
st
3539 1644 m
3629 1554 l
st
3539 1693 m
3629 1603 l
st
3539 1742 m
3629 1652 l
st
3539 1791 m
3629 1701 l
st
3539 1840 m
3629 1750 l
st
3539 1889 m
3629 1799 l
st
3539 1938 m
3629 1848 l
st
3539 1987 m
3629 1897 l
st
3539 2036 m
3629 1946 l
st
3539 2085 m
3629 1995 l
st
3539 2134 m
3629 2044 l
st
3539 2183 m
3629 2093 l
st
3539 2232 m
3629 2142 l
st
3587 2233 m
3629 2191 l
st
3538 1496 m
3630 1496 l
5 sw
st
3630 1496 m
3630 2234 l
st
3538 2234 m
3538 1496 l
st
3998 624 m
4090 624 l
4090 2234 l
3998 2234 l
cp
gs
1 1 1 rgb
eofi
gr
1 1 1 rgb
st
3999 625 m
3999 625 l
3 sw
0 0 0 rgb
st
3999 674 m
4048 625 l
st
3999 723 m
4089 633 l
st
3999 772 m
4089 682 l
st
3999 821 m
4089 731 l
st
3999 870 m
4089 780 l
st
3999 919 m
4089 829 l
st
3999 968 m
4089 878 l
st
3999 1017 m
4089 927 l
st
3999 1066 m
4089 976 l
st
3999 1115 m
4089 1025 l
st
3999 1164 m
4089 1074 l
st
3999 1213 m
4089 1123 l
st
3999 1262 m
4089 1172 l
st
3999 1311 m
4089 1221 l
st
3999 1360 m
4089 1270 l
st
3999 1409 m
4089 1319 l
st
3999 1458 m
4089 1368 l
st
3999 1507 m
4089 1417 l
st
3999 1556 m
4089 1466 l
st
3999 1605 m
4089 1515 l
st
3999 1654 m
4089 1564 l
st
3999 1703 m
4089 1613 l
st
3999 1752 m
4089 1662 l
st
3999 1801 m
4089 1711 l
st
3999 1850 m
4089 1760 l
st
3999 1899 m
4089 1809 l
st
3999 1948 m
4089 1858 l
st
3999 1997 m
4089 1907 l
st
3999 2046 m
4089 1956 l
st
3999 2095 m
4089 2005 l
st
3999 2144 m
4089 2054 l
st
3999 2193 m
4089 2103 l
st
4008 2233 m
4089 2152 l
st
4057 2233 m
4089 2201 l
st
3998 624 m
4090 624 l
5 sw
st
4090 624 m
4090 2234 l
st
3998 2234 m
3998 624 l
st
4458 771 m
4551 771 l
4551 2234 l
4458 2234 l
cp
gs
1 1 1 rgb
eofi
gr
1 1 1 rgb
st
4459 772 m
4459 772 l
3 sw
0 0 0 rgb
st
4459 821 m
4508 772 l
st
4459 870 m
4550 779 l
st
4459 919 m
4550 828 l
st
4459 968 m
4550 877 l
st
4459 1017 m
4550 926 l
st
4459 1066 m
4550 975 l
st
4459 1115 m
4550 1024 l
st
4459 1164 m
4550 1073 l
st
4459 1213 m
4550 1122 l
st
4459 1262 m
4550 1171 l
st
4459 1311 m
4550 1220 l
st
4459 1360 m
4550 1269 l
st
4459 1409 m
4550 1318 l
st
4459 1458 m
4550 1367 l
st
4459 1507 m
4550 1416 l
st
4459 1556 m
4550 1465 l
st
4459 1605 m
4550 1514 l
st
4459 1654 m
4550 1563 l
st
4459 1703 m
4550 1612 l
st
4459 1752 m
4550 1661 l
st
4459 1801 m
4550 1710 l
st
4459 1850 m
4550 1759 l
st
4459 1899 m
4550 1808 l
st
4459 1948 m
4550 1857 l
st
4459 1997 m
4550 1906 l
st
4459 2046 m
4550 1955 l
st
4459 2095 m
4550 2004 l
st
4459 2144 m
4550 2053 l
st
4459 2193 m
4550 2102 l
st
4468 2233 m
4550 2151 l
st
4517 2233 m
4550 2200 l
st
4458 771 m
4551 771 l
5 sw
st
4551 771 m
4551 2234 l
st
4458 2234 m
4458 771 l
st
4919 757 m
5011 757 l
5011 2234 l
4919 2234 l
cp
gs
1 1 1 rgb
eofi
gr
1 1 1 rgb
st
4920 758 m
4920 758 l
3 sw
0 0 0 rgb
st
4920 807 m
4969 758 l
st
4920 856 m
5010 766 l
st
4920 905 m
5010 815 l
st
4920 954 m
5010 864 l
st
4920 1003 m
5010 913 l
st
4920 1052 m
5010 962 l
st
4920 1101 m
5010 1011 l
st
4920 1150 m
5010 1060 l
st
4920 1199 m
5010 1109 l
st
4920 1248 m
5010 1158 l
st
4920 1297 m
5010 1207 l
st
4920 1346 m
5010 1256 l
st
4920 1395 m
5010 1305 l
st
4920 1444 m
5010 1354 l
st
4920 1493 m
5010 1403 l
st
4920 1542 m
5010 1452 l
st
4920 1591 m
5010 1501 l
st
4920 1640 m
5010 1550 l
st
4920 1689 m
5010 1599 l
st
4920 1738 m
5010 1648 l
st
4920 1787 m
5010 1697 l
st
4920 1836 m
5010 1746 l
st
4920 1885 m
5010 1795 l
st
4920 1934 m
5010 1844 l
st
4920 1983 m
5010 1893 l
st
4920 2032 m
5010 1942 l
st
4920 2081 m
5010 1991 l
st
4920 2130 m
5010 2040 l
st
4920 2179 m
5010 2089 l
st
4920 2228 m
5010 2138 l
st
4964 2233 m
5010 2187 l
st
4919 757 m
5011 757 l
5 sw
st
5011 757 m
5011 2234 l
st
4919 2234 m
4919 757 l
st
gr
gs
1 -1 sc
0 0 0 rgb
/MC1_Arial 188 self 576 -2381 m
(cfs)[94 52 94 ] xs
1 -1 sc
gr
gs
1 -1 sc
0 0 0 rgb
/MC1_Arial 188 self 1057 -2381 m
(fin)[52 42 105 ] xs
1 -1 sc
gr
gs
1 -1 sc
0 0 0 rgb
/MC1_Arial 188 self 1486 -2381 m
(hm)[105 157 ] xs
1 -1 sc
gr
gs
1 -1 sc
0 0 0 rgb
/MC1_Arial 188 self 1899 -2381 m
(mds)[157 105 94 ] xs
1 -1 sc
gr
gs
1 -1 sc
0 0 0 rgb
/MC1_Arial 188 self 2287 -2381 m
(msnfs)[157 94 105 52 94 ] xs
1 -1 sc
gr
gs
1 -1 sc
0 0 0 rgb
/MC1_Arial 188 self 2820 -2381 m
(prxy)[105 63 93 94 ] xs
1 -1 sc
gr
gs
1 -1 sc
0 0 0 rgb
/MC1_Arial 188 self 3322 -2381 m
(prn)[105 63 105 ] xs
1 -1 sc
gr
gs
1 -1 sc
0 0 0 rgb
/MC1_Arial 188 self 3761 -2381 m
(proj)[105 63 105 42 ] xs
1 -1 sc
gr
gs
1 -1 sc
0 0 0 rgb
/MC1_Arial 188 self 4248 -2381 m
(usr)[105 94 63 ] xs
1 -1 sc
gr
gs
1 -1 sc
0 0 0 rgb
/MC1_Arial 188 self 4661 -2381 m
(hpio)[105 105 42 105 ] xs
1 -1 sc
gr
gs
1 -1 sc
0 0 0 rgb
/MC1_Arial 188 self 191 -2290 m
(0.0)[105 52 105 ] xs
1 -1 sc
gr
gs
1 -1 sc
0 0 0 rgb
/MC1_Arial 188 self 191 -2011 m
(0.5)[105 52 105 ] xs
1 -1 sc
gr
gs
1 -1 sc
0 0 0 rgb
/MC1_Arial 188 self 191 -1733 m
(1.0)[105 52 105 ] xs
1 -1 sc
gr
gs
1 -1 sc
0 0 0 rgb
/MC1_Arial 188 self 191 -1454 m
(1.5)[105 52 105 ] xs
1 -1 sc
gr
gs
1 -1 sc
0 0 0 rgb
/MC1_Arial 188 self 191 -1175 m
(2.0)[105 52 105 ] xs
1 -1 sc
gr
gs
1 -1 sc
0 0 0 rgb
/MC1_Arial 188 self 191 -896 m
(2.5)[105 52 105 ] xs
1 -1 sc
gr
gs
1 -1 sc
0 0 0 rgb
/MC1_Arial 188 self 191 -618 m
(3.0)[105 52 105 ] xs
1 -1 sc
gr
gs
1 -1 sc
0 0 0 rgb
/MC1_Arial 188 self 191 -339 m
(3.5)[105 52 105 ] xs
1 -1 sc
gr
453 2234 m
453 2234 l
13 sw
0 0 0 rgb
st
683 2234 m
683 2234 l
st
913 2234 m
913 2234 l
st
1144 2234 m
1144 2234 l
st
1374 2234 m
1374 2234 l
st
1604 2234 m
1604 2234 l
st
1834 2234 m
1834 2234 l
st
2064 2234 m
2064 2234 l
st
2295 2234 m
2295 2234 l
st
2525 2234 m
2525 2234 l
st
2755 2234 m
2755 2234 l
st
2985 2234 m
2985 2234 l
st
3215 2234 m
3215 2234 l
st
3446 2234 m
3446 2234 l
st
3676 2234 m
3676 2234 l
st
3906 2234 m
3906 2234 l
st
4136 2234 m
4136 2234 l
st
4366 2234 m
4366 2234 l
st
4597 2234 m
4597 2234 l
st
4827 2234 m
4827 2234 l
st
5057 2234 m
5057 2234 l
st
453 2234 m
5057 2234 l
st
453 2234 m
5057 2234 l
st
453 2234 m
453 2234 l
st
453 2095 m
453 2095 l
st
453 1955 m
453 1955 l
st
453 1816 m
453 1816 l
st
453 1677 m
453 1677 l
st
453 1537 m
453 1537 l
st
453 1398 m
453 1398 l
st
453 1259 m
453 1259 l
st
453 1119 m
453 1119 l
st
453 980 m
453 980 l
st
453 840 m
453 840 l
st
453 701 m
453 701 l
st
453 562 m
453 562 l
st
453 422 m
453 422 l
st
453 283 m
453 283 l
st
453 2234 m
453 283 l
st
453 283 m
453 283 l
st
683 283 m
683 283 l
st
913 283 m
913 283 l
st
1144 283 m
1144 283 l
st
1374 283 m
1374 283 l
st
1604 283 m
1604 283 l
st
1834 283 m
1834 283 l
st
2064 283 m
2064 283 l
st
2295 283 m
2295 283 l
st
2525 283 m
2525 283 l
st
2755 283 m
2755 283 l
st
2985 283 m
2985 283 l
st
3215 283 m
3215 283 l
st
3446 283 m
3446 283 l
st
3676 283 m
3676 283 l
st
3906 283 m
3906 283 l
st
4136 283 m
4136 283 l
st
4366 283 m
4366 283 l
st
4597 283 m
4597 283 l
st
4827 283 m
4827 283 l
st
5057 283 m
5057 283 l
st
453 283 m
5057 283 l
st
453 2234 m
5057 2234 l
st
5057 2234 m
5057 2234 l
st
5057 2095 m
5057 2095 l
st
5057 1955 m
5057 1955 l
st
5057 1816 m
5057 1816 l
st
5057 1677 m
5057 1677 l
st
5057 1537 m
5057 1537 l
st
5057 1398 m
5057 1398 l
st
5057 1259 m
5057 1259 l
st
5057 1119 m
5057 1119 l
st
5057 980 m
5057 980 l
st
5057 840 m
5057 840 l
st
5057 701 m
5057 701 l
st
5057 562 m
5057 562 l
st
5057 422 m
5057 422 l
st
5057 283 m
5057 283 l
st
5057 2234 m
5057 283 l
st
gs
gs
1 -1 sc
150 -2254 tr
90 ro
/MC2_Arial 91 self 0 0 m
( )[25 ] xs
1 -1 sc
gr
gs
1 -1 sc
150 -2229 tr
90 ro
/MC2_Arial 186 self 0 0 m
(Normalized Throughput)[134 103 62 155 103 41 41 93 103 103 52 114 103 62 103 103 103 103 103 103 52 ] xs
1 -1 sc
gr
gr
610 12 m
4971 12 l
4971 261 l
610 261 l
cp
gs
1 1 1 rgb
eofi
gr
3 sw
st
gs
gs
gs
705 34 m
1125 34 l
1125 241 l
705 241 l
cp
gs
eofi
gr
5 sw
st
gr
gr
1 -1 sc
/MC3_Arial 192 self 1128 -203 m
( )[53 ] xs
1 -1 sc
1 -1 sc
1181 -203 m
(4KB)[107 128 128 ] xs
1 -1 sc
1 -1 sc
1544 -203 m
(   )[53 53 53 ] xs
1 -1 sc
gs
gs
1706 34 m
2126 34 l
2126 241 l
1706 241 l
cp
gs
1 1 1 rgb
eofi
gr
5 sw
st
1707 35 m
1912 240 l
3 sw
st
1707 67 m
1880 240 l
st
1707 99 m
1848 240 l
st
1707 131 m
1816 240 l
st
1707 163 m
1784 240 l
st
1707 195 m
1752 240 l
st
1707 227 m
1720 240 l
st
1707 35 m
1912 240 l
st
1739 35 m
1944 240 l
st
1771 35 m
1976 240 l
st
1803 35 m
2008 240 l
st
1835 35 m
2040 240 l
st
1867 35 m
2072 240 l
st
1899 35 m
2104 240 l
st
1931 35 m
2125 229 l
st
1963 35 m
2125 197 l
st
1995 35 m
2125 165 l
st
2027 35 m
2125 133 l
st
2059 35 m
2125 101 l
st
2091 35 m
2125 69 l
st
2123 35 m
2125 37 l
st
1706 34 m
2126 34 l
2126 241 l
1706 241 l
1706 34 l
5 sw
st
gr
gr
1 -1 sc
2129 -203 m
( )[53 ] xs
1 -1 sc
1 -1 sc
2182 -203 m
(8KB)[107 128 128 ] xs
1 -1 sc
1 -1 sc
2545 -203 m
(   )[53 53 53 ] xs
1 -1 sc
gs
gs
2707 34 m
3127 34 l
3127 241 l
2707 241 l
cp
gs
1 0 0 rgb
eofi
gr
5 sw
st
gr
gr
1 -1 sc
3130 -203 m
( )[53 ] xs
1 -1 sc
1 -1 sc
3183 -203 m
(16KB )[107 107 128 128 53 ] xs
1 -1 sc
1 -1 sc
3706 -203 m
(   )[53 53 53 ] xs
1 -1 sc
gs
gs
3868 34 m
4288 34 l
4288 241 l
3868 241 l
cp
gs
1 1 1 rgb
eofi
gr
5 sw
st
3869 35 m
3869 35 l
3 sw
st
3869 84 m
3918 35 l
st
3869 133 m
3967 35 l
st
3869 182 m
4016 35 l
st
3869 231 m
4065 35 l
st
3909 240 m
4114 35 l
st
3958 240 m
4163 35 l
st
4007 240 m
4212 35 l
st
4056 240 m
4261 35 l
st
4105 240 m
4287 58 l
st
4154 240 m
4287 107 l
st
4203 240 m
4287 156 l
st
4252 240 m
4287 205 l
st
3868 34 m
4288 34 l
4288 241 l
3868 241 l
3868 34 l
5 sw
st
gr
gr
1 -1 sc
4291 -203 m
( )[53 ] xs
1 -1 sc
1 -1 sc
4344 -203 m
(32KB)[107 107 128 128 ] xs
1 -1 sc
gr
gr
Save0 restore end
showpage
%%EOF
