%!PS-Adobe-3.0 EPSF-3.0
%%BoundingBox: 0 0 1800 576
%%LanguageLevel: 2
%%Creator: OriginLab Corporation
%%Title: (C:\Users\Administrator\Documents\atc16-pagesplit\eval-gc-sense.eps)
%%CreationDate: Sun Jan 24 19:28:40 2016
%%EndComments

/OriginLab::PSL1 128 dict dup begin def
/Save0 save def
%%BeginResource: procset OriginLab::PSL1
/wd{1 index where{pop pop pop}{bind def}ifelse}bind def
/setcmykcolor{1 sub 4 1 roll 3{3 index add neg dup 0 lt{pop 0}if 3 1 roll}repeat setrgbcolor pop}wd
/selectfont{dup type/arraytype eq{exch findfont exch makefont setfont}{exch findfont exch scalefont setfont}ifelse}wd
/xshow{1 index length 0 le{}{currentpoint exch 3 index length 1 sub 0 exch 1 exch{dup 5 index exch 1 getinterval show 3 index exch get add 2 copy exch moveto}for pop pop}ifelse pop pop}wd
/glyphshow{matrix currentmatrix exch currentfont dup/FontMatrix get concat currentpoint translate
 dup/Metrics get 2 index get 0 4 2 roll gsave/CharProcs get exch 2 copy known not{pop/.notdef}if
 get exec fill grestore moveto setmatrix}wd
/grayimage/image load def/rgbtogray{cvx exec dup length 3 idiv 1 sub 0 exch 1 exch{dup 3 mul dup 3 index exch get 255 div .3 mul exch
 1 add dup 4 index exch get 255 div .59 mul exch 1 add 4 index exch get 255 div .11 mul add add
 255 mul dup 255 gt{255}if round cvi 2 index 3 1 roll put}for dup length 3 idiv 0 exch getinterval}bind def
/colorimage{0 setgray pop pop cvlit/rgbtogray cvx 2 packedarray cvx grayimage}wd
/bd{bind def}bind def/ld{load def}bd/ed{exch def}bd/xd{cvx def}bd
/np/newpath ld/a/arc ld/m/moveto ld/l/lineto ld/c/curveto ld/rm/rmoveto ld/rl/rlineto ld/rc/rcurveto ld/cp/closepath ld/cpt/currentpoint ld
/tr/translate ld/sc/scale ld/ro/rotate ld/t/transform ld/it/itransform ld/dt/dtransform ld/idt/idtransform ld
/mtx/matrix ld/cmtx/currentmatrix ld/dmtx/defaultmatrix ld/smtx/setmatrix ld/catmtx/concatmatrix ld
/sw/setlinewidth ld/scap/setlinecap ld/sj/setlinejoin ld/sm/setmiterlimit ld/sd/setdash ld/rgb/setrgbcolor ld/crgb/currentrgbcolor ld/cmyk/setcmykcolor ld/gs/gsave ld/gr/grestore ld
/st/stroke ld/fi/fill ld/eofi/eofill ld/cl/clip ld/eocl/eoclip ld
/df/definefont ld/ff/findfont ld/sf/setfont ld/scf/scalefont ld/self/selectfont ld/cf/currentfont ld
/s/show ld/xs/xshow ld/gls/glyphshow ld/xgls{cpt 3 1 roll add exch 3 -1 roll gls m}bd
/cd/currentdict ld/i/index ld
/DrawBox{4 2 roll m 1 index 0 rl 0 exch rl neg 0 rl cp}bd
/plus.re { 6 { 3 index } repeat moveto 0 exch rlineto 0 rlineto pop pop neg 0 exch rlineto pop lineto closepath } def
/DrawBcc{4 2 roll m 2 copy 0 lt exch 0 lt xor{dup 0 exch rl exch 0 rl neg 0 exch rl}{exch dup 0 rl exch 0 exch rl neg 0 rl}ifelse cp}bd
/rectline{dup type/arraytype eq{dup length 0 exch 4 exch 4 sub{0 1 3{3 copy add get 4 1 roll pop}for pop 5 1 roll DrawBox}for pop}{DrawBox}ifelse}bd
/rectpath{dup type/arraytype eq{dup length 0 exch 4 exch 4 sub{0 1 3{3 copy add get 4 1 roll pop}for pop 5 1 roll DrawBcc}for pop}{DrawBcc}ifelse}bd
/pathproc{[{/m cvx}{/l cvx}{/c cvx}{/cp cvx}pathforall]cvx}bd
/L1img/image ld/L1idx[{0}
 {dup 7 and 3 1 roll -3 bitshift get exch 7 sub 1 mul bitshift  1 and}bind 1 index dup
 {dup 1 and 3 1 roll -1 bitshift get exch 1 sub 4 mul bitshift 15 and}bind 1 index dup dup
 {get}bind]def
/image{dup type/dicttype eq {dup/ImgCS get 0 get/Indexed eq}{false}ifelse
 {begin Width Height 8 ImageMatrix {rgb_string rgb_lookup
 cd/DataSource get dup type/filetype eq
 {mystring readstring pop}{exec}ifelse
 dup length 0 ne
 {L1idx BitsPerComponent get 0 1 Width 1 sub
 {3 copy exch exec exch 3 mul exch
 3 mul dup 5 index exch get exch 1 add dup 6 index exch get exch 1 add 6 index exch get
 7 index exch 4 index 2 add exch put 6 index exch 3 index 1 add exch put 5 index exch 2 index exch put pop
 }for pop pop pop }{pop pop pop ()}ifelse }false 3 colorimage end} {dup type/dicttype eq
 {{dup mark exch L1img pop pop}stopped{cleartomark begin Width Height BitsPerComponent ImageMatrix
 {cd/DataSource get dup type/filetype eq {mystring readstring pop}{exec}ifelse
 }false 3 colorimage end} if}{L1img}ifelse}ifelse
 }bd
/L1imgmask/imagemask ld/imagemask{dup type/dicttype eq
 {{dup mark exch L1imgmask pop pop}stopped {cleartomark begin Width Height polarityflag ImageMatrix
 {cd/DataSource get dup type/filetype eq {mystring readstring pop}{exec}ifelse
 }L1imgmask end}if}{L1imgmask}ifelse
 }bd
% Gradient function
/GradientStep 1 150 div def
/GradientStartRGB { /R1 exch def /G1 exch def /B1 exch def } def
/GradientEndRGB { /R2 exch def /G2 exch def /B2 exch def
/GradientSteps GradientLength GradientStep div def
/GradientRStep R2 R1 sub GradientSteps div def
/GradientGStep G2 G1 sub GradientSteps div def
/GradientBStep B2 B1 sub GradientSteps div def
} def
/GradientStepRGB { /R1 R1 GradientRStep add def
/G1 G1 GradientGStep add def
/B1 B1 GradientBStep add def
R1 G1 B1 setrgbcolor
} def
%%EndResource
/rectclip{np rectpath clip np}wd
/rectfill{gs np rectpath fi gr}wd
/rectstroke{gs np dup type/arraytype eq{dup length 6 eq}{false}ifelse{1 index type/arraytype eq{exch}{5 1 roll}ifelse rectline concat st}{rectline st}ifelse gr}wd
%%BeginResource: procset OriginLab::Image
/OriginLab::Image 32 dict dup begin
/BinProc{[currentfile mystring /readstring cvx /pop cvx] cvx bind}bd
/HexProc{[currentfile mystring /readhexstring cvx /pop cvx] cvx bind}bd
/Ascii85Proc{currentfile /ASCII85Decode filter}bd
/LZWA85{currentfile /ASCII85Decode filter /LZWDecode filter}bd
/ImgProcArray[/BinProc /HexProc /Ascii85Proc /LZWA85]def
/ImgDict{/ImgDict 16 dict def ImgDict dup begin /ImageType 1 def /MultipleDataSource false def end}bd
/L2Dec{{[1 0]}{[0 1]}ifelse}bd
/BegImg{ /Img_sv save def
 /ImgDir ed ImgProcArray exch get /ImgProc exch ld
 dup /polarityflag ed L2Dec /polarity ed /smoothflag ed
 tr /dx 2 index def /dy 1 index abs def sc
 string /mystring ed /bpc ed /ih ed /iw ed
 }bd
/EndImg {Img_sv restore}bd
/DoXImg{ /rgb_lookup ed /hival ed ImgDict dup begin
 [/Indexed /DeviceRGB hival rgb_lookup] /L1img where{pop/ImgCS ed}{setcolorspace}ifelse
 /rgb_string iw 3 mul string def
 /Width iw def
 /Height ih def
 /Decode [0 1 bpc{2 mul}repeat 1 sub] def
 /ImageMatrix
  ImgDir 0 eq{[iw 0 0 ih 0 0]}if
  ImgDir 1 eq{[iw neg 0 0 ih iw 0]}if
  ImgDir 2 eq{[iw 0 0 ih neg 0 ih]}if
  ImgDir 3 eq{[iw neg 0 0 ih neg iw ih]}if
  def
 /DataSource ImgProc def
 /BitsPerComponent bpc def
 /Interpolate smoothflag def
 end image}bd
/DoImg{ ImgDict dup begin
 [/DeviceRGB] /L1img where{pop/ImgCS ed}{setcolorspace}ifelse
 /rgb_string iw 3 mul string def
 /Width iw def
 /Height ih def
 /Decode [0 1 0 1 0 1] def
 /ImageMatrix
  ImgDir 0 eq{[iw 0 0 ih 0 0]}if
  ImgDir 1 eq{[iw neg 0 0 ih iw 0]}if
  ImgDir 2 eq{[iw 0 0 ih neg 0 ih]}if
  ImgDir 3 eq{[iw neg 0 0 ih neg iw ih]}if
  def
 /DataSource ImgProc def
 /BitsPerComponent 8 def
 /Interpolate smoothflag def
 end image}bd
end def
%%EndResource
%%BeginFont: /MC1_Arial
12 dict begin
/FontInfo 8 dict dup begin
/ItalicAngle 0 def
/UnderlinePosition -217.00 def
/UnderlineThickness 150.00 def
/StrikeoutPosition 530.00 def
/StrikeoutThickness 102.00 def
/isFixedPitch false def
end readonly def
/FontName /MC1_Arial def
/FontType 3 def
/FontMatrix [1 2048 div 0 0 1 2048 div 0 0] def
/FontBBox [-1361 -665 4096 2060] def
/Encoding 256 array def 0 1 255{Encoding exch/.notdef put}for
Encoding 32/s32 put
Encoding 46/s46 put
Encoding 48/s48 put
Encoding 49/s49 put
Encoding 50/s50 put
Encoding 51/s51 put
Encoding 52/s52 put
Encoding 53/s53 put
Encoding 54/s54 put
Encoding 55/s55 put
Encoding 56/s56 put
Encoding 57/s57 put
Encoding 99/s99 put
Encoding 100/s100 put
Encoding 102/s102 put
Encoding 104/s104 put
Encoding 105/s105 put
Encoding 106/s106 put
Encoding 109/s109 put
Encoding 110/s110 put
Encoding 111/s111 put
Encoding 112/s112 put
Encoding 114/s114 put
Encoding 115/s115 put
Encoding 117/s117 put
Encoding 120/s120 put
Encoding 121/s121 put
/BoundingBoxes 28 dict def
BoundingBoxes begin
/s32 [0 -434 569 1854] def
/s46 [0 -434 569 1854] def
/s48 [0 -434 1139 1854] def
/s49 [0 -434 1139 1854] def
/s50 [0 -434 1139 1854] def
/s51 [0 -434 1139 1854] def
/s52 [0 -434 1139 1854] def
/s53 [0 -434 1139 1854] def
/s54 [0 -434 1139 1854] def
/s55 [0 -434 1139 1854] def
/s56 [0 -434 1139 1854] def
/s57 [0 -434 1139 1854] def
/s99 [0 -434 1024 1854] def
/s100 [0 -434 1139 1854] def
/s102 [0 -434 569 1854] def
/s104 [0 -434 1139 1854] def
/s105 [0 -434 455 1854] def
/s106 [-94 -434 455 1854] def
/s109 [0 -434 1706 1854] def
/s110 [0 -434 1139 1854] def
/s111 [0 -434 1139 1854] def
/s112 [0 -434 1139 1854] def
/s114 [0 -434 682 1854] def
/s115 [0 -434 1024 1854] def
/s117 [0 -434 1139 1854] def
/s120 [0 -434 1024 1854] def
/s121 [0 -434 1024 1854] def
end
/Metrics 28 dict def
 Metrics begin
/s32 569 def
/s46 569 def
/s48 1139 def
/s49 1139 def
/s50 1139 def
/s51 1139 def
/s52 1139 def
/s53 1139 def
/s54 1139 def
/s55 1139 def
/s56 1139 def
/s57 1139 def
/s99 1024 def
/s100 1139 def
/s102 569 def
/s104 1139 def
/s105 455 def
/s106 455 def
/s109 1706 def
/s110 1139 def
/s111 1139 def
/s112 1139 def
/s114 682 def
/s115 1024 def
/s117 1139 def
/s120 1024 def
/s121 1024 def
end
/CharProcs 28 dict def
CharProcs begin
/.notdef {} def
/s46 {
186 0 m
186 205 186 0 186 205 c
391 205 186 205 391 205 c
391 0 391 205 391 0 c
186 0 391 0 186 0 c
closepath } bind def
/s48 {
85 723 m
85 896.33 102.83 1035.83 138.5 1141.5 c
174.17 1247.17 227.17 1328.67 297.5 1386 c
367.83 1443.33 456.33 1472 563 1472 c
641.67 1472 710.67 1456.17 770 1424.5 c
829.33 1392.83 878.33 1347.17 917 1287.5 c
955.67 1227.83 986 1155.17 1008 1069.5 c
1030 983.83 1041 868.33 1041 723 c
1041 551 1023.33 412.17 988 306.5 c
952.67 200.83 899.83 119.17 829.5 61.5 c
759.17 3.83 670.33 -25 563 -25 c
421.67 -25 310.67 25.67 230 127 c
133.33 249 85 447.67 85 723 c
closepath 270 723 m
270 482.33 298.17 322.17 354.5 242.5 c
410.83 162.83 480.33 123 563 123 c
645.67 123 715.17 163 771.5 243 c
827.83 323 856 483 856 723 c
856 964.33 827.83 1124.67 771.5 1204 c
715.17 1283.33 645 1323 561 1323 c
478.33 1323 412.33 1288 363 1218 c
301 1128.67 270 963.67 270 723 c
closepath } bind def
/s49 {
763 0 m
583 0 763 0 583 0 c
583 1147 583 0 583 1147 c
539.67 1105.67 482.83 1064.33 412.5 1023 c
342.17 981.67 279 950.67 223 930 c
223 1104 223 930 223 1104 c
323.67 1151.33 411.67 1208.67 487 1276 c
562.33 1343.33 615.67 1408.67 647 1472 c
763 1472 647 1472 763 1472 c
763 0 763 1472 763 0 c
closepath } bind def
/s50 {
1031 173 m
1031 0 1031 173 1031 0 c
62 0 1031 0 62 0 c
60.67 43.33 67.67 85 83 125 c
107.67 191 147.17 256 201.5 320 c
255.83 384 334.33 458 437 542 c
596.33 672.67 704 776.17 760 852.5 c
816 928.83 844 1001 844 1069 c
844 1140.33 818.5 1200.5 767.5 1249.5 c
716.5 1298.5 650 1323 568 1323 c
481.33 1323 412 1297 360 1245 c
308 1193 281.67 1121 281 1029 c
96 1048 281 1029 96 1048 c
108.67 1186 156.33 1291.17 239 1363.5 c
321.67 1435.83 432.67 1472 572 1472 c
712.67 1472 824 1433 906 1355 c
988 1277 1029 1180.33 1029 1065 c
1029 1006.33 1017 948.67 993 892 c
969 835.33 929.17 775.67 873.5 713 c
817.83 650.33 725.33 564.33 596 455 c
488 364.33 418.67 302.83 388 270.5 c
357.33 238.17 332 205.67 312 173 c
1031 173 312 173 1031 173 c
closepath } bind def
/s51 {
86 387 m
266 411 86 387 266 411 c
286.67 309 321.83 235.5 371.5 190.5 c
421.17 145.5 481.67 123 553 123 c
637.67 123 709.17 152.33 767.5 211 c
825.83 269.67 855 342.33 855 429 c
855 511.67 828 579.83 774 633.5 c
720 687.17 651.33 714 568 714 c
534 714 491.67 707.33 441 694 c
461 852 441 694 461 852 c
473 850.67 482.67 850 490 850 c
566.67 850 635.67 870 697 910 c
758.33 950 789 1011.67 789 1095 c
789 1161 766.67 1215.67 722 1259 c
677.33 1302.33 619.67 1324 549 1324 c
479 1324 420.67 1302 374 1258 c
327.33 1214 297.33 1148 284 1060 c
104 1092 284 1060 104 1092 c
126 1212.67 176 1306.17 254 1372.5 c
332 1438.83 429 1472 545 1472 c
625 1472 698.67 1454.83 766 1420.5 c
833.33 1386.17 884.83 1339.33 920.5 1280 c
956.17 1220.67 974 1157.67 974 1091 c
974 1027.67 957 970 923 918 c
889 866 838.67 824.67 772 794 c
858.67 774 926 732.5 974 669.5 c
1022 606.5 1046 527.67 1046 433 c
1046 305 999.33 196.5 906 107.5 c
812.67 18.5 694.67 -26 552 -26 c
423.33 -26 316.5 12.33 231.5 89 c
146.5 165.67 98 265 86 387 c
closepath } bind def
/s52 {
662 0 m
662 351 662 0 662 351 c
26 351 662 351 26 351 c
26 516 26 351 26 516 c
695 1466 26 516 695 1466 c
842 1466 695 1466 842 1466 c
842 516 842 1466 842 516 c
1040 516 842 516 1040 516 c
1040 351 1040 516 1040 351 c
842 351 1040 351 842 351 c
842 0 842 351 842 0 c
662 0 842 0 662 0 c
closepath 662 516 m
662 1177 662 516 662 1177 c
203 516 662 1177 203 516 c
662 516 203 516 662 516 c
closepath } bind def
/s53 {
85 384 m
274 400 85 384 274 400 c
288 308 320.5 238.83 371.5 192.5 c
422.5 146.17 484 123 556 123 c
642.67 123 716 155.67 776 221 c
836 286.33 866 373 866 481 c
866 583.67 837.17 664.67 779.5 724 c
721.83 783.33 646.33 813 553 813 c
495 813 442.67 799.83 396 773.5 c
349.33 747.17 312.67 713 286 671 c
117 693 286 671 117 693 c
259 1446 117 693 259 1446 c
988 1446 259 1446 988 1446 c
988 1274 988 1446 988 1274 c
403 1274 988 1274 403 1274 c
324 880 403 1274 324 880 c
412 941.33 504.33 972 601 972 c
729 972 837 927.67 925 839 c
1013 750.33 1057 636.33 1057 497 c
1057 364.33 1018.33 249.67 941 153 c
847 34.33 718.67 -25 556 -25 c
422.67 -25 313.83 12.33 229.5 87 c
145.17 161.67 97 260.67 85 384 c
closepath } bind def
/s54 {
1019 1107 m
840 1093 1019 1107 840 1093 c
824 1163.67 801.33 1215 772 1247 c
723.33 1298.33 663.33 1324 592 1324 c
534.67 1324 484.33 1308 441 1276 c
384.33 1234.67 339.67 1174.33 307 1095 c
274.33 1015.67 257.33 902.67 256 756 c
299.33 822 352.33 871 415 903 c
477.67 935 543.33 951 612 951 c
732 951 834.17 906.83 918.5 818.5 c
1002.83 730.17 1045 616 1045 476 c
1045 384 1025.17 298.5 985.5 219.5 c
945.83 140.5 891.33 80 822 38 c
752.67 -4 674 -25 586 -25 c
436 -25 313.67 30.17 219 140.5 c
124.33 250.83 77 432.67 77 686 c
77 969.33 129.33 1175.33 234 1304 c
325.33 1416 448.33 1472 603 1472 c
718.33 1472 812.83 1439.67 886.5 1375 c
960.17 1310.33 1004.33 1221 1019 1107 c
closepath 284 475 m
284 413 297.17 353.67 323.5 297 c
349.83 240.33 386.67 197.17 434 167.5 c
481.33 137.83 531 123 583 123 c
659 123 724.33 153.67 779 215 c
833.67 276.33 861 359.67 861 465 c
861 566.33 834 646.17 780 704.5 c
726 762.83 658 792 576 792 c
494.67 792 425.67 762.83 369 704.5 c
312.33 646.17 284 569.67 284 475 c
closepath } bind def
/s55 {
97 1274 m
97 1447 97 1274 97 1447 c
1046 1447 97 1447 1046 1447 c
1046 1307 1046 1447 1046 1307 c
952.67 1207.67 860.17 1075.67 768.5 911 c
676.83 746.33 606 577 556 403 c
520 280.33 497 146 487 0 c
302 0 487 0 302 0 c
304 115.33 326.67 254.67 370 418 c
413.33 581.33 475.5 738.83 556.5 890.5 c
637.5 1042.17 723.67 1170 815 1274 c
97 1274 815 1274 97 1274 c
closepath } bind def
/s56 {
362 795 m
287.33 822.33 232 861.33 196 912 c
160 962.67 142 1023.33 142 1094 c
142 1200.67 180.33 1290.33 257 1363 c
333.67 1435.67 435.67 1472 563 1472 c
691 1472 794 1434.83 872 1360.5 c
950 1286.17 989 1195.67 989 1089 c
989 1021 971.17 961.83 935.5 911.5 c
899.83 861.17 845.67 822.33 773 795 c
863 765.67 931.5 718.33 978.5 653 c
1025.5 587.67 1049 509.67 1049 419 c
1049 293.67 1004.67 188.33 916 103 c
827.33 17.67 710.67 -25 566 -25 c
421.33 -25 304.67 17.83 216 103.5 c
127.33 189.17 83 296 83 424 c
83 519.33 107.17 599.17 155.5 663.5 c
203.83 727.83 272.67 771.67 362 795 c
closepath 326 1100 m
326 1030.67 348.33 974 393 930 c
437.67 886 495.67 864 567 864 c
636.33 864 693.17 885.83 737.5 929.5 c
781.83 973.17 804 1026.67 804 1090 c
804 1156 781.17 1211.5 735.5 1256.5 c
689.83 1301.5 633 1324 565 1324 c
496.33 1324 439.33 1302 394 1258 c
348.67 1214 326 1161.33 326 1100 c
closepath 268 423 m
268 371.67 280.17 322 304.5 274 c
328.83 226 365 188.83 413 162.5 c
461 136.17 512.67 123 568 123 c
654 123 725 150.67 781 206 c
837 261.33 865 331.67 865 417 c
865 503.67 836.17 575.33 778.5 632 c
720.83 688.67 648.67 717 562 717 c
477.33 717 407.17 689 351.5 633 c
295.83 577 268 507 268 423 c
closepath } bind def
/s57 {
112 339 m
285 355 112 339 285 355 c
299.67 273.67 327.67 214.67 369 178 c
410.33 141.33 463.33 123 528 123 c
583.33 123 631.83 135.67 673.5 161 c
715.17 186.33 749.33 220.17 776 262.5 c
802.67 304.83 825 362 843 434 c
861 506 870 579.33 870 654 c
870 662 869.67 674 869 690 c
833 632.67 783.83 586.17 721.5 550.5 c
659.17 514.83 591.67 497 519 497 c
397.67 497 295 541 211 629 c
127 717 85 833 85 977 c
85 1125.67 128.83 1245.33 216.5 1336 c
304.17 1426.67 414 1472 546 1472 c
641.33 1472 728.5 1446.33 807.5 1395 c
886.5 1343.67 946.5 1270.5 987.5 1175.5 c
1028.5 1080.5 1049 943 1049 763 c
1049 575.67 1028.67 426.5 988 315.5 c
947.33 204.5 886.83 120 806.5 62 c
726.17 4 632 -25 524 -25 c
409.33 -25 315.67 6.83 243 70.5 c
170.33 134.17 126.67 223.67 112 339 c
closepath 849 986 m
849 1089.33 821.5 1171.33 766.5 1232 c
711.5 1292.67 645.33 1323 568 1323 c
488 1323 418.33 1290.33 359 1225 c
299.67 1159.67 270 1075 270 971 c
270 877.67 298.17 801.83 354.5 743.5 c
410.83 685.17 480.33 656 563 656 c
646.33 656 714.83 685.17 768.5 743.5 c
822.17 801.83 849 882.67 849 986 c
closepath } bind def
/s99 {
828 389 m
1005 366 828 389 1005 366 c
985.67 244 936.17 148.5 856.5 79.5 c
776.83 10.5 679 -24 563 -24 c
417.67 -24 300.83 23.5 212.5 118.5 c
124.17 213.5 80 349.67 80 527 c
80 641.67 99 742 137 828 c
175 914 232.83 978.5 310.5 1021.5 c
388.17 1064.5 472.67 1086 564 1086 c
679.33 1086 773.67 1056.83 847 998.5 c
920.33 940.17 967.33 857.33 988 750 c
813 723 988 750 813 723 c
796.33 794.33 766.83 848 724.5 884 c
682.17 920 631 938 571 938 c
480.33 938 406.67 905.5 350 840.5 c
293.33 775.5 265 672.67 265 532 c
265 389.33 292.33 285.67 347 221 c
401.67 156.33 473 124 561 124 c
631.67 124 690.67 145.67 738 189 c
785.33 232.33 815.33 299 828 389 c
closepath } bind def
/s100 {
824 0 m
824 134 824 0 824 134 c
756.67 28.67 657.67 -24 527 -24 c
442.33 -24 364.5 -0.67 293.5 46 c
222.5 92.67 167.5 157.83 128.5 241.5 c
89.5 325.17 70 421.33 70 530 c
70 636 87.67 732.17 123 818.5 c
158.33 904.83 211.33 971 282 1017 c
352.67 1063 431.67 1086 519 1086 c
583 1086 640 1072.5 690 1045.5 c
740 1018.5 780.67 983.33 812 940 c
812 1466 812 940 812 1466 c
991 1466 812 1466 991 1466 c
991 0 991 1466 991 0 c
824 0 991 0 824 0 c
closepath 255 530 m
255 394 283.67 292.33 341 225 c
398.33 157.67 466 124 544 124 c
622.67 124 689.5 156.17 744.5 220.5 c
799.5 284.83 827 383 827 515 c
827 660.33 799 767 743 835 c
687 903 618 937 536 937 c
456 937 389.17 904.33 335.5 839 c
281.83 773.67 255 670.67 255 530 c
closepath } bind def
/s102 {
178 0 m
178 922 178 0 178 922 c
19 922 178 922 19 922 c
19 1062 19 922 19 1062 c
178 1062 19 1062 178 1062 c
178 1175 178 1062 178 1175 c
178 1246.33 184.33 1299.33 197 1334 c
214.33 1380.67 244.83 1418.5 288.5 1447.5 c
332.17 1476.5 393.33 1491 472 1491 c
522.67 1491 578.67 1485 640 1473 c
613 1316 640 1473 613 1316 c
575.67 1322.67 540.33 1326 507 1326 c
452.33 1326 413.67 1314.33 391 1291 c
368.33 1267.67 357 1224 357 1160 c
357 1062 357 1160 357 1062 c
564 1062 357 1062 564 1062 c
564 922 564 1062 564 922 c
357 922 564 922 357 922 c
357 0 357 922 357 0 c
178 0 357 0 178 0 c
closepath } bind def
/s104 {
135 0 m
135 1466 135 0 135 1466 c
315 1466 135 1466 315 1466 c
315 940 315 1466 315 940 c
399 1037.33 505 1086 633 1086 c
711.67 1086 780 1070.5 838 1039.5 c
896 1008.5 937.5 965.67 962.5 911 c
987.5 856.33 1000 777 1000 673 c
1000 0 1000 673 1000 0 c
820 0 1000 0 820 0 c
820 673 820 0 820 673 c
820 763 800.5 828.5 761.5 869.5 c
722.5 910.5 667.33 931 596 931 c
542.67 931 492.5 917.17 445.5 889.5 c
398.5 861.83 365 824.33 345 777 c
325 729.67 315 664.33 315 581 c
315 0 315 581 315 0 c
135 0 315 0 135 0 c
closepath } bind def
/s105 {
136 1259 m
136 1466 136 1259 136 1466 c
316 1466 136 1466 316 1466 c
316 1259 316 1466 316 1259 c
136 1259 316 1259 136 1259 c
closepath 136 0 m
136 1062 136 0 136 1062 c
316 1062 136 1062 316 1062 c
316 0 316 1062 316 0 c
136 0 316 0 136 0 c
closepath } bind def
/s106 {
134 1257 m
134 1466 134 1257 134 1466 c
314 1466 134 1466 314 1466 c
314 1257 314 1466 314 1257 c
134 1257 314 1257 134 1257 c
closepath -94 -412 m
-60 -259 -94 -412 -60 -259 c
-24 -268.33 4.33 -273 25 -273 c
61.67 -273 89 -260.83 107 -236.5 c
125 -212.17 134 -151.33 134 -54 c
134 1062 134 -54 134 1062 c
314 1062 134 1062 314 1062 c
314 -58 314 1062 314 -58 c
314 -188.67 297 -279.67 263 -331 c
219.67 -397.67 147.67 -431 47 -431 c
-1.67 -431 -48.67 -424.67 -94 -412 c
closepath } bind def
/s109 {
135 0 m
135 1062 135 0 135 1062 c
296 1062 135 1062 296 1062 c
296 913 296 1062 296 913 c
329.33 965 373.67 1006.83 429 1038.5 c
484.33 1070.17 547.33 1086 618 1086 c
696.67 1086 761.17 1069.67 811.5 1037 c
861.83 1004.33 897.33 958.67 918 900 c
1002 1024 1111.33 1086 1246 1086 c
1351.33 1086 1432.33 1056.83 1489 998.5 c
1545.67 940.17 1574 850.33 1574 729 c
1574 0 1574 729 1574 0 c
1395 0 1574 0 1395 0 c
1395 669 1395 0 1395 669 c
1395 741 1389.17 792.83 1377.5 824.5 c
1365.83 856.17 1344.67 881.67 1314 901 c
1283.33 920.33 1247.33 930 1206 930 c
1131.33 930 1069.33 905.17 1020 855.5 c
970.67 805.83 946 726.33 946 617 c
946 0 946 617 946 0 c
766 0 946 0 766 0 c
766 690 766 0 766 690 c
766 770 751.33 830 722 870 c
692.67 910 644.67 930 578 930 c
527.33 930 480.5 916.67 437.5 890 c
394.5 863.33 363.33 824.33 344 773 c
324.67 721.67 315 647.67 315 551 c
315 0 315 551 315 0 c
135 0 315 0 135 0 c
closepath } bind def
/s110 {
135 0 m
135 1062 135 0 135 1062 c
297 1062 135 1062 297 1062 c
297 911 297 1062 297 911 c
375 1027.67 487.67 1086 635 1086 c
699 1086 757.83 1074.5 811.5 1051.5 c
865.17 1028.5 905.33 998.33 932 961 c
958.67 923.67 977.33 879.33 988 828 c
994.67 794.67 998 736.33 998 653 c
998 0 998 653 998 0 c
818 0 998 0 818 0 c
818 646 818 0 818 646 c
818 719.33 811 774.17 797 810.5 c
783 846.83 758.17 875.83 722.5 897.5 c
686.83 919.17 645 930 597 930 c
520.33 930 454.17 905.67 398.5 857 c
342.83 808.33 315 716 315 580 c
315 0 315 580 315 0 c
135 0 315 0 135 0 c
closepath } bind def
/s111 {
68 531 m
68 727.67 122.67 873.33 232 968 c
323.33 1046.67 434.67 1086 566 1086 c
712 1086 831.33 1038.17 924 942.5 c
1016.67 846.83 1063 714.67 1063 546 c
1063 409.33 1042.5 301.83 1001.5 223.5 c
960.5 145.17 900.83 84.33 822.5 41 c
744.17 -2.33 658.67 -24 566 -24 c
417.33 -24 297.17 23.67 205.5 119 c
113.83 214.33 68 351.67 68 531 c
closepath 253 531 m
253 395 282.67 293.17 342 225.5 c
401.33 157.83 476 124 566 124 c
655.33 124 729.67 158 789 226 c
848.33 294 878 397.67 878 537 c
878 668.33 848.17 767.83 788.5 835.5 c
728.83 903.17 654.67 937 566 937 c
476 937 401.33 903.33 342 836 c
282.67 768.67 253 667 253 531 c
closepath } bind def
/s112 {
135 -407 m
135 1062 135 -407 135 1062 c
299 1062 135 1062 299 1062 c
299 924 299 1062 299 924 c
337.67 978 381.33 1018.5 430 1045.5 c
478.67 1072.5 537.67 1086 607 1086 c
697.67 1086 777.67 1062.67 847 1016 c
916.33 969.33 968.67 903.5 1004 818.5 c
1039.33 733.5 1057 640.33 1057 539 c
1057 430.33 1037.5 332.5 998.5 245.5 c
959.5 158.5 902.83 91.83 828.5 45.5 c
754.17 -0.83 676 -24 594 -24 c
534 -24 480.17 -11.33 432.5 14 c
384.83 39.33 345.67 71.33 315 110 c
315 -407 315 110 315 -407 c
135 -407 315 -407 135 -407 c
closepath 298 525 m
298 388.33 325.67 287.33 381 222 c
436.33 156.67 503.33 124 582 124 c
662 124 730.5 157.83 787.5 225.5 c
844.5 293.17 873 398 873 540 c
873 675.33 845.17 776.67 789.5 844 c
733.83 911.33 667.33 945 590 945 c
513.33 945 445.5 909.17 386.5 837.5 c
327.5 765.83 298 661.67 298 525 c
closepath } bind def
/s114 {
133 0 m
133 1062 133 0 133 1062 c
295 1062 133 1062 295 1062 c
295 901 295 1062 295 901 c
336.33 976.33 374.5 1026 409.5 1050 c
444.5 1074 483 1086 525 1086 c
585.67 1086 647.33 1066.67 710 1028 c
648 861 710 1028 648 861 c
604 887 560 900 516 900 c
476.67 900 441.33 888.17 410 864.5 c
378.67 840.83 356.33 808 343 766 c
323 702 313 632 313 556 c
313 0 313 556 313 0 c
133 0 313 0 133 0 c
closepath } bind def
/s115 {
63 317 m
241 345 63 317 241 345 c
251 273.67 278.83 219 324.5 181 c
370.17 143 434 124 516 124 c
598.67 124 660 140.83 700 174.5 c
740 208.17 760 247.67 760 293 c
760 333.67 742.33 365.67 707 389 c
682.33 405 621 425.33 523 450 c
391 483.33 299.5 512.17 248.5 536.5 c
197.5 560.83 158.83 594.5 132.5 637.5 c
106.17 680.5 93 728 93 780 c
93 827.33 103.83 871.17 125.5 911.5 c
147.17 951.83 176.67 985.33 214 1012 c
242 1032.67 280.17 1050.17 328.5 1064.5 c
376.83 1078.83 428.67 1086 484 1086 c
567.33 1086 640.5 1074 703.5 1050 c
766.5 1026 813 993.5 843 952.5 c
873 911.5 893.67 856.67 905 788 c
729 764 905 788 729 764 c
721 818.67 697.83 861.33 659.5 892 c
621.17 922.67 567 938 497 938 c
414.33 938 355.33 924.33 320 897 c
284.67 869.67 267 837.67 267 801 c
267 777.67 274.33 756.67 289 738 c
303.67 718.67 326.67 702.67 358 690 c
376 683.33 429 668 517 644 c
644.33 610 733.17 582.17 783.5 560.5 c
833.83 538.83 873.33 507.33 902 466 c
930.67 424.67 945 373.33 945 312 c
945 252 927.5 195.5 892.5 142.5 c
857.5 89.5 807 48.5 741 19.5 c
675 -9.5 600.33 -24 517 -24 c
379 -24 273.83 4.67 201.5 62 c
129.17 119.33 83 204.33 63 317 c
closepath } bind def
/s117 {
831 0 m
831 156 831 0 831 156 c
748.33 36 636 -24 494 -24 c
431.33 -24 372.83 -12 318.5 12 c
264.17 36 223.83 66.17 197.5 102.5 c
171.17 138.83 152.67 183.33 142 236 c
134.67 271.33 131 327.33 131 404 c
131 1062 131 404 131 1062 c
311 1062 131 1062 311 1062 c
311 473 311 1062 311 473 c
311 379 314.67 315.67 322 283 c
333.33 235.67 357.33 198.5 394 171.5 c
430.67 144.5 476 131 530 131 c
584 131 634.67 144.83 682 172.5 c
729.33 200.17 762.83 237.83 782.5 285.5 c
802.17 333.17 812 402.33 812 493 c
812 1062 812 493 812 1062 c
992 1062 812 1062 992 1062 c
992 0 992 1062 992 0 c
831 0 992 0 831 0 c
closepath } bind def
/s120 {
15 0 m
403 552 15 0 403 552 c
44 1062 403 552 44 1062 c
269 1062 44 1062 269 1062 c
432 813 269 1062 432 813 c
462.67 765.67 487.33 726 506 694 c
535.33 738 562.33 777 587 811 c
766 1062 587 811 766 1062 c
981 1062 766 1062 981 1062 c
614 562 981 1062 614 562 c
1009 0 614 562 1009 0 c
788 0 1009 0 788 0 c
570 330 788 0 570 330 c
512 419 570 330 512 419 c
233 0 512 419 233 0 c
15 0 233 0 15 0 c
closepath } bind def
/s121 {
127 -409 m
107 -240 127 -409 107 -240 c
146.33 -250.67 180.67 -256 210 -256 c
250 -256 282 -249.33 306 -236 c
330 -222.67 349.67 -204 365 -180 c
376.33 -162 394.67 -117.33 420 -46 c
423.33 -36 428.67 -21.33 436 -2 c
33 1062 436 -2 33 1062 c
227 1062 33 1062 227 1062 c
448 447 227 1062 448 447 c
476.67 369 502.33 287 525 201 c
545.67 283.67 570.33 364.33 599 443 c
826 1062 599 443 826 1062 c
1006 1062 826 1062 1006 1062 c
602 -18 1006 1062 602 -18 c
558.67 -134.67 525 -215 501 -259 c
469 -318.33 432.33 -361.83 391 -389.5 c
349.67 -417.17 300.33 -431 243 -431 c
208.33 -431 169.67 -423.67 127 -409 c
closepath } bind def
end
/BuildGlyph {
 exch dup /Metrics get 2 index get 0 setcharwidth
/CharProcs get exch 2 copy known not{pop/.notdef}if get exec fill}bind def
/BuildChar {
1 index /Encoding get exch get
1 index /BuildGlyph get exec
} bind def
currentdict end /MC1_Arial exch definefont pop
%%EndFont
%%BeginFont: /MC2_Arial
12 dict begin
/FontInfo 8 dict dup begin
/ItalicAngle 0 def
/UnderlinePosition -217.00 def
/UnderlineThickness 150.00 def
/StrikeoutPosition 530.00 def
/StrikeoutThickness 102.00 def
/isFixedPitch false def
end readonly def
/FontName /MC2_Arial def
/FontType 3 def
/FontMatrix [1 2048 div 0 0 1 2048 div 0 0] def
/FontBBox [-1361 -665 4096 2060] def
/Encoding 256 array def 0 1 255{Encoding exch/.notdef put}for
Encoding 32/s32 put
Encoding 67/s67 put
Encoding 71/s71 put
Encoding 78/s78 put
Encoding 97/s97 put
Encoding 100/s100 put
Encoding 101/s101 put
Encoding 104/s104 put
Encoding 105/s105 put
Encoding 108/s108 put
Encoding 109/s109 put
Encoding 111/s111 put
Encoding 114/s114 put
Encoding 118/s118 put
Encoding 122/s122 put
/BoundingBoxes 16 dict def
BoundingBoxes begin
/s32 [0 -434 569 1854] def
/s67 [0 -434 1479 1854] def
/s71 [0 -434 1593 1854] def
/s78 [0 -434 1479 1854] def
/s97 [0 -434 1139 1854] def
/s100 [0 -434 1139 1854] def
/s101 [0 -434 1139 1854] def
/s104 [0 -434 1139 1854] def
/s105 [0 -434 455 1854] def
/s108 [0 -434 455 1854] def
/s109 [0 -434 1706 1854] def
/s111 [0 -434 1139 1854] def
/s114 [0 -434 682 1854] def
/s118 [0 -434 1024 1854] def
/s122 [0 -434 1024 1854] def
end
/Metrics 16 dict def
 Metrics begin
/s32 569 def
/s67 1479 def
/s71 1593 def
/s78 1479 def
/s97 1139 def
/s100 1139 def
/s101 1139 def
/s104 1139 def
/s105 455 def
/s108 455 def
/s109 1706 def
/s111 1139 def
/s114 682 def
/s118 1024 def
/s122 1024 def
end
/CharProcs 16 dict def
CharProcs begin
/.notdef {} def
/s67 {
1204 514 m
1398 465 1204 514 1398 465 c
1357.33 305.67 1284.17 184.17 1178.5 100.5 c
1072.83 16.83 943.67 -25 791 -25 c
633 -25 504.5 7.17 405.5 71.5 c
306.5 135.83 231.17 229 179.5 351 c
127.83 473 102 604 102 744 c
102 896.67 131.17 1029.83 189.5 1143.5 c
247.83 1257.17 330.83 1343.5 438.5 1402.5 c
546.17 1461.5 664.67 1491 794 1491 c
940.67 1491 1064 1453.67 1164 1379 c
1264 1304.33 1333.67 1199.33 1373 1064 c
1182 1019 1373 1064 1182 1019 c
1148 1125.67 1098.67 1203.33 1034 1252 c
969.33 1300.67 888 1325 790 1325 c
677.33 1325 583.17 1298 507.5 1244 c
431.83 1190 378.67 1117.5 348 1026.5 c
317.33 935.5 302 841.67 302 745 c
302 620.33 320.17 511.5 356.5 418.5 c
392.83 325.5 449.33 256 526 210 c
602.67 164 685.67 141 775 141 c
883.67 141 975.67 172.33 1051 235 c
1126.33 297.67 1177.33 390.67 1204 514 c
closepath } bind def
/s71 {
844 575 m
844 747 844 575 844 747 c
1465 748 844 747 1465 748 c
1465 204 1465 748 1465 204 c
1369.67 128 1271.33 70.83 1170 32.5 c
1068.67 -5.83 964.67 -25 858 -25 c
714 -25 583.17 5.83 465.5 67.5 c
347.83 129.17 259 218.33 199 335 c
139 451.67 109 582 109 726 c
109 868.67 138.83 1001.83 198.5 1125.5 c
258.17 1249.17 344 1341 456 1401 c
568 1461 697 1491 843 1491 c
949 1491 1044.83 1473.83 1130.5 1439.5 c
1216.17 1405.17 1283.33 1357.33 1332 1296 c
1380.67 1234.67 1417.67 1154.67 1443 1056 c
1268 1008 1443 1056 1268 1008 c
1246 1082.67 1218.67 1141.33 1186 1184 c
1153.33 1226.67 1106.67 1260.83 1046 1286.5 c
985.33 1312.17 918 1325 844 1325 c
755.33 1325 678.67 1311.5 614 1284.5 c
549.33 1257.5 497.17 1222 457.5 1178 c
417.83 1134 387 1085.67 365 1033 c
327.67 942.33 309 844 309 738 c
309 607.33 331.5 498 376.5 410 c
421.5 322 487 256.67 573 214 c
659 171.33 750.33 150 847 150 c
931 150 1013 166.17 1093 198.5 c
1173 230.83 1233.67 265.33 1275 302 c
1275 575 1275 302 1275 575 c
844 575 1275 575 844 575 c
closepath } bind def
/s78 {
156 0 m
156 1466 156 0 156 1466 c
355 1466 156 1466 355 1466 c
1125 315 355 1466 1125 315 c
1125 1466 1125 315 1125 1466 c
1311 1466 1125 1466 1311 1466 c
1311 0 1311 1466 1311 0 c
1112 0 1311 0 1112 0 c
342 1152 1112 0 342 1152 c
342 0 342 1152 342 0 c
156 0 342 0 156 0 c
closepath } bind def
/s97 {
828 131 m
761.33 74.33 697.17 34.33 635.5 11 c
573.83 -12.33 507.67 -24 437 -24 c
320.33 -24 230.67 4.5 168 61.5 c
105.33 118.5 74 191.33 74 280 c
74 332 85.83 379.5 109.5 422.5 c
133.17 465.5 164.17 500 202.5 526 c
240.83 552 284 571.67 332 585 c
367.33 594.33 420.67 603.33 492 612 c
637.33 629.33 744.33 650 813 674 c
813.67 698.67 814 714.33 814 721 c
814 794.33 797 846 763 876 c
717 916.67 648.67 937 558 937 c
473.33 937 410.83 922.17 370.5 892.5 c
330.17 862.83 300.33 810.33 281 735 c
105 759 281 735 105 759 c
121 834.33 147.33 895.17 184 941.5 c
220.67 987.83 273.67 1023.5 343 1048.5 c
412.33 1073.5 492.67 1086 584 1086 c
674.67 1086 748.33 1075.33 805 1054 c
861.67 1032.67 903.33 1005.83 930 973.5 c
956.67 941.17 975.33 900.33 986 851 c
992 820.33 995 765 995 685 c
995 445 995 685 995 445 c
995 277.67 998.83 171.83 1006.5 127.5 c
1014.17 83.17 1029.33 40.67 1052 0 c
864 0 1052 0 864 0 c
845.33 37.33 833.33 81 828 131 c
closepath 813 533 m
747.67 506.33 649.67 483.67 519 465 c
445 454.33 392.67 442.33 362 429 c
331.33 415.67 307.67 396.17 291 370.5 c
274.33 344.83 266 316.33 266 285 c
266 237 284.17 197 320.5 165 c
356.83 133 410 117 480 117 c
549.33 117 611 132.17 665 162.5 c
719 192.83 758.67 234.33 784 287 c
803.33 327.67 813 387.67 813 467 c
813 533 813 467 813 533 c
closepath } bind def
/s100 {
824 0 m
824 134 824 0 824 134 c
756.67 28.67 657.67 -24 527 -24 c
442.33 -24 364.5 -0.67 293.5 46 c
222.5 92.67 167.5 157.83 128.5 241.5 c
89.5 325.17 70 421.33 70 530 c
70 636 87.67 732.17 123 818.5 c
158.33 904.83 211.33 971 282 1017 c
352.67 1063 431.67 1086 519 1086 c
583 1086 640 1072.5 690 1045.5 c
740 1018.5 780.67 983.33 812 940 c
812 1466 812 940 812 1466 c
991 1466 812 1466 991 1466 c
991 0 991 1466 991 0 c
824 0 991 0 824 0 c
closepath 255 530 m
255 394 283.67 292.33 341 225 c
398.33 157.67 466 124 544 124 c
622.67 124 689.5 156.17 744.5 220.5 c
799.5 284.83 827 383 827 515 c
827 660.33 799 767 743 835 c
687 903 618 937 536 937 c
456 937 389.17 904.33 335.5 839 c
281.83 773.67 255 670.67 255 530 c
closepath } bind def
/s101 {
862 342 m
1048 319 862 342 1048 319 c
1018.67 210.33 964.33 126 885 66 c
805.67 6 704.33 -24 581 -24 c
425.67 -24 302.5 23.83 211.5 119.5 c
120.5 215.17 75 349.33 75 522 c
75 700.67 121 839.33 213 938 c
305 1036.67 424.33 1086 571 1086 c
713 1086 829 1037.67 919 941 c
1009 844.33 1054 708.33 1054 533 c
1054 522.33 1053.67 506.33 1053 485 c
261 485 1053 485 261 485 c
267.67 368.33 300.67 279 360 217 c
419.33 155 493.33 124 582 124 c
648 124 704.33 141.33 751 176 c
797.67 210.67 834.67 266 862 342 c
closepath 271 633 m
864 633 271 633 864 633 c
856 722.33 833.33 789.33 796 834 c
738.67 903.33 664.33 938 573 938 c
490.33 938 420.83 910.33 364.5 855 c
308.17 799.67 277 725.67 271 633 c
closepath } bind def
/s104 {
135 0 m
135 1466 135 0 135 1466 c
315 1466 135 1466 315 1466 c
315 940 315 1466 315 940 c
399 1037.33 505 1086 633 1086 c
711.67 1086 780 1070.5 838 1039.5 c
896 1008.5 937.5 965.67 962.5 911 c
987.5 856.33 1000 777 1000 673 c
1000 0 1000 673 1000 0 c
820 0 1000 0 820 0 c
820 673 820 0 820 673 c
820 763 800.5 828.5 761.5 869.5 c
722.5 910.5 667.33 931 596 931 c
542.67 931 492.5 917.17 445.5 889.5 c
398.5 861.83 365 824.33 345 777 c
325 729.67 315 664.33 315 581 c
315 0 315 581 315 0 c
135 0 315 0 135 0 c
closepath } bind def
/s105 {
136 1259 m
136 1466 136 1259 136 1466 c
316 1466 136 1466 316 1466 c
316 1259 316 1466 316 1259 c
136 1259 316 1259 136 1259 c
closepath 136 0 m
136 1062 136 0 136 1062 c
316 1062 136 1062 316 1062 c
316 0 316 1062 316 0 c
136 0 316 0 136 0 c
closepath } bind def
/s108 {
131 0 m
131 1466 131 0 131 1466 c
311 1466 131 1466 311 1466 c
311 0 311 1466 311 0 c
131 0 311 0 131 0 c
closepath } bind def
/s109 {
135 0 m
135 1062 135 0 135 1062 c
296 1062 135 1062 296 1062 c
296 913 296 1062 296 913 c
329.33 965 373.67 1006.83 429 1038.5 c
484.33 1070.17 547.33 1086 618 1086 c
696.67 1086 761.17 1069.67 811.5 1037 c
861.83 1004.33 897.33 958.67 918 900 c
1002 1024 1111.33 1086 1246 1086 c
1351.33 1086 1432.33 1056.83 1489 998.5 c
1545.67 940.17 1574 850.33 1574 729 c
1574 0 1574 729 1574 0 c
1395 0 1574 0 1395 0 c
1395 669 1395 0 1395 669 c
1395 741 1389.17 792.83 1377.5 824.5 c
1365.83 856.17 1344.67 881.67 1314 901 c
1283.33 920.33 1247.33 930 1206 930 c
1131.33 930 1069.33 905.17 1020 855.5 c
970.67 805.83 946 726.33 946 617 c
946 0 946 617 946 0 c
766 0 946 0 766 0 c
766 690 766 0 766 690 c
766 770 751.33 830 722 870 c
692.67 910 644.67 930 578 930 c
527.33 930 480.5 916.67 437.5 890 c
394.5 863.33 363.33 824.33 344 773 c
324.67 721.67 315 647.67 315 551 c
315 0 315 551 315 0 c
135 0 315 0 135 0 c
closepath } bind def
/s111 {
68 531 m
68 727.67 122.67 873.33 232 968 c
323.33 1046.67 434.67 1086 566 1086 c
712 1086 831.33 1038.17 924 942.5 c
1016.67 846.83 1063 714.67 1063 546 c
1063 409.33 1042.5 301.83 1001.5 223.5 c
960.5 145.17 900.83 84.33 822.5 41 c
744.17 -2.33 658.67 -24 566 -24 c
417.33 -24 297.17 23.67 205.5 119 c
113.83 214.33 68 351.67 68 531 c
closepath 253 531 m
253 395 282.67 293.17 342 225.5 c
401.33 157.83 476 124 566 124 c
655.33 124 729.67 158 789 226 c
848.33 294 878 397.67 878 537 c
878 668.33 848.17 767.83 788.5 835.5 c
728.83 903.17 654.67 937 566 937 c
476 937 401.33 903.33 342 836 c
282.67 768.67 253 667 253 531 c
closepath } bind def
/s114 {
133 0 m
133 1062 133 0 133 1062 c
295 1062 133 1062 295 1062 c
295 901 295 1062 295 901 c
336.33 976.33 374.5 1026 409.5 1050 c
444.5 1074 483 1086 525 1086 c
585.67 1086 647.33 1066.67 710 1028 c
648 861 710 1028 648 861 c
604 887 560 900 516 900 c
476.67 900 441.33 888.17 410 864.5 c
378.67 840.83 356.33 808 343 766 c
323 702 313 632 313 556 c
313 0 313 556 313 0 c
133 0 313 0 133 0 c
closepath } bind def
/s118 {
430 0 m
26 1062 430 0 26 1062 c
216 1062 26 1062 216 1062 c
444 426 216 1062 444 426 c
468.67 357.33 491.33 286 512 212 c
528 268 550.33 335.33 579 414 c
815 1062 579 414 815 1062 c
1000 1062 815 1062 1000 1062 c
598 0 1000 1062 598 0 c
430 0 598 0 430 0 c
closepath } bind def
/s122 {
40 0 m
40 146 40 0 40 146 c
716 922 40 146 716 922 c
639.33 918 571.67 916 513 916 c
80 916 513 916 80 916 c
80 1062 80 916 80 1062 c
948 1062 80 1062 948 1062 c
948 943 948 1062 948 943 c
373 269 948 943 373 269 c
262 146 373 269 262 146 c
342.67 152 418.33 155 489 155 c
980 155 489 155 980 155 c
980 0 980 155 980 0 c
40 0 980 0 40 0 c
closepath } bind def
end
/BuildGlyph {
 exch dup /Metrics get 2 index get 0 setcharwidth
/CharProcs get exch 2 copy known not{pop/.notdef}if get exec fill}bind def
/BuildChar {
1 index /Encoding get exch get
1 index /BuildGlyph get exec
} bind def
currentdict end /MC2_Arial exch definefont pop
%%EndFont
%%BeginFont: /MC3_Arial
12 dict begin
/FontInfo 8 dict dup begin
/ItalicAngle 0 def
/UnderlinePosition -217.00 def
/UnderlineThickness 150.00 def
/StrikeoutPosition 530.00 def
/StrikeoutThickness 102.00 def
/isFixedPitch false def
end readonly def
/FontName /MC3_Arial def
/FontType 3 def
/FontMatrix [1 2048 div 0 0 1 2048 div 0 0] def
/FontBBox [-1361 -665 4096 2060] def
/Encoding 256 array def 0 1 255{Encoding exch/.notdef put}for
Encoding 32/s32 put
Encoding 40/s40 put
Encoding 41/s41 put
Encoding 45/s45 put
Encoding 49/s49 put
Encoding 50/s50 put
Encoding 51/s51 put
Encoding 52/s52 put
Encoding 54/s54 put
Encoding 56/s56 put
Encoding 66/s66 put
Encoding 75/s75 put
Encoding 77/s77 put
Encoding 80/s80 put
Encoding 83/s83 put
/BoundingBoxes 16 dict def
BoundingBoxes begin
/s32 [0 -434 569 1854] def
/s40 [0 -434 682 1854] def
/s41 [0 -434 682 1854] def
/s45 [0 -434 682 1854] def
/s49 [0 -434 1139 1854] def
/s50 [0 -434 1139 1854] def
/s51 [0 -434 1139 1854] def
/s52 [0 -434 1139 1854] def
/s54 [0 -434 1139 1854] def
/s56 [0 -434 1139 1854] def
/s66 [0 -434 1366 1854] def
/s75 [0 -434 1366 1854] def
/s77 [0 -434 1706 1854] def
/s80 [0 -434 1366 1854] def
/s83 [0 -434 1366 1854] def
end
/Metrics 16 dict def
 Metrics begin
/s32 569 def
/s40 682 def
/s41 682 def
/s45 682 def
/s49 1139 def
/s50 1139 def
/s51 1139 def
/s52 1139 def
/s54 1139 def
/s56 1139 def
/s66 1366 def
/s75 1366 def
/s77 1706 def
/s80 1366 def
/s83 1366 def
end
/CharProcs 16 dict def
CharProcs begin
/.notdef {} def
/s40 {
479 -431 m
379.67 -305.67 295.67 -159 227 9 c
158.33 177 124 351 124 531 c
124 689.67 149.67 841.67 201 987 c
261 1155.67 353.67 1323.67 479 1491 c
608 1491 479 1491 608 1491 c
527.33 1352.33 474 1253.33 448 1194 c
407.33 1102 375.33 1006 352 906 c
323.33 781.33 309 656 309 530 c
309 209.33 408.67 -111 608 -431 c
479 -431 608 -431 479 -431 c
closepath } bind def
/s41 {
253 -431 m
124 -431 253 -431 124 -431 c
323.33 -111 423 209.33 423 530 c
423 655.33 408.67 779.67 380 903 c
357.33 1003 325.67 1099 285 1191 c
259 1251 205.33 1351 124 1491 c
253 1491 124 1491 253 1491 c
378.33 1323.67 471 1155.67 531 987 c
582.33 841.67 608 689.67 608 531 c
608 351 573.5 177 504.5 9 c
435.5 -159 351.67 -305.67 253 -431 c
closepath } bind def
/s45 {
65 440 m
65 621 65 440 65 621 c
618 621 65 621 618 621 c
618 440 618 621 618 440 c
65 440 618 440 65 440 c
closepath } bind def
/s49 {
763 0 m
583 0 763 0 583 0 c
583 1147 583 0 583 1147 c
539.67 1105.67 482.83 1064.33 412.5 1023 c
342.17 981.67 279 950.67 223 930 c
223 1104 223 930 223 1104 c
323.67 1151.33 411.67 1208.67 487 1276 c
562.33 1343.33 615.67 1408.67 647 1472 c
763 1472 647 1472 763 1472 c
763 0 763 1472 763 0 c
closepath } bind def
/s50 {
1031 173 m
1031 0 1031 173 1031 0 c
62 0 1031 0 62 0 c
60.67 43.33 67.67 85 83 125 c
107.67 191 147.17 256 201.5 320 c
255.83 384 334.33 458 437 542 c
596.33 672.67 704 776.17 760 852.5 c
816 928.83 844 1001 844 1069 c
844 1140.33 818.5 1200.5 767.5 1249.5 c
716.5 1298.5 650 1323 568 1323 c
481.33 1323 412 1297 360 1245 c
308 1193 281.67 1121 281 1029 c
96 1048 281 1029 96 1048 c
108.67 1186 156.33 1291.17 239 1363.5 c
321.67 1435.83 432.67 1472 572 1472 c
712.67 1472 824 1433 906 1355 c
988 1277 1029 1180.33 1029 1065 c
1029 1006.33 1017 948.67 993 892 c
969 835.33 929.17 775.67 873.5 713 c
817.83 650.33 725.33 564.33 596 455 c
488 364.33 418.67 302.83 388 270.5 c
357.33 238.17 332 205.67 312 173 c
1031 173 312 173 1031 173 c
closepath } bind def
/s51 {
86 387 m
266 411 86 387 266 411 c
286.67 309 321.83 235.5 371.5 190.5 c
421.17 145.5 481.67 123 553 123 c
637.67 123 709.17 152.33 767.5 211 c
825.83 269.67 855 342.33 855 429 c
855 511.67 828 579.83 774 633.5 c
720 687.17 651.33 714 568 714 c
534 714 491.67 707.33 441 694 c
461 852 441 694 461 852 c
473 850.67 482.67 850 490 850 c
566.67 850 635.67 870 697 910 c
758.33 950 789 1011.67 789 1095 c
789 1161 766.67 1215.67 722 1259 c
677.33 1302.33 619.67 1324 549 1324 c
479 1324 420.67 1302 374 1258 c
327.33 1214 297.33 1148 284 1060 c
104 1092 284 1060 104 1092 c
126 1212.67 176 1306.17 254 1372.5 c
332 1438.83 429 1472 545 1472 c
625 1472 698.67 1454.83 766 1420.5 c
833.33 1386.17 884.83 1339.33 920.5 1280 c
956.17 1220.67 974 1157.67 974 1091 c
974 1027.67 957 970 923 918 c
889 866 838.67 824.67 772 794 c
858.67 774 926 732.5 974 669.5 c
1022 606.5 1046 527.67 1046 433 c
1046 305 999.33 196.5 906 107.5 c
812.67 18.5 694.67 -26 552 -26 c
423.33 -26 316.5 12.33 231.5 89 c
146.5 165.67 98 265 86 387 c
closepath } bind def
/s52 {
662 0 m
662 351 662 0 662 351 c
26 351 662 351 26 351 c
26 516 26 351 26 516 c
695 1466 26 516 695 1466 c
842 1466 695 1466 842 1466 c
842 516 842 1466 842 516 c
1040 516 842 516 1040 516 c
1040 351 1040 516 1040 351 c
842 351 1040 351 842 351 c
842 0 842 351 842 0 c
662 0 842 0 662 0 c
closepath 662 516 m
662 1177 662 516 662 1177 c
203 516 662 1177 203 516 c
662 516 203 516 662 516 c
closepath } bind def
/s54 {
1019 1107 m
840 1093 1019 1107 840 1093 c
824 1163.67 801.33 1215 772 1247 c
723.33 1298.33 663.33 1324 592 1324 c
534.67 1324 484.33 1308 441 1276 c
384.33 1234.67 339.67 1174.33 307 1095 c
274.33 1015.67 257.33 902.67 256 756 c
299.33 822 352.33 871 415 903 c
477.67 935 543.33 951 612 951 c
732 951 834.17 906.83 918.5 818.5 c
1002.83 730.17 1045 616 1045 476 c
1045 384 1025.17 298.5 985.5 219.5 c
945.83 140.5 891.33 80 822 38 c
752.67 -4 674 -25 586 -25 c
436 -25 313.67 30.17 219 140.5 c
124.33 250.83 77 432.67 77 686 c
77 969.33 129.33 1175.33 234 1304 c
325.33 1416 448.33 1472 603 1472 c
718.33 1472 812.83 1439.67 886.5 1375 c
960.17 1310.33 1004.33 1221 1019 1107 c
closepath 284 475 m
284 413 297.17 353.67 323.5 297 c
349.83 240.33 386.67 197.17 434 167.5 c
481.33 137.83 531 123 583 123 c
659 123 724.33 153.67 779 215 c
833.67 276.33 861 359.67 861 465 c
861 566.33 834 646.17 780 704.5 c
726 762.83 658 792 576 792 c
494.67 792 425.67 762.83 369 704.5 c
312.33 646.17 284 569.67 284 475 c
closepath } bind def
/s56 {
362 795 m
287.33 822.33 232 861.33 196 912 c
160 962.67 142 1023.33 142 1094 c
142 1200.67 180.33 1290.33 257 1363 c
333.67 1435.67 435.67 1472 563 1472 c
691 1472 794 1434.83 872 1360.5 c
950 1286.17 989 1195.67 989 1089 c
989 1021 971.17 961.83 935.5 911.5 c
899.83 861.17 845.67 822.33 773 795 c
863 765.67 931.5 718.33 978.5 653 c
1025.5 587.67 1049 509.67 1049 419 c
1049 293.67 1004.67 188.33 916 103 c
827.33 17.67 710.67 -25 566 -25 c
421.33 -25 304.67 17.83 216 103.5 c
127.33 189.17 83 296 83 424 c
83 519.33 107.17 599.17 155.5 663.5 c
203.83 727.83 272.67 771.67 362 795 c
closepath 326 1100 m
326 1030.67 348.33 974 393 930 c
437.67 886 495.67 864 567 864 c
636.33 864 693.17 885.83 737.5 929.5 c
781.83 973.17 804 1026.67 804 1090 c
804 1156 781.17 1211.5 735.5 1256.5 c
689.83 1301.5 633 1324 565 1324 c
496.33 1324 439.33 1302 394 1258 c
348.67 1214 326 1161.33 326 1100 c
closepath 268 423 m
268 371.67 280.17 322 304.5 274 c
328.83 226 365 188.83 413 162.5 c
461 136.17 512.67 123 568 123 c
654 123 725 150.67 781 206 c
837 261.33 865 331.67 865 417 c
865 503.67 836.17 575.33 778.5 632 c
720.83 688.67 648.67 717 562 717 c
477.33 717 407.17 689 351.5 633 c
295.83 577 268 507 268 423 c
closepath } bind def
/s66 {
150 0 m
150 1466 150 0 150 1466 c
700 1466 150 1466 700 1466 c
812 1466 901.83 1451.17 969.5 1421.5 c
1037.17 1391.83 1090.17 1346.17 1128.5 1284.5 c
1166.83 1222.83 1186 1158.33 1186 1091 c
1186 1028.33 1169 969.33 1135 914 c
1101 858.67 1049.67 814 981 780 c
1069.67 754 1137.83 709.67 1185.5 647 c
1233.17 584.33 1257 510.33 1257 425 c
1257 356.33 1242.5 292.5 1213.5 233.5 c
1184.5 174.5 1148.67 129 1106 97 c
1063.33 65 1009.83 40.83 945.5 24.5 c
881.17 8.17 802.33 0 709 0 c
150 0 709 0 150 0 c
closepath 344 850 m
661 850 344 850 661 850 c
747 850 808.67 855.67 846 867 c
895.33 881.67 932.5 906 957.5 940 c
982.5 974 995 1016.67 995 1068 c
995 1116.67 983.33 1159.5 960 1196.5 c
936.67 1233.5 903.33 1258.83 860 1272.5 c
816.67 1286.17 742.33 1293 637 1293 c
344 1293 637 1293 344 1293 c
344 850 344 1293 344 850 c
closepath 344 173 m
709 173 344 173 709 173 c
771.67 173 815.67 175.33 841 180 c
885.67 188 923 201.33 953 220 c
983 238.67 1007.67 265.83 1027 301.5 c
1046.33 337.17 1056 378.33 1056 425 c
1056 479.67 1042 527.17 1014 567.5 c
986 607.83 947.17 636.17 897.5 652.5 c
847.83 668.83 776.33 677 683 677 c
344 677 683 677 344 677 c
344 173 344 677 344 173 c
closepath } bind def
/s75 {
150 0 m
150 1466 150 0 150 1466 c
344 1466 150 1466 344 1466 c
344 739 344 1466 344 739 c
1072 1466 344 739 1072 1466 c
1335 1466 1072 1466 1335 1466 c
720 872 1335 1466 720 872 c
1362 0 720 872 1362 0 c
1106 0 1362 0 1106 0 c
584 742 1106 0 584 742 c
344 508 584 742 344 508 c
344 0 344 508 344 0 c
150 0 344 0 150 0 c
closepath } bind def
/s77 {
152 0 m
152 1466 152 0 152 1466 c
444 1466 152 1466 444 1466 c
791 428 444 1466 791 428 c
823 331.33 846.33 259 861 211 c
877.67 264.33 903.67 342.67 939 446 c
1290 1466 939 446 1290 1466 c
1551 1466 1290 1466 1551 1466 c
1551 0 1551 1466 1551 0 c
1364 0 1551 0 1364 0 c
1364 1227 1364 0 1364 1227 c
938 0 1364 1227 938 0 c
763 0 938 0 763 0 c
339 1248 763 0 339 1248 c
339 0 339 1248 339 0 c
152 0 339 0 152 0 c
closepath } bind def
/s80 {
158 0 m
158 1466 158 0 158 1466 c
711 1466 158 1466 711 1466 c
808.33 1466 882.67 1461.33 934 1452 c
1006 1440 1066.33 1417.17 1115 1383.5 c
1163.67 1349.83 1202.83 1302.67 1232.5 1242 c
1262.17 1181.33 1277 1114.67 1277 1042 c
1277 917.33 1237.33 811.83 1158 725.5 c
1078.67 639.17 935.33 596 728 596 c
352 596 728 596 352 596 c
352 0 352 596 352 0 c
158 0 352 0 158 0 c
closepath 352 769 m
731 769 352 769 731 769 c
856.33 769 945.33 792.33 998 839 c
1050.67 885.67 1077 951.33 1077 1036 c
1077 1097.33 1061.5 1149.83 1030.5 1193.5 c
999.5 1237.17 958.67 1266 908 1280 c
875.33 1288.67 815 1293 727 1293 c
352 1293 727 1293 352 1293 c
352 769 352 1293 352 769 c
closepath } bind def
/s83 {
92 471 m
275 487 92 471 275 487 c
283.67 413.67 303.83 353.5 335.5 306.5 c
367.17 259.5 416.33 221.5 483 192.5 c
549.67 163.5 624.67 149 708 149 c
782 149 847.33 160 904 182 c
960.67 204 1002.83 234.17 1030.5 272.5 c
1058.17 310.83 1072 352.67 1072 398 c
1072 444 1058.67 484.17 1032 518.5 c
1005.33 552.83 961.33 581.67 900 605 c
860.67 620.33 773.67 644.17 639 676.5 c
504.33 708.83 410 739.33 356 768 c
286 804.67 233.83 850.17 199.5 904.5 c
165.17 958.83 148 1019.67 148 1087 c
148 1161 169 1230.17 211 1294.5 c
253 1358.83 314.33 1407.67 395 1441 c
475.67 1474.33 565.33 1491 664 1491 c
772.67 1491 868.5 1473.5 951.5 1438.5 c
1034.5 1403.5 1098.33 1352 1143 1284 c
1187.67 1216 1211.67 1139 1215 1053 c
1029 1039 1215 1053 1029 1039 c
1019 1131.67 985.17 1201.67 927.5 1249 c
869.83 1296.33 784.67 1320 672 1320 c
554.67 1320 469.17 1298.5 415.5 1255.5 c
361.83 1212.5 335 1160.67 335 1100 c
335 1047.33 354 1004 392 970 c
429.33 936 526.83 901.17 684.5 865.5 c
842.17 829.83 950.33 798.67 1009 772 c
1094.33 732.67 1157.33 682.83 1198 622.5 c
1238.67 562.17 1259 492.67 1259 414 c
1259 336 1236.67 262.5 1192 193.5 c
1147.33 124.5 1083.17 70.83 999.5 32.5 c
915.83 -5.83 821.67 -25 717 -25 c
584.33 -25 473.17 -5.67 383.5 33 c
293.83 71.67 223.5 129.83 172.5 207.5 c
121.5 285.17 94.67 373 92 471 c
closepath } bind def
end
/BuildGlyph {
 exch dup /Metrics get 2 index get 0 setcharwidth
/CharProcs get exch 2 copy known not{pop/.notdef}if get exec fill}bind def
/BuildChar {
1 index /Encoding get exch get
1 index /BuildGlyph get exec
} bind def
currentdict end /MC3_Arial exch definefont pop
%%EndFont
/clipproc{clippath{[{/m cvx}{/l cvx}{/c cvx}{/cp cvx}pathforall}stopped
{cleartomark[pathbbox exch 3 i sub exch 2 i sub/rectpath cvx}if]np}bd
/iclmtx mtx cmtx def/iclpath clipproc xd/clinit{pathproc initclip np iclpath cl np exec}bd
/clmove{pathproc 3 1 roll clippath pathproc 2 i neg 2 i neg tr initclip np exec cl tr np exec}bd
/clrect[gs np iclpath{pathbbox}stopped{0 0 1800 576 }if gr]def
/cloper{mtx cmtx iclmtx smtx exch exec smtx}bd
/cland{{exch cvx exec}cloper}bd
/clcopy{{exch clinit cvx exec}cloper}bd
/cldiff{{exch pathbbox 4 -1 roll clrect 0 get 2 copy gt{exch}if pop 4 1 roll
 3 -1 roll clrect 1 get 2 copy gt{exch}if pop 3 1 roll
 2 -1 roll clrect 2 get 2 copy lt{exch}if pop 2 1 roll
 1 -1 roll clrect 3 get 2 copy lt{exch}if pop 1 1 roll
 exch 3 i sub exch 2 i sub rectpath cvx exec}cloper}bd
/icl{{clinit}cloper}bd
0.239948 0.239942 sc

/initmtx mtx cmtx def
[1.00022 -0 0 -1.00025 0 2400.58] concat
gs
1265 2234 m
1265 380 l
2 sw
1 sj
1 scap
st
1951 2234 m
1951 380 l
st
2636 2234 m
2636 380 l
st
3322 2234 m
3322 380 l
st
4008 2234 m
4008 380 l
st
4694 2234 m
4694 380 l
st
5380 2234 m
5380 380 l
st
6065 2234 m
6065 380 l
st
6751 2234 m
6751 380 l
st
579 2049 m
7437 2049 l
3 sw
0.502 0.502 0.502 rgb
st
579 1863 m
7437 1863 l
st
579 1678 m
7437 1678 l
st
579 1492 m
7437 1492 l
st
579 1307 m
7437 1307 l
st
579 1122 m
7437 1122 l
st
579 936 m
7437 936 l
st
579 751 m
7437 751 l
st
579 565 m
7437 565 l
st
gs
pathproc 579 380 6859 1855 np rectpath
/eocl cland
np exec
648 383 m
716 383 l
716 2234 l
648 2234 l
cp
gs
0 0 0 rgb
eofi
gr
5 sw
0 0 0 rgb
st
648 383 m
716 383 l
st
716 383 m
716 2234 l
st
648 2234 m
648 383 l
st
1333 1715 m
1402 1715 l
1402 2234 l
1333 2234 l
cp
gs
eofi
gr
st
1333 1715 m
1402 1715 l
st
1402 1715 m
1402 2234 l
st
1333 2234 m
1333 1715 l
st
2019 769 m
2088 769 l
2088 2234 l
2019 2234 l
cp
gs
eofi
gr
st
2019 769 m
2088 769 l
st
2088 769 m
2088 2234 l
st
2019 2234 m
2019 769 l
st
2705 823 m
2774 823 l
2774 2234 l
2705 2234 l
cp
gs
eofi
gr
st
2705 823 m
2774 823 l
st
2774 823 m
2774 2234 l
st
2705 2234 m
2705 823 l
st
3391 645 m
3459 645 l
3459 2234 l
3391 2234 l
cp
gs
eofi
gr
st
3391 645 m
3459 645 l
st
3459 645 m
3459 2234 l
st
3391 2234 m
3391 645 l
st
4077 1512 m
4145 1512 l
4145 2234 l
4077 2234 l
cp
gs
eofi
gr
st
4077 1512 m
4145 1512 l
st
4145 1512 m
4145 2234 l
st
4077 2234 m
4077 1512 l
st
4762 1450 m
4831 1450 l
4831 2234 l
4762 2234 l
cp
gs
eofi
gr
st
4762 1450 m
4831 1450 l
st
4831 1450 m
4831 2234 l
st
4762 2234 m
4762 1450 l
st
5448 664 m
5517 664 l
5517 2234 l
5448 2234 l
cp
gs
eofi
gr
st
5448 664 m
5517 664 l
st
5517 664 m
5517 2234 l
st
5448 2234 m
5448 664 l
st
6134 622 m
6203 622 l
6203 2234 l
6134 2234 l
cp
gs
eofi
gr
st
6134 622 m
6203 622 l
st
6203 622 m
6203 2234 l
st
6134 2234 m
6134 622 l
st
6820 1077 m
6888 1077 l
6888 2234 l
6820 2234 l
cp
gs
eofi
gr
st
6820 1077 m
6888 1077 l
st
6888 1077 m
6888 2234 l
st
6820 2234 m
6820 1077 l
st
gr
gs
pathproc 579 380 6859 1855 np rectpath
/eocl cland
np exec
716 407 m
785 407 l
785 2234 l
716 2234 l
cp
gs
1 1 1 rgb
eofi
gr
5 sw
1 1 1 rgb
st
717 408 m
784 475 l
3 sw
0 0 0 rgb
st
717 440 m
784 507 l
st
717 472 m
784 539 l
st
717 504 m
784 571 l
st
717 536 m
784 603 l
st
717 568 m
784 635 l
st
717 600 m
784 667 l
st
717 632 m
784 699 l
st
717 664 m
784 731 l
st
717 696 m
784 763 l
st
717 728 m
784 795 l
st
717 760 m
784 827 l
st
717 792 m
784 859 l
st
717 824 m
784 891 l
st
717 856 m
784 923 l
st
717 888 m
784 955 l
st
717 920 m
784 987 l
st
717 952 m
784 1019 l
st
717 984 m
784 1051 l
st
717 1016 m
784 1083 l
st
717 1048 m
784 1115 l
st
717 1080 m
784 1147 l
st
717 1112 m
784 1179 l
st
717 1144 m
784 1211 l
st
717 1176 m
784 1243 l
st
717 1208 m
784 1275 l
st
717 1240 m
784 1307 l
st
717 1272 m
784 1339 l
st
717 1304 m
784 1371 l
st
717 1336 m
784 1403 l
st
717 1368 m
784 1435 l
st
717 1400 m
784 1467 l
st
717 1432 m
784 1499 l
st
717 1464 m
784 1531 l
st
717 1496 m
784 1563 l
st
717 1528 m
784 1595 l
st
717 1560 m
784 1627 l
st
717 1592 m
784 1659 l
st
717 1624 m
784 1691 l
st
717 1656 m
784 1723 l
st
717 1688 m
784 1755 l
st
717 1720 m
784 1787 l
st
717 1752 m
784 1819 l
st
717 1784 m
784 1851 l
st
717 1816 m
784 1883 l
st
717 1848 m
784 1915 l
st
717 1880 m
784 1947 l
st
717 1912 m
784 1979 l
st
717 1944 m
784 2011 l
st
717 1976 m
784 2043 l
st
717 2008 m
784 2075 l
st
717 2040 m
784 2107 l
st
717 2072 m
784 2139 l
st
717 2104 m
784 2171 l
st
717 2136 m
784 2203 l
st
717 2168 m
782 2233 l
st
717 2200 m
750 2233 l
st
717 2232 m
718 2233 l
st
717 408 m
784 475 l
st
749 408 m
784 443 l
st
781 408 m
784 411 l
st
716 407 m
785 407 l
5 sw
st
785 407 m
785 2234 l
st
716 2234 m
716 407 l
st
1402 1926 m
1471 1926 l
1471 2234 l
1402 2234 l
cp
gs
1 1 1 rgb
eofi
gr
1 1 1 rgb
st
1403 1927 m
1470 1994 l
3 sw
0 0 0 rgb
st
1403 1959 m
1470 2026 l
st
1403 1991 m
1470 2058 l
st
1403 2023 m
1470 2090 l
st
1403 2055 m
1470 2122 l
st
1403 2087 m
1470 2154 l
st
1403 2119 m
1470 2186 l
st
1403 2151 m
1470 2218 l
st
1403 2183 m
1453 2233 l
st
1403 2215 m
1421 2233 l
st
1403 1927 m
1470 1994 l
st
1435 1927 m
1470 1962 l
st
1467 1927 m
1470 1930 l
st
1402 1926 m
1471 1926 l
5 sw
st
1471 1926 m
1471 2234 l
st
1402 2234 m
1402 1926 l
st
2088 859 m
2156 859 l
2156 2234 l
2088 2234 l
cp
gs
1 1 1 rgb
eofi
gr
1 1 1 rgb
st
2089 860 m
2155 926 l
3 sw
0 0 0 rgb
st
2089 892 m
2155 958 l
st
2089 924 m
2155 990 l
st
2089 956 m
2155 1022 l
st
2089 988 m
2155 1054 l
st
2089 1020 m
2155 1086 l
st
2089 1052 m
2155 1118 l
st
2089 1084 m
2155 1150 l
st
2089 1116 m
2155 1182 l
st
2089 1148 m
2155 1214 l
st
2089 1180 m
2155 1246 l
st
2089 1212 m
2155 1278 l
st
2089 1244 m
2155 1310 l
st
2089 1276 m
2155 1342 l
st
2089 1308 m
2155 1374 l
st
2089 1340 m
2155 1406 l
st
2089 1372 m
2155 1438 l
st
2089 1404 m
2155 1470 l
st
2089 1436 m
2155 1502 l
st
2089 1468 m
2155 1534 l
st
2089 1500 m
2155 1566 l
st
2089 1532 m
2155 1598 l
st
2089 1564 m
2155 1630 l
st
2089 1596 m
2155 1662 l
st
2089 1628 m
2155 1694 l
st
2089 1660 m
2155 1726 l
st
2089 1692 m
2155 1758 l
st
2089 1724 m
2155 1790 l
st
2089 1756 m
2155 1822 l
st
2089 1788 m
2155 1854 l
st
2089 1820 m
2155 1886 l
st
2089 1852 m
2155 1918 l
st
2089 1884 m
2155 1950 l
st
2089 1916 m
2155 1982 l
st
2089 1948 m
2155 2014 l
st
2089 1980 m
2155 2046 l
st
2089 2012 m
2155 2078 l
st
2089 2044 m
2155 2110 l
st
2089 2076 m
2155 2142 l
st
2089 2108 m
2155 2174 l
st
2089 2140 m
2155 2206 l
st
2089 2172 m
2150 2233 l
st
2089 2204 m
2118 2233 l
st
2089 860 m
2155 926 l
st
2121 860 m
2155 894 l
st
2153 860 m
2155 862 l
st
2088 859 m
2156 859 l
5 sw
st
2156 859 m
2156 2234 l
st
2088 2234 m
2088 859 l
st
2774 1028 m
2842 1028 l
2842 2234 l
2774 2234 l
cp
gs
1 1 1 rgb
eofi
gr
1 1 1 rgb
st
2775 1029 m
2841 1095 l
3 sw
0 0 0 rgb
st
2775 1061 m
2841 1127 l
st
2775 1093 m
2841 1159 l
st
2775 1125 m
2841 1191 l
st
2775 1157 m
2841 1223 l
st
2775 1189 m
2841 1255 l
st
2775 1221 m
2841 1287 l
st
2775 1253 m
2841 1319 l
st
2775 1285 m
2841 1351 l
st
2775 1317 m
2841 1383 l
st
2775 1349 m
2841 1415 l
st
2775 1381 m
2841 1447 l
st
2775 1413 m
2841 1479 l
st
2775 1445 m
2841 1511 l
st
2775 1477 m
2841 1543 l
st
2775 1509 m
2841 1575 l
st
2775 1541 m
2841 1607 l
st
2775 1573 m
2841 1639 l
st
2775 1605 m
2841 1671 l
st
2775 1637 m
2841 1703 l
st
2775 1669 m
2841 1735 l
st
2775 1701 m
2841 1767 l
st
2775 1733 m
2841 1799 l
st
2775 1765 m
2841 1831 l
st
2775 1797 m
2841 1863 l
st
2775 1829 m
2841 1895 l
st
2775 1861 m
2841 1927 l
st
2775 1893 m
2841 1959 l
st
2775 1925 m
2841 1991 l
st
2775 1957 m
2841 2023 l
st
2775 1989 m
2841 2055 l
st
2775 2021 m
2841 2087 l
st
2775 2053 m
2841 2119 l
st
2775 2085 m
2841 2151 l
st
2775 2117 m
2841 2183 l
st
2775 2149 m
2841 2215 l
st
2775 2181 m
2827 2233 l
st
2775 2213 m
2795 2233 l
st
2775 1029 m
2841 1095 l
st
2807 1029 m
2841 1063 l
st
2839 1029 m
2841 1031 l
st
2774 1028 m
2842 1028 l
5 sw
st
2842 1028 m
2842 2234 l
st
2774 2234 m
2774 1028 l
st
3459 784 m
3528 784 l
3528 2234 l
3459 2234 l
cp
gs
1 1 1 rgb
eofi
gr
1 1 1 rgb
st
3460 785 m
3527 852 l
3 sw
0 0 0 rgb
st
3460 817 m
3527 884 l
st
3460 849 m
3527 916 l
st
3460 881 m
3527 948 l
st
3460 913 m
3527 980 l
st
3460 945 m
3527 1012 l
st
3460 977 m
3527 1044 l
st
3460 1009 m
3527 1076 l
st
3460 1041 m
3527 1108 l
st
3460 1073 m
3527 1140 l
st
3460 1105 m
3527 1172 l
st
3460 1137 m
3527 1204 l
st
3460 1169 m
3527 1236 l
st
3460 1201 m
3527 1268 l
st
3460 1233 m
3527 1300 l
st
3460 1265 m
3527 1332 l
st
3460 1297 m
3527 1364 l
st
3460 1329 m
3527 1396 l
st
3460 1361 m
3527 1428 l
st
3460 1393 m
3527 1460 l
st
3460 1425 m
3527 1492 l
st
3460 1457 m
3527 1524 l
st
3460 1489 m
3527 1556 l
st
3460 1521 m
3527 1588 l
st
3460 1553 m
3527 1620 l
st
3460 1585 m
3527 1652 l
st
3460 1617 m
3527 1684 l
st
3460 1649 m
3527 1716 l
st
3460 1681 m
3527 1748 l
st
3460 1713 m
3527 1780 l
st
3460 1745 m
3527 1812 l
st
3460 1777 m
3527 1844 l
st
3460 1809 m
3527 1876 l
st
3460 1841 m
3527 1908 l
st
3460 1873 m
3527 1940 l
st
3460 1905 m
3527 1972 l
st
3460 1937 m
3527 2004 l
st
3460 1969 m
3527 2036 l
st
3460 2001 m
3527 2068 l
st
3460 2033 m
3527 2100 l
st
3460 2065 m
3527 2132 l
st
3460 2097 m
3527 2164 l
st
3460 2129 m
3527 2196 l
st
3460 2161 m
3527 2228 l
st
3460 2193 m
3500 2233 l
st
3460 2225 m
3468 2233 l
st
3460 785 m
3527 852 l
st
3492 785 m
3527 820 l
st
3524 785 m
3527 788 l
st
3459 784 m
3528 784 l
5 sw
st
3528 784 m
3528 2234 l
st
3459 2234 m
3459 784 l
st
4145 1545 m
4214 1545 l
4214 2234 l
4145 2234 l
cp
gs
1 1 1 rgb
eofi
gr
1 1 1 rgb
st
4146 1546 m
4213 1613 l
3 sw
0 0 0 rgb
st
4146 1578 m
4213 1645 l
st
4146 1610 m
4213 1677 l
st
4146 1642 m
4213 1709 l
st
4146 1674 m
4213 1741 l
st
4146 1706 m
4213 1773 l
st
4146 1738 m
4213 1805 l
st
4146 1770 m
4213 1837 l
st
4146 1802 m
4213 1869 l
st
4146 1834 m
4213 1901 l
st
4146 1866 m
4213 1933 l
st
4146 1898 m
4213 1965 l
st
4146 1930 m
4213 1997 l
st
4146 1962 m
4213 2029 l
st
4146 1994 m
4213 2061 l
st
4146 2026 m
4213 2093 l
st
4146 2058 m
4213 2125 l
st
4146 2090 m
4213 2157 l
st
4146 2122 m
4213 2189 l
st
4146 2154 m
4213 2221 l
st
4146 2186 m
4193 2233 l
st
4146 2218 m
4161 2233 l
st
4146 1546 m
4213 1613 l
st
4178 1546 m
4213 1581 l
st
4210 1546 m
4213 1549 l
st
4145 1545 m
4214 1545 l
5 sw
st
4214 1545 m
4214 2234 l
st
4145 2234 m
4145 1545 l
st
4831 1541 m
4900 1541 l
4900 2234 l
4831 2234 l
cp
gs
1 1 1 rgb
eofi
gr
1 1 1 rgb
st
4832 1542 m
4899 1609 l
3 sw
0 0 0 rgb
st
4832 1574 m
4899 1641 l
st
4832 1606 m
4899 1673 l
st
4832 1638 m
4899 1705 l
st
4832 1670 m
4899 1737 l
st
4832 1702 m
4899 1769 l
st
4832 1734 m
4899 1801 l
st
4832 1766 m
4899 1833 l
st
4832 1798 m
4899 1865 l
st
4832 1830 m
4899 1897 l
st
4832 1862 m
4899 1929 l
st
4832 1894 m
4899 1961 l
st
4832 1926 m
4899 1993 l
st
4832 1958 m
4899 2025 l
st
4832 1990 m
4899 2057 l
st
4832 2022 m
4899 2089 l
st
4832 2054 m
4899 2121 l
st
4832 2086 m
4899 2153 l
st
4832 2118 m
4899 2185 l
st
4832 2150 m
4899 2217 l
st
4832 2182 m
4883 2233 l
st
4832 2214 m
4851 2233 l
st
4832 1542 m
4899 1609 l
st
4864 1542 m
4899 1577 l
st
4896 1542 m
4899 1545 l
st
4831 1541 m
4900 1541 l
5 sw
st
4900 1541 m
4900 2234 l
st
4831 2234 m
4831 1541 l
st
5517 981 m
5585 981 l
5585 2234 l
5517 2234 l
cp
gs
1 1 1 rgb
eofi
gr
1 1 1 rgb
st
5518 982 m
5584 1048 l
3 sw
0 0 0 rgb
st
5518 1014 m
5584 1080 l
st
5518 1046 m
5584 1112 l
st
5518 1078 m
5584 1144 l
st
5518 1110 m
5584 1176 l
st
5518 1142 m
5584 1208 l
st
5518 1174 m
5584 1240 l
st
5518 1206 m
5584 1272 l
st
5518 1238 m
5584 1304 l
st
5518 1270 m
5584 1336 l
st
5518 1302 m
5584 1368 l
st
5518 1334 m
5584 1400 l
st
5518 1366 m
5584 1432 l
st
5518 1398 m
5584 1464 l
st
5518 1430 m
5584 1496 l
st
5518 1462 m
5584 1528 l
st
5518 1494 m
5584 1560 l
st
5518 1526 m
5584 1592 l
st
5518 1558 m
5584 1624 l
st
5518 1590 m
5584 1656 l
st
5518 1622 m
5584 1688 l
st
5518 1654 m
5584 1720 l
st
5518 1686 m
5584 1752 l
st
5518 1718 m
5584 1784 l
st
5518 1750 m
5584 1816 l
st
5518 1782 m
5584 1848 l
st
5518 1814 m
5584 1880 l
st
5518 1846 m
5584 1912 l
st
5518 1878 m
5584 1944 l
st
5518 1910 m
5584 1976 l
st
5518 1942 m
5584 2008 l
st
5518 1974 m
5584 2040 l
st
5518 2006 m
5584 2072 l
st
5518 2038 m
5584 2104 l
st
5518 2070 m
5584 2136 l
st
5518 2102 m
5584 2168 l
st
5518 2134 m
5584 2200 l
st
5518 2166 m
5584 2232 l
st
5518 2198 m
5553 2233 l
st
5518 2230 m
5521 2233 l
st
5518 982 m
5584 1048 l
st
5550 982 m
5584 1016 l
st
5582 982 m
5584 984 l
st
5517 981 m
5585 981 l
5 sw
st
5585 981 m
5585 2234 l
st
5517 2234 m
5517 981 l
st
6203 659 m
6271 659 l
6271 2234 l
6203 2234 l
cp
gs
1 1 1 rgb
eofi
gr
1 1 1 rgb
st
6204 660 m
6270 726 l
3 sw
0 0 0 rgb
st
6204 692 m
6270 758 l
st
6204 724 m
6270 790 l
st
6204 756 m
6270 822 l
st
6204 788 m
6270 854 l
st
6204 820 m
6270 886 l
st
6204 852 m
6270 918 l
st
6204 884 m
6270 950 l
st
6204 916 m
6270 982 l
st
6204 948 m
6270 1014 l
st
6204 980 m
6270 1046 l
st
6204 1012 m
6270 1078 l
st
6204 1044 m
6270 1110 l
st
6204 1076 m
6270 1142 l
st
6204 1108 m
6270 1174 l
st
6204 1140 m
6270 1206 l
st
6204 1172 m
6270 1238 l
st
6204 1204 m
6270 1270 l
st
6204 1236 m
6270 1302 l
st
6204 1268 m
6270 1334 l
st
6204 1300 m
6270 1366 l
st
6204 1332 m
6270 1398 l
st
6204 1364 m
6270 1430 l
st
6204 1396 m
6270 1462 l
st
6204 1428 m
6270 1494 l
st
6204 1460 m
6270 1526 l
st
6204 1492 m
6270 1558 l
st
6204 1524 m
6270 1590 l
st
6204 1556 m
6270 1622 l
st
6204 1588 m
6270 1654 l
st
6204 1620 m
6270 1686 l
st
6204 1652 m
6270 1718 l
st
6204 1684 m
6270 1750 l
st
6204 1716 m
6270 1782 l
st
6204 1748 m
6270 1814 l
st
6204 1780 m
6270 1846 l
st
6204 1812 m
6270 1878 l
st
6204 1844 m
6270 1910 l
st
6204 1876 m
6270 1942 l
st
6204 1908 m
6270 1974 l
st
6204 1940 m
6270 2006 l
st
6204 1972 m
6270 2038 l
st
6204 2004 m
6270 2070 l
st
6204 2036 m
6270 2102 l
st
6204 2068 m
6270 2134 l
st
6204 2100 m
6270 2166 l
st
6204 2132 m
6270 2198 l
st
6204 2164 m
6270 2230 l
st
6204 2196 m
6241 2233 l
st
6204 2228 m
6209 2233 l
st
6204 660 m
6270 726 l
st
6236 660 m
6270 694 l
st
6268 660 m
6270 662 l
st
6203 659 m
6271 659 l
5 sw
st
6271 659 m
6271 2234 l
st
6203 2234 m
6203 659 l
st
6888 1324 m
6957 1324 l
6957 2234 l
6888 2234 l
cp
gs
1 1 1 rgb
eofi
gr
1 1 1 rgb
st
6889 1325 m
6956 1392 l
3 sw
0 0 0 rgb
st
6889 1357 m
6956 1424 l
st
6889 1389 m
6956 1456 l
st
6889 1421 m
6956 1488 l
st
6889 1453 m
6956 1520 l
st
6889 1485 m
6956 1552 l
st
6889 1517 m
6956 1584 l
st
6889 1549 m
6956 1616 l
st
6889 1581 m
6956 1648 l
st
6889 1613 m
6956 1680 l
st
6889 1645 m
6956 1712 l
st
6889 1677 m
6956 1744 l
st
6889 1709 m
6956 1776 l
st
6889 1741 m
6956 1808 l
st
6889 1773 m
6956 1840 l
st
6889 1805 m
6956 1872 l
st
6889 1837 m
6956 1904 l
st
6889 1869 m
6956 1936 l
st
6889 1901 m
6956 1968 l
st
6889 1933 m
6956 2000 l
st
6889 1965 m
6956 2032 l
st
6889 1997 m
6956 2064 l
st
6889 2029 m
6956 2096 l
st
6889 2061 m
6956 2128 l
st
6889 2093 m
6956 2160 l
st
6889 2125 m
6956 2192 l
st
6889 2157 m
6956 2224 l
st
6889 2189 m
6933 2233 l
st
6889 2221 m
6901 2233 l
st
6889 1325 m
6956 1392 l
st
6921 1325 m
6956 1360 l
st
6953 1325 m
6956 1328 l
st
6888 1324 m
6957 1324 l
5 sw
st
6957 1324 m
6957 2234 l
st
6888 2234 m
6888 1324 l
st
gr
gs
pathproc 579 380 6859 1855 np rectpath
/eocl cland
np exec
785 959 m
853 959 l
853 2234 l
785 2234 l
cp
gs
1 0 0 rgb
eofi
gr
5 sw
1 0 0 rgb
st
785 959 m
853 959 l
0 0 0 rgb
st
853 959 m
853 2234 l
st
785 2234 m
785 959 l
st
1471 1992 m
1539 1992 l
1539 2234 l
1471 2234 l
cp
gs
1 0 0 rgb
eofi
gr
1 0 0 rgb
st
1471 1992 m
1539 1992 l
0 0 0 rgb
st
1539 1992 m
1539 2234 l
st
1471 2234 m
1471 1992 l
st
2156 1452 m
2225 1452 l
2225 2234 l
2156 2234 l
cp
gs
1 0 0 rgb
eofi
gr
1 0 0 rgb
st
2156 1452 m
2225 1452 l
0 0 0 rgb
st
2225 1452 m
2225 2234 l
st
2156 2234 m
2156 1452 l
st
2842 1132 m
2911 1132 l
2911 2234 l
2842 2234 l
cp
gs
1 0 0 rgb
eofi
gr
1 0 0 rgb
st
2842 1132 m
2911 1132 l
0 0 0 rgb
st
2911 1132 m
2911 2234 l
st
2842 2234 m
2842 1132 l
st
3528 937 m
3597 937 l
3597 2234 l
3528 2234 l
cp
gs
1 0 0 rgb
eofi
gr
1 0 0 rgb
st
3528 937 m
3597 937 l
0 0 0 rgb
st
3597 937 m
3597 2234 l
st
3528 2234 m
3528 937 l
st
4214 1846 m
4282 1846 l
4282 2234 l
4214 2234 l
cp
gs
1 0 0 rgb
eofi
gr
1 0 0 rgb
st
4214 1846 m
4282 1846 l
0 0 0 rgb
st
4282 1846 m
4282 2234 l
st
4214 2234 m
4214 1846 l
st
4900 1850 m
4968 1850 l
4968 2234 l
4900 2234 l
cp
gs
1 0 0 rgb
eofi
gr
1 0 0 rgb
st
4900 1850 m
4968 1850 l
0 0 0 rgb
st
4968 1850 m
4968 2234 l
st
4900 2234 m
4900 1850 l
st
5585 1410 m
5654 1410 l
5654 2234 l
5585 2234 l
cp
gs
1 0 0 rgb
eofi
gr
1 0 0 rgb
st
5585 1410 m
5654 1410 l
0 0 0 rgb
st
5654 1410 m
5654 2234 l
st
5585 2234 m
5585 1410 l
st
6271 1331 m
6340 1331 l
6340 2234 l
6271 2234 l
cp
gs
1 0 0 rgb
eofi
gr
1 0 0 rgb
st
6271 1331 m
6340 1331 l
0 0 0 rgb
st
6340 1331 m
6340 2234 l
st
6271 2234 m
6271 1331 l
st
6957 1586 m
7026 1586 l
7026 2234 l
6957 2234 l
cp
gs
1 0 0 rgb
eofi
gr
1 0 0 rgb
st
6957 1586 m
7026 1586 l
0 0 0 rgb
st
7026 1586 m
7026 2234 l
st
6957 2234 m
6957 1586 l
st
gr
gs
pathproc 579 380 6859 1855 np rectpath
/eocl cland
np exec
853 1076 m
922 1076 l
922 2234 l
853 2234 l
cp
gs
1 1 1 rgb
eofi
gr
5 sw
1 1 1 rgb
st
854 1077 m
854 1077 l
3 sw
0 0 0 rgb
st
854 1126 m
903 1077 l
st
854 1175 m
921 1108 l
st
854 1224 m
921 1157 l
st
854 1273 m
921 1206 l
st
854 1322 m
921 1255 l
st
854 1371 m
921 1304 l
st
854 1420 m
921 1353 l
st
854 1469 m
921 1402 l
st
854 1518 m
921 1451 l
st
854 1567 m
921 1500 l
st
854 1616 m
921 1549 l
st
854 1665 m
921 1598 l
st
854 1714 m
921 1647 l
st
854 1763 m
921 1696 l
st
854 1812 m
921 1745 l
st
854 1861 m
921 1794 l
st
854 1910 m
921 1843 l
st
854 1959 m
921 1892 l
st
854 2008 m
921 1941 l
st
854 2057 m
921 1990 l
st
854 2106 m
921 2039 l
st
854 2155 m
921 2088 l
st
854 2204 m
921 2137 l
st
874 2233 m
921 2186 l
st
853 1076 m
922 1076 l
5 sw
st
922 1076 m
922 2234 l
st
853 2234 m
853 1076 l
st
1539 2089 m
1608 2089 l
1608 2234 l
1539 2234 l
cp
gs
1 1 1 rgb
eofi
gr
1 1 1 rgb
st
1540 2090 m
1540 2090 l
3 sw
0 0 0 rgb
st
1540 2139 m
1589 2090 l
st
1540 2188 m
1607 2121 l
st
1544 2233 m
1607 2170 l
st
1593 2233 m
1607 2219 l
st
1539 2089 m
1608 2089 l
5 sw
st
1608 2089 m
1608 2234 l
st
1539 2234 m
1539 2089 l
st
2225 1576 m
2293 1576 l
2293 2234 l
2225 2234 l
cp
gs
1 1 1 rgb
eofi
gr
1 1 1 rgb
st
2226 1577 m
2226 1577 l
3 sw
0 0 0 rgb
st
2226 1626 m
2275 1577 l
st
2226 1675 m
2292 1609 l
st
2226 1724 m
2292 1658 l
st
2226 1773 m
2292 1707 l
st
2226 1822 m
2292 1756 l
st
2226 1871 m
2292 1805 l
st
2226 1920 m
2292 1854 l
st
2226 1969 m
2292 1903 l
st
2226 2018 m
2292 1952 l
st
2226 2067 m
2292 2001 l
st
2226 2116 m
2292 2050 l
st
2226 2165 m
2292 2099 l
st
2226 2214 m
2292 2148 l
st
2256 2233 m
2292 2197 l
st
2225 1576 m
2293 1576 l
5 sw
st
2293 1576 m
2293 2234 l
st
2225 2234 m
2225 1576 l
st
2911 1342 m
2979 1342 l
2979 2234 l
2911 2234 l
cp
gs
1 1 1 rgb
eofi
gr
1 1 1 rgb
st
2912 1343 m
2912 1343 l
3 sw
0 0 0 rgb
st
2912 1392 m
2961 1343 l
st
2912 1441 m
2978 1375 l
st
2912 1490 m
2978 1424 l
st
2912 1539 m
2978 1473 l
st
2912 1588 m
2978 1522 l
st
2912 1637 m
2978 1571 l
st
2912 1686 m
2978 1620 l
st
2912 1735 m
2978 1669 l
st
2912 1784 m
2978 1718 l
st
2912 1833 m
2978 1767 l
st
2912 1882 m
2978 1816 l
st
2912 1931 m
2978 1865 l
st
2912 1980 m
2978 1914 l
st
2912 2029 m
2978 1963 l
st
2912 2078 m
2978 2012 l
st
2912 2127 m
2978 2061 l
st
2912 2176 m
2978 2110 l
st
2912 2225 m
2978 2159 l
st
2953 2233 m
2978 2208 l
st
2911 1342 m
2979 1342 l
5 sw
st
2979 1342 m
2979 2234 l
st
2911 2234 m
2911 1342 l
st
3597 1040 m
3665 1040 l
3665 2234 l
3597 2234 l
cp
gs
1 1 1 rgb
eofi
gr
1 1 1 rgb
st
3598 1041 m
3598 1041 l
3 sw
0 0 0 rgb
st
3598 1090 m
3647 1041 l
st
3598 1139 m
3664 1073 l
st
3598 1188 m
3664 1122 l
st
3598 1237 m
3664 1171 l
st
3598 1286 m
3664 1220 l
st
3598 1335 m
3664 1269 l
st
3598 1384 m
3664 1318 l
st
3598 1433 m
3664 1367 l
st
3598 1482 m
3664 1416 l
st
3598 1531 m
3664 1465 l
st
3598 1580 m
3664 1514 l
st
3598 1629 m
3664 1563 l
st
3598 1678 m
3664 1612 l
st
3598 1727 m
3664 1661 l
st
3598 1776 m
3664 1710 l
st
3598 1825 m
3664 1759 l
st
3598 1874 m
3664 1808 l
st
3598 1923 m
3664 1857 l
st
3598 1972 m
3664 1906 l
st
3598 2021 m
3664 1955 l
st
3598 2070 m
3664 2004 l
st
3598 2119 m
3664 2053 l
st
3598 2168 m
3664 2102 l
st
3598 2217 m
3664 2151 l
st
3631 2233 m
3664 2200 l
st
3597 1040 m
3665 1040 l
5 sw
st
3665 1040 m
3665 2234 l
st
3597 2234 m
3597 1040 l
st
4282 1885 m
4351 1885 l
4351 2234 l
4282 2234 l
cp
gs
1 1 1 rgb
eofi
gr
1 1 1 rgb
st
4283 1886 m
4283 1886 l
3 sw
0 0 0 rgb
st
4283 1935 m
4332 1886 l
st
4283 1984 m
4350 1917 l
st
4283 2033 m
4350 1966 l
st
4283 2082 m
4350 2015 l
st
4283 2131 m
4350 2064 l
st
4283 2180 m
4350 2113 l
st
4283 2229 m
4350 2162 l
st
4328 2233 m
4350 2211 l
st
4282 1885 m
4351 1885 l
5 sw
st
4351 1885 m
4351 2234 l
st
4282 2234 m
4282 1885 l
st
4968 1925 m
5037 1925 l
5037 2234 l
4968 2234 l
cp
gs
1 1 1 rgb
eofi
gr
1 1 1 rgb
st
4969 1926 m
4969 1926 l
3 sw
0 0 0 rgb
st
4969 1975 m
5018 1926 l
st
4969 2024 m
5036 1957 l
st
4969 2073 m
5036 2006 l
st
4969 2122 m
5036 2055 l
st
4969 2171 m
5036 2104 l
st
4969 2220 m
5036 2153 l
st
5005 2233 m
5036 2202 l
st
4968 1925 m
5037 1925 l
5 sw
st
5037 1925 m
5037 2234 l
st
4968 2234 m
4968 1925 l
st
5654 1453 m
5723 1453 l
5723 2234 l
5654 2234 l
cp
gs
1 1 1 rgb
eofi
gr
1 1 1 rgb
st
5655 1454 m
5655 1454 l
3 sw
0 0 0 rgb
st
5655 1503 m
5704 1454 l
st
5655 1552 m
5722 1485 l
st
5655 1601 m
5722 1534 l
st
5655 1650 m
5722 1583 l
st
5655 1699 m
5722 1632 l
st
5655 1748 m
5722 1681 l
st
5655 1797 m
5722 1730 l
st
5655 1846 m
5722 1779 l
st
5655 1895 m
5722 1828 l
st
5655 1944 m
5722 1877 l
st
5655 1993 m
5722 1926 l
st
5655 2042 m
5722 1975 l
st
5655 2091 m
5722 2024 l
st
5655 2140 m
5722 2073 l
st
5655 2189 m
5722 2122 l
st
5660 2233 m
5722 2171 l
st
5709 2233 m
5722 2220 l
st
5654 1453 m
5723 1453 l
5 sw
st
5723 1453 m
5723 2234 l
st
5654 2234 m
5654 1453 l
st
6340 1453 m
6408 1453 l
6408 2234 l
6340 2234 l
cp
gs
1 1 1 rgb
eofi
gr
1 1 1 rgb
st
6341 1454 m
6341 1454 l
3 sw
0 0 0 rgb
st
6341 1503 m
6390 1454 l
st
6341 1552 m
6407 1486 l
st
6341 1601 m
6407 1535 l
st
6341 1650 m
6407 1584 l
st
6341 1699 m
6407 1633 l
st
6341 1748 m
6407 1682 l
st
6341 1797 m
6407 1731 l
st
6341 1846 m
6407 1780 l
st
6341 1895 m
6407 1829 l
st
6341 1944 m
6407 1878 l
st
6341 1993 m
6407 1927 l
st
6341 2042 m
6407 1976 l
st
6341 2091 m
6407 2025 l
st
6341 2140 m
6407 2074 l
st
6341 2189 m
6407 2123 l
st
6346 2233 m
6407 2172 l
st
6395 2233 m
6407 2221 l
st
6340 1453 m
6408 1453 l
5 sw
st
6408 1453 m
6408 2234 l
st
6340 2234 m
6340 1453 l
st
7026 1685 m
7094 1685 l
7094 2234 l
7026 2234 l
cp
gs
1 1 1 rgb
eofi
gr
1 1 1 rgb
st
7027 1686 m
7027 1686 l
3 sw
0 0 0 rgb
st
7027 1735 m
7076 1686 l
st
7027 1784 m
7093 1718 l
st
7027 1833 m
7093 1767 l
st
7027 1882 m
7093 1816 l
st
7027 1931 m
7093 1865 l
st
7027 1980 m
7093 1914 l
st
7027 2029 m
7093 1963 l
st
7027 2078 m
7093 2012 l
st
7027 2127 m
7093 2061 l
st
7027 2176 m
7093 2110 l
st
7027 2225 m
7093 2159 l
st
7068 2233 m
7093 2208 l
st
7026 1685 m
7094 1685 l
5 sw
st
7094 1685 m
7094 2234 l
st
7026 2234 m
7026 1685 l
st
gr
gs
pathproc 579 380 6859 1855 np rectpath
/eocl cland
np exec
922 1440 m
990 1440 l
990 2234 l
922 2234 l
cp
gs
1 1 1 rgb
eofi
gr
5 sw
1 1 1 rgb
st
922 1440 m
990 1440 l
0 0 0 rgb
st
990 1440 m
990 2234 l
st
922 2234 m
922 1440 l
st
1608 2117 m
1676 2117 l
1676 2234 l
1608 2234 l
cp
gs
1 1 1 rgb
eofi
gr
1 1 1 rgb
st
1608 2117 m
1676 2117 l
0 0 0 rgb
st
1676 2117 m
1676 2234 l
st
1608 2234 m
1608 2117 l
st
2293 1799 m
2362 1799 l
2362 2234 l
2293 2234 l
cp
gs
1 1 1 rgb
eofi
gr
1 1 1 rgb
st
2293 1799 m
2362 1799 l
0 0 0 rgb
st
2362 1799 m
2362 2234 l
st
2293 2234 m
2293 1799 l
st
2979 1477 m
3048 1477 l
3048 2234 l
2979 2234 l
cp
gs
1 1 1 rgb
eofi
gr
1 1 1 rgb
st
2979 1477 m
3048 1477 l
0 0 0 rgb
st
3048 1477 m
3048 2234 l
st
2979 2234 m
2979 1477 l
st
3665 1433 m
3734 1433 l
3734 2234 l
3665 2234 l
cp
gs
1 1 1 rgb
eofi
gr
1 1 1 rgb
st
3665 1433 m
3734 1433 l
0 0 0 rgb
st
3734 1433 m
3734 2234 l
st
3665 2234 m
3665 1433 l
st
4351 2036 m
4419 2036 l
4419 2234 l
4351 2234 l
cp
gs
1 1 1 rgb
eofi
gr
1 1 1 rgb
st
4351 2036 m
4419 2036 l
0 0 0 rgb
st
4419 2036 m
4419 2234 l
st
4351 2234 m
4351 2036 l
st
5037 2008 m
5105 2008 l
5105 2234 l
5037 2234 l
cp
gs
1 1 1 rgb
eofi
gr
1 1 1 rgb
st
5037 2008 m
5105 2008 l
0 0 0 rgb
st
5105 2008 m
5105 2234 l
st
5037 2234 m
5037 2008 l
st
5723 1726 m
5791 1726 l
5791 2234 l
5723 2234 l
cp
gs
1 1 1 rgb
eofi
gr
1 1 1 rgb
st
5723 1726 m
5791 1726 l
0 0 0 rgb
st
5791 1726 m
5791 2234 l
st
5723 2234 m
5723 1726 l
st
6408 1715 m
6477 1715 l
6477 2234 l
6408 2234 l
cp
gs
1 1 1 rgb
eofi
gr
1 1 1 rgb
st
6408 1715 m
6477 1715 l
0 0 0 rgb
st
6477 1715 m
6477 2234 l
st
6408 2234 m
6408 1715 l
st
7094 1903 m
7163 1903 l
7163 2234 l
7094 2234 l
cp
gs
1 1 1 rgb
eofi
gr
1 1 1 rgb
st
7094 1903 m
7163 1903 l
0 0 0 rgb
st
7163 1903 m
7163 2234 l
st
7094 2234 m
7094 1903 l
st
gr
gs
pathproc 579 380 6859 1855 np rectpath
/eocl cland
np exec
990 1564 m
1059 1564 l
1059 2234 l
990 2234 l
cp
gs
1 1 1 rgb
eofi
gr
5 sw
1 1 1 rgb
st
991 1565 m
991 1565 l
3 sw
0 0 0 rgb
st
991 1614 m
1040 1565 l
st
991 1663 m
1058 1596 l
st
991 1712 m
1058 1645 l
st
991 1761 m
1058 1694 l
st
991 1810 m
1058 1743 l
st
991 1859 m
1058 1792 l
st
991 1908 m
1058 1841 l
st
991 1957 m
1058 1890 l
st
991 2006 m
1058 1939 l
st
991 2055 m
1058 1988 l
st
991 2104 m
1058 2037 l
st
991 2153 m
1058 2086 l
st
991 2202 m
1058 2135 l
st
1009 2233 m
1058 2184 l
st
991 1565 m
1058 1632 l
st
991 1614 m
1058 1681 l
st
991 1663 m
1058 1730 l
st
991 1712 m
1058 1779 l
st
991 1761 m
1058 1828 l
st
991 1810 m
1058 1877 l
st
991 1859 m
1058 1926 l
st
991 1908 m
1058 1975 l
st
991 1957 m
1058 2024 l
st
991 2006 m
1058 2073 l
st
991 2055 m
1058 2122 l
st
991 2104 m
1058 2171 l
st
991 2153 m
1058 2220 l
st
991 2202 m
1022 2233 l
st
991 1565 m
1058 1632 l
st
1040 1565 m
1058 1583 l
st
990 1564 m
1059 1564 l
5 sw
st
1059 1564 m
1059 2234 l
st
990 2234 m
990 1564 l
st
1676 2172 m
1745 2172 l
1745 2234 l
1676 2234 l
cp
gs
1 1 1 rgb
eofi
gr
1 1 1 rgb
st
1677 2173 m
1677 2173 l
3 sw
0 0 0 rgb
st
1677 2222 m
1726 2173 l
st
1715 2233 m
1744 2204 l
st
1677 2173 m
1737 2233 l
st
1677 2222 m
1688 2233 l
st
1677 2173 m
1737 2233 l
st
1726 2173 m
1744 2191 l
st
1676 2172 m
1745 2172 l
5 sw
st
1745 2172 m
1745 2234 l
st
1676 2234 m
1676 2172 l
st
2362 1888 m
2431 1888 l
2431 2234 l
2362 2234 l
cp
gs
1 1 1 rgb
eofi
gr
1 1 1 rgb
st
2363 1889 m
2363 1889 l
3 sw
0 0 0 rgb
st
2363 1938 m
2412 1889 l
st
2363 1987 m
2430 1920 l
st
2363 2036 m
2430 1969 l
st
2363 2085 m
2430 2018 l
st
2363 2134 m
2430 2067 l
st
2363 2183 m
2430 2116 l
st
2363 2232 m
2430 2165 l
st
2411 2233 m
2430 2214 l
st
2363 1889 m
2430 1956 l
st
2363 1938 m
2430 2005 l
st
2363 1987 m
2430 2054 l
st
2363 2036 m
2430 2103 l
st
2363 2085 m
2430 2152 l
st
2363 2134 m
2430 2201 l
st
2363 2183 m
2413 2233 l
st
2363 2232 m
2364 2233 l
st
2363 1889 m
2430 1956 l
st
2412 1889 m
2430 1907 l
st
2362 1888 m
2431 1888 l
5 sw
st
2431 1888 m
2431 2234 l
st
2362 2234 m
2362 1888 l
st
3048 1642 m
3116 1642 l
3116 2234 l
3048 2234 l
cp
gs
1 1 1 rgb
eofi
gr
1 1 1 rgb
st
3049 1643 m
3049 1643 l
3 sw
0 0 0 rgb
st
3049 1692 m
3098 1643 l
st
3049 1741 m
3115 1675 l
st
3049 1790 m
3115 1724 l
st
3049 1839 m
3115 1773 l
st
3049 1888 m
3115 1822 l
st
3049 1937 m
3115 1871 l
st
3049 1986 m
3115 1920 l
st
3049 2035 m
3115 1969 l
st
3049 2084 m
3115 2018 l
st
3049 2133 m
3115 2067 l
st
3049 2182 m
3115 2116 l
st
3049 2231 m
3115 2165 l
st
3096 2233 m
3115 2214 l
st
3049 1643 m
3115 1709 l
st
3049 1692 m
3115 1758 l
st
3049 1741 m
3115 1807 l
st
3049 1790 m
3115 1856 l
st
3049 1839 m
3115 1905 l
st
3049 1888 m
3115 1954 l
st
3049 1937 m
3115 2003 l
st
3049 1986 m
3115 2052 l
st
3049 2035 m
3115 2101 l
st
3049 2084 m
3115 2150 l
st
3049 2133 m
3115 2199 l
st
3049 2182 m
3100 2233 l
st
3049 2231 m
3051 2233 l
st
3049 1643 m
3115 1709 l
st
3098 1643 m
3115 1660 l
st
3048 1642 m
3116 1642 l
5 sw
st
3116 1642 m
3116 2234 l
st
3048 2234 m
3048 1642 l
st
3734 1472 m
3802 1472 l
3802 2234 l
3734 2234 l
cp
gs
1 1 1 rgb
eofi
gr
1 1 1 rgb
st
3735 1473 m
3735 1473 l
3 sw
0 0 0 rgb
st
3735 1522 m
3784 1473 l
st
3735 1571 m
3801 1505 l
st
3735 1620 m
3801 1554 l
st
3735 1669 m
3801 1603 l
st
3735 1718 m
3801 1652 l
st
3735 1767 m
3801 1701 l
st
3735 1816 m
3801 1750 l
st
3735 1865 m
3801 1799 l
st
3735 1914 m
3801 1848 l
st
3735 1963 m
3801 1897 l
st
3735 2012 m
3801 1946 l
st
3735 2061 m
3801 1995 l
st
3735 2110 m
3801 2044 l
st
3735 2159 m
3801 2093 l
st
3735 2208 m
3801 2142 l
st
3759 2233 m
3801 2191 l
st
3735 1473 m
3801 1539 l
st
3735 1522 m
3801 1588 l
st
3735 1571 m
3801 1637 l
st
3735 1620 m
3801 1686 l
st
3735 1669 m
3801 1735 l
st
3735 1718 m
3801 1784 l
st
3735 1767 m
3801 1833 l
st
3735 1816 m
3801 1882 l
st
3735 1865 m
3801 1931 l
st
3735 1914 m
3801 1980 l
st
3735 1963 m
3801 2029 l
st
3735 2012 m
3801 2078 l
st
3735 2061 m
3801 2127 l
st
3735 2110 m
3801 2176 l
st
3735 2159 m
3801 2225 l
st
3735 2208 m
3760 2233 l
st
3735 1473 m
3801 1539 l
st
3784 1473 m
3801 1490 l
st
3734 1472 m
3802 1472 l
5 sw
st
3802 1472 m
3802 2234 l
st
3734 2234 m
3734 1472 l
st
4419 2055 m
4488 2055 l
4488 2234 l
4419 2234 l
cp
gs
1 1 1 rgb
eofi
gr
1 1 1 rgb
st
4420 2056 m
4420 2056 l
3 sw
0 0 0 rgb
st
4420 2105 m
4469 2056 l
st
4420 2154 m
4487 2087 l
st
4420 2203 m
4487 2136 l
st
4439 2233 m
4487 2185 l
st
4420 2056 m
4487 2123 l
st
4420 2105 m
4487 2172 l
st
4420 2154 m
4487 2221 l
st
4420 2203 m
4450 2233 l
st
4420 2056 m
4487 2123 l
st
4469 2056 m
4487 2074 l
st
4419 2055 m
4488 2055 l
5 sw
st
4488 2055 m
4488 2234 l
st
4419 2234 m
4419 2055 l
st
5105 2070 m
5174 2070 l
5174 2234 l
5105 2234 l
cp
gs
1 1 1 rgb
eofi
gr
1 1 1 rgb
st
5106 2071 m
5106 2071 l
3 sw
0 0 0 rgb
st
5106 2120 m
5155 2071 l
st
5106 2169 m
5173 2102 l
st
5106 2218 m
5173 2151 l
st
5140 2233 m
5173 2200 l
st
5106 2071 m
5173 2138 l
st
5106 2120 m
5173 2187 l
st
5106 2169 m
5170 2233 l
st
5106 2218 m
5121 2233 l
st
5106 2071 m
5173 2138 l
st
5155 2071 m
5173 2089 l
st
5105 2070 m
5174 2070 l
5 sw
st
5174 2070 m
5174 2234 l
st
5105 2234 m
5105 2070 l
st
5791 1804 m
5860 1804 l
5860 2234 l
5791 2234 l
cp
gs
1 1 1 rgb
eofi
gr
1 1 1 rgb
st
5792 1805 m
5792 1805 l
3 sw
0 0 0 rgb
st
5792 1854 m
5841 1805 l
st
5792 1903 m
5859 1836 l
st
5792 1952 m
5859 1885 l
st
5792 2001 m
5859 1934 l
st
5792 2050 m
5859 1983 l
st
5792 2099 m
5859 2032 l
st
5792 2148 m
5859 2081 l
st
5792 2197 m
5859 2130 l
st
5805 2233 m
5859 2179 l
st
5854 2233 m
5859 2228 l
st
5792 1805 m
5859 1872 l
st
5792 1854 m
5859 1921 l
st
5792 1903 m
5859 1970 l
st
5792 1952 m
5859 2019 l
st
5792 2001 m
5859 2068 l
st
5792 2050 m
5859 2117 l
st
5792 2099 m
5859 2166 l
st
5792 2148 m
5859 2215 l
st
5792 2197 m
5828 2233 l
st
5792 1805 m
5859 1872 l
st
5841 1805 m
5859 1823 l
st
5791 1804 m
5860 1804 l
5 sw
st
5860 1804 m
5860 2234 l
st
5791 2234 m
5791 1804 l
st
6477 1804 m
6545 1804 l
6545 2234 l
6477 2234 l
cp
gs
1 1 1 rgb
eofi
gr
1 1 1 rgb
st
6478 1805 m
6478 1805 l
3 sw
0 0 0 rgb
st
6478 1854 m
6527 1805 l
st
6478 1903 m
6544 1837 l
st
6478 1952 m
6544 1886 l
st
6478 2001 m
6544 1935 l
st
6478 2050 m
6544 1984 l
st
6478 2099 m
6544 2033 l
st
6478 2148 m
6544 2082 l
st
6478 2197 m
6544 2131 l
st
6491 2233 m
6544 2180 l
st
6540 2233 m
6544 2229 l
st
6478 1805 m
6544 1871 l
st
6478 1854 m
6544 1920 l
st
6478 1903 m
6544 1969 l
st
6478 1952 m
6544 2018 l
st
6478 2001 m
6544 2067 l
st
6478 2050 m
6544 2116 l
st
6478 2099 m
6544 2165 l
st
6478 2148 m
6544 2214 l
st
6478 2197 m
6514 2233 l
st
6478 1805 m
6544 1871 l
st
6527 1805 m
6544 1822 l
st
6477 1804 m
6545 1804 l
5 sw
st
6545 1804 m
6545 2234 l
st
6477 2234 m
6477 1804 l
st
7163 1915 m
7231 1915 l
7231 2234 l
7163 2234 l
cp
gs
1 1 1 rgb
eofi
gr
1 1 1 rgb
st
7164 1916 m
7164 1916 l
3 sw
0 0 0 rgb
st
7164 1965 m
7213 1916 l
st
7164 2014 m
7230 1948 l
st
7164 2063 m
7230 1997 l
st
7164 2112 m
7230 2046 l
st
7164 2161 m
7230 2095 l
st
7164 2210 m
7230 2144 l
st
7190 2233 m
7230 2193 l
st
7164 1916 m
7230 1982 l
st
7164 1965 m
7230 2031 l
st
7164 2014 m
7230 2080 l
st
7164 2063 m
7230 2129 l
st
7164 2112 m
7230 2178 l
st
7164 2161 m
7230 2227 l
st
7164 2210 m
7187 2233 l
st
7164 1916 m
7230 1982 l
st
7213 1916 m
7230 1933 l
st
7163 1915 m
7231 1915 l
5 sw
st
7231 1915 m
7231 2234 l
st
7163 2234 m
7163 1915 l
st
gr
gs
pathproc 579 380 6859 1855 np rectpath
/eocl cland
np exec
1059 1882 m
1128 1882 l
1128 2234 l
1059 2234 l
cp
gs
eofi
gr
5 sw
st
1059 1882 m
1128 1882 l
0 0 0 rgb
st
1128 1882 m
1128 2234 l
st
1059 2234 m
1059 1882 l
st
1745 2183 m
1813 2183 l
1813 2234 l
1745 2234 l
cp
gs
0.502 0.502 0.502 rgb
eofi
gr
0.502 0.502 0.502 rgb
st
1745 2183 m
1813 2183 l
0 0 0 rgb
st
1813 2183 m
1813 2234 l
st
1745 2234 m
1745 2183 l
st
2431 2017 m
2499 2017 l
2499 2234 l
2431 2234 l
cp
gs
0.502 0.502 0.502 rgb
eofi
gr
0.502 0.502 0.502 rgb
st
2431 2017 m
2499 2017 l
0 0 0 rgb
st
2499 2017 m
2499 2234 l
st
2431 2234 m
2431 2017 l
st
3116 1787 m
3185 1787 l
3185 2234 l
3116 2234 l
cp
gs
0.502 0.502 0.502 rgb
eofi
gr
0.502 0.502 0.502 rgb
st
3116 1787 m
3185 1787 l
0 0 0 rgb
st
3185 1787 m
3185 2234 l
st
3116 2234 m
3116 1787 l
st
3802 1785 m
3871 1785 l
3871 2234 l
3802 2234 l
cp
gs
0.502 0.502 0.502 rgb
eofi
gr
0.502 0.502 0.502 rgb
st
3802 1785 m
3871 1785 l
0 0 0 rgb
st
3871 1785 m
3871 2234 l
st
3802 2234 m
3802 1785 l
st
4488 2136 m
4557 2136 l
4557 2234 l
4488 2234 l
cp
gs
0.502 0.502 0.502 rgb
eofi
gr
0.502 0.502 0.502 rgb
st
4488 2136 m
4557 2136 l
0 0 0 rgb
st
4557 2136 m
4557 2234 l
st
4488 2234 m
4488 2136 l
st
5174 2107 m
5242 2107 l
5242 2234 l
5174 2234 l
cp
gs
0.502 0.502 0.502 rgb
eofi
gr
0.502 0.502 0.502 rgb
st
5174 2107 m
5242 2107 l
0 0 0 rgb
st
5242 2107 m
5242 2234 l
st
5174 2234 m
5174 2107 l
st
5860 1930 m
5928 1930 l
5928 2234 l
5860 2234 l
cp
gs
0.502 0.502 0.502 rgb
eofi
gr
0.502 0.502 0.502 rgb
st
5860 1930 m
5928 1930 l
0 0 0 rgb
st
5928 1930 m
5928 2234 l
st
5860 2234 m
5860 1930 l
st
6545 1978 m
6614 1978 l
6614 2234 l
6545 2234 l
cp
gs
0.502 0.502 0.502 rgb
eofi
gr
0.502 0.502 0.502 rgb
st
6545 1978 m
6614 1978 l
0 0 0 rgb
st
6614 1978 m
6614 2234 l
st
6545 2234 m
6545 1978 l
st
7231 2036 m
7300 2036 l
7300 2234 l
7231 2234 l
cp
gs
0.502 0.502 0.502 rgb
eofi
gr
0.502 0.502 0.502 rgb
st
7231 2036 m
7300 2036 l
0 0 0 rgb
st
7300 2036 m
7300 2234 l
st
7231 2234 m
7231 2036 l
st
gr
gs
pathproc 579 380 6859 1855 np rectpath
/eocl cland
np exec
1128 1946 m
1196 1946 l
1196 2234 l
1128 2234 l
cp
gs
1 1 1 rgb
eofi
gr
5 sw
1 1 1 rgb
st
1129 1947 m
1195 1947 l
3 sw
0 0 0 rgb
st
1129 1982 m
1195 1982 l
st
1129 2017 m
1195 2017 l
st
1129 2052 m
1195 2052 l
st
1129 2087 m
1195 2087 l
st
1129 2122 m
1195 2122 l
st
1129 2157 m
1195 2157 l
st
1129 2192 m
1195 2192 l
st
1129 2227 m
1195 2227 l
st
1128 1946 m
1196 1946 l
5 sw
st
1196 1946 m
1196 2234 l
st
1128 2234 m
1128 1946 l
st
1813 2205 m
1882 2205 l
1882 2234 l
1813 2234 l
cp
gs
1 1 1 rgb
eofi
gr
1 1 1 rgb
st
1814 2206 m
1881 2206 l
3 sw
0 0 0 rgb
st
1813 2205 m
1882 2205 l
5 sw
st
1882 2205 m
1882 2234 l
st
1813 2234 m
1813 2205 l
st
2499 2066 m
2568 2066 l
2568 2234 l
2499 2234 l
cp
gs
1 1 1 rgb
eofi
gr
1 1 1 rgb
st
2500 2067 m
2567 2067 l
3 sw
0 0 0 rgb
st
2500 2102 m
2567 2102 l
st
2500 2137 m
2567 2137 l
st
2500 2172 m
2567 2172 l
st
2500 2207 m
2567 2207 l
st
2499 2066 m
2568 2066 l
5 sw
st
2568 2066 m
2568 2234 l
st
2499 2234 m
2499 2066 l
st
3185 1891 m
3254 1891 l
3254 2234 l
3185 2234 l
cp
gs
1 1 1 rgb
eofi
gr
1 1 1 rgb
st
3186 1892 m
3253 1892 l
3 sw
0 0 0 rgb
st
3186 1927 m
3253 1927 l
st
3186 1962 m
3253 1962 l
st
3186 1997 m
3253 1997 l
st
3186 2032 m
3253 2032 l
st
3186 2067 m
3253 2067 l
st
3186 2102 m
3253 2102 l
st
3186 2137 m
3253 2137 l
st
3186 2172 m
3253 2172 l
st
3186 2207 m
3253 2207 l
st
3185 1891 m
3254 1891 l
5 sw
st
3254 1891 m
3254 2234 l
st
3185 2234 m
3185 1891 l
st
3871 1813 m
3939 1813 l
3939 2234 l
3871 2234 l
cp
gs
1 1 1 rgb
eofi
gr
1 1 1 rgb
st
3872 1814 m
3938 1814 l
3 sw
0 0 0 rgb
st
3872 1849 m
3938 1849 l
st
3872 1884 m
3938 1884 l
st
3872 1919 m
3938 1919 l
st
3872 1954 m
3938 1954 l
st
3872 1989 m
3938 1989 l
st
3872 2024 m
3938 2024 l
st
3872 2059 m
3938 2059 l
st
3872 2094 m
3938 2094 l
st
3872 2129 m
3938 2129 l
st
3872 2164 m
3938 2164 l
st
3872 2199 m
3938 2199 l
st
3871 1813 m
3939 1813 l
5 sw
st
3939 1813 m
3939 2234 l
st
3871 2234 m
3871 1813 l
st
4557 2145 m
4625 2145 l
4625 2234 l
4557 2234 l
cp
gs
1 1 1 rgb
eofi
gr
1 1 1 rgb
st
4558 2146 m
4624 2146 l
3 sw
0 0 0 rgb
st
4558 2181 m
4624 2181 l
st
4558 2216 m
4624 2216 l
st
4557 2145 m
4625 2145 l
5 sw
st
4625 2145 m
4625 2234 l
st
4557 2234 m
4557 2145 l
st
5242 2144 m
5311 2144 l
5311 2234 l
5242 2234 l
cp
gs
1 1 1 rgb
eofi
gr
1 1 1 rgb
st
5243 2145 m
5310 2145 l
3 sw
0 0 0 rgb
st
5243 2180 m
5310 2180 l
st
5243 2215 m
5310 2215 l
st
5242 2144 m
5311 2144 l
5 sw
st
5311 2144 m
5311 2234 l
st
5242 2234 m
5242 2144 l
st
5928 2003 m
5997 2003 l
5997 2234 l
5928 2234 l
cp
gs
1 1 1 rgb
eofi
gr
1 1 1 rgb
st
5929 2004 m
5996 2004 l
3 sw
0 0 0 rgb
st
5929 2039 m
5996 2039 l
st
5929 2074 m
5996 2074 l
st
5929 2109 m
5996 2109 l
st
5929 2144 m
5996 2144 l
st
5929 2179 m
5996 2179 l
st
5929 2214 m
5996 2214 l
st
5928 2003 m
5997 2003 l
5 sw
st
5997 2003 m
5997 2234 l
st
5928 2234 m
5928 2003 l
st
6614 2014 m
6683 2014 l
6683 2234 l
6614 2234 l
cp
gs
1 1 1 rgb
eofi
gr
1 1 1 rgb
st
6615 2015 m
6682 2015 l
3 sw
0 0 0 rgb
st
6615 2050 m
6682 2050 l
st
6615 2085 m
6682 2085 l
st
6615 2120 m
6682 2120 l
st
6615 2155 m
6682 2155 l
st
6615 2190 m
6682 2190 l
st
6615 2225 m
6682 2225 l
st
6614 2014 m
6683 2014 l
5 sw
st
6683 2014 m
6683 2234 l
st
6614 2234 m
6614 2014 l
st
7300 2064 m
7368 2064 l
7368 2234 l
7300 2234 l
cp
gs
1 1 1 rgb
eofi
gr
1 1 1 rgb
st
7301 2065 m
7367 2065 l
3 sw
0 0 0 rgb
st
7301 2100 m
7367 2100 l
st
7301 2135 m
7367 2135 l
st
7301 2170 m
7367 2170 l
st
7301 2205 m
7367 2205 l
st
7300 2064 m
7368 2064 l
5 sw
st
7368 2064 m
7368 2234 l
st
7300 2234 m
7300 2064 l
st
gr
gs
1 -1 sc
0 0 0 rgb
/MC1_Arial 188 self 802 -2381 m
(cfs)[94 52 94 ] xs
1 -1 sc
gr
gs
1 -1 sc
0 0 0 rgb
/MC1_Arial 188 self 1508 -2381 m
(fin)[52 42 105 ] xs
1 -1 sc
gr
gs
1 -1 sc
0 0 0 rgb
/MC1_Arial 188 self 2162 -2381 m
(hm)[105 157 ] xs
1 -1 sc
gr
gs
1 -1 sc
0 0 0 rgb
/MC1_Arial 188 self 2801 -2381 m
(mds)[157 105 94 ] xs
1 -1 sc
gr
gs
1 -1 sc
0 0 0 rgb
/MC1_Arial 188 self 3414 -2381 m
(msnfs)[157 94 105 52 94 ] xs
1 -1 sc
gr
gs
1 -1 sc
0 0 0 rgb
/MC1_Arial 188 self 4173 -2381 m
(prxy)[105 63 93 94 ] xs
1 -1 sc
gr
gs
1 -1 sc
0 0 0 rgb
/MC1_Arial 188 self 4900 -2381 m
(prn)[105 63 105 ] xs
1 -1 sc
gr
gs
1 -1 sc
0 0 0 rgb
/MC1_Arial 188 self 5565 -2381 m
(proj)[105 63 105 42 ] xs
1 -1 sc
gr
gs
1 -1 sc
0 0 0 rgb
/MC1_Arial 188 self 6277 -2381 m
(usr)[105 94 63 ] xs
1 -1 sc
gr
gs
1 -1 sc
0 0 0 rgb
/MC1_Arial 188 self 6915 -2381 m
(hpio)[105 105 42 105 ] xs
1 -1 sc
gr
gs
1 -1 sc
0 0 0 rgb
/MC1_Arial 188 self 317 -2290 m
(0.0)[105 52 105 ] xs
1 -1 sc
gr
gs
1 -1 sc
0 0 0 rgb
/MC1_Arial 188 self 317 -2105 m
(0.1)[105 52 105 ] xs
1 -1 sc
gr
gs
1 -1 sc
0 0 0 rgb
/MC1_Arial 188 self 317 -1919 m
(0.2)[105 52 105 ] xs
1 -1 sc
gr
gs
1 -1 sc
0 0 0 rgb
/MC1_Arial 188 self 317 -1734 m
(0.3)[105 52 105 ] xs
1 -1 sc
gr
gs
1 -1 sc
0 0 0 rgb
/MC1_Arial 188 self 317 -1548 m
(0.4)[105 52 105 ] xs
1 -1 sc
gr
gs
1 -1 sc
0 0 0 rgb
/MC1_Arial 188 self 317 -1363 m
(0.5)[105 52 105 ] xs
1 -1 sc
gr
gs
1 -1 sc
0 0 0 rgb
/MC1_Arial 188 self 317 -1178 m
(0.6)[105 52 105 ] xs
1 -1 sc
gr
gs
1 -1 sc
0 0 0 rgb
/MC1_Arial 188 self 317 -992 m
(0.7)[105 52 105 ] xs
1 -1 sc
gr
gs
1 -1 sc
0 0 0 rgb
/MC1_Arial 188 self 317 -807 m
(0.8)[105 52 105 ] xs
1 -1 sc
gr
gs
1 -1 sc
0 0 0 rgb
/MC1_Arial 188 self 317 -621 m
(0.9)[105 52 105 ] xs
1 -1 sc
gr
gs
1 -1 sc
0 0 0 rgb
/MC1_Arial 188 self 317 -436 m
(1.0)[105 52 105 ] xs
1 -1 sc
gr
579 2234 m
579 2234 l
13 sw
0 0 0 rgb
st
922 2234 m
922 2234 l
st
1265 2234 m
1265 2234 l
st
1608 2234 m
1608 2234 l
st
1951 2234 m
1951 2234 l
st
2293 2234 m
2293 2234 l
st
2636 2234 m
2636 2234 l
st
2979 2234 m
2979 2234 l
st
3322 2234 m
3322 2234 l
st
3665 2234 m
3665 2234 l
st
4008 2234 m
4008 2234 l
st
4351 2234 m
4351 2234 l
st
4694 2234 m
4694 2234 l
st
5037 2234 m
5037 2234 l
st
5380 2234 m
5380 2234 l
st
5723 2234 m
5723 2234 l
st
6065 2234 m
6065 2234 l
st
6408 2234 m
6408 2234 l
st
6751 2234 m
6751 2234 l
st
7094 2234 m
7094 2234 l
st
7437 2234 m
7437 2234 l
st
579 2234 m
7437 2234 l
st
579 2234 m
7437 2234 l
st
579 2234 m
579 2234 l
st
579 2141 m
579 2141 l
st
579 2049 m
579 2049 l
st
579 1956 m
579 1956 l
st
579 1863 m
579 1863 l
st
579 1771 m
579 1771 l
st
579 1678 m
579 1678 l
st
579 1585 m
579 1585 l
st
579 1492 m
579 1492 l
st
579 1400 m
579 1400 l
st
579 1307 m
579 1307 l
st
579 1214 m
579 1214 l
st
579 1122 m
579 1122 l
st
579 1029 m
579 1029 l
st
579 936 m
579 936 l
st
579 843 m
579 843 l
st
579 751 m
579 751 l
st
579 658 m
579 658 l
st
579 565 m
579 565 l
st
579 473 m
579 473 l
st
579 380 m
579 380 l
st
579 2234 m
579 380 l
st
579 380 m
579 380 l
st
922 380 m
922 380 l
st
1265 380 m
1265 380 l
st
1608 380 m
1608 380 l
st
1951 380 m
1951 380 l
st
2293 380 m
2293 380 l
st
2636 380 m
2636 380 l
st
2979 380 m
2979 380 l
st
3322 380 m
3322 380 l
st
3665 380 m
3665 380 l
st
4008 380 m
4008 380 l
st
4351 380 m
4351 380 l
st
4694 380 m
4694 380 l
st
5037 380 m
5037 380 l
st
5380 380 m
5380 380 l
st
5723 380 m
5723 380 l
st
6065 380 m
6065 380 l
st
6408 380 m
6408 380 l
st
6751 380 m
6751 380 l
st
7094 380 m
7094 380 l
st
7437 380 m
7437 380 l
st
579 380 m
7437 380 l
st
579 2234 m
7437 2234 l
st
7437 2234 m
7437 2234 l
st
7437 2141 m
7437 2141 l
st
7437 2049 m
7437 2049 l
st
7437 1956 m
7437 1956 l
st
7437 1863 m
7437 1863 l
st
7437 1771 m
7437 1771 l
st
7437 1678 m
7437 1678 l
st
7437 1585 m
7437 1585 l
st
7437 1492 m
7437 1492 l
st
7437 1400 m
7437 1400 l
st
7437 1307 m
7437 1307 l
st
7437 1214 m
7437 1214 l
st
7437 1122 m
7437 1122 l
st
7437 1029 m
7437 1029 l
st
7437 936 m
7437 936 l
st
7437 843 m
7437 843 l
st
7437 751 m
7437 751 l
st
7437 658 m
7437 658 l
st
7437 565 m
7437 565 l
st
7437 473 m
7437 473 l
st
7437 380 m
7437 380 l
st
7437 2234 m
7437 380 l
st
gs
gs
1 -1 sc
194 -2371 tr
90 ro
/MC2_Arial 200 self 0 0 m
(Normalized GC overhead)[144 111 67 167 111 44 44 100 111 111 56 156 144 56 111 100 111 67 111 111 111 111 ] xs
1 -1 sc
gr
gr
863 53 m
7428 53 l
7428 537 l
863 537 l
cp
gs
1 1 1 rgb
eofi
gr
3 sw
st
gs
gs
gs
956 75 m
1376 75 l
1376 282 l
956 282 l
cp
gs
eofi
gr
5 sw
st
gr
gr
1 -1 sc
/MC3_Arial 192 self 1379 -244 m
( )[53 ] xs
1 -1 sc
1 -1 sc
1432 -244 m
(PS-S\(4KB\))[128 128 64 128 64 107 128 128 64 ] xs
1 -1 sc
1 -1 sc
2371 -244 m
(   )[53 53 53 ] xs
1 -1 sc
gs
gs
2533 75 m
2953 75 l
2953 282 l
2533 282 l
cp
gs
1 1 1 rgb
eofi
gr
5 sw
st
2534 76 m
2739 281 l
3 sw
st
2534 108 m
2707 281 l
st
2534 140 m
2675 281 l
st
2534 172 m
2643 281 l
st
2534 204 m
2611 281 l
st
2534 236 m
2579 281 l
st
2534 268 m
2547 281 l
st
2534 76 m
2739 281 l
st
2566 76 m
2771 281 l
st
2598 76 m
2803 281 l
st
2630 76 m
2835 281 l
st
2662 76 m
2867 281 l
st
2694 76 m
2899 281 l
st
2726 76 m
2931 281 l
st
2758 76 m
2952 270 l
st
2790 76 m
2952 238 l
st
2822 76 m
2952 206 l
st
2854 76 m
2952 174 l
st
2886 76 m
2952 142 l
st
2918 76 m
2952 110 l
st
2950 76 m
2952 78 l
st
2533 75 m
2953 75 l
2953 282 l
2533 282 l
2533 75 l
5 sw
st
gr
gr
1 -1 sc
2956 -244 m
( )[53 ] xs
1 -1 sc
1 -1 sc
3009 -244 m
(PS-M\(4KB\))[128 128 64 160 64 107 128 128 64 ] xs
1 -1 sc
1 -1 sc
3980 -244 m
(   )[53 53 53 ] xs
1 -1 sc
gs
gs
4142 75 m
4562 75 l
4562 282 l
4142 282 l
cp
gs
1 0 0 rgb
eofi
gr
5 sw
st
gr
gr
1 -1 sc
4565 -244 m
( )[53 ] xs
1 -1 sc
1 -1 sc
4618 -244 m
(PS-S\(8KB\))[128 128 64 128 64 107 128 128 64 ] xs
1 -1 sc
1 -1 sc
5557 -244 m
(   )[53 53 53 ] xs
1 -1 sc
gs
gs
5719 75 m
6139 75 l
6139 282 l
5719 282 l
cp
gs
1 1 1 rgb
eofi
gr
5 sw
st
5720 76 m
5720 76 l
3 sw
st
5720 125 m
5769 76 l
st
5720 174 m
5818 76 l
st
5720 223 m
5867 76 l
st
5720 272 m
5916 76 l
st
5760 281 m
5965 76 l
st
5809 281 m
6014 76 l
st
5858 281 m
6063 76 l
st
5907 281 m
6112 76 l
st
5956 281 m
6138 99 l
st
6005 281 m
6138 148 l
st
6054 281 m
6138 197 l
st
6103 281 m
6138 246 l
st
5719 75 m
6139 75 l
6139 282 l
5719 282 l
5719 75 l
5 sw
st
gr
gr
1 -1 sc
6142 -244 m
( )[53 ] xs
1 -1 sc
1 -1 sc
6195 -244 m
(PS-M\(8KB\))[128 128 64 160 64 107 128 128 64 ] xs
1 -1 sc
1 -1 sc
7166 -244 m
( )[53 ] xs
1 -1 sc
gs
gs
956 309 m
1376 309 l
1376 516 l
956 516 l
cp
gs
1 1 1 rgb
eofi
gr
5 sw
st
gr
gr
1 -1 sc
1379 -478 m
( )[53 ] xs
1 -1 sc
1 -1 sc
1432 -478 m
(PS-S\(16KB\))[128 128 64 128 64 107 107 128 128 64 ] xs
1 -1 sc
1 -1 sc
2478 -478 m
( )[53 ] xs
1 -1 sc
gs
gs
2534 309 m
2954 309 l
2954 516 l
2534 516 l
cp
gs
1 1 1 rgb
eofi
gr
5 sw
st
2535 310 m
2535 310 l
3 sw
st
2535 359 m
2584 310 l
st
2535 408 m
2633 310 l
st
2535 457 m
2682 310 l
st
2535 506 m
2731 310 l
st
2575 515 m
2780 310 l
st
2624 515 m
2829 310 l
st
2673 515 m
2878 310 l
st
2722 515 m
2927 310 l
st
2771 515 m
2953 333 l
st
2820 515 m
2953 382 l
st
2869 515 m
2953 431 l
st
2918 515 m
2953 480 l
st
2535 310 m
2740 515 l
st
2535 359 m
2691 515 l
st
2535 408 m
2642 515 l
st
2535 457 m
2593 515 l
st
2535 506 m
2544 515 l
st
2535 310 m
2740 515 l
st
2584 310 m
2789 515 l
st
2633 310 m
2838 515 l
st
2682 310 m
2887 515 l
st
2731 310 m
2936 515 l
st
2780 310 m
2953 483 l
st
2829 310 m
2953 434 l
st
2878 310 m
2953 385 l
st
2927 310 m
2953 336 l
st
2534 309 m
2954 309 l
2954 516 l
2534 516 l
2534 309 l
5 sw
st
gr
gr
1 -1 sc
2957 -478 m
( )[53 ] xs
1 -1 sc
1 -1 sc
3010 -478 m
(PS-M\(16KB\))[128 128 64 160 64 107 107 128 128 64 ] xs
1 -1 sc
1 -1 sc
4088 -478 m
( )[53 ] xs
1 -1 sc
gs
gs
4144 309 m
4564 309 l
4564 516 l
4144 516 l
cp
gs
0.502 0.502 0.502 rgb
eofi
gr
5 sw
st
gr
gr
1 -1 sc
4567 -478 m
( )[53 ] xs
1 -1 sc
1 -1 sc
4620 -478 m
(PS-S\(32KB\))[128 128 64 128 64 107 107 128 128 64 ] xs
1 -1 sc
1 -1 sc
5666 -478 m
( )[53 ] xs
1 -1 sc
gs
gs
5722 309 m
6142 309 l
6142 516 l
5722 516 l
cp
gs
1 1 1 rgb
eofi
gr
5 sw
st
5723 310 m
6141 310 l
3 sw
st
5723 345 m
6141 345 l
st
5723 380 m
6141 380 l
st
5723 415 m
6141 415 l
st
5723 450 m
6141 450 l
st
5723 485 m
6141 485 l
st
5722 309 m
6142 309 l
6142 516 l
5722 516 l
5722 309 l
5 sw
st
gr
gr
1 -1 sc
6145 -478 m
( )[53 ] xs
1 -1 sc
1 -1 sc
6198 -478 m
(PS-M\(32KB\))[128 128 64 160 64 107 107 128 128 64 ] xs
1 -1 sc
gr
gr
Save0 restore end
showpage
%%EOF
