%!PS-Adobe-3.0 EPSF-3.0
%%BoundingBox: 0 0 1008 720
%%LanguageLevel: 2
%%Creator: OriginLab Corporation
%%Title: (C:\Users\Administrator\Documents\atc16-pagesplit\motive-perf.eps)
%%CreationDate: Wed Jan 20 15:20:18 2016
%%EndComments

/OriginLab::PSL1 128 dict dup begin def
/Save0 save def
%%BeginResource: procset OriginLab::PSL1
/wd{1 index where{pop pop pop}{bind def}ifelse}bind def
/setcmykcolor{1 sub 4 1 roll 3{3 index add neg dup 0 lt{pop 0}if 3 1 roll}repeat setrgbcolor pop}wd
/selectfont{dup type/arraytype eq{exch findfont exch makefont setfont}{exch findfont exch scalefont setfont}ifelse}wd
/xshow{1 index length 0 le{}{currentpoint exch 3 index length 1 sub 0 exch 1 exch{dup 5 index exch 1 getinterval show 3 index exch get add 2 copy exch moveto}for pop pop}ifelse pop pop}wd
/glyphshow{matrix currentmatrix exch currentfont dup/FontMatrix get concat currentpoint translate
 dup/Metrics get 2 index get 0 4 2 roll gsave/CharProcs get exch 2 copy known not{pop/.notdef}if
 get exec fill grestore moveto setmatrix}wd
/grayimage/image load def/rgbtogray{cvx exec dup length 3 idiv 1 sub 0 exch 1 exch{dup 3 mul dup 3 index exch get 255 div .3 mul exch
 1 add dup 4 index exch get 255 div .59 mul exch 1 add 4 index exch get 255 div .11 mul add add
 255 mul dup 255 gt{255}if round cvi 2 index 3 1 roll put}for dup length 3 idiv 0 exch getinterval}bind def
/colorimage{0 setgray pop pop cvlit/rgbtogray cvx 2 packedarray cvx grayimage}wd
/bd{bind def}bind def/ld{load def}bd/ed{exch def}bd/xd{cvx def}bd
/np/newpath ld/a/arc ld/m/moveto ld/l/lineto ld/c/curveto ld/rm/rmoveto ld/rl/rlineto ld/rc/rcurveto ld/cp/closepath ld/cpt/currentpoint ld
/tr/translate ld/sc/scale ld/ro/rotate ld/t/transform ld/it/itransform ld/dt/dtransform ld/idt/idtransform ld
/mtx/matrix ld/cmtx/currentmatrix ld/dmtx/defaultmatrix ld/smtx/setmatrix ld/catmtx/concatmatrix ld
/sw/setlinewidth ld/scap/setlinecap ld/sj/setlinejoin ld/sm/setmiterlimit ld/sd/setdash ld/rgb/setrgbcolor ld/crgb/currentrgbcolor ld/cmyk/setcmykcolor ld/gs/gsave ld/gr/grestore ld
/st/stroke ld/fi/fill ld/eofi/eofill ld/cl/clip ld/eocl/eoclip ld
/df/definefont ld/ff/findfont ld/sf/setfont ld/scf/scalefont ld/self/selectfont ld/cf/currentfont ld
/s/show ld/xs/xshow ld/gls/glyphshow ld/xgls{cpt 3 1 roll add exch 3 -1 roll gls m}bd
/cd/currentdict ld/i/index ld
/DrawBox{4 2 roll m 1 index 0 rl 0 exch rl neg 0 rl cp}bd
/plus.re { 6 { 3 index } repeat moveto 0 exch rlineto 0 rlineto pop pop neg 0 exch rlineto pop lineto closepath } def
/DrawBcc{4 2 roll m 2 copy 0 lt exch 0 lt xor{dup 0 exch rl exch 0 rl neg 0 exch rl}{exch dup 0 rl exch 0 exch rl neg 0 rl}ifelse cp}bd
/rectline{dup type/arraytype eq{dup length 0 exch 4 exch 4 sub{0 1 3{3 copy add get 4 1 roll pop}for pop 5 1 roll DrawBox}for pop}{DrawBox}ifelse}bd
/rectpath{dup type/arraytype eq{dup length 0 exch 4 exch 4 sub{0 1 3{3 copy add get 4 1 roll pop}for pop 5 1 roll DrawBcc}for pop}{DrawBcc}ifelse}bd
/pathproc{[{/m cvx}{/l cvx}{/c cvx}{/cp cvx}pathforall]cvx}bd
/L1img/image ld/L1idx[{0}
 {dup 7 and 3 1 roll -3 bitshift get exch 7 sub 1 mul bitshift  1 and}bind 1 index dup
 {dup 1 and 3 1 roll -1 bitshift get exch 1 sub 4 mul bitshift 15 and}bind 1 index dup dup
 {get}bind]def
/image{dup type/dicttype eq {dup/ImgCS get 0 get/Indexed eq}{false}ifelse
 {begin Width Height 8 ImageMatrix {rgb_string rgb_lookup
 cd/DataSource get dup type/filetype eq
 {mystring readstring pop}{exec}ifelse
 dup length 0 ne
 {L1idx BitsPerComponent get 0 1 Width 1 sub
 {3 copy exch exec exch 3 mul exch
 3 mul dup 5 index exch get exch 1 add dup 6 index exch get exch 1 add 6 index exch get
 7 index exch 4 index 2 add exch put 6 index exch 3 index 1 add exch put 5 index exch 2 index exch put pop
 }for pop pop pop }{pop pop pop ()}ifelse }false 3 colorimage end} {dup type/dicttype eq
 {{dup mark exch L1img pop pop}stopped{cleartomark begin Width Height BitsPerComponent ImageMatrix
 {cd/DataSource get dup type/filetype eq {mystring readstring pop}{exec}ifelse
 }false 3 colorimage end} if}{L1img}ifelse}ifelse
 }bd
/L1imgmask/imagemask ld/imagemask{dup type/dicttype eq
 {{dup mark exch L1imgmask pop pop}stopped {cleartomark begin Width Height polarityflag ImageMatrix
 {cd/DataSource get dup type/filetype eq {mystring readstring pop}{exec}ifelse
 }L1imgmask end}if}{L1imgmask}ifelse
 }bd
% Gradient function
/GradientStep 1 150 div def
/GradientStartRGB { /R1 exch def /G1 exch def /B1 exch def } def
/GradientEndRGB { /R2 exch def /G2 exch def /B2 exch def
/GradientSteps GradientLength GradientStep div def
/GradientRStep R2 R1 sub GradientSteps div def
/GradientGStep G2 G1 sub GradientSteps div def
/GradientBStep B2 B1 sub GradientSteps div def
} def
/GradientStepRGB { /R1 R1 GradientRStep add def
/G1 G1 GradientGStep add def
/B1 B1 GradientBStep add def
R1 G1 B1 setrgbcolor
} def
%%EndResource
/rectclip{np rectpath clip np}wd
/rectfill{gs np rectpath fi gr}wd
/rectstroke{gs np dup type/arraytype eq{dup length 6 eq}{false}ifelse{1 index type/arraytype eq{exch}{5 1 roll}ifelse rectline concat st}{rectline st}ifelse gr}wd
%%BeginResource: procset OriginLab::Image
/OriginLab::Image 32 dict dup begin
/BinProc{[currentfile mystring /readstring cvx /pop cvx] cvx bind}bd
/HexProc{[currentfile mystring /readhexstring cvx /pop cvx] cvx bind}bd
/Ascii85Proc{currentfile /ASCII85Decode filter}bd
/LZWA85{currentfile /ASCII85Decode filter /LZWDecode filter}bd
/ImgProcArray[/BinProc /HexProc /Ascii85Proc /LZWA85]def
/ImgDict{/ImgDict 16 dict def ImgDict dup begin /ImageType 1 def /MultipleDataSource false def end}bd
/L2Dec{{[1 0]}{[0 1]}ifelse}bd
/BegImg{ /Img_sv save def
 /ImgDir ed ImgProcArray exch get /ImgProc exch ld
 dup /polarityflag ed L2Dec /polarity ed /smoothflag ed
 tr /dx 2 index def /dy 1 index abs def sc
 string /mystring ed /bpc ed /ih ed /iw ed
 }bd
/EndImg {Img_sv restore}bd
/DoXImg{ /rgb_lookup ed /hival ed ImgDict dup begin
 [/Indexed /DeviceRGB hival rgb_lookup] /L1img where{pop/ImgCS ed}{setcolorspace}ifelse
 /rgb_string iw 3 mul string def
 /Width iw def
 /Height ih def
 /Decode [0 1 bpc{2 mul}repeat 1 sub] def
 /ImageMatrix
  ImgDir 0 eq{[iw 0 0 ih 0 0]}if
  ImgDir 1 eq{[iw neg 0 0 ih iw 0]}if
  ImgDir 2 eq{[iw 0 0 ih neg 0 ih]}if
  ImgDir 3 eq{[iw neg 0 0 ih neg iw ih]}if
  def
 /DataSource ImgProc def
 /BitsPerComponent bpc def
 /Interpolate smoothflag def
 end image}bd
/DoImg{ ImgDict dup begin
 [/DeviceRGB] /L1img where{pop/ImgCS ed}{setcolorspace}ifelse
 /rgb_string iw 3 mul string def
 /Width iw def
 /Height ih def
 /Decode [0 1 0 1 0 1] def
 /ImageMatrix
  ImgDir 0 eq{[iw 0 0 ih 0 0]}if
  ImgDir 1 eq{[iw neg 0 0 ih iw 0]}if
  ImgDir 2 eq{[iw 0 0 ih neg 0 ih]}if
  ImgDir 3 eq{[iw neg 0 0 ih neg iw ih]}if
  def
 /DataSource ImgProc def
 /BitsPerComponent 8 def
 /Interpolate smoothflag def
 end image}bd
end def
%%EndResource
%%BeginFont: /MC1_Arial
12 dict begin
/FontInfo 8 dict dup begin
/ItalicAngle 0 def
/UnderlinePosition -217.00 def
/UnderlineThickness 150.00 def
/StrikeoutPosition 530.00 def
/StrikeoutThickness 102.00 def
/isFixedPitch false def
end readonly def
/FontName /MC1_Arial def
/FontType 3 def
/FontMatrix [1 2048 div 0 0 1 2048 div 0 0] def
/FontBBox [-1361 -665 4096 2060] def
/Encoding 256 array def 0 1 255{Encoding exch/.notdef put}for
Encoding 32/s32 put
Encoding 48/s48 put
Encoding 49/s49 put
Encoding 50/s50 put
Encoding 51/s51 put
Encoding 52/s52 put
Encoding 53/s53 put
Encoding 54/s54 put
Encoding 98/s98 put
Encoding 100/s100 put
Encoding 101/s101 put
Encoding 103/s103 put
Encoding 104/s104 put
Encoding 105/s105 put
Encoding 106/s106 put
Encoding 108/s108 put
Encoding 109/s109 put
Encoding 110/s110 put
Encoding 111/s111 put
Encoding 112/s112 put
Encoding 113/s113 put
Encoding 114/s114 put
Encoding 115/s115 put
Encoding 119/s119 put
/BoundingBoxes 25 dict def
BoundingBoxes begin
/s32 [0 -434 569 1854] def
/s48 [0 -434 1139 1854] def
/s49 [0 -434 1139 1854] def
/s50 [0 -434 1139 1854] def
/s51 [0 -434 1139 1854] def
/s52 [0 -434 1139 1854] def
/s53 [0 -434 1139 1854] def
/s54 [0 -434 1139 1854] def
/s98 [0 -434 1139 1854] def
/s100 [0 -434 1139 1854] def
/s101 [0 -434 1139 1854] def
/s103 [0 -434 1139 1854] def
/s104 [0 -434 1139 1854] def
/s105 [0 -434 455 1854] def
/s106 [-94 -434 455 1854] def
/s108 [0 -434 455 1854] def
/s109 [0 -434 1706 1854] def
/s110 [0 -434 1139 1854] def
/s111 [0 -434 1139 1854] def
/s112 [0 -434 1139 1854] def
/s113 [0 -434 1139 1854] def
/s114 [0 -434 682 1854] def
/s115 [0 -434 1024 1854] def
/s119 [0 -434 1479 1854] def
end
/Metrics 25 dict def
 Metrics begin
/s32 569 def
/s48 1139 def
/s49 1139 def
/s50 1139 def
/s51 1139 def
/s52 1139 def
/s53 1139 def
/s54 1139 def
/s98 1139 def
/s100 1139 def
/s101 1139 def
/s103 1139 def
/s104 1139 def
/s105 455 def
/s106 455 def
/s108 455 def
/s109 1706 def
/s110 1139 def
/s111 1139 def
/s112 1139 def
/s113 1139 def
/s114 682 def
/s115 1024 def
/s119 1479 def
end
/CharProcs 25 dict def
CharProcs begin
/.notdef {} def
/s48 {
85 723 m
85 896.33 102.83 1035.83 138.5 1141.5 c
174.17 1247.17 227.17 1328.67 297.5 1386 c
367.83 1443.33 456.33 1472 563 1472 c
641.67 1472 710.67 1456.17 770 1424.5 c
829.33 1392.83 878.33 1347.17 917 1287.5 c
955.67 1227.83 986 1155.17 1008 1069.5 c
1030 983.83 1041 868.33 1041 723 c
1041 551 1023.33 412.17 988 306.5 c
952.67 200.83 899.83 119.17 829.5 61.5 c
759.17 3.83 670.33 -25 563 -25 c
421.67 -25 310.67 25.67 230 127 c
133.33 249 85 447.67 85 723 c
closepath 270 723 m
270 482.33 298.17 322.17 354.5 242.5 c
410.83 162.83 480.33 123 563 123 c
645.67 123 715.17 163 771.5 243 c
827.83 323 856 483 856 723 c
856 964.33 827.83 1124.67 771.5 1204 c
715.17 1283.33 645 1323 561 1323 c
478.33 1323 412.33 1288 363 1218 c
301 1128.67 270 963.67 270 723 c
closepath } bind def
/s49 {
763 0 m
583 0 763 0 583 0 c
583 1147 583 0 583 1147 c
539.67 1105.67 482.83 1064.33 412.5 1023 c
342.17 981.67 279 950.67 223 930 c
223 1104 223 930 223 1104 c
323.67 1151.33 411.67 1208.67 487 1276 c
562.33 1343.33 615.67 1408.67 647 1472 c
763 1472 647 1472 763 1472 c
763 0 763 1472 763 0 c
closepath } bind def
/s50 {
1031 173 m
1031 0 1031 173 1031 0 c
62 0 1031 0 62 0 c
60.67 43.33 67.67 85 83 125 c
107.67 191 147.17 256 201.5 320 c
255.83 384 334.33 458 437 542 c
596.33 672.67 704 776.17 760 852.5 c
816 928.83 844 1001 844 1069 c
844 1140.33 818.5 1200.5 767.5 1249.5 c
716.5 1298.5 650 1323 568 1323 c
481.33 1323 412 1297 360 1245 c
308 1193 281.67 1121 281 1029 c
96 1048 281 1029 96 1048 c
108.67 1186 156.33 1291.17 239 1363.5 c
321.67 1435.83 432.67 1472 572 1472 c
712.67 1472 824 1433 906 1355 c
988 1277 1029 1180.33 1029 1065 c
1029 1006.33 1017 948.67 993 892 c
969 835.33 929.17 775.67 873.5 713 c
817.83 650.33 725.33 564.33 596 455 c
488 364.33 418.67 302.83 388 270.5 c
357.33 238.17 332 205.67 312 173 c
1031 173 312 173 1031 173 c
closepath } bind def
/s51 {
86 387 m
266 411 86 387 266 411 c
286.67 309 321.83 235.5 371.5 190.5 c
421.17 145.5 481.67 123 553 123 c
637.67 123 709.17 152.33 767.5 211 c
825.83 269.67 855 342.33 855 429 c
855 511.67 828 579.83 774 633.5 c
720 687.17 651.33 714 568 714 c
534 714 491.67 707.33 441 694 c
461 852 441 694 461 852 c
473 850.67 482.67 850 490 850 c
566.67 850 635.67 870 697 910 c
758.33 950 789 1011.67 789 1095 c
789 1161 766.67 1215.67 722 1259 c
677.33 1302.33 619.67 1324 549 1324 c
479 1324 420.67 1302 374 1258 c
327.33 1214 297.33 1148 284 1060 c
104 1092 284 1060 104 1092 c
126 1212.67 176 1306.17 254 1372.5 c
332 1438.83 429 1472 545 1472 c
625 1472 698.67 1454.83 766 1420.5 c
833.33 1386.17 884.83 1339.33 920.5 1280 c
956.17 1220.67 974 1157.67 974 1091 c
974 1027.67 957 970 923 918 c
889 866 838.67 824.67 772 794 c
858.67 774 926 732.5 974 669.5 c
1022 606.5 1046 527.67 1046 433 c
1046 305 999.33 196.5 906 107.5 c
812.67 18.5 694.67 -26 552 -26 c
423.33 -26 316.5 12.33 231.5 89 c
146.5 165.67 98 265 86 387 c
closepath } bind def
/s52 {
662 0 m
662 351 662 0 662 351 c
26 351 662 351 26 351 c
26 516 26 351 26 516 c
695 1466 26 516 695 1466 c
842 1466 695 1466 842 1466 c
842 516 842 1466 842 516 c
1040 516 842 516 1040 516 c
1040 351 1040 516 1040 351 c
842 351 1040 351 842 351 c
842 0 842 351 842 0 c
662 0 842 0 662 0 c
closepath 662 516 m
662 1177 662 516 662 1177 c
203 516 662 1177 203 516 c
662 516 203 516 662 516 c
closepath } bind def
/s53 {
85 384 m
274 400 85 384 274 400 c
288 308 320.5 238.83 371.5 192.5 c
422.5 146.17 484 123 556 123 c
642.67 123 716 155.67 776 221 c
836 286.33 866 373 866 481 c
866 583.67 837.17 664.67 779.5 724 c
721.83 783.33 646.33 813 553 813 c
495 813 442.67 799.83 396 773.5 c
349.33 747.17 312.67 713 286 671 c
117 693 286 671 117 693 c
259 1446 117 693 259 1446 c
988 1446 259 1446 988 1446 c
988 1274 988 1446 988 1274 c
403 1274 988 1274 403 1274 c
324 880 403 1274 324 880 c
412 941.33 504.33 972 601 972 c
729 972 837 927.67 925 839 c
1013 750.33 1057 636.33 1057 497 c
1057 364.33 1018.33 249.67 941 153 c
847 34.33 718.67 -25 556 -25 c
422.67 -25 313.83 12.33 229.5 87 c
145.17 161.67 97 260.67 85 384 c
closepath } bind def
/s54 {
1019 1107 m
840 1093 1019 1107 840 1093 c
824 1163.67 801.33 1215 772 1247 c
723.33 1298.33 663.33 1324 592 1324 c
534.67 1324 484.33 1308 441 1276 c
384.33 1234.67 339.67 1174.33 307 1095 c
274.33 1015.67 257.33 902.67 256 756 c
299.33 822 352.33 871 415 903 c
477.67 935 543.33 951 612 951 c
732 951 834.17 906.83 918.5 818.5 c
1002.83 730.17 1045 616 1045 476 c
1045 384 1025.17 298.5 985.5 219.5 c
945.83 140.5 891.33 80 822 38 c
752.67 -4 674 -25 586 -25 c
436 -25 313.67 30.17 219 140.5 c
124.33 250.83 77 432.67 77 686 c
77 969.33 129.33 1175.33 234 1304 c
325.33 1416 448.33 1472 603 1472 c
718.33 1472 812.83 1439.67 886.5 1375 c
960.17 1310.33 1004.33 1221 1019 1107 c
closepath 284 475 m
284 413 297.17 353.67 323.5 297 c
349.83 240.33 386.67 197.17 434 167.5 c
481.33 137.83 531 123 583 123 c
659 123 724.33 153.67 779 215 c
833.67 276.33 861 359.67 861 465 c
861 566.33 834 646.17 780 704.5 c
726 762.83 658 792 576 792 c
494.67 792 425.67 762.83 369 704.5 c
312.33 646.17 284 569.67 284 475 c
closepath } bind def
/s98 {
301 0 m
134 0 301 0 134 0 c
134 1466 134 0 134 1466 c
314 1466 134 1466 314 1466 c
314 943 314 1466 314 943 c
390 1038.33 487 1086 605 1086 c
670.33 1086 732.17 1072.83 790.5 1046.5 c
848.83 1020.17 896.83 983.17 934.5 935.5 c
972.17 887.83 1001.67 830.33 1023 763 c
1044.33 695.67 1055 623.67 1055 547 c
1055 365 1010 224.33 920 125 c
830 25.67 722 -24 596 -24 c
470.67 -24 372.33 28.33 301 133 c
301 0 301 133 301 0 c
closepath 299 539 m
299 411.67 316.33 319.67 351 263 c
407.67 170.33 484.33 124 581 124 c
659.67 124 727.67 158.17 785 226.5 c
842.33 294.83 871 396.67 871 532 c
871 670.67 843.5 773 788.5 839 c
733.5 905 667 938 589 938 c
510.33 938 442.33 903.83 385 835.5 c
327.67 767.17 299 668.33 299 539 c
closepath } bind def
/s100 {
824 0 m
824 134 824 0 824 134 c
756.67 28.67 657.67 -24 527 -24 c
442.33 -24 364.5 -0.67 293.5 46 c
222.5 92.67 167.5 157.83 128.5 241.5 c
89.5 325.17 70 421.33 70 530 c
70 636 87.67 732.17 123 818.5 c
158.33 904.83 211.33 971 282 1017 c
352.67 1063 431.67 1086 519 1086 c
583 1086 640 1072.5 690 1045.5 c
740 1018.5 780.67 983.33 812 940 c
812 1466 812 940 812 1466 c
991 1466 812 1466 991 1466 c
991 0 991 1466 991 0 c
824 0 991 0 824 0 c
closepath 255 530 m
255 394 283.67 292.33 341 225 c
398.33 157.67 466 124 544 124 c
622.67 124 689.5 156.17 744.5 220.5 c
799.5 284.83 827 383 827 515 c
827 660.33 799 767 743 835 c
687 903 618 937 536 937 c
456 937 389.17 904.33 335.5 839 c
281.83 773.67 255 670.67 255 530 c
closepath } bind def
/s101 {
862 342 m
1048 319 862 342 1048 319 c
1018.67 210.33 964.33 126 885 66 c
805.67 6 704.33 -24 581 -24 c
425.67 -24 302.5 23.83 211.5 119.5 c
120.5 215.17 75 349.33 75 522 c
75 700.67 121 839.33 213 938 c
305 1036.67 424.33 1086 571 1086 c
713 1086 829 1037.67 919 941 c
1009 844.33 1054 708.33 1054 533 c
1054 522.33 1053.67 506.33 1053 485 c
261 485 1053 485 261 485 c
267.67 368.33 300.67 279 360 217 c
419.33 155 493.33 124 582 124 c
648 124 704.33 141.33 751 176 c
797.67 210.67 834.67 266 862 342 c
closepath 271 633 m
864 633 271 633 864 633 c
856 722.33 833.33 789.33 796 834 c
738.67 903.33 664.33 938 573 938 c
490.33 938 420.83 910.33 364.5 855 c
308.17 799.67 277 725.67 271 633 c
closepath } bind def
/s103 {
102 -88 m
277 -114 102 -88 277 -114 c
284.33 -168 304.67 -207.33 338 -232 c
382.67 -265.33 443.67 -282 521 -282 c
604.33 -282 668.67 -265.33 714 -232 c
759.33 -198.67 790 -152 806 -92 c
815.33 -55.33 819.67 21.67 819 139 c
740.33 46.33 642.33 0 525 0 c
379 0 266 52.67 186 158 c
106 263.33 66 389.67 66 537 c
66 638.33 84.33 731.83 121 817.5 c
157.67 903.17 210.83 969.33 280.5 1016 c
350.17 1062.67 432 1086 526 1086 c
651.33 1086 754.67 1035.33 836 934 c
836 1062 836 934 836 1062 c
1002 1062 836 1062 1002 1062 c
1002 144 1002 1062 1002 144 c
1002 -21.33 985.17 -138.5 951.5 -207.5 c
917.83 -276.5 864.5 -331 791.5 -371 c
718.5 -411 628.67 -431 522 -431 c
395.33 -431 293 -402.5 215 -345.5 c
137 -288.5 99.33 -202.67 102 -88 c
closepath 251 550 m
251 410.67 278.67 309 334 245 c
389.33 181 458.67 149 542 149 c
624.67 149 694 180.83 750 244.5 c
806 308.17 834 408 834 544 c
834 674 805.17 772 747.5 838 c
689.83 904 620.33 937 539 937 c
459 937 391 904.5 335 839.5 c
279 774.5 251 678 251 550 c
closepath } bind def
/s104 {
135 0 m
135 1466 135 0 135 1466 c
315 1466 135 1466 315 1466 c
315 940 315 1466 315 940 c
399 1037.33 505 1086 633 1086 c
711.67 1086 780 1070.5 838 1039.5 c
896 1008.5 937.5 965.67 962.5 911 c
987.5 856.33 1000 777 1000 673 c
1000 0 1000 673 1000 0 c
820 0 1000 0 820 0 c
820 673 820 0 820 673 c
820 763 800.5 828.5 761.5 869.5 c
722.5 910.5 667.33 931 596 931 c
542.67 931 492.5 917.17 445.5 889.5 c
398.5 861.83 365 824.33 345 777 c
325 729.67 315 664.33 315 581 c
315 0 315 581 315 0 c
135 0 315 0 135 0 c
closepath } bind def
/s105 {
136 1259 m
136 1466 136 1259 136 1466 c
316 1466 136 1466 316 1466 c
316 1259 316 1466 316 1259 c
136 1259 316 1259 136 1259 c
closepath 136 0 m
136 1062 136 0 136 1062 c
316 1062 136 1062 316 1062 c
316 0 316 1062 316 0 c
136 0 316 0 136 0 c
closepath } bind def
/s106 {
134 1257 m
134 1466 134 1257 134 1466 c
314 1466 134 1466 314 1466 c
314 1257 314 1466 314 1257 c
134 1257 314 1257 134 1257 c
closepath -94 -412 m
-60 -259 -94 -412 -60 -259 c
-24 -268.33 4.33 -273 25 -273 c
61.67 -273 89 -260.83 107 -236.5 c
125 -212.17 134 -151.33 134 -54 c
134 1062 134 -54 134 1062 c
314 1062 134 1062 314 1062 c
314 -58 314 1062 314 -58 c
314 -188.67 297 -279.67 263 -331 c
219.67 -397.67 147.67 -431 47 -431 c
-1.67 -431 -48.67 -424.67 -94 -412 c
closepath } bind def
/s108 {
131 0 m
131 1466 131 0 131 1466 c
311 1466 131 1466 311 1466 c
311 0 311 1466 311 0 c
131 0 311 0 131 0 c
closepath } bind def
/s109 {
135 0 m
135 1062 135 0 135 1062 c
296 1062 135 1062 296 1062 c
296 913 296 1062 296 913 c
329.33 965 373.67 1006.83 429 1038.5 c
484.33 1070.17 547.33 1086 618 1086 c
696.67 1086 761.17 1069.67 811.5 1037 c
861.83 1004.33 897.33 958.67 918 900 c
1002 1024 1111.33 1086 1246 1086 c
1351.33 1086 1432.33 1056.83 1489 998.5 c
1545.67 940.17 1574 850.33 1574 729 c
1574 0 1574 729 1574 0 c
1395 0 1574 0 1395 0 c
1395 669 1395 0 1395 669 c
1395 741 1389.17 792.83 1377.5 824.5 c
1365.83 856.17 1344.67 881.67 1314 901 c
1283.33 920.33 1247.33 930 1206 930 c
1131.33 930 1069.33 905.17 1020 855.5 c
970.67 805.83 946 726.33 946 617 c
946 0 946 617 946 0 c
766 0 946 0 766 0 c
766 690 766 0 766 690 c
766 770 751.33 830 722 870 c
692.67 910 644.67 930 578 930 c
527.33 930 480.5 916.67 437.5 890 c
394.5 863.33 363.33 824.33 344 773 c
324.67 721.67 315 647.67 315 551 c
315 0 315 551 315 0 c
135 0 315 0 135 0 c
closepath } bind def
/s110 {
135 0 m
135 1062 135 0 135 1062 c
297 1062 135 1062 297 1062 c
297 911 297 1062 297 911 c
375 1027.67 487.67 1086 635 1086 c
699 1086 757.83 1074.5 811.5 1051.5 c
865.17 1028.5 905.33 998.33 932 961 c
958.67 923.67 977.33 879.33 988 828 c
994.67 794.67 998 736.33 998 653 c
998 0 998 653 998 0 c
818 0 998 0 818 0 c
818 646 818 0 818 646 c
818 719.33 811 774.17 797 810.5 c
783 846.83 758.17 875.83 722.5 897.5 c
686.83 919.17 645 930 597 930 c
520.33 930 454.17 905.67 398.5 857 c
342.83 808.33 315 716 315 580 c
315 0 315 580 315 0 c
135 0 315 0 135 0 c
closepath } bind def
/s111 {
68 531 m
68 727.67 122.67 873.33 232 968 c
323.33 1046.67 434.67 1086 566 1086 c
712 1086 831.33 1038.17 924 942.5 c
1016.67 846.83 1063 714.67 1063 546 c
1063 409.33 1042.5 301.83 1001.5 223.5 c
960.5 145.17 900.83 84.33 822.5 41 c
744.17 -2.33 658.67 -24 566 -24 c
417.33 -24 297.17 23.67 205.5 119 c
113.83 214.33 68 351.67 68 531 c
closepath 253 531 m
253 395 282.67 293.17 342 225.5 c
401.33 157.83 476 124 566 124 c
655.33 124 729.67 158 789 226 c
848.33 294 878 397.67 878 537 c
878 668.33 848.17 767.83 788.5 835.5 c
728.83 903.17 654.67 937 566 937 c
476 937 401.33 903.33 342 836 c
282.67 768.67 253 667 253 531 c
closepath } bind def
/s112 {
135 -407 m
135 1062 135 -407 135 1062 c
299 1062 135 1062 299 1062 c
299 924 299 1062 299 924 c
337.67 978 381.33 1018.5 430 1045.5 c
478.67 1072.5 537.67 1086 607 1086 c
697.67 1086 777.67 1062.67 847 1016 c
916.33 969.33 968.67 903.5 1004 818.5 c
1039.33 733.5 1057 640.33 1057 539 c
1057 430.33 1037.5 332.5 998.5 245.5 c
959.5 158.5 902.83 91.83 828.5 45.5 c
754.17 -0.83 676 -24 594 -24 c
534 -24 480.17 -11.33 432.5 14 c
384.83 39.33 345.67 71.33 315 110 c
315 -407 315 110 315 -407 c
135 -407 315 -407 135 -407 c
closepath 298 525 m
298 388.33 325.67 287.33 381 222 c
436.33 156.67 503.33 124 582 124 c
662 124 730.5 157.83 787.5 225.5 c
844.5 293.17 873 398 873 540 c
873 675.33 845.17 776.67 789.5 844 c
733.83 911.33 667.33 945 590 945 c
513.33 945 445.5 909.17 386.5 837.5 c
327.5 765.83 298 661.67 298 525 c
closepath } bind def
/s113 {
812 -407 m
812 113 812 -407 812 113 c
784 73.67 744.83 41 694.5 15 c
644.17 -11 590.67 -24 534 -24 c
408 -24 299.5 26.33 208.5 127 c
117.5 227.67 72 365.67 72 541 c
72 647.67 90.5 743.33 127.5 828 c
164.5 912.67 218.17 976.83 288.5 1020.5 c
358.83 1064.17 436 1086 520 1086 c
651.33 1086 754.67 1030.67 830 920 c
830 1062 830 920 830 1062 c
992 1062 830 1062 992 1062 c
992 -407 992 1062 992 -407 c
812 -407 992 -407 812 -407 c
closepath 257 534 m
257 397.33 285.67 294.83 343 226.5 c
400.33 158.17 469 124 549 124 c
625.67 124 691.67 156.5 747 221.5 c
802.33 286.5 830 385.33 830 518 c
830 659.33 800.83 765.67 742.5 837 c
684.17 908.33 615.67 944 537 944 c
459 944 392.83 910.83 338.5 844.5 c
284.17 778.17 257 674.67 257 534 c
closepath } bind def
/s114 {
133 0 m
133 1062 133 0 133 1062 c
295 1062 133 1062 295 1062 c
295 901 295 1062 295 901 c
336.33 976.33 374.5 1026 409.5 1050 c
444.5 1074 483 1086 525 1086 c
585.67 1086 647.33 1066.67 710 1028 c
648 861 710 1028 648 861 c
604 887 560 900 516 900 c
476.67 900 441.33 888.17 410 864.5 c
378.67 840.83 356.33 808 343 766 c
323 702 313 632 313 556 c
313 0 313 556 313 0 c
133 0 313 0 133 0 c
closepath } bind def
/s115 {
63 317 m
241 345 63 317 241 345 c
251 273.67 278.83 219 324.5 181 c
370.17 143 434 124 516 124 c
598.67 124 660 140.83 700 174.5 c
740 208.17 760 247.67 760 293 c
760 333.67 742.33 365.67 707 389 c
682.33 405 621 425.33 523 450 c
391 483.33 299.5 512.17 248.5 536.5 c
197.5 560.83 158.83 594.5 132.5 637.5 c
106.17 680.5 93 728 93 780 c
93 827.33 103.83 871.17 125.5 911.5 c
147.17 951.83 176.67 985.33 214 1012 c
242 1032.67 280.17 1050.17 328.5 1064.5 c
376.83 1078.83 428.67 1086 484 1086 c
567.33 1086 640.5 1074 703.5 1050 c
766.5 1026 813 993.5 843 952.5 c
873 911.5 893.67 856.67 905 788 c
729 764 905 788 729 764 c
721 818.67 697.83 861.33 659.5 892 c
621.17 922.67 567 938 497 938 c
414.33 938 355.33 924.33 320 897 c
284.67 869.67 267 837.67 267 801 c
267 777.67 274.33 756.67 289 738 c
303.67 718.67 326.67 702.67 358 690 c
376 683.33 429 668 517 644 c
644.33 610 733.17 582.17 783.5 560.5 c
833.83 538.83 873.33 507.33 902 466 c
930.67 424.67 945 373.33 945 312 c
945 252 927.5 195.5 892.5 142.5 c
857.5 89.5 807 48.5 741 19.5 c
675 -9.5 600.33 -24 517 -24 c
379 -24 273.83 4.67 201.5 62 c
129.17 119.33 83 204.33 63 317 c
closepath } bind def
/s119 {
331 0 m
6 1062 331 0 6 1062 c
192 1062 6 1062 192 1062 c
361 449 192 1062 361 449 c
424 221 361 449 424 221 c
426.67 232.33 445 305.33 479 440 c
648 1062 479 440 648 1062 c
833 1062 648 1062 833 1062 c
992 446 833 1062 992 446 c
1045 243 992 446 1045 243 c
1106 448 1045 243 1106 448 c
1288 1062 1106 448 1288 1062 c
1463 1062 1288 1062 1463 1062 c
1131 0 1463 1062 1131 0 c
944 0 1131 0 944 0 c
775 636 944 0 775 636 c
734 817 775 636 734 817 c
519 0 734 817 519 0 c
331 0 519 0 331 0 c
closepath } bind def
end
/BuildGlyph {
 exch dup /Metrics get 2 index get 0 setcharwidth
/CharProcs get exch 2 copy known not{pop/.notdef}if get exec fill}bind def
/BuildChar {
1 index /Encoding get exch get
1 index /BuildGlyph get exec
} bind def
currentdict end /MC1_Arial exch definefont pop
%%EndFont
%%BeginFont: /MC2_Arial
12 dict begin
/FontInfo 8 dict dup begin
/ItalicAngle 0 def
/UnderlinePosition -217.00 def
/UnderlineThickness 150.00 def
/StrikeoutPosition 530.00 def
/StrikeoutThickness 102.00 def
/isFixedPitch false def
end readonly def
/FontName /MC2_Arial def
/FontType 3 def
/FontMatrix [1 2048 div 0 0 1 2048 div 0 0] def
/FontBBox [-1361 -665 4096 2060] def
/Encoding 256 array def 0 1 255{Encoding exch/.notdef put}for
Encoding 32/s32 put
Encoding 78/s78 put
Encoding 84/s84 put
Encoding 97/s97 put
Encoding 100/s100 put
Encoding 101/s101 put
Encoding 103/s103 put
Encoding 104/s104 put
Encoding 105/s105 put
Encoding 108/s108 put
Encoding 109/s109 put
Encoding 111/s111 put
Encoding 112/s112 put
Encoding 114/s114 put
Encoding 116/s116 put
Encoding 117/s117 put
Encoding 122/s122 put
/BoundingBoxes 18 dict def
BoundingBoxes begin
/s32 [0 -434 569 1854] def
/s78 [0 -434 1479 1854] def
/s84 [0 -434 1251 1854] def
/s97 [0 -434 1139 1854] def
/s100 [0 -434 1139 1854] def
/s101 [0 -434 1139 1854] def
/s103 [0 -434 1139 1854] def
/s104 [0 -434 1139 1854] def
/s105 [0 -434 455 1854] def
/s108 [0 -434 455 1854] def
/s109 [0 -434 1706 1854] def
/s111 [0 -434 1139 1854] def
/s112 [0 -434 1139 1854] def
/s114 [0 -434 682 1854] def
/s116 [0 -434 569 1854] def
/s117 [0 -434 1139 1854] def
/s122 [0 -434 1024 1854] def
end
/Metrics 18 dict def
 Metrics begin
/s32 569 def
/s78 1479 def
/s84 1251 def
/s97 1139 def
/s100 1139 def
/s101 1139 def
/s103 1139 def
/s104 1139 def
/s105 455 def
/s108 455 def
/s109 1706 def
/s111 1139 def
/s112 1139 def
/s114 682 def
/s116 569 def
/s117 1139 def
/s122 1024 def
end
/CharProcs 18 dict def
CharProcs begin
/.notdef {} def
/s78 {
156 0 m
156 1466 156 0 156 1466 c
355 1466 156 1466 355 1466 c
1125 315 355 1466 1125 315 c
1125 1466 1125 315 1125 1466 c
1311 1466 1125 1466 1311 1466 c
1311 0 1311 1466 1311 0 c
1112 0 1311 0 1112 0 c
342 1152 1112 0 342 1152 c
342 0 342 1152 342 0 c
156 0 342 0 156 0 c
closepath } bind def
/s84 {
531 0 m
531 1293 531 0 531 1293 c
48 1293 531 1293 48 1293 c
48 1466 48 1293 48 1466 c
1210 1466 48 1466 1210 1466 c
1210 1293 1210 1466 1210 1293 c
725 1293 1210 1293 725 1293 c
725 0 725 1293 725 0 c
531 0 725 0 531 0 c
closepath } bind def
/s97 {
828 131 m
761.33 74.33 697.17 34.33 635.5 11 c
573.83 -12.33 507.67 -24 437 -24 c
320.33 -24 230.67 4.5 168 61.5 c
105.33 118.5 74 191.33 74 280 c
74 332 85.83 379.5 109.5 422.5 c
133.17 465.5 164.17 500 202.5 526 c
240.83 552 284 571.67 332 585 c
367.33 594.33 420.67 603.33 492 612 c
637.33 629.33 744.33 650 813 674 c
813.67 698.67 814 714.33 814 721 c
814 794.33 797 846 763 876 c
717 916.67 648.67 937 558 937 c
473.33 937 410.83 922.17 370.5 892.5 c
330.17 862.83 300.33 810.33 281 735 c
105 759 281 735 105 759 c
121 834.33 147.33 895.17 184 941.5 c
220.67 987.83 273.67 1023.5 343 1048.5 c
412.33 1073.5 492.67 1086 584 1086 c
674.67 1086 748.33 1075.33 805 1054 c
861.67 1032.67 903.33 1005.83 930 973.5 c
956.67 941.17 975.33 900.33 986 851 c
992 820.33 995 765 995 685 c
995 445 995 685 995 445 c
995 277.67 998.83 171.83 1006.5 127.5 c
1014.17 83.17 1029.33 40.67 1052 0 c
864 0 1052 0 864 0 c
845.33 37.33 833.33 81 828 131 c
closepath 813 533 m
747.67 506.33 649.67 483.67 519 465 c
445 454.33 392.67 442.33 362 429 c
331.33 415.67 307.67 396.17 291 370.5 c
274.33 344.83 266 316.33 266 285 c
266 237 284.17 197 320.5 165 c
356.83 133 410 117 480 117 c
549.33 117 611 132.17 665 162.5 c
719 192.83 758.67 234.33 784 287 c
803.33 327.67 813 387.67 813 467 c
813 533 813 467 813 533 c
closepath } bind def
/s100 {
824 0 m
824 134 824 0 824 134 c
756.67 28.67 657.67 -24 527 -24 c
442.33 -24 364.5 -0.67 293.5 46 c
222.5 92.67 167.5 157.83 128.5 241.5 c
89.5 325.17 70 421.33 70 530 c
70 636 87.67 732.17 123 818.5 c
158.33 904.83 211.33 971 282 1017 c
352.67 1063 431.67 1086 519 1086 c
583 1086 640 1072.5 690 1045.5 c
740 1018.5 780.67 983.33 812 940 c
812 1466 812 940 812 1466 c
991 1466 812 1466 991 1466 c
991 0 991 1466 991 0 c
824 0 991 0 824 0 c
closepath 255 530 m
255 394 283.67 292.33 341 225 c
398.33 157.67 466 124 544 124 c
622.67 124 689.5 156.17 744.5 220.5 c
799.5 284.83 827 383 827 515 c
827 660.33 799 767 743 835 c
687 903 618 937 536 937 c
456 937 389.17 904.33 335.5 839 c
281.83 773.67 255 670.67 255 530 c
closepath } bind def
/s101 {
862 342 m
1048 319 862 342 1048 319 c
1018.67 210.33 964.33 126 885 66 c
805.67 6 704.33 -24 581 -24 c
425.67 -24 302.5 23.83 211.5 119.5 c
120.5 215.17 75 349.33 75 522 c
75 700.67 121 839.33 213 938 c
305 1036.67 424.33 1086 571 1086 c
713 1086 829 1037.67 919 941 c
1009 844.33 1054 708.33 1054 533 c
1054 522.33 1053.67 506.33 1053 485 c
261 485 1053 485 261 485 c
267.67 368.33 300.67 279 360 217 c
419.33 155 493.33 124 582 124 c
648 124 704.33 141.33 751 176 c
797.67 210.67 834.67 266 862 342 c
closepath 271 633 m
864 633 271 633 864 633 c
856 722.33 833.33 789.33 796 834 c
738.67 903.33 664.33 938 573 938 c
490.33 938 420.83 910.33 364.5 855 c
308.17 799.67 277 725.67 271 633 c
closepath } bind def
/s103 {
102 -88 m
277 -114 102 -88 277 -114 c
284.33 -168 304.67 -207.33 338 -232 c
382.67 -265.33 443.67 -282 521 -282 c
604.33 -282 668.67 -265.33 714 -232 c
759.33 -198.67 790 -152 806 -92 c
815.33 -55.33 819.67 21.67 819 139 c
740.33 46.33 642.33 0 525 0 c
379 0 266 52.67 186 158 c
106 263.33 66 389.67 66 537 c
66 638.33 84.33 731.83 121 817.5 c
157.67 903.17 210.83 969.33 280.5 1016 c
350.17 1062.67 432 1086 526 1086 c
651.33 1086 754.67 1035.33 836 934 c
836 1062 836 934 836 1062 c
1002 1062 836 1062 1002 1062 c
1002 144 1002 1062 1002 144 c
1002 -21.33 985.17 -138.5 951.5 -207.5 c
917.83 -276.5 864.5 -331 791.5 -371 c
718.5 -411 628.67 -431 522 -431 c
395.33 -431 293 -402.5 215 -345.5 c
137 -288.5 99.33 -202.67 102 -88 c
closepath 251 550 m
251 410.67 278.67 309 334 245 c
389.33 181 458.67 149 542 149 c
624.67 149 694 180.83 750 244.5 c
806 308.17 834 408 834 544 c
834 674 805.17 772 747.5 838 c
689.83 904 620.33 937 539 937 c
459 937 391 904.5 335 839.5 c
279 774.5 251 678 251 550 c
closepath } bind def
/s104 {
135 0 m
135 1466 135 0 135 1466 c
315 1466 135 1466 315 1466 c
315 940 315 1466 315 940 c
399 1037.33 505 1086 633 1086 c
711.67 1086 780 1070.5 838 1039.5 c
896 1008.5 937.5 965.67 962.5 911 c
987.5 856.33 1000 777 1000 673 c
1000 0 1000 673 1000 0 c
820 0 1000 0 820 0 c
820 673 820 0 820 673 c
820 763 800.5 828.5 761.5 869.5 c
722.5 910.5 667.33 931 596 931 c
542.67 931 492.5 917.17 445.5 889.5 c
398.5 861.83 365 824.33 345 777 c
325 729.67 315 664.33 315 581 c
315 0 315 581 315 0 c
135 0 315 0 135 0 c
closepath } bind def
/s105 {
136 1259 m
136 1466 136 1259 136 1466 c
316 1466 136 1466 316 1466 c
316 1259 316 1466 316 1259 c
136 1259 316 1259 136 1259 c
closepath 136 0 m
136 1062 136 0 136 1062 c
316 1062 136 1062 316 1062 c
316 0 316 1062 316 0 c
136 0 316 0 136 0 c
closepath } bind def
/s108 {
131 0 m
131 1466 131 0 131 1466 c
311 1466 131 1466 311 1466 c
311 0 311 1466 311 0 c
131 0 311 0 131 0 c
closepath } bind def
/s109 {
135 0 m
135 1062 135 0 135 1062 c
296 1062 135 1062 296 1062 c
296 913 296 1062 296 913 c
329.33 965 373.67 1006.83 429 1038.5 c
484.33 1070.17 547.33 1086 618 1086 c
696.67 1086 761.17 1069.67 811.5 1037 c
861.83 1004.33 897.33 958.67 918 900 c
1002 1024 1111.33 1086 1246 1086 c
1351.33 1086 1432.33 1056.83 1489 998.5 c
1545.67 940.17 1574 850.33 1574 729 c
1574 0 1574 729 1574 0 c
1395 0 1574 0 1395 0 c
1395 669 1395 0 1395 669 c
1395 741 1389.17 792.83 1377.5 824.5 c
1365.83 856.17 1344.67 881.67 1314 901 c
1283.33 920.33 1247.33 930 1206 930 c
1131.33 930 1069.33 905.17 1020 855.5 c
970.67 805.83 946 726.33 946 617 c
946 0 946 617 946 0 c
766 0 946 0 766 0 c
766 690 766 0 766 690 c
766 770 751.33 830 722 870 c
692.67 910 644.67 930 578 930 c
527.33 930 480.5 916.67 437.5 890 c
394.5 863.33 363.33 824.33 344 773 c
324.67 721.67 315 647.67 315 551 c
315 0 315 551 315 0 c
135 0 315 0 135 0 c
closepath } bind def
/s111 {
68 531 m
68 727.67 122.67 873.33 232 968 c
323.33 1046.67 434.67 1086 566 1086 c
712 1086 831.33 1038.17 924 942.5 c
1016.67 846.83 1063 714.67 1063 546 c
1063 409.33 1042.5 301.83 1001.5 223.5 c
960.5 145.17 900.83 84.33 822.5 41 c
744.17 -2.33 658.67 -24 566 -24 c
417.33 -24 297.17 23.67 205.5 119 c
113.83 214.33 68 351.67 68 531 c
closepath 253 531 m
253 395 282.67 293.17 342 225.5 c
401.33 157.83 476 124 566 124 c
655.33 124 729.67 158 789 226 c
848.33 294 878 397.67 878 537 c
878 668.33 848.17 767.83 788.5 835.5 c
728.83 903.17 654.67 937 566 937 c
476 937 401.33 903.33 342 836 c
282.67 768.67 253 667 253 531 c
closepath } bind def
/s112 {
135 -407 m
135 1062 135 -407 135 1062 c
299 1062 135 1062 299 1062 c
299 924 299 1062 299 924 c
337.67 978 381.33 1018.5 430 1045.5 c
478.67 1072.5 537.67 1086 607 1086 c
697.67 1086 777.67 1062.67 847 1016 c
916.33 969.33 968.67 903.5 1004 818.5 c
1039.33 733.5 1057 640.33 1057 539 c
1057 430.33 1037.5 332.5 998.5 245.5 c
959.5 158.5 902.83 91.83 828.5 45.5 c
754.17 -0.83 676 -24 594 -24 c
534 -24 480.17 -11.33 432.5 14 c
384.83 39.33 345.67 71.33 315 110 c
315 -407 315 110 315 -407 c
135 -407 315 -407 135 -407 c
closepath 298 525 m
298 388.33 325.67 287.33 381 222 c
436.33 156.67 503.33 124 582 124 c
662 124 730.5 157.83 787.5 225.5 c
844.5 293.17 873 398 873 540 c
873 675.33 845.17 776.67 789.5 844 c
733.83 911.33 667.33 945 590 945 c
513.33 945 445.5 909.17 386.5 837.5 c
327.5 765.83 298 661.67 298 525 c
closepath } bind def
/s114 {
133 0 m
133 1062 133 0 133 1062 c
295 1062 133 1062 295 1062 c
295 901 295 1062 295 901 c
336.33 976.33 374.5 1026 409.5 1050 c
444.5 1074 483 1086 525 1086 c
585.67 1086 647.33 1066.67 710 1028 c
648 861 710 1028 648 861 c
604 887 560 900 516 900 c
476.67 900 441.33 888.17 410 864.5 c
378.67 840.83 356.33 808 343 766 c
323 702 313 632 313 556 c
313 0 313 556 313 0 c
133 0 313 0 133 0 c
closepath } bind def
/s116 {
528 161 m
554 2 528 161 554 2 c
503.33 -8.67 458 -14 418 -14 c
352.67 -14 302 -3.67 266 17 c
230 37.67 204.67 64.83 190 98.5 c
175.33 132.17 168 203 168 311 c
168 922 168 311 168 922 c
36 922 168 922 36 922 c
36 1062 36 922 36 1062 c
168 1062 36 1062 168 1062 c
168 1325 168 1062 168 1325 c
347 1433 168 1325 347 1433 c
347 1062 347 1433 347 1062 c
528 1062 347 1062 528 1062 c
528 922 528 1062 528 922 c
347 922 528 922 347 922 c
347 301 347 922 347 301 c
347 249.67 350.17 216.67 356.5 202 c
362.83 187.33 373.17 175.67 387.5 167 c
401.83 158.33 422.33 154 449 154 c
469 154 495.33 156.33 528 161 c
closepath } bind def
/s117 {
831 0 m
831 156 831 0 831 156 c
748.33 36 636 -24 494 -24 c
431.33 -24 372.83 -12 318.5 12 c
264.17 36 223.83 66.17 197.5 102.5 c
171.17 138.83 152.67 183.33 142 236 c
134.67 271.33 131 327.33 131 404 c
131 1062 131 404 131 1062 c
311 1062 131 1062 311 1062 c
311 473 311 1062 311 473 c
311 379 314.67 315.67 322 283 c
333.33 235.67 357.33 198.5 394 171.5 c
430.67 144.5 476 131 530 131 c
584 131 634.67 144.83 682 172.5 c
729.33 200.17 762.83 237.83 782.5 285.5 c
802.17 333.17 812 402.33 812 493 c
812 1062 812 493 812 1062 c
992 1062 812 1062 992 1062 c
992 0 992 1062 992 0 c
831 0 992 0 831 0 c
closepath } bind def
/s122 {
40 0 m
40 146 40 0 40 146 c
716 922 40 146 716 922 c
639.33 918 571.67 916 513 916 c
80 916 513 916 80 916 c
80 1062 80 916 80 1062 c
948 1062 80 1062 948 1062 c
948 943 948 1062 948 943 c
373 269 948 943 373 269 c
262 146 373 269 262 146 c
342.67 152 418.33 155 489 155 c
980 155 489 155 980 155 c
980 0 980 155 980 0 c
40 0 980 0 40 0 c
closepath } bind def
end
/BuildGlyph {
 exch dup /Metrics get 2 index get 0 setcharwidth
/CharProcs get exch 2 copy known not{pop/.notdef}if get exec fill}bind def
/BuildChar {
1 index /Encoding get exch get
1 index /BuildGlyph get exec
} bind def
currentdict end /MC2_Arial exch definefont pop
%%EndFont
%%BeginFont: /MC3_Arial
12 dict begin
/FontInfo 8 dict dup begin
/ItalicAngle 0 def
/UnderlinePosition -217.00 def
/UnderlineThickness 150.00 def
/StrikeoutPosition 530.00 def
/StrikeoutThickness 102.00 def
/isFixedPitch false def
end readonly def
/FontName /MC3_Arial def
/FontType 3 def
/FontMatrix [1 2048 div 0 0 1 2048 div 0 0] def
/FontBBox [-1361 -665 4096 2060] def
/Encoding 256 array def 0 1 255{Encoding exch/.notdef put}for
Encoding 32/s32 put
Encoding 49/s49 put
Encoding 50/s50 put
Encoding 51/s51 put
Encoding 52/s52 put
Encoding 54/s54 put
Encoding 56/s56 put
Encoding 66/s66 put
Encoding 75/s75 put
/BoundingBoxes 10 dict def
BoundingBoxes begin
/s32 [0 -434 569 1854] def
/s49 [0 -434 1139 1854] def
/s50 [0 -434 1139 1854] def
/s51 [0 -434 1139 1854] def
/s52 [0 -434 1139 1854] def
/s54 [0 -434 1139 1854] def
/s56 [0 -434 1139 1854] def
/s66 [0 -434 1366 1854] def
/s75 [0 -434 1366 1854] def
end
/Metrics 10 dict def
 Metrics begin
/s32 569 def
/s49 1139 def
/s50 1139 def
/s51 1139 def
/s52 1139 def
/s54 1139 def
/s56 1139 def
/s66 1366 def
/s75 1366 def
end
/CharProcs 10 dict def
CharProcs begin
/.notdef {} def
/s49 {
763 0 m
583 0 763 0 583 0 c
583 1147 583 0 583 1147 c
539.67 1105.67 482.83 1064.33 412.5 1023 c
342.17 981.67 279 950.67 223 930 c
223 1104 223 930 223 1104 c
323.67 1151.33 411.67 1208.67 487 1276 c
562.33 1343.33 615.67 1408.67 647 1472 c
763 1472 647 1472 763 1472 c
763 0 763 1472 763 0 c
closepath } bind def
/s50 {
1031 173 m
1031 0 1031 173 1031 0 c
62 0 1031 0 62 0 c
60.67 43.33 67.67 85 83 125 c
107.67 191 147.17 256 201.5 320 c
255.83 384 334.33 458 437 542 c
596.33 672.67 704 776.17 760 852.5 c
816 928.83 844 1001 844 1069 c
844 1140.33 818.5 1200.5 767.5 1249.5 c
716.5 1298.5 650 1323 568 1323 c
481.33 1323 412 1297 360 1245 c
308 1193 281.67 1121 281 1029 c
96 1048 281 1029 96 1048 c
108.67 1186 156.33 1291.17 239 1363.5 c
321.67 1435.83 432.67 1472 572 1472 c
712.67 1472 824 1433 906 1355 c
988 1277 1029 1180.33 1029 1065 c
1029 1006.33 1017 948.67 993 892 c
969 835.33 929.17 775.67 873.5 713 c
817.83 650.33 725.33 564.33 596 455 c
488 364.33 418.67 302.83 388 270.5 c
357.33 238.17 332 205.67 312 173 c
1031 173 312 173 1031 173 c
closepath } bind def
/s51 {
86 387 m
266 411 86 387 266 411 c
286.67 309 321.83 235.5 371.5 190.5 c
421.17 145.5 481.67 123 553 123 c
637.67 123 709.17 152.33 767.5 211 c
825.83 269.67 855 342.33 855 429 c
855 511.67 828 579.83 774 633.5 c
720 687.17 651.33 714 568 714 c
534 714 491.67 707.33 441 694 c
461 852 441 694 461 852 c
473 850.67 482.67 850 490 850 c
566.67 850 635.67 870 697 910 c
758.33 950 789 1011.67 789 1095 c
789 1161 766.67 1215.67 722 1259 c
677.33 1302.33 619.67 1324 549 1324 c
479 1324 420.67 1302 374 1258 c
327.33 1214 297.33 1148 284 1060 c
104 1092 284 1060 104 1092 c
126 1212.67 176 1306.17 254 1372.5 c
332 1438.83 429 1472 545 1472 c
625 1472 698.67 1454.83 766 1420.5 c
833.33 1386.17 884.83 1339.33 920.5 1280 c
956.17 1220.67 974 1157.67 974 1091 c
974 1027.67 957 970 923 918 c
889 866 838.67 824.67 772 794 c
858.67 774 926 732.5 974 669.5 c
1022 606.5 1046 527.67 1046 433 c
1046 305 999.33 196.5 906 107.5 c
812.67 18.5 694.67 -26 552 -26 c
423.33 -26 316.5 12.33 231.5 89 c
146.5 165.67 98 265 86 387 c
closepath } bind def
/s52 {
662 0 m
662 351 662 0 662 351 c
26 351 662 351 26 351 c
26 516 26 351 26 516 c
695 1466 26 516 695 1466 c
842 1466 695 1466 842 1466 c
842 516 842 1466 842 516 c
1040 516 842 516 1040 516 c
1040 351 1040 516 1040 351 c
842 351 1040 351 842 351 c
842 0 842 351 842 0 c
662 0 842 0 662 0 c
closepath 662 516 m
662 1177 662 516 662 1177 c
203 516 662 1177 203 516 c
662 516 203 516 662 516 c
closepath } bind def
/s54 {
1019 1107 m
840 1093 1019 1107 840 1093 c
824 1163.67 801.33 1215 772 1247 c
723.33 1298.33 663.33 1324 592 1324 c
534.67 1324 484.33 1308 441 1276 c
384.33 1234.67 339.67 1174.33 307 1095 c
274.33 1015.67 257.33 902.67 256 756 c
299.33 822 352.33 871 415 903 c
477.67 935 543.33 951 612 951 c
732 951 834.17 906.83 918.5 818.5 c
1002.83 730.17 1045 616 1045 476 c
1045 384 1025.17 298.5 985.5 219.5 c
945.83 140.5 891.33 80 822 38 c
752.67 -4 674 -25 586 -25 c
436 -25 313.67 30.17 219 140.5 c
124.33 250.83 77 432.67 77 686 c
77 969.33 129.33 1175.33 234 1304 c
325.33 1416 448.33 1472 603 1472 c
718.33 1472 812.83 1439.67 886.5 1375 c
960.17 1310.33 1004.33 1221 1019 1107 c
closepath 284 475 m
284 413 297.17 353.67 323.5 297 c
349.83 240.33 386.67 197.17 434 167.5 c
481.33 137.83 531 123 583 123 c
659 123 724.33 153.67 779 215 c
833.67 276.33 861 359.67 861 465 c
861 566.33 834 646.17 780 704.5 c
726 762.83 658 792 576 792 c
494.67 792 425.67 762.83 369 704.5 c
312.33 646.17 284 569.67 284 475 c
closepath } bind def
/s56 {
362 795 m
287.33 822.33 232 861.33 196 912 c
160 962.67 142 1023.33 142 1094 c
142 1200.67 180.33 1290.33 257 1363 c
333.67 1435.67 435.67 1472 563 1472 c
691 1472 794 1434.83 872 1360.5 c
950 1286.17 989 1195.67 989 1089 c
989 1021 971.17 961.83 935.5 911.5 c
899.83 861.17 845.67 822.33 773 795 c
863 765.67 931.5 718.33 978.5 653 c
1025.5 587.67 1049 509.67 1049 419 c
1049 293.67 1004.67 188.33 916 103 c
827.33 17.67 710.67 -25 566 -25 c
421.33 -25 304.67 17.83 216 103.5 c
127.33 189.17 83 296 83 424 c
83 519.33 107.17 599.17 155.5 663.5 c
203.83 727.83 272.67 771.67 362 795 c
closepath 326 1100 m
326 1030.67 348.33 974 393 930 c
437.67 886 495.67 864 567 864 c
636.33 864 693.17 885.83 737.5 929.5 c
781.83 973.17 804 1026.67 804 1090 c
804 1156 781.17 1211.5 735.5 1256.5 c
689.83 1301.5 633 1324 565 1324 c
496.33 1324 439.33 1302 394 1258 c
348.67 1214 326 1161.33 326 1100 c
closepath 268 423 m
268 371.67 280.17 322 304.5 274 c
328.83 226 365 188.83 413 162.5 c
461 136.17 512.67 123 568 123 c
654 123 725 150.67 781 206 c
837 261.33 865 331.67 865 417 c
865 503.67 836.17 575.33 778.5 632 c
720.83 688.67 648.67 717 562 717 c
477.33 717 407.17 689 351.5 633 c
295.83 577 268 507 268 423 c
closepath } bind def
/s66 {
150 0 m
150 1466 150 0 150 1466 c
700 1466 150 1466 700 1466 c
812 1466 901.83 1451.17 969.5 1421.5 c
1037.17 1391.83 1090.17 1346.17 1128.5 1284.5 c
1166.83 1222.83 1186 1158.33 1186 1091 c
1186 1028.33 1169 969.33 1135 914 c
1101 858.67 1049.67 814 981 780 c
1069.67 754 1137.83 709.67 1185.5 647 c
1233.17 584.33 1257 510.33 1257 425 c
1257 356.33 1242.5 292.5 1213.5 233.5 c
1184.5 174.5 1148.67 129 1106 97 c
1063.33 65 1009.83 40.83 945.5 24.5 c
881.17 8.17 802.33 0 709 0 c
150 0 709 0 150 0 c
closepath 344 850 m
661 850 344 850 661 850 c
747 850 808.67 855.67 846 867 c
895.33 881.67 932.5 906 957.5 940 c
982.5 974 995 1016.67 995 1068 c
995 1116.67 983.33 1159.5 960 1196.5 c
936.67 1233.5 903.33 1258.83 860 1272.5 c
816.67 1286.17 742.33 1293 637 1293 c
344 1293 637 1293 344 1293 c
344 850 344 1293 344 850 c
closepath 344 173 m
709 173 344 173 709 173 c
771.67 173 815.67 175.33 841 180 c
885.67 188 923 201.33 953 220 c
983 238.67 1007.67 265.83 1027 301.5 c
1046.33 337.17 1056 378.33 1056 425 c
1056 479.67 1042 527.17 1014 567.5 c
986 607.83 947.17 636.17 897.5 652.5 c
847.83 668.83 776.33 677 683 677 c
344 677 683 677 344 677 c
344 173 344 677 344 173 c
closepath } bind def
/s75 {
150 0 m
150 1466 150 0 150 1466 c
344 1466 150 1466 344 1466 c
344 739 344 1466 344 739 c
1072 1466 344 739 1072 1466 c
1335 1466 1072 1466 1335 1466 c
720 872 1335 1466 720 872 c
1362 0 720 872 1362 0 c
1106 0 1362 0 1106 0 c
584 742 1106 0 584 742 c
344 508 584 742 344 508 c
344 0 344 508 344 0 c
150 0 344 0 150 0 c
closepath } bind def
end
/BuildGlyph {
 exch dup /Metrics get 2 index get 0 setcharwidth
/CharProcs get exch 2 copy known not{pop/.notdef}if get exec fill}bind def
/BuildChar {
1 index /Encoding get exch get
1 index /BuildGlyph get exec
} bind def
currentdict end /MC3_Arial exch definefont pop
%%EndFont
/clipproc{clippath{[{/m cvx}{/l cvx}{/c cvx}{/cp cvx}pathforall}stopped
{cleartomark[pathbbox exch 3 i sub exch 2 i sub/rectpath cvx}if]np}bd
/iclmtx mtx cmtx def/iclpath clipproc xd/clinit{pathproc initclip np iclpath cl np exec}bd
/clmove{pathproc 3 1 roll clippath pathproc 2 i neg 2 i neg tr initclip np exec cl tr np exec}bd
/clrect[gs np iclpath{pathbbox}stopped{0 0 1008 720 }if gr]def
/cloper{mtx cmtx iclmtx smtx exch exec smtx}bd
/cland{{exch cvx exec}cloper}bd
/clcopy{{exch clinit cvx exec}cloper}bd
/cldiff{{exch pathbbox 4 -1 roll clrect 0 get 2 copy gt{exch}if pop 4 1 roll
 3 -1 roll clrect 1 get 2 copy gt{exch}if pop 3 1 roll
 2 -1 roll clrect 2 get 2 copy lt{exch}if pop 2 1 roll
 1 -1 roll clrect 3 get 2 copy lt{exch}if pop 1 1 roll
 exch 3 i sub exch 2 i sub rectpath cvx exec}cloper}bd
/icl{{clinit}cloper}bd
0.239948 0.239942 sc

/initmtx mtx cmtx def
[1.00022 -0 0 -1.00025 0 3000.73] concat
gs
911 2713 m
911 112 l
3 sw
1 sj
1 scap
st
1370 2713 m
1370 112 l
st
1828 2713 m
1828 112 l
st
2287 2713 m
2287 112 l
st
2746 2713 m
2746 112 l
st
3205 2713 m
3205 112 l
st
3663 2713 m
3663 112 l
st
452 2348 m
4122 2348 l
st
452 1619 m
4122 1619 l
st
452 889 m
4122 889 l
st
452 296 m
4122 296 l
st
452 1984 m
4122 1984 l
st
452 1254 m
4122 1254 l
st
gs
pathproc 452 112 3671 2602 np rectpath
/eocl cland
np exec
pathproc 452 479 3670 45 np rectpath
/eocl cldiff
np exec
498 2229 m
571 2229 l
571 2713 l
498 2713 l
cp
gs
eofi
gr
6 sw
st
498 2229 m
571 2229 l
st
571 2229 m
571 2713 l
st
498 2713 m
498 2229 l
st
957 1426 m
1030 1426 l
1030 2713 l
957 2713 l
cp
gs
eofi
gr
st
957 1426 m
1030 1426 l
st
1030 1426 m
1030 2713 l
st
957 2713 m
957 1426 l
st
1415 2325 m
1489 2325 l
1489 2713 l
1415 2713 l
cp
gs
eofi
gr
st
1415 2325 m
1489 2325 l
st
1489 2325 m
1489 2713 l
st
1415 2713 m
1415 2325 l
st
1874 2214 m
1948 2214 l
1948 2713 l
1874 2713 l
cp
gs
eofi
gr
st
1874 2214 m
1948 2214 l
st
1948 2214 m
1948 2713 l
st
1874 2713 m
1874 2214 l
st
2333 2207 m
2406 2207 l
2406 2713 l
2333 2713 l
cp
gs
eofi
gr
st
2333 2207 m
2406 2207 l
st
2406 2207 m
2406 2713 l
st
2333 2713 m
2333 2207 l
st
2792 2304 m
2865 2304 l
2865 2713 l
2792 2713 l
cp
gs
eofi
gr
st
2792 2304 m
2865 2304 l
st
2865 2304 m
2865 2713 l
st
2792 2713 m
2792 2304 l
st
3250 2070 m
3324 2070 l
3324 2713 l
3250 2713 l
cp
gs
eofi
gr
st
3250 2070 m
3324 2070 l
st
3324 2070 m
3324 2713 l
st
3250 2713 m
3250 2070 l
st
3709 2105 m
3783 2105 l
3783 2713 l
3709 2713 l
cp
gs
eofi
gr
st
3709 2105 m
3783 2105 l
st
3783 2105 m
3783 2713 l
st
3709 2713 m
3709 2105 l
st
gr
gs
pathproc 452 112 3671 2602 np rectpath
/eocl cland
np exec
pathproc 452 479 3670 45 np rectpath
/eocl cldiff
np exec
572 2151 m
572 2151 l
st
572 2200 m
621 2151 l
st
572 2249 m
644 2177 l
st
572 2298 m
644 2226 l
st
572 2347 m
644 2275 l
st
572 2396 m
644 2324 l
st
572 2445 m
644 2373 l
st
572 2494 m
644 2422 l
st
572 2543 m
644 2471 l
st
572 2592 m
644 2520 l
st
572 2641 m
644 2569 l
st
572 2690 m
644 2618 l
st
599 2712 m
644 2667 l
st
571 2150 m
645 2150 l
6 sw
st
645 2150 m
645 2713 l
st
571 2713 m
571 2150 l
st
1031 658 m
1031 658 l
3 sw
st
1031 707 m
1080 658 l
st
1031 756 m
1102 685 l
st
1031 805 m
1102 734 l
st
1031 854 m
1102 783 l
st
1031 903 m
1102 832 l
st
1031 952 m
1102 881 l
st
1031 1001 m
1102 930 l
st
1031 1050 m
1102 979 l
st
1031 1099 m
1102 1028 l
st
1031 1148 m
1102 1077 l
st
1031 1197 m
1102 1126 l
st
1031 1246 m
1102 1175 l
st
1031 1295 m
1102 1224 l
st
1031 1344 m
1102 1273 l
st
1031 1393 m
1102 1322 l
st
1031 1442 m
1102 1371 l
st
1031 1491 m
1102 1420 l
st
1031 1540 m
1102 1469 l
st
1031 1589 m
1102 1518 l
st
1031 1638 m
1102 1567 l
st
1031 1687 m
1102 1616 l
st
1031 1736 m
1102 1665 l
st
1031 1785 m
1102 1714 l
st
1031 1834 m
1102 1763 l
st
1031 1883 m
1102 1812 l
st
1031 1932 m
1102 1861 l
st
1031 1981 m
1102 1910 l
st
1031 2030 m
1102 1959 l
st
1031 2079 m
1102 2008 l
st
1031 2128 m
1102 2057 l
st
1031 2177 m
1102 2106 l
st
1031 2226 m
1102 2155 l
st
1031 2275 m
1102 2204 l
st
1031 2324 m
1102 2253 l
st
1031 2373 m
1102 2302 l
st
1031 2422 m
1102 2351 l
st
1031 2471 m
1102 2400 l
st
1031 2520 m
1102 2449 l
st
1031 2569 m
1102 2498 l
st
1031 2618 m
1102 2547 l
st
1031 2667 m
1102 2596 l
st
1035 2712 m
1102 2645 l
st
1084 2712 m
1102 2694 l
st
1030 657 m
1103 657 l
6 sw
st
1103 657 m
1103 2713 l
st
1030 2713 m
1030 657 l
st
1490 2216 m
1490 2216 l
3 sw
st
1490 2265 m
1539 2216 l
st
1490 2314 m
1561 2243 l
st
1490 2363 m
1561 2292 l
st
1490 2412 m
1561 2341 l
st
1490 2461 m
1561 2390 l
st
1490 2510 m
1561 2439 l
st
1490 2559 m
1561 2488 l
st
1490 2608 m
1561 2537 l
st
1490 2657 m
1561 2586 l
st
1490 2706 m
1561 2635 l
st
1533 2712 m
1561 2684 l
st
1489 2215 m
1562 2215 l
6 sw
st
1562 2215 m
1562 2713 l
st
1489 2713 m
1489 2215 l
st
1949 1947 m
1949 1947 l
3 sw
st
1949 1996 m
1998 1947 l
st
1949 2045 m
2020 1974 l
st
1949 2094 m
2020 2023 l
st
1949 2143 m
2020 2072 l
st
1949 2192 m
2020 2121 l
st
1949 2241 m
2020 2170 l
st
1949 2290 m
2020 2219 l
st
1949 2339 m
2020 2268 l
st
1949 2388 m
2020 2317 l
st
1949 2437 m
2020 2366 l
st
1949 2486 m
2020 2415 l
st
1949 2535 m
2020 2464 l
st
1949 2584 m
2020 2513 l
st
1949 2633 m
2020 2562 l
st
1949 2682 m
2020 2611 l
st
1968 2712 m
2020 2660 l
st
2017 2712 m
2020 2709 l
st
1948 1946 m
2021 1946 l
6 sw
st
2021 1946 m
2021 2713 l
st
1948 2713 m
1948 1946 l
st
2407 2135 m
2407 2135 l
3 sw
st
2407 2184 m
2456 2135 l
st
2407 2233 m
2479 2161 l
st
2407 2282 m
2479 2210 l
st
2407 2331 m
2479 2259 l
st
2407 2380 m
2479 2308 l
st
2407 2429 m
2479 2357 l
st
2407 2478 m
2479 2406 l
st
2407 2527 m
2479 2455 l
st
2407 2576 m
2479 2504 l
st
2407 2625 m
2479 2553 l
st
2407 2674 m
2479 2602 l
st
2418 2712 m
2479 2651 l
st
2467 2712 m
2479 2700 l
st
2406 2134 m
2480 2134 l
6 sw
st
2480 2134 m
2480 2713 l
st
2406 2713 m
2406 2134 l
st
2866 2258 m
2866 2258 l
3 sw
st
2866 2307 m
2915 2258 l
st
2866 2356 m
2937 2285 l
st
2866 2405 m
2937 2334 l
st
2866 2454 m
2937 2383 l
st
2866 2503 m
2937 2432 l
st
2866 2552 m
2937 2481 l
st
2866 2601 m
2937 2530 l
st
2866 2650 m
2937 2579 l
st
2866 2699 m
2937 2628 l
st
2902 2712 m
2937 2677 l
st
2865 2257 m
2938 2257 l
6 sw
st
2938 2257 m
2938 2713 l
st
2865 2713 m
2865 2257 l
st
3325 1687 m
3325 1687 l
3 sw
st
3325 1736 m
3374 1687 l
st
3325 1785 m
3396 1714 l
st
3325 1834 m
3396 1763 l
st
3325 1883 m
3396 1812 l
st
3325 1932 m
3396 1861 l
st
3325 1981 m
3396 1910 l
st
3325 2030 m
3396 1959 l
st
3325 2079 m
3396 2008 l
st
3325 2128 m
3396 2057 l
st
3325 2177 m
3396 2106 l
st
3325 2226 m
3396 2155 l
st
3325 2275 m
3396 2204 l
st
3325 2324 m
3396 2253 l
st
3325 2373 m
3396 2302 l
st
3325 2422 m
3396 2351 l
st
3325 2471 m
3396 2400 l
st
3325 2520 m
3396 2449 l
st
3325 2569 m
3396 2498 l
st
3325 2618 m
3396 2547 l
st
3325 2667 m
3396 2596 l
st
3329 2712 m
3396 2645 l
st
3378 2712 m
3396 2694 l
st
3324 1686 m
3397 1686 l
6 sw
st
3397 1686 m
3397 2713 l
st
3324 2713 m
3324 1686 l
st
3784 1719 m
3784 1719 l
3 sw
st
3784 1768 m
3833 1719 l
st
3784 1817 m
3855 1746 l
st
3784 1866 m
3855 1795 l
st
3784 1915 m
3855 1844 l
st
3784 1964 m
3855 1893 l
st
3784 2013 m
3855 1942 l
st
3784 2062 m
3855 1991 l
st
3784 2111 m
3855 2040 l
st
3784 2160 m
3855 2089 l
st
3784 2209 m
3855 2138 l
st
3784 2258 m
3855 2187 l
st
3784 2307 m
3855 2236 l
st
3784 2356 m
3855 2285 l
st
3784 2405 m
3855 2334 l
st
3784 2454 m
3855 2383 l
st
3784 2503 m
3855 2432 l
st
3784 2552 m
3855 2481 l
st
3784 2601 m
3855 2530 l
st
3784 2650 m
3855 2579 l
st
3784 2699 m
3855 2628 l
st
3820 2712 m
3855 2677 l
st
3783 1718 m
3856 1718 l
6 sw
st
3856 1718 m
3856 2713 l
st
3783 2713 m
3783 1718 l
st
gr
gs
pathproc 452 112 3671 2602 np rectpath
/eocl cland
np exec
pathproc 452 479 3670 45 np rectpath
/eocl cldiff
np exec
645 2063 m
718 2063 l
718 2713 l
645 2713 l
cp
gs
0.753 0.753 0.753 rgb
eofi
gr
6 sw
0.753 0.753 0.753 rgb
st
645 2063 m
718 2063 l
0 0 0 rgb
st
718 2063 m
718 2713 l
st
645 2713 m
645 2063 l
st
1103 524 m
1177 524 l
1177 2713 l
1103 2713 l
cp
gs
0.753 0.753 0.753 rgb
eofi
gr
0.753 0.753 0.753 rgb
st
1177 524 m
1177 2713 l
0 0 0 rgb
st
1103 2713 m
1103 524 l
st
1562 2003 m
1636 2003 l
1636 2713 l
1562 2713 l
cp
gs
0.753 0.753 0.753 rgb
eofi
gr
0.753 0.753 0.753 rgb
st
1562 2003 m
1636 2003 l
0 0 0 rgb
st
1636 2003 m
1636 2713 l
st
1562 2713 m
1562 2003 l
st
2021 1386 m
2094 1386 l
2094 2713 l
2021 2713 l
cp
gs
0.753 0.753 0.753 rgb
eofi
gr
0.753 0.753 0.753 rgb
st
2021 1386 m
2094 1386 l
0 0 0 rgb
st
2094 1386 m
2094 2713 l
st
2021 2713 m
2021 1386 l
st
2480 2021 m
2553 2021 l
2553 2713 l
2480 2713 l
cp
gs
0.753 0.753 0.753 rgb
eofi
gr
0.753 0.753 0.753 rgb
st
2480 2021 m
2553 2021 l
0 0 0 rgb
st
2553 2021 m
2553 2713 l
st
2480 2713 m
2480 2021 l
st
2938 2105 m
3012 2105 l
3012 2713 l
2938 2713 l
cp
gs
0.753 0.753 0.753 rgb
eofi
gr
0.753 0.753 0.753 rgb
st
2938 2105 m
3012 2105 l
0 0 0 rgb
st
3012 2105 m
3012 2713 l
st
2938 2713 m
2938 2105 l
st
3397 1265 m
3471 1265 l
3471 2713 l
3397 2713 l
cp
gs
0.753 0.753 0.753 rgb
eofi
gr
0.753 0.753 0.753 rgb
st
3397 1265 m
3471 1265 l
0 0 0 rgb
st
3471 1265 m
3471 2713 l
st
3397 2713 m
3397 1265 l
st
3856 1210 m
3929 1210 l
3929 2713 l
3856 2713 l
cp
gs
0.753 0.753 0.753 rgb
eofi
gr
0.753 0.753 0.753 rgb
st
3856 1210 m
3929 1210 l
0 0 0 rgb
st
3929 1210 m
3929 2713 l
st
3856 2713 m
3856 1210 l
st
gr
gs
pathproc 452 112 3671 2602 np rectpath
/eocl cland
np exec
pathproc 452 479 3670 45 np rectpath
/eocl cldiff
np exec
719 2022 m
790 2093 l
st
719 2071 m
790 2142 l
st
719 2120 m
790 2191 l
st
719 2169 m
790 2240 l
st
719 2218 m
790 2289 l
st
719 2267 m
790 2338 l
st
719 2316 m
790 2387 l
st
719 2365 m
790 2436 l
st
719 2414 m
790 2485 l
st
719 2463 m
790 2534 l
st
719 2512 m
790 2583 l
st
719 2561 m
790 2632 l
st
719 2610 m
790 2681 l
st
719 2659 m
772 2712 l
st
719 2708 m
723 2712 l
st
719 2022 m
790 2093 l
st
768 2022 m
790 2044 l
st
718 2021 m
791 2021 l
6 sw
st
791 2021 m
791 2713 l
st
718 2713 m
718 2021 l
st
1178 525 m
1249 596 l
3 sw
st
1178 574 m
1249 645 l
st
1178 623 m
1249 694 l
st
1178 672 m
1249 743 l
st
1178 721 m
1249 792 l
st
1178 770 m
1249 841 l
st
1178 819 m
1249 890 l
st
1178 868 m
1249 939 l
st
1178 917 m
1249 988 l
st
1178 966 m
1249 1037 l
st
1178 1015 m
1249 1086 l
st
1178 1064 m
1249 1135 l
st
1178 1113 m
1249 1184 l
st
1178 1162 m
1249 1233 l
st
1178 1211 m
1249 1282 l
st
1178 1260 m
1249 1331 l
st
1178 1309 m
1249 1380 l
st
1178 1358 m
1249 1429 l
st
1178 1407 m
1249 1478 l
st
1178 1456 m
1249 1527 l
st
1178 1505 m
1249 1576 l
st
1178 1554 m
1249 1625 l
st
1178 1603 m
1249 1674 l
st
1178 1652 m
1249 1723 l
st
1178 1701 m
1249 1772 l
st
1178 1750 m
1249 1821 l
st
1178 1799 m
1249 1870 l
st
1178 1848 m
1249 1919 l
st
1178 1897 m
1249 1968 l
st
1178 1946 m
1249 2017 l
st
1178 1995 m
1249 2066 l
st
1178 2044 m
1249 2115 l
st
1178 2093 m
1249 2164 l
st
1178 2142 m
1249 2213 l
st
1178 2191 m
1249 2262 l
st
1178 2240 m
1249 2311 l
st
1178 2289 m
1249 2360 l
st
1178 2338 m
1249 2409 l
st
1178 2387 m
1249 2458 l
st
1178 2436 m
1249 2507 l
st
1178 2485 m
1249 2556 l
st
1178 2534 m
1249 2605 l
st
1178 2583 m
1249 2654 l
st
1178 2632 m
1249 2703 l
st
1178 2681 m
1209 2712 l
st
1178 525 m
1249 596 l
st
1227 525 m
1249 547 l
st
1250 524 m
1250 2713 l
6 sw
st
1177 2713 m
1177 524 l
st
1637 1556 m
1708 1627 l
3 sw
st
1637 1605 m
1708 1676 l
st
1637 1654 m
1708 1725 l
st
1637 1703 m
1708 1774 l
st
1637 1752 m
1708 1823 l
st
1637 1801 m
1708 1872 l
st
1637 1850 m
1708 1921 l
st
1637 1899 m
1708 1970 l
st
1637 1948 m
1708 2019 l
st
1637 1997 m
1708 2068 l
st
1637 2046 m
1708 2117 l
st
1637 2095 m
1708 2166 l
st
1637 2144 m
1708 2215 l
st
1637 2193 m
1708 2264 l
st
1637 2242 m
1708 2313 l
st
1637 2291 m
1708 2362 l
st
1637 2340 m
1708 2411 l
st
1637 2389 m
1708 2460 l
st
1637 2438 m
1708 2509 l
st
1637 2487 m
1708 2558 l
st
1637 2536 m
1708 2607 l
st
1637 2585 m
1708 2656 l
st
1637 2634 m
1708 2705 l
st
1637 2683 m
1666 2712 l
st
1637 1556 m
1708 1627 l
st
1686 1556 m
1708 1578 l
st
1636 1555 m
1709 1555 l
6 sw
st
1709 1555 m
1709 2713 l
st
1636 2713 m
1636 1555 l
st
2095 2300 m
2167 2372 l
3 sw
st
2095 2349 m
2167 2421 l
st
2095 2398 m
2167 2470 l
st
2095 2447 m
2167 2519 l
st
2095 2496 m
2167 2568 l
st
2095 2545 m
2167 2617 l
st
2095 2594 m
2167 2666 l
st
2095 2643 m
2164 2712 l
st
2095 2692 m
2115 2712 l
st
2095 2300 m
2167 2372 l
st
2144 2300 m
2167 2323 l
st
2094 2299 m
2168 2299 l
6 sw
st
2168 2299 m
2168 2713 l
st
2094 2713 m
2094 2299 l
st
2554 1966 m
2625 2037 l
3 sw
st
2554 2015 m
2625 2086 l
st
2554 2064 m
2625 2135 l
st
2554 2113 m
2625 2184 l
st
2554 2162 m
2625 2233 l
st
2554 2211 m
2625 2282 l
st
2554 2260 m
2625 2331 l
st
2554 2309 m
2625 2380 l
st
2554 2358 m
2625 2429 l
st
2554 2407 m
2625 2478 l
st
2554 2456 m
2625 2527 l
st
2554 2505 m
2625 2576 l
st
2554 2554 m
2625 2625 l
st
2554 2603 m
2625 2674 l
st
2554 2652 m
2614 2712 l
st
2554 2701 m
2565 2712 l
st
2554 1966 m
2625 2037 l
st
2603 1966 m
2625 1988 l
st
2553 1965 m
2626 1965 l
6 sw
st
2626 1965 m
2626 2713 l
st
2553 2713 m
2553 1965 l
st
3013 2009 m
3084 2080 l
3 sw
st
3013 2058 m
3084 2129 l
st
3013 2107 m
3084 2178 l
st
3013 2156 m
3084 2227 l
st
3013 2205 m
3084 2276 l
st
3013 2254 m
3084 2325 l
st
3013 2303 m
3084 2374 l
st
3013 2352 m
3084 2423 l
st
3013 2401 m
3084 2472 l
st
3013 2450 m
3084 2521 l
st
3013 2499 m
3084 2570 l
st
3013 2548 m
3084 2619 l
st
3013 2597 m
3084 2668 l
st
3013 2646 m
3079 2712 l
st
3013 2695 m
3030 2712 l
st
3013 2009 m
3084 2080 l
st
3062 2009 m
3084 2031 l
st
3012 2008 m
3085 2008 l
6 sw
st
3085 2008 m
3085 2713 l
st
3012 2713 m
3012 2008 l
st
3472 1009 m
3543 1080 l
3 sw
st
3472 1058 m
3543 1129 l
st
3472 1107 m
3543 1178 l
st
3472 1156 m
3543 1227 l
st
3472 1205 m
3543 1276 l
st
3472 1254 m
3543 1325 l
st
3472 1303 m
3543 1374 l
st
3472 1352 m
3543 1423 l
st
3472 1401 m
3543 1472 l
st
3472 1450 m
3543 1521 l
st
3472 1499 m
3543 1570 l
st
3472 1548 m
3543 1619 l
st
3472 1597 m
3543 1668 l
st
3472 1646 m
3543 1717 l
st
3472 1695 m
3543 1766 l
st
3472 1744 m
3543 1815 l
st
3472 1793 m
3543 1864 l
st
3472 1842 m
3543 1913 l
st
3472 1891 m
3543 1962 l
st
3472 1940 m
3543 2011 l
st
3472 1989 m
3543 2060 l
st
3472 2038 m
3543 2109 l
st
3472 2087 m
3543 2158 l
st
3472 2136 m
3543 2207 l
st
3472 2185 m
3543 2256 l
st
3472 2234 m
3543 2305 l
st
3472 2283 m
3543 2354 l
st
3472 2332 m
3543 2403 l
st
3472 2381 m
3543 2452 l
st
3472 2430 m
3543 2501 l
st
3472 2479 m
3543 2550 l
st
3472 2528 m
3543 2599 l
st
3472 2577 m
3543 2648 l
st
3472 2626 m
3543 2697 l
st
3472 2675 m
3509 2712 l
st
3472 1009 m
3543 1080 l
st
3521 1009 m
3543 1031 l
st
3471 1008 m
3544 1008 l
6 sw
st
3544 1008 m
3544 2713 l
st
3471 2713 m
3471 1008 l
st
3930 1926 m
4002 1998 l
3 sw
st
3930 1975 m
4002 2047 l
st
3930 2024 m
4002 2096 l
st
3930 2073 m
4002 2145 l
st
3930 2122 m
4002 2194 l
st
3930 2171 m
4002 2243 l
st
3930 2220 m
4002 2292 l
st
3930 2269 m
4002 2341 l
st
3930 2318 m
4002 2390 l
st
3930 2367 m
4002 2439 l
st
3930 2416 m
4002 2488 l
st
3930 2465 m
4002 2537 l
st
3930 2514 m
4002 2586 l
st
3930 2563 m
4002 2635 l
st
3930 2612 m
4002 2684 l
st
3930 2661 m
3981 2712 l
st
3930 2710 m
3932 2712 l
st
3930 1926 m
4002 1998 l
st
3979 1926 m
4002 1949 l
st
3929 1925 m
4003 1925 l
6 sw
st
4003 1925 m
4003 2713 l
st
3929 2713 m
3929 1925 l
st
gr
gs
pathproc 452 112 3671 2602 np rectpath
/eocl cland
np exec
pathproc 452 479 3670 45 np rectpath
/eocl cldiff
np exec
791 1962 m
865 1962 l
865 2713 l
791 2713 l
cp
gs
1 0 0 rgb
eofi
gr
6 sw
1 0 0 rgb
st
791 1962 m
865 1962 l
0 0 0 rgb
st
865 1962 m
865 2713 l
st
791 2713 m
791 1962 l
st
1250 267 m
1324 267 l
1324 479 l
1250 479 l
cp
gs
1 0 0 rgb
eofi
gr
1 0 0 rgb
st
1250 267 m
1324 267 l
0 0 0 rgb
st
1324 267 m
1324 479 l
st
1250 479 m
1250 267 l
st
1250 524 m
1324 524 l
1324 2713 l
1250 2713 l
cp
gs
1 0 0 rgb
eofi
gr
1 0 0 rgb
st
1324 524 m
1324 2713 l
0 0 0 rgb
st
1250 2713 m
1250 524 l
st
1709 2246 m
1782 2246 l
1782 2713 l
1709 2713 l
cp
gs
1 0 0 rgb
eofi
gr
1 0 0 rgb
st
1709 2246 m
1782 2246 l
0 0 0 rgb
st
1782 2246 m
1782 2713 l
st
1709 2713 m
1709 2246 l
st
2168 2523 m
2241 2523 l
2241 2713 l
2168 2713 l
cp
gs
1 0 0 rgb
eofi
gr
1 0 0 rgb
st
2168 2523 m
2241 2523 l
0 0 0 rgb
st
2241 2523 m
2241 2713 l
st
2168 2713 m
2168 2523 l
st
2626 1887 m
2700 1887 l
2700 2713 l
2626 2713 l
cp
gs
1 0 0 rgb
eofi
gr
1 0 0 rgb
st
2626 1887 m
2700 1887 l
0 0 0 rgb
st
2700 1887 m
2700 2713 l
st
2626 2713 m
2626 1887 l
st
3085 2401 m
3159 2401 l
3159 2713 l
3085 2713 l
cp
gs
1 0 0 rgb
eofi
gr
1 0 0 rgb
st
3085 2401 m
3159 2401 l
0 0 0 rgb
st
3159 2401 m
3159 2713 l
st
3085 2713 m
3085 2401 l
st
3544 930 m
3617 930 l
3617 2713 l
3544 2713 l
cp
gs
1 0 0 rgb
eofi
gr
1 0 0 rgb
st
3544 930 m
3617 930 l
0 0 0 rgb
st
3617 930 m
3617 2713 l
st
3544 2713 m
3544 930 l
st
4003 2111 m
4076 2111 l
4076 2713 l
4003 2713 l
cp
gs
1 0 0 rgb
eofi
gr
1 0 0 rgb
st
4003 2111 m
4076 2111 l
0 0 0 rgb
st
4076 2111 m
4076 2713 l
st
4003 2713 m
4003 2111 l
st
gr
gs
gs
1 -1 sc
454 -2996 tr
20 ro
/MC1_Arial 225 self 0 0 m
(seqr)[113 125 125 75 ] xs
1 -1 sc
gr
gr
gs
gs
1 -1 sc
831 -3026 tr
20 ro
/MC1_Arial 225 self 0 0 m
(seqw)[113 125 125 162 ] xs
1 -1 sc
gr
gr
gs
gs
1 -1 sc
1384 -2992 tr
20 ro
/MC1_Arial 225 self 0 0 m
(mds)[187 125 113 ] xs
1 -1 sc
gr
gr
gs
gs
1 -1 sc
1971 -2945 tr
20 ro
/MC1_Arial 225 self 0 0 m
(sql)[113 125 50 ] xs
1 -1 sc
gr
gr
gs
gs
1 -1 sc
2183 -3034 tr
20 ro
/MC1_Arial 225 self 0 0 m
(eigen)[125 50 125 125 125 ] xs
1 -1 sc
gr
gr
gs
gs
1 -1 sc
2772 -2987 tr
20 ro
/MC1_Arial 225 self 0 0 m
(web)[162 125 125 ] xs
1 -1 sc
gr
gr
gs
gs
1 -1 sc
3266 -2975 tr
20 ro
/MC1_Arial 225 self 0 0 m
(proj)[125 75 125 50 ] xs
1 -1 sc
gr
gr
gs
gs
1 -1 sc
3678 -2992 tr
20 ro
/MC1_Arial 225 self 0 0 m
(hpio)[125 125 50 125 ] xs
1 -1 sc
gr
gr
gs
1 -1 sc
/MC1_Arial 225 self 327 -2780 m
(0)[125 ] xs
1 -1 sc
gr
gs
1 -1 sc
/MC1_Arial 225 self 327 -2415 m
(1)[125 ] xs
1 -1 sc
gr
gs
1 -1 sc
/MC1_Arial 225 self 327 -2051 m
(2)[125 ] xs
1 -1 sc
gr
gs
1 -1 sc
/MC1_Arial 225 self 327 -1686 m
(3)[125 ] xs
1 -1 sc
gr
gs
1 -1 sc
/MC1_Arial 225 self 327 -1321 m
(4)[125 ] xs
1 -1 sc
gr
gs
1 -1 sc
/MC1_Arial 225 self 327 -956 m
(5)[125 ] xs
1 -1 sc
gr
gs
1 -1 sc
/MC1_Arial 225 self 202 -547 m
(14)[125 125 ] xs
1 -1 sc
gr
gs
1 -1 sc
/MC1_Arial 225 self 202 -363 m
(15)[125 125 ] xs
1 -1 sc
gr
gs
1 -1 sc
/MC1_Arial 225 self 202 -179 m
(16)[125 125 ] xs
1 -1 sc
gr
452 2713 m
452 2713 l
8 sw
st
681 2713 m
681 2713 l
st
911 2713 m
911 2713 l
st
1140 2713 m
1140 2713 l
st
1370 2713 m
1370 2713 l
st
1599 2713 m
1599 2713 l
st
1828 2713 m
1828 2713 l
st
2058 2713 m
2058 2713 l
st
2287 2713 m
2287 2713 l
st
2516 2713 m
2516 2713 l
st
2746 2713 m
2746 2713 l
st
2975 2713 m
2975 2713 l
st
3205 2713 m
3205 2713 l
st
3434 2713 m
3434 2713 l
st
3663 2713 m
3663 2713 l
st
3893 2713 m
3893 2713 l
st
4122 2713 m
4122 2713 l
st
452 2713 m
4122 2713 l
st
452 2713 m
4122 2713 l
st
452 2713 m
452 2713 l
st
452 2348 m
452 2348 l
st
452 1984 m
452 1984 l
st
452 1619 m
452 1619 l
st
452 1254 m
452 1254 l
st
452 889 m
452 889 l
st
452 480 m
452 480 l
st
452 296 m
452 296 l
st
452 112 m
452 112 l
st
452 2713 m
452 525 l
st
452 547 m
452 502 l
st
452 502 m
452 457 l
st
452 480 m
452 112 l
st
452 112 m
452 112 l
st
681 112 m
681 112 l
st
911 112 m
911 112 l
st
1140 112 m
1140 112 l
st
1370 112 m
1370 112 l
st
1599 112 m
1599 112 l
st
1828 112 m
1828 112 l
st
2058 112 m
2058 112 l
st
2287 112 m
2287 112 l
st
2516 112 m
2516 112 l
st
2746 112 m
2746 112 l
st
2975 112 m
2975 112 l
st
3205 112 m
3205 112 l
st
3434 112 m
3434 112 l
st
3663 112 m
3663 112 l
st
3893 112 m
3893 112 l
st
4122 112 m
4122 112 l
st
452 112 m
4122 112 l
st
452 2713 m
4122 2713 l
st
4122 2713 m
4122 2713 l
st
4122 2348 m
4122 2348 l
st
4122 1984 m
4122 1984 l
st
4122 1619 m
4122 1619 l
st
4122 1254 m
4122 1254 l
st
4122 889 m
4122 889 l
st
4122 480 m
4122 480 l
st
4122 296 m
4122 296 l
st
4122 112 m
4122 112 l
st
4122 2713 m
4122 525 l
st
4122 547 m
4122 502 l
st
4122 502 m
4122 457 l
st
4122 480 m
4122 112 l
st
gs
gs
1 -1 sc
4325 -1589 tr
90 ro
/MC2_Arial 220 self 0 0 m
( )[61 ] xs
1 -1 sc
gr
gr
gs
1 -1 sc
/MC3_Arial 220 self 2257 -17 m
( )[61 ] xs
1 -1 sc
gr
gs
gs
1 -1 sc
207 -2849 tr
90 ro
/MC2_Arial 226 self 0 0 m
(Normalized Throughput)[163 126 75 188 126 50 50 113 126 126 63 138 126 75 126 126 126 126 126 126 63 ] xs
1 -1 sc
gr
gr
1400 238 m
3480 238 l
3480 968 l
1400 968 l
cp
gs
1 1 1 rgb
eofi
gr
3 sw
st
gs
gs
gs
1492 271 m
1908 271 l
1908 476 l
1492 476 l
cp
gs
eofi
gr
6 sw
st
gr
gr
1 -1 sc
/MC3_Arial 190 self 1911 -438 m
( )[53 ] xs
1 -1 sc
1 -1 sc
1964 -438 m
(2KB)[106 127 127 ] xs
1 -1 sc
1 -1 sc
2324 -438 m
( )[53 ] xs
1 -1 sc
gs
gs
2381 272 m
2381 272 l
st
2381 321 m
2430 272 l
st
2381 370 m
2479 272 l
st
2381 419 m
2528 272 l
st
2381 468 m
2577 272 l
st
2423 475 m
2626 272 l
st
2472 475 m
2675 272 l
st
2521 475 m
2724 272 l
st
2570 475 m
2773 272 l
st
2619 475 m
2795 299 l
st
2668 475 m
2795 348 l
st
2717 475 m
2795 397 l
st
2766 475 m
2795 446 l
st
2380 271 m
2796 271 l
6 sw
st
2796 271 m
2796 476 l
st
2796 476 m
2380 476 l
st
2380 476 m
2380 271 l
st
gr
gr
1 -1 sc
2799 -438 m
( )[53 ] xs
1 -1 sc
1 -1 sc
2852 -438 m
(4KB)[106 127 127 ] xs
1 -1 sc
1 -1 sc
3212 -438 m
( )[53 ] xs
1 -1 sc
gs
gs
1492 503 m
1908 503 l
1908 708 l
1492 708 l
cp
gs
0.753 0.753 0.753 rgb
eofi
gr
6 sw
st
gr
gr
1 -1 sc
1911 -670 m
( )[53 ] xs
1 -1 sc
1 -1 sc
1964 -670 m
(8KB)[106 127 127 ] xs
1 -1 sc
1 -1 sc
2324 -670 m
( )[53 ] xs
1 -1 sc
gs
gs
2381 504 m
2584 707 l
st
2381 553 m
2535 707 l
st
2381 602 m
2486 707 l
st
2381 651 m
2437 707 l
st
2381 700 m
2388 707 l
st
2381 504 m
2584 707 l
st
2430 504 m
2633 707 l
st
2479 504 m
2682 707 l
st
2528 504 m
2731 707 l
st
2577 504 m
2780 707 l
st
2626 504 m
2795 673 l
st
2675 504 m
2795 624 l
st
2724 504 m
2795 575 l
st
2773 504 m
2795 526 l
st
2380 503 m
2796 503 l
6 sw
st
2796 503 m
2796 708 l
st
2796 708 m
2380 708 l
st
2380 708 m
2380 503 l
st
gr
gr
1 -1 sc
2799 -670 m
( )[53 ] xs
1 -1 sc
1 -1 sc
2852 -670 m
(16KB)[106 106 127 127 ] xs
1 -1 sc
gs
gs
1492 735 m
1908 735 l
1908 940 l
1492 940 l
cp
gs
1 0 0 rgb
eofi
gr
6 sw
st
gr
gr
1 -1 sc
1911 -902 m
( )[53 ] xs
1 -1 sc
1 -1 sc
1964 -902 m
(32KB)[106 106 127 127 ] xs
1 -1 sc
gr
gr
Save0 restore end
showpage
%%EOF
