%!PS-Adobe-3.0 EPSF-3.0
%%BoundingBox: 0 0 864 720
%%LanguageLevel: 2
%%Creator: OriginLab Corporation
%%Title: (C:\Users\Administrator\Documents\atc16-pagesplit\motive-lifetime.eps)
%%CreationDate: Wed Jan 20 15:21:22 2016
%%EndComments

/OriginLab::PSL1 128 dict dup begin def
/Save0 save def
%%BeginResource: procset OriginLab::PSL1
/wd{1 index where{pop pop pop}{bind def}ifelse}bind def
/setcmykcolor{1 sub 4 1 roll 3{3 index add neg dup 0 lt{pop 0}if 3 1 roll}repeat setrgbcolor pop}wd
/selectfont{dup type/arraytype eq{exch findfont exch makefont setfont}{exch findfont exch scalefont setfont}ifelse}wd
/xshow{1 index length 0 le{}{currentpoint exch 3 index length 1 sub 0 exch 1 exch{dup 5 index exch 1 getinterval show 3 index exch get add 2 copy exch moveto}for pop pop}ifelse pop pop}wd
/glyphshow{matrix currentmatrix exch currentfont dup/FontMatrix get concat currentpoint translate
 dup/Metrics get 2 index get 0 4 2 roll gsave/CharProcs get exch 2 copy known not{pop/.notdef}if
 get exec fill grestore moveto setmatrix}wd
/grayimage/image load def/rgbtogray{cvx exec dup length 3 idiv 1 sub 0 exch 1 exch{dup 3 mul dup 3 index exch get 255 div .3 mul exch
 1 add dup 4 index exch get 255 div .59 mul exch 1 add 4 index exch get 255 div .11 mul add add
 255 mul dup 255 gt{255}if round cvi 2 index 3 1 roll put}for dup length 3 idiv 0 exch getinterval}bind def
/colorimage{0 setgray pop pop cvlit/rgbtogray cvx 2 packedarray cvx grayimage}wd
/bd{bind def}bind def/ld{load def}bd/ed{exch def}bd/xd{cvx def}bd
/np/newpath ld/a/arc ld/m/moveto ld/l/lineto ld/c/curveto ld/rm/rmoveto ld/rl/rlineto ld/rc/rcurveto ld/cp/closepath ld/cpt/currentpoint ld
/tr/translate ld/sc/scale ld/ro/rotate ld/t/transform ld/it/itransform ld/dt/dtransform ld/idt/idtransform ld
/mtx/matrix ld/cmtx/currentmatrix ld/dmtx/defaultmatrix ld/smtx/setmatrix ld/catmtx/concatmatrix ld
/sw/setlinewidth ld/scap/setlinecap ld/sj/setlinejoin ld/sm/setmiterlimit ld/sd/setdash ld/rgb/setrgbcolor ld/crgb/currentrgbcolor ld/cmyk/setcmykcolor ld/gs/gsave ld/gr/grestore ld
/st/stroke ld/fi/fill ld/eofi/eofill ld/cl/clip ld/eocl/eoclip ld
/df/definefont ld/ff/findfont ld/sf/setfont ld/scf/scalefont ld/self/selectfont ld/cf/currentfont ld
/s/show ld/xs/xshow ld/gls/glyphshow ld/xgls{cpt 3 1 roll add exch 3 -1 roll gls m}bd
/cd/currentdict ld/i/index ld
/DrawBox{4 2 roll m 1 index 0 rl 0 exch rl neg 0 rl cp}bd
/plus.re { 6 { 3 index } repeat moveto 0 exch rlineto 0 rlineto pop pop neg 0 exch rlineto pop lineto closepath } def
/DrawBcc{4 2 roll m 2 copy 0 lt exch 0 lt xor{dup 0 exch rl exch 0 rl neg 0 exch rl}{exch dup 0 rl exch 0 exch rl neg 0 rl}ifelse cp}bd
/rectline{dup type/arraytype eq{dup length 0 exch 4 exch 4 sub{0 1 3{3 copy add get 4 1 roll pop}for pop 5 1 roll DrawBox}for pop}{DrawBox}ifelse}bd
/rectpath{dup type/arraytype eq{dup length 0 exch 4 exch 4 sub{0 1 3{3 copy add get 4 1 roll pop}for pop 5 1 roll DrawBcc}for pop}{DrawBcc}ifelse}bd
/pathproc{[{/m cvx}{/l cvx}{/c cvx}{/cp cvx}pathforall]cvx}bd
/L1img/image ld/L1idx[{0}
 {dup 7 and 3 1 roll -3 bitshift get exch 7 sub 1 mul bitshift  1 and}bind 1 index dup
 {dup 1 and 3 1 roll -1 bitshift get exch 1 sub 4 mul bitshift 15 and}bind 1 index dup dup
 {get}bind]def
/image{dup type/dicttype eq {dup/ImgCS get 0 get/Indexed eq}{false}ifelse
 {begin Width Height 8 ImageMatrix {rgb_string rgb_lookup
 cd/DataSource get dup type/filetype eq
 {mystring readstring pop}{exec}ifelse
 dup length 0 ne
 {L1idx BitsPerComponent get 0 1 Width 1 sub
 {3 copy exch exec exch 3 mul exch
 3 mul dup 5 index exch get exch 1 add dup 6 index exch get exch 1 add 6 index exch get
 7 index exch 4 index 2 add exch put 6 index exch 3 index 1 add exch put 5 index exch 2 index exch put pop
 }for pop pop pop }{pop pop pop ()}ifelse }false 3 colorimage end} {dup type/dicttype eq
 {{dup mark exch L1img pop pop}stopped{cleartomark begin Width Height BitsPerComponent ImageMatrix
 {cd/DataSource get dup type/filetype eq {mystring readstring pop}{exec}ifelse
 }false 3 colorimage end} if}{L1img}ifelse}ifelse
 }bd
/L1imgmask/imagemask ld/imagemask{dup type/dicttype eq
 {{dup mark exch L1imgmask pop pop}stopped {cleartomark begin Width Height polarityflag ImageMatrix
 {cd/DataSource get dup type/filetype eq {mystring readstring pop}{exec}ifelse
 }L1imgmask end}if}{L1imgmask}ifelse
 }bd
% Gradient function
/GradientStep 1 150 div def
/GradientStartRGB { /R1 exch def /G1 exch def /B1 exch def } def
/GradientEndRGB { /R2 exch def /G2 exch def /B2 exch def
/GradientSteps GradientLength GradientStep div def
/GradientRStep R2 R1 sub GradientSteps div def
/GradientGStep G2 G1 sub GradientSteps div def
/GradientBStep B2 B1 sub GradientSteps div def
} def
/GradientStepRGB { /R1 R1 GradientRStep add def
/G1 G1 GradientGStep add def
/B1 B1 GradientBStep add def
R1 G1 B1 setrgbcolor
} def
%%EndResource
/rectclip{np rectpath clip np}wd
/rectfill{gs np rectpath fi gr}wd
/rectstroke{gs np dup type/arraytype eq{dup length 6 eq}{false}ifelse{1 index type/arraytype eq{exch}{5 1 roll}ifelse rectline concat st}{rectline st}ifelse gr}wd
%%BeginResource: procset OriginLab::Image
/OriginLab::Image 32 dict dup begin
/BinProc{[currentfile mystring /readstring cvx /pop cvx] cvx bind}bd
/HexProc{[currentfile mystring /readhexstring cvx /pop cvx] cvx bind}bd
/Ascii85Proc{currentfile /ASCII85Decode filter}bd
/LZWA85{currentfile /ASCII85Decode filter /LZWDecode filter}bd
/ImgProcArray[/BinProc /HexProc /Ascii85Proc /LZWA85]def
/ImgDict{/ImgDict 16 dict def ImgDict dup begin /ImageType 1 def /MultipleDataSource false def end}bd
/L2Dec{{[1 0]}{[0 1]}ifelse}bd
/BegImg{ /Img_sv save def
 /ImgDir ed ImgProcArray exch get /ImgProc exch ld
 dup /polarityflag ed L2Dec /polarity ed /smoothflag ed
 tr /dx 2 index def /dy 1 index abs def sc
 string /mystring ed /bpc ed /ih ed /iw ed
 }bd
/EndImg {Img_sv restore}bd
/DoXImg{ /rgb_lookup ed /hival ed ImgDict dup begin
 [/Indexed /DeviceRGB hival rgb_lookup] /L1img where{pop/ImgCS ed}{setcolorspace}ifelse
 /rgb_string iw 3 mul string def
 /Width iw def
 /Height ih def
 /Decode [0 1 bpc{2 mul}repeat 1 sub] def
 /ImageMatrix
  ImgDir 0 eq{[iw 0 0 ih 0 0]}if
  ImgDir 1 eq{[iw neg 0 0 ih iw 0]}if
  ImgDir 2 eq{[iw 0 0 ih neg 0 ih]}if
  ImgDir 3 eq{[iw neg 0 0 ih neg iw ih]}if
  def
 /DataSource ImgProc def
 /BitsPerComponent bpc def
 /Interpolate smoothflag def
 end image}bd
/DoImg{ ImgDict dup begin
 [/DeviceRGB] /L1img where{pop/ImgCS ed}{setcolorspace}ifelse
 /rgb_string iw 3 mul string def
 /Width iw def
 /Height ih def
 /Decode [0 1 0 1 0 1] def
 /ImageMatrix
  ImgDir 0 eq{[iw 0 0 ih 0 0]}if
  ImgDir 1 eq{[iw neg 0 0 ih iw 0]}if
  ImgDir 2 eq{[iw 0 0 ih neg 0 ih]}if
  ImgDir 3 eq{[iw neg 0 0 ih neg iw ih]}if
  def
 /DataSource ImgProc def
 /BitsPerComponent 8 def
 /Interpolate smoothflag def
 end image}bd
end def
%%EndResource
%%BeginFont: /MC1_Arial
12 dict begin
/FontInfo 8 dict dup begin
/ItalicAngle 0 def
/UnderlinePosition -217.00 def
/UnderlineThickness 150.00 def
/StrikeoutPosition 530.00 def
/StrikeoutThickness 102.00 def
/isFixedPitch false def
end readonly def
/FontName /MC1_Arial def
/FontType 3 def
/FontMatrix [1 2048 div 0 0 1 2048 div 0 0] def
/FontBBox [-1361 -665 4096 2060] def
/Encoding 256 array def 0 1 255{Encoding exch/.notdef put}for
Encoding 32/s32 put
Encoding 46/s46 put
Encoding 48/s48 put
Encoding 49/s49 put
Encoding 50/s50 put
Encoding 51/s51 put
Encoding 52/s52 put
Encoding 53/s53 put
Encoding 54/s54 put
Encoding 55/s55 put
Encoding 56/s56 put
Encoding 57/s57 put
Encoding 98/s98 put
Encoding 100/s100 put
Encoding 101/s101 put
Encoding 103/s103 put
Encoding 104/s104 put
Encoding 105/s105 put
Encoding 106/s106 put
Encoding 108/s108 put
Encoding 109/s109 put
Encoding 110/s110 put
Encoding 111/s111 put
Encoding 112/s112 put
Encoding 113/s113 put
Encoding 114/s114 put
Encoding 115/s115 put
Encoding 119/s119 put
/BoundingBoxes 29 dict def
BoundingBoxes begin
/s32 [0 -434 569 1854] def
/s46 [0 -434 569 1854] def
/s48 [0 -434 1139 1854] def
/s49 [0 -434 1139 1854] def
/s50 [0 -434 1139 1854] def
/s51 [0 -434 1139 1854] def
/s52 [0 -434 1139 1854] def
/s53 [0 -434 1139 1854] def
/s54 [0 -434 1139 1854] def
/s55 [0 -434 1139 1854] def
/s56 [0 -434 1139 1854] def
/s57 [0 -434 1139 1854] def
/s98 [0 -434 1139 1854] def
/s100 [0 -434 1139 1854] def
/s101 [0 -434 1139 1854] def
/s103 [0 -434 1139 1854] def
/s104 [0 -434 1139 1854] def
/s105 [0 -434 455 1854] def
/s106 [-94 -434 455 1854] def
/s108 [0 -434 455 1854] def
/s109 [0 -434 1706 1854] def
/s110 [0 -434 1139 1854] def
/s111 [0 -434 1139 1854] def
/s112 [0 -434 1139 1854] def
/s113 [0 -434 1139 1854] def
/s114 [0 -434 682 1854] def
/s115 [0 -434 1024 1854] def
/s119 [0 -434 1479 1854] def
end
/Metrics 29 dict def
 Metrics begin
/s32 569 def
/s46 569 def
/s48 1139 def
/s49 1139 def
/s50 1139 def
/s51 1139 def
/s52 1139 def
/s53 1139 def
/s54 1139 def
/s55 1139 def
/s56 1139 def
/s57 1139 def
/s98 1139 def
/s100 1139 def
/s101 1139 def
/s103 1139 def
/s104 1139 def
/s105 455 def
/s106 455 def
/s108 455 def
/s109 1706 def
/s110 1139 def
/s111 1139 def
/s112 1139 def
/s113 1139 def
/s114 682 def
/s115 1024 def
/s119 1479 def
end
/CharProcs 29 dict def
CharProcs begin
/.notdef {} def
/s46 {
186 0 m
186 205 186 0 186 205 c
391 205 186 205 391 205 c
391 0 391 205 391 0 c
186 0 391 0 186 0 c
closepath } bind def
/s48 {
85 723 m
85 896.33 102.83 1035.83 138.5 1141.5 c
174.17 1247.17 227.17 1328.67 297.5 1386 c
367.83 1443.33 456.33 1472 563 1472 c
641.67 1472 710.67 1456.17 770 1424.5 c
829.33 1392.83 878.33 1347.17 917 1287.5 c
955.67 1227.83 986 1155.17 1008 1069.5 c
1030 983.83 1041 868.33 1041 723 c
1041 551 1023.33 412.17 988 306.5 c
952.67 200.83 899.83 119.17 829.5 61.5 c
759.17 3.83 670.33 -25 563 -25 c
421.67 -25 310.67 25.67 230 127 c
133.33 249 85 447.67 85 723 c
closepath 270 723 m
270 482.33 298.17 322.17 354.5 242.5 c
410.83 162.83 480.33 123 563 123 c
645.67 123 715.17 163 771.5 243 c
827.83 323 856 483 856 723 c
856 964.33 827.83 1124.67 771.5 1204 c
715.17 1283.33 645 1323 561 1323 c
478.33 1323 412.33 1288 363 1218 c
301 1128.67 270 963.67 270 723 c
closepath } bind def
/s49 {
763 0 m
583 0 763 0 583 0 c
583 1147 583 0 583 1147 c
539.67 1105.67 482.83 1064.33 412.5 1023 c
342.17 981.67 279 950.67 223 930 c
223 1104 223 930 223 1104 c
323.67 1151.33 411.67 1208.67 487 1276 c
562.33 1343.33 615.67 1408.67 647 1472 c
763 1472 647 1472 763 1472 c
763 0 763 1472 763 0 c
closepath } bind def
/s50 {
1031 173 m
1031 0 1031 173 1031 0 c
62 0 1031 0 62 0 c
60.67 43.33 67.67 85 83 125 c
107.67 191 147.17 256 201.5 320 c
255.83 384 334.33 458 437 542 c
596.33 672.67 704 776.17 760 852.5 c
816 928.83 844 1001 844 1069 c
844 1140.33 818.5 1200.5 767.5 1249.5 c
716.5 1298.5 650 1323 568 1323 c
481.33 1323 412 1297 360 1245 c
308 1193 281.67 1121 281 1029 c
96 1048 281 1029 96 1048 c
108.67 1186 156.33 1291.17 239 1363.5 c
321.67 1435.83 432.67 1472 572 1472 c
712.67 1472 824 1433 906 1355 c
988 1277 1029 1180.33 1029 1065 c
1029 1006.33 1017 948.67 993 892 c
969 835.33 929.17 775.67 873.5 713 c
817.83 650.33 725.33 564.33 596 455 c
488 364.33 418.67 302.83 388 270.5 c
357.33 238.17 332 205.67 312 173 c
1031 173 312 173 1031 173 c
closepath } bind def
/s51 {
86 387 m
266 411 86 387 266 411 c
286.67 309 321.83 235.5 371.5 190.5 c
421.17 145.5 481.67 123 553 123 c
637.67 123 709.17 152.33 767.5 211 c
825.83 269.67 855 342.33 855 429 c
855 511.67 828 579.83 774 633.5 c
720 687.17 651.33 714 568 714 c
534 714 491.67 707.33 441 694 c
461 852 441 694 461 852 c
473 850.67 482.67 850 490 850 c
566.67 850 635.67 870 697 910 c
758.33 950 789 1011.67 789 1095 c
789 1161 766.67 1215.67 722 1259 c
677.33 1302.33 619.67 1324 549 1324 c
479 1324 420.67 1302 374 1258 c
327.33 1214 297.33 1148 284 1060 c
104 1092 284 1060 104 1092 c
126 1212.67 176 1306.17 254 1372.5 c
332 1438.83 429 1472 545 1472 c
625 1472 698.67 1454.83 766 1420.5 c
833.33 1386.17 884.83 1339.33 920.5 1280 c
956.17 1220.67 974 1157.67 974 1091 c
974 1027.67 957 970 923 918 c
889 866 838.67 824.67 772 794 c
858.67 774 926 732.5 974 669.5 c
1022 606.5 1046 527.67 1046 433 c
1046 305 999.33 196.5 906 107.5 c
812.67 18.5 694.67 -26 552 -26 c
423.33 -26 316.5 12.33 231.5 89 c
146.5 165.67 98 265 86 387 c
closepath } bind def
/s52 {
662 0 m
662 351 662 0 662 351 c
26 351 662 351 26 351 c
26 516 26 351 26 516 c
695 1466 26 516 695 1466 c
842 1466 695 1466 842 1466 c
842 516 842 1466 842 516 c
1040 516 842 516 1040 516 c
1040 351 1040 516 1040 351 c
842 351 1040 351 842 351 c
842 0 842 351 842 0 c
662 0 842 0 662 0 c
closepath 662 516 m
662 1177 662 516 662 1177 c
203 516 662 1177 203 516 c
662 516 203 516 662 516 c
closepath } bind def
/s53 {
85 384 m
274 400 85 384 274 400 c
288 308 320.5 238.83 371.5 192.5 c
422.5 146.17 484 123 556 123 c
642.67 123 716 155.67 776 221 c
836 286.33 866 373 866 481 c
866 583.67 837.17 664.67 779.5 724 c
721.83 783.33 646.33 813 553 813 c
495 813 442.67 799.83 396 773.5 c
349.33 747.17 312.67 713 286 671 c
117 693 286 671 117 693 c
259 1446 117 693 259 1446 c
988 1446 259 1446 988 1446 c
988 1274 988 1446 988 1274 c
403 1274 988 1274 403 1274 c
324 880 403 1274 324 880 c
412 941.33 504.33 972 601 972 c
729 972 837 927.67 925 839 c
1013 750.33 1057 636.33 1057 497 c
1057 364.33 1018.33 249.67 941 153 c
847 34.33 718.67 -25 556 -25 c
422.67 -25 313.83 12.33 229.5 87 c
145.17 161.67 97 260.67 85 384 c
closepath } bind def
/s54 {
1019 1107 m
840 1093 1019 1107 840 1093 c
824 1163.67 801.33 1215 772 1247 c
723.33 1298.33 663.33 1324 592 1324 c
534.67 1324 484.33 1308 441 1276 c
384.33 1234.67 339.67 1174.33 307 1095 c
274.33 1015.67 257.33 902.67 256 756 c
299.33 822 352.33 871 415 903 c
477.67 935 543.33 951 612 951 c
732 951 834.17 906.83 918.5 818.5 c
1002.83 730.17 1045 616 1045 476 c
1045 384 1025.17 298.5 985.5 219.5 c
945.83 140.5 891.33 80 822 38 c
752.67 -4 674 -25 586 -25 c
436 -25 313.67 30.17 219 140.5 c
124.33 250.83 77 432.67 77 686 c
77 969.33 129.33 1175.33 234 1304 c
325.33 1416 448.33 1472 603 1472 c
718.33 1472 812.83 1439.67 886.5 1375 c
960.17 1310.33 1004.33 1221 1019 1107 c
closepath 284 475 m
284 413 297.17 353.67 323.5 297 c
349.83 240.33 386.67 197.17 434 167.5 c
481.33 137.83 531 123 583 123 c
659 123 724.33 153.67 779 215 c
833.67 276.33 861 359.67 861 465 c
861 566.33 834 646.17 780 704.5 c
726 762.83 658 792 576 792 c
494.67 792 425.67 762.83 369 704.5 c
312.33 646.17 284 569.67 284 475 c
closepath } bind def
/s55 {
97 1274 m
97 1447 97 1274 97 1447 c
1046 1447 97 1447 1046 1447 c
1046 1307 1046 1447 1046 1307 c
952.67 1207.67 860.17 1075.67 768.5 911 c
676.83 746.33 606 577 556 403 c
520 280.33 497 146 487 0 c
302 0 487 0 302 0 c
304 115.33 326.67 254.67 370 418 c
413.33 581.33 475.5 738.83 556.5 890.5 c
637.5 1042.17 723.67 1170 815 1274 c
97 1274 815 1274 97 1274 c
closepath } bind def
/s56 {
362 795 m
287.33 822.33 232 861.33 196 912 c
160 962.67 142 1023.33 142 1094 c
142 1200.67 180.33 1290.33 257 1363 c
333.67 1435.67 435.67 1472 563 1472 c
691 1472 794 1434.83 872 1360.5 c
950 1286.17 989 1195.67 989 1089 c
989 1021 971.17 961.83 935.5 911.5 c
899.83 861.17 845.67 822.33 773 795 c
863 765.67 931.5 718.33 978.5 653 c
1025.5 587.67 1049 509.67 1049 419 c
1049 293.67 1004.67 188.33 916 103 c
827.33 17.67 710.67 -25 566 -25 c
421.33 -25 304.67 17.83 216 103.5 c
127.33 189.17 83 296 83 424 c
83 519.33 107.17 599.17 155.5 663.5 c
203.83 727.83 272.67 771.67 362 795 c
closepath 326 1100 m
326 1030.67 348.33 974 393 930 c
437.67 886 495.67 864 567 864 c
636.33 864 693.17 885.83 737.5 929.5 c
781.83 973.17 804 1026.67 804 1090 c
804 1156 781.17 1211.5 735.5 1256.5 c
689.83 1301.5 633 1324 565 1324 c
496.33 1324 439.33 1302 394 1258 c
348.67 1214 326 1161.33 326 1100 c
closepath 268 423 m
268 371.67 280.17 322 304.5 274 c
328.83 226 365 188.83 413 162.5 c
461 136.17 512.67 123 568 123 c
654 123 725 150.67 781 206 c
837 261.33 865 331.67 865 417 c
865 503.67 836.17 575.33 778.5 632 c
720.83 688.67 648.67 717 562 717 c
477.33 717 407.17 689 351.5 633 c
295.83 577 268 507 268 423 c
closepath } bind def
/s57 {
112 339 m
285 355 112 339 285 355 c
299.67 273.67 327.67 214.67 369 178 c
410.33 141.33 463.33 123 528 123 c
583.33 123 631.83 135.67 673.5 161 c
715.17 186.33 749.33 220.17 776 262.5 c
802.67 304.83 825 362 843 434 c
861 506 870 579.33 870 654 c
870 662 869.67 674 869 690 c
833 632.67 783.83 586.17 721.5 550.5 c
659.17 514.83 591.67 497 519 497 c
397.67 497 295 541 211 629 c
127 717 85 833 85 977 c
85 1125.67 128.83 1245.33 216.5 1336 c
304.17 1426.67 414 1472 546 1472 c
641.33 1472 728.5 1446.33 807.5 1395 c
886.5 1343.67 946.5 1270.5 987.5 1175.5 c
1028.5 1080.5 1049 943 1049 763 c
1049 575.67 1028.67 426.5 988 315.5 c
947.33 204.5 886.83 120 806.5 62 c
726.17 4 632 -25 524 -25 c
409.33 -25 315.67 6.83 243 70.5 c
170.33 134.17 126.67 223.67 112 339 c
closepath 849 986 m
849 1089.33 821.5 1171.33 766.5 1232 c
711.5 1292.67 645.33 1323 568 1323 c
488 1323 418.33 1290.33 359 1225 c
299.67 1159.67 270 1075 270 971 c
270 877.67 298.17 801.83 354.5 743.5 c
410.83 685.17 480.33 656 563 656 c
646.33 656 714.83 685.17 768.5 743.5 c
822.17 801.83 849 882.67 849 986 c
closepath } bind def
/s98 {
301 0 m
134 0 301 0 134 0 c
134 1466 134 0 134 1466 c
314 1466 134 1466 314 1466 c
314 943 314 1466 314 943 c
390 1038.33 487 1086 605 1086 c
670.33 1086 732.17 1072.83 790.5 1046.5 c
848.83 1020.17 896.83 983.17 934.5 935.5 c
972.17 887.83 1001.67 830.33 1023 763 c
1044.33 695.67 1055 623.67 1055 547 c
1055 365 1010 224.33 920 125 c
830 25.67 722 -24 596 -24 c
470.67 -24 372.33 28.33 301 133 c
301 0 301 133 301 0 c
closepath 299 539 m
299 411.67 316.33 319.67 351 263 c
407.67 170.33 484.33 124 581 124 c
659.67 124 727.67 158.17 785 226.5 c
842.33 294.83 871 396.67 871 532 c
871 670.67 843.5 773 788.5 839 c
733.5 905 667 938 589 938 c
510.33 938 442.33 903.83 385 835.5 c
327.67 767.17 299 668.33 299 539 c
closepath } bind def
/s100 {
824 0 m
824 134 824 0 824 134 c
756.67 28.67 657.67 -24 527 -24 c
442.33 -24 364.5 -0.67 293.5 46 c
222.5 92.67 167.5 157.83 128.5 241.5 c
89.5 325.17 70 421.33 70 530 c
70 636 87.67 732.17 123 818.5 c
158.33 904.83 211.33 971 282 1017 c
352.67 1063 431.67 1086 519 1086 c
583 1086 640 1072.5 690 1045.5 c
740 1018.5 780.67 983.33 812 940 c
812 1466 812 940 812 1466 c
991 1466 812 1466 991 1466 c
991 0 991 1466 991 0 c
824 0 991 0 824 0 c
closepath 255 530 m
255 394 283.67 292.33 341 225 c
398.33 157.67 466 124 544 124 c
622.67 124 689.5 156.17 744.5 220.5 c
799.5 284.83 827 383 827 515 c
827 660.33 799 767 743 835 c
687 903 618 937 536 937 c
456 937 389.17 904.33 335.5 839 c
281.83 773.67 255 670.67 255 530 c
closepath } bind def
/s101 {
862 342 m
1048 319 862 342 1048 319 c
1018.67 210.33 964.33 126 885 66 c
805.67 6 704.33 -24 581 -24 c
425.67 -24 302.5 23.83 211.5 119.5 c
120.5 215.17 75 349.33 75 522 c
75 700.67 121 839.33 213 938 c
305 1036.67 424.33 1086 571 1086 c
713 1086 829 1037.67 919 941 c
1009 844.33 1054 708.33 1054 533 c
1054 522.33 1053.67 506.33 1053 485 c
261 485 1053 485 261 485 c
267.67 368.33 300.67 279 360 217 c
419.33 155 493.33 124 582 124 c
648 124 704.33 141.33 751 176 c
797.67 210.67 834.67 266 862 342 c
closepath 271 633 m
864 633 271 633 864 633 c
856 722.33 833.33 789.33 796 834 c
738.67 903.33 664.33 938 573 938 c
490.33 938 420.83 910.33 364.5 855 c
308.17 799.67 277 725.67 271 633 c
closepath } bind def
/s103 {
102 -88 m
277 -114 102 -88 277 -114 c
284.33 -168 304.67 -207.33 338 -232 c
382.67 -265.33 443.67 -282 521 -282 c
604.33 -282 668.67 -265.33 714 -232 c
759.33 -198.67 790 -152 806 -92 c
815.33 -55.33 819.67 21.67 819 139 c
740.33 46.33 642.33 0 525 0 c
379 0 266 52.67 186 158 c
106 263.33 66 389.67 66 537 c
66 638.33 84.33 731.83 121 817.5 c
157.67 903.17 210.83 969.33 280.5 1016 c
350.17 1062.67 432 1086 526 1086 c
651.33 1086 754.67 1035.33 836 934 c
836 1062 836 934 836 1062 c
1002 1062 836 1062 1002 1062 c
1002 144 1002 1062 1002 144 c
1002 -21.33 985.17 -138.5 951.5 -207.5 c
917.83 -276.5 864.5 -331 791.5 -371 c
718.5 -411 628.67 -431 522 -431 c
395.33 -431 293 -402.5 215 -345.5 c
137 -288.5 99.33 -202.67 102 -88 c
closepath 251 550 m
251 410.67 278.67 309 334 245 c
389.33 181 458.67 149 542 149 c
624.67 149 694 180.83 750 244.5 c
806 308.17 834 408 834 544 c
834 674 805.17 772 747.5 838 c
689.83 904 620.33 937 539 937 c
459 937 391 904.5 335 839.5 c
279 774.5 251 678 251 550 c
closepath } bind def
/s104 {
135 0 m
135 1466 135 0 135 1466 c
315 1466 135 1466 315 1466 c
315 940 315 1466 315 940 c
399 1037.33 505 1086 633 1086 c
711.67 1086 780 1070.5 838 1039.5 c
896 1008.5 937.5 965.67 962.5 911 c
987.5 856.33 1000 777 1000 673 c
1000 0 1000 673 1000 0 c
820 0 1000 0 820 0 c
820 673 820 0 820 673 c
820 763 800.5 828.5 761.5 869.5 c
722.5 910.5 667.33 931 596 931 c
542.67 931 492.5 917.17 445.5 889.5 c
398.5 861.83 365 824.33 345 777 c
325 729.67 315 664.33 315 581 c
315 0 315 581 315 0 c
135 0 315 0 135 0 c
closepath } bind def
/s105 {
136 1259 m
136 1466 136 1259 136 1466 c
316 1466 136 1466 316 1466 c
316 1259 316 1466 316 1259 c
136 1259 316 1259 136 1259 c
closepath 136 0 m
136 1062 136 0 136 1062 c
316 1062 136 1062 316 1062 c
316 0 316 1062 316 0 c
136 0 316 0 136 0 c
closepath } bind def
/s106 {
134 1257 m
134 1466 134 1257 134 1466 c
314 1466 134 1466 314 1466 c
314 1257 314 1466 314 1257 c
134 1257 314 1257 134 1257 c
closepath -94 -412 m
-60 -259 -94 -412 -60 -259 c
-24 -268.33 4.33 -273 25 -273 c
61.67 -273 89 -260.83 107 -236.5 c
125 -212.17 134 -151.33 134 -54 c
134 1062 134 -54 134 1062 c
314 1062 134 1062 314 1062 c
314 -58 314 1062 314 -58 c
314 -188.67 297 -279.67 263 -331 c
219.67 -397.67 147.67 -431 47 -431 c
-1.67 -431 -48.67 -424.67 -94 -412 c
closepath } bind def
/s108 {
131 0 m
131 1466 131 0 131 1466 c
311 1466 131 1466 311 1466 c
311 0 311 1466 311 0 c
131 0 311 0 131 0 c
closepath } bind def
/s109 {
135 0 m
135 1062 135 0 135 1062 c
296 1062 135 1062 296 1062 c
296 913 296 1062 296 913 c
329.33 965 373.67 1006.83 429 1038.5 c
484.33 1070.17 547.33 1086 618 1086 c
696.67 1086 761.17 1069.67 811.5 1037 c
861.83 1004.33 897.33 958.67 918 900 c
1002 1024 1111.33 1086 1246 1086 c
1351.33 1086 1432.33 1056.83 1489 998.5 c
1545.67 940.17 1574 850.33 1574 729 c
1574 0 1574 729 1574 0 c
1395 0 1574 0 1395 0 c
1395 669 1395 0 1395 669 c
1395 741 1389.17 792.83 1377.5 824.5 c
1365.83 856.17 1344.67 881.67 1314 901 c
1283.33 920.33 1247.33 930 1206 930 c
1131.33 930 1069.33 905.17 1020 855.5 c
970.67 805.83 946 726.33 946 617 c
946 0 946 617 946 0 c
766 0 946 0 766 0 c
766 690 766 0 766 690 c
766 770 751.33 830 722 870 c
692.67 910 644.67 930 578 930 c
527.33 930 480.5 916.67 437.5 890 c
394.5 863.33 363.33 824.33 344 773 c
324.67 721.67 315 647.67 315 551 c
315 0 315 551 315 0 c
135 0 315 0 135 0 c
closepath } bind def
/s110 {
135 0 m
135 1062 135 0 135 1062 c
297 1062 135 1062 297 1062 c
297 911 297 1062 297 911 c
375 1027.67 487.67 1086 635 1086 c
699 1086 757.83 1074.5 811.5 1051.5 c
865.17 1028.5 905.33 998.33 932 961 c
958.67 923.67 977.33 879.33 988 828 c
994.67 794.67 998 736.33 998 653 c
998 0 998 653 998 0 c
818 0 998 0 818 0 c
818 646 818 0 818 646 c
818 719.33 811 774.17 797 810.5 c
783 846.83 758.17 875.83 722.5 897.5 c
686.83 919.17 645 930 597 930 c
520.33 930 454.17 905.67 398.5 857 c
342.83 808.33 315 716 315 580 c
315 0 315 580 315 0 c
135 0 315 0 135 0 c
closepath } bind def
/s111 {
68 531 m
68 727.67 122.67 873.33 232 968 c
323.33 1046.67 434.67 1086 566 1086 c
712 1086 831.33 1038.17 924 942.5 c
1016.67 846.83 1063 714.67 1063 546 c
1063 409.33 1042.5 301.83 1001.5 223.5 c
960.5 145.17 900.83 84.33 822.5 41 c
744.17 -2.33 658.67 -24 566 -24 c
417.33 -24 297.17 23.67 205.5 119 c
113.83 214.33 68 351.67 68 531 c
closepath 253 531 m
253 395 282.67 293.17 342 225.5 c
401.33 157.83 476 124 566 124 c
655.33 124 729.67 158 789 226 c
848.33 294 878 397.67 878 537 c
878 668.33 848.17 767.83 788.5 835.5 c
728.83 903.17 654.67 937 566 937 c
476 937 401.33 903.33 342 836 c
282.67 768.67 253 667 253 531 c
closepath } bind def
/s112 {
135 -407 m
135 1062 135 -407 135 1062 c
299 1062 135 1062 299 1062 c
299 924 299 1062 299 924 c
337.67 978 381.33 1018.5 430 1045.5 c
478.67 1072.5 537.67 1086 607 1086 c
697.67 1086 777.67 1062.67 847 1016 c
916.33 969.33 968.67 903.5 1004 818.5 c
1039.33 733.5 1057 640.33 1057 539 c
1057 430.33 1037.5 332.5 998.5 245.5 c
959.5 158.5 902.83 91.83 828.5 45.5 c
754.17 -0.83 676 -24 594 -24 c
534 -24 480.17 -11.33 432.5 14 c
384.83 39.33 345.67 71.33 315 110 c
315 -407 315 110 315 -407 c
135 -407 315 -407 135 -407 c
closepath 298 525 m
298 388.33 325.67 287.33 381 222 c
436.33 156.67 503.33 124 582 124 c
662 124 730.5 157.83 787.5 225.5 c
844.5 293.17 873 398 873 540 c
873 675.33 845.17 776.67 789.5 844 c
733.83 911.33 667.33 945 590 945 c
513.33 945 445.5 909.17 386.5 837.5 c
327.5 765.83 298 661.67 298 525 c
closepath } bind def
/s113 {
812 -407 m
812 113 812 -407 812 113 c
784 73.67 744.83 41 694.5 15 c
644.17 -11 590.67 -24 534 -24 c
408 -24 299.5 26.33 208.5 127 c
117.5 227.67 72 365.67 72 541 c
72 647.67 90.5 743.33 127.5 828 c
164.5 912.67 218.17 976.83 288.5 1020.5 c
358.83 1064.17 436 1086 520 1086 c
651.33 1086 754.67 1030.67 830 920 c
830 1062 830 920 830 1062 c
992 1062 830 1062 992 1062 c
992 -407 992 1062 992 -407 c
812 -407 992 -407 812 -407 c
closepath 257 534 m
257 397.33 285.67 294.83 343 226.5 c
400.33 158.17 469 124 549 124 c
625.67 124 691.67 156.5 747 221.5 c
802.33 286.5 830 385.33 830 518 c
830 659.33 800.83 765.67 742.5 837 c
684.17 908.33 615.67 944 537 944 c
459 944 392.83 910.83 338.5 844.5 c
284.17 778.17 257 674.67 257 534 c
closepath } bind def
/s114 {
133 0 m
133 1062 133 0 133 1062 c
295 1062 133 1062 295 1062 c
295 901 295 1062 295 901 c
336.33 976.33 374.5 1026 409.5 1050 c
444.5 1074 483 1086 525 1086 c
585.67 1086 647.33 1066.67 710 1028 c
648 861 710 1028 648 861 c
604 887 560 900 516 900 c
476.67 900 441.33 888.17 410 864.5 c
378.67 840.83 356.33 808 343 766 c
323 702 313 632 313 556 c
313 0 313 556 313 0 c
133 0 313 0 133 0 c
closepath } bind def
/s115 {
63 317 m
241 345 63 317 241 345 c
251 273.67 278.83 219 324.5 181 c
370.17 143 434 124 516 124 c
598.67 124 660 140.83 700 174.5 c
740 208.17 760 247.67 760 293 c
760 333.67 742.33 365.67 707 389 c
682.33 405 621 425.33 523 450 c
391 483.33 299.5 512.17 248.5 536.5 c
197.5 560.83 158.83 594.5 132.5 637.5 c
106.17 680.5 93 728 93 780 c
93 827.33 103.83 871.17 125.5 911.5 c
147.17 951.83 176.67 985.33 214 1012 c
242 1032.67 280.17 1050.17 328.5 1064.5 c
376.83 1078.83 428.67 1086 484 1086 c
567.33 1086 640.5 1074 703.5 1050 c
766.5 1026 813 993.5 843 952.5 c
873 911.5 893.67 856.67 905 788 c
729 764 905 788 729 764 c
721 818.67 697.83 861.33 659.5 892 c
621.17 922.67 567 938 497 938 c
414.33 938 355.33 924.33 320 897 c
284.67 869.67 267 837.67 267 801 c
267 777.67 274.33 756.67 289 738 c
303.67 718.67 326.67 702.67 358 690 c
376 683.33 429 668 517 644 c
644.33 610 733.17 582.17 783.5 560.5 c
833.83 538.83 873.33 507.33 902 466 c
930.67 424.67 945 373.33 945 312 c
945 252 927.5 195.5 892.5 142.5 c
857.5 89.5 807 48.5 741 19.5 c
675 -9.5 600.33 -24 517 -24 c
379 -24 273.83 4.67 201.5 62 c
129.17 119.33 83 204.33 63 317 c
closepath } bind def
/s119 {
331 0 m
6 1062 331 0 6 1062 c
192 1062 6 1062 192 1062 c
361 449 192 1062 361 449 c
424 221 361 449 424 221 c
426.67 232.33 445 305.33 479 440 c
648 1062 479 440 648 1062 c
833 1062 648 1062 833 1062 c
992 446 833 1062 992 446 c
1045 243 992 446 1045 243 c
1106 448 1045 243 1106 448 c
1288 1062 1106 448 1288 1062 c
1463 1062 1288 1062 1463 1062 c
1131 0 1463 1062 1131 0 c
944 0 1131 0 944 0 c
775 636 944 0 775 636 c
734 817 775 636 734 817 c
519 0 734 817 519 0 c
331 0 519 0 331 0 c
closepath } bind def
end
/BuildGlyph {
 exch dup /Metrics get 2 index get 0 setcharwidth
/CharProcs get exch 2 copy known not{pop/.notdef}if get exec fill}bind def
/BuildChar {
1 index /Encoding get exch get
1 index /BuildGlyph get exec
} bind def
currentdict end /MC1_Arial exch definefont pop
%%EndFont
%%BeginFont: /MC2_Arial
12 dict begin
/FontInfo 8 dict dup begin
/ItalicAngle 0 def
/UnderlinePosition -217.00 def
/UnderlineThickness 150.00 def
/StrikeoutPosition 530.00 def
/StrikeoutThickness 102.00 def
/isFixedPitch false def
end readonly def
/FontName /MC2_Arial def
/FontType 3 def
/FontMatrix [1 2048 div 0 0 1 2048 div 0 0] def
/FontBBox [-1361 -665 4096 2060] def
/Encoding 256 array def 0 1 255{Encoding exch/.notdef put}for
Encoding 32/s32 put
Encoding 76/s76 put
Encoding 78/s78 put
Encoding 97/s97 put
Encoding 101/s101 put
Encoding 102/s102 put
Encoding 105/s105 put
Encoding 108/s108 put
Encoding 109/s109 put
Encoding 111/s111 put
Encoding 114/s114 put
Encoding 116/s116 put
Encoding 122/s122 put
/BoundingBoxes 14 dict def
BoundingBoxes begin
/s32 [0 -434 569 1854] def
/s76 [0 -434 1139 1854] def
/s78 [0 -434 1479 1854] def
/s97 [0 -434 1139 1854] def
/s101 [0 -434 1139 1854] def
/s102 [0 -434 569 1854] def
/s105 [0 -434 455 1854] def
/s108 [0 -434 455 1854] def
/s109 [0 -434 1706 1854] def
/s111 [0 -434 1139 1854] def
/s114 [0 -434 682 1854] def
/s116 [0 -434 569 1854] def
/s122 [0 -434 1024 1854] def
end
/Metrics 14 dict def
 Metrics begin
/s32 569 def
/s76 1139 def
/s78 1479 def
/s97 1139 def
/s101 1139 def
/s102 569 def
/s105 455 def
/s108 455 def
/s109 1706 def
/s111 1139 def
/s114 682 def
/s116 569 def
/s122 1024 def
end
/CharProcs 14 dict def
CharProcs begin
/.notdef {} def
/s76 {
150 0 m
150 1466 150 0 150 1466 c
344 1466 150 1466 344 1466 c
344 173 344 1466 344 173 c
1066 173 344 173 1066 173 c
1066 0 1066 173 1066 0 c
150 0 1066 0 150 0 c
closepath } bind def
/s78 {
156 0 m
156 1466 156 0 156 1466 c
355 1466 156 1466 355 1466 c
1125 315 355 1466 1125 315 c
1125 1466 1125 315 1125 1466 c
1311 1466 1125 1466 1311 1466 c
1311 0 1311 1466 1311 0 c
1112 0 1311 0 1112 0 c
342 1152 1112 0 342 1152 c
342 0 342 1152 342 0 c
156 0 342 0 156 0 c
closepath } bind def
/s97 {
828 131 m
761.33 74.33 697.17 34.33 635.5 11 c
573.83 -12.33 507.67 -24 437 -24 c
320.33 -24 230.67 4.5 168 61.5 c
105.33 118.5 74 191.33 74 280 c
74 332 85.83 379.5 109.5 422.5 c
133.17 465.5 164.17 500 202.5 526 c
240.83 552 284 571.67 332 585 c
367.33 594.33 420.67 603.33 492 612 c
637.33 629.33 744.33 650 813 674 c
813.67 698.67 814 714.33 814 721 c
814 794.33 797 846 763 876 c
717 916.67 648.67 937 558 937 c
473.33 937 410.83 922.17 370.5 892.5 c
330.17 862.83 300.33 810.33 281 735 c
105 759 281 735 105 759 c
121 834.33 147.33 895.17 184 941.5 c
220.67 987.83 273.67 1023.5 343 1048.5 c
412.33 1073.5 492.67 1086 584 1086 c
674.67 1086 748.33 1075.33 805 1054 c
861.67 1032.67 903.33 1005.83 930 973.5 c
956.67 941.17 975.33 900.33 986 851 c
992 820.33 995 765 995 685 c
995 445 995 685 995 445 c
995 277.67 998.83 171.83 1006.5 127.5 c
1014.17 83.17 1029.33 40.67 1052 0 c
864 0 1052 0 864 0 c
845.33 37.33 833.33 81 828 131 c
closepath 813 533 m
747.67 506.33 649.67 483.67 519 465 c
445 454.33 392.67 442.33 362 429 c
331.33 415.67 307.67 396.17 291 370.5 c
274.33 344.83 266 316.33 266 285 c
266 237 284.17 197 320.5 165 c
356.83 133 410 117 480 117 c
549.33 117 611 132.17 665 162.5 c
719 192.83 758.67 234.33 784 287 c
803.33 327.67 813 387.67 813 467 c
813 533 813 467 813 533 c
closepath } bind def
/s101 {
862 342 m
1048 319 862 342 1048 319 c
1018.67 210.33 964.33 126 885 66 c
805.67 6 704.33 -24 581 -24 c
425.67 -24 302.5 23.83 211.5 119.5 c
120.5 215.17 75 349.33 75 522 c
75 700.67 121 839.33 213 938 c
305 1036.67 424.33 1086 571 1086 c
713 1086 829 1037.67 919 941 c
1009 844.33 1054 708.33 1054 533 c
1054 522.33 1053.67 506.33 1053 485 c
261 485 1053 485 261 485 c
267.67 368.33 300.67 279 360 217 c
419.33 155 493.33 124 582 124 c
648 124 704.33 141.33 751 176 c
797.67 210.67 834.67 266 862 342 c
closepath 271 633 m
864 633 271 633 864 633 c
856 722.33 833.33 789.33 796 834 c
738.67 903.33 664.33 938 573 938 c
490.33 938 420.83 910.33 364.5 855 c
308.17 799.67 277 725.67 271 633 c
closepath } bind def
/s102 {
178 0 m
178 922 178 0 178 922 c
19 922 178 922 19 922 c
19 1062 19 922 19 1062 c
178 1062 19 1062 178 1062 c
178 1175 178 1062 178 1175 c
178 1246.33 184.33 1299.33 197 1334 c
214.33 1380.67 244.83 1418.5 288.5 1447.5 c
332.17 1476.5 393.33 1491 472 1491 c
522.67 1491 578.67 1485 640 1473 c
613 1316 640 1473 613 1316 c
575.67 1322.67 540.33 1326 507 1326 c
452.33 1326 413.67 1314.33 391 1291 c
368.33 1267.67 357 1224 357 1160 c
357 1062 357 1160 357 1062 c
564 1062 357 1062 564 1062 c
564 922 564 1062 564 922 c
357 922 564 922 357 922 c
357 0 357 922 357 0 c
178 0 357 0 178 0 c
closepath } bind def
/s105 {
136 1259 m
136 1466 136 1259 136 1466 c
316 1466 136 1466 316 1466 c
316 1259 316 1466 316 1259 c
136 1259 316 1259 136 1259 c
closepath 136 0 m
136 1062 136 0 136 1062 c
316 1062 136 1062 316 1062 c
316 0 316 1062 316 0 c
136 0 316 0 136 0 c
closepath } bind def
/s108 {
131 0 m
131 1466 131 0 131 1466 c
311 1466 131 1466 311 1466 c
311 0 311 1466 311 0 c
131 0 311 0 131 0 c
closepath } bind def
/s109 {
135 0 m
135 1062 135 0 135 1062 c
296 1062 135 1062 296 1062 c
296 913 296 1062 296 913 c
329.33 965 373.67 1006.83 429 1038.5 c
484.33 1070.17 547.33 1086 618 1086 c
696.67 1086 761.17 1069.67 811.5 1037 c
861.83 1004.33 897.33 958.67 918 900 c
1002 1024 1111.33 1086 1246 1086 c
1351.33 1086 1432.33 1056.83 1489 998.5 c
1545.67 940.17 1574 850.33 1574 729 c
1574 0 1574 729 1574 0 c
1395 0 1574 0 1395 0 c
1395 669 1395 0 1395 669 c
1395 741 1389.17 792.83 1377.5 824.5 c
1365.83 856.17 1344.67 881.67 1314 901 c
1283.33 920.33 1247.33 930 1206 930 c
1131.33 930 1069.33 905.17 1020 855.5 c
970.67 805.83 946 726.33 946 617 c
946 0 946 617 946 0 c
766 0 946 0 766 0 c
766 690 766 0 766 690 c
766 770 751.33 830 722 870 c
692.67 910 644.67 930 578 930 c
527.33 930 480.5 916.67 437.5 890 c
394.5 863.33 363.33 824.33 344 773 c
324.67 721.67 315 647.67 315 551 c
315 0 315 551 315 0 c
135 0 315 0 135 0 c
closepath } bind def
/s111 {
68 531 m
68 727.67 122.67 873.33 232 968 c
323.33 1046.67 434.67 1086 566 1086 c
712 1086 831.33 1038.17 924 942.5 c
1016.67 846.83 1063 714.67 1063 546 c
1063 409.33 1042.5 301.83 1001.5 223.5 c
960.5 145.17 900.83 84.33 822.5 41 c
744.17 -2.33 658.67 -24 566 -24 c
417.33 -24 297.17 23.67 205.5 119 c
113.83 214.33 68 351.67 68 531 c
closepath 253 531 m
253 395 282.67 293.17 342 225.5 c
401.33 157.83 476 124 566 124 c
655.33 124 729.67 158 789 226 c
848.33 294 878 397.67 878 537 c
878 668.33 848.17 767.83 788.5 835.5 c
728.83 903.17 654.67 937 566 937 c
476 937 401.33 903.33 342 836 c
282.67 768.67 253 667 253 531 c
closepath } bind def
/s114 {
133 0 m
133 1062 133 0 133 1062 c
295 1062 133 1062 295 1062 c
295 901 295 1062 295 901 c
336.33 976.33 374.5 1026 409.5 1050 c
444.5 1074 483 1086 525 1086 c
585.67 1086 647.33 1066.67 710 1028 c
648 861 710 1028 648 861 c
604 887 560 900 516 900 c
476.67 900 441.33 888.17 410 864.5 c
378.67 840.83 356.33 808 343 766 c
323 702 313 632 313 556 c
313 0 313 556 313 0 c
133 0 313 0 133 0 c
closepath } bind def
/s116 {
528 161 m
554 2 528 161 554 2 c
503.33 -8.67 458 -14 418 -14 c
352.67 -14 302 -3.67 266 17 c
230 37.67 204.67 64.83 190 98.5 c
175.33 132.17 168 203 168 311 c
168 922 168 311 168 922 c
36 922 168 922 36 922 c
36 1062 36 922 36 1062 c
168 1062 36 1062 168 1062 c
168 1325 168 1062 168 1325 c
347 1433 168 1325 347 1433 c
347 1062 347 1433 347 1062 c
528 1062 347 1062 528 1062 c
528 922 528 1062 528 922 c
347 922 528 922 347 922 c
347 301 347 922 347 301 c
347 249.67 350.17 216.67 356.5 202 c
362.83 187.33 373.17 175.67 387.5 167 c
401.83 158.33 422.33 154 449 154 c
469 154 495.33 156.33 528 161 c
closepath } bind def
/s122 {
40 0 m
40 146 40 0 40 146 c
716 922 40 146 716 922 c
639.33 918 571.67 916 513 916 c
80 916 513 916 80 916 c
80 1062 80 916 80 1062 c
948 1062 80 1062 948 1062 c
948 943 948 1062 948 943 c
373 269 948 943 373 269 c
262 146 373 269 262 146 c
342.67 152 418.33 155 489 155 c
980 155 489 155 980 155 c
980 0 980 155 980 0 c
40 0 980 0 40 0 c
closepath } bind def
end
/BuildGlyph {
 exch dup /Metrics get 2 index get 0 setcharwidth
/CharProcs get exch 2 copy known not{pop/.notdef}if get exec fill}bind def
/BuildChar {
1 index /Encoding get exch get
1 index /BuildGlyph get exec
} bind def
currentdict end /MC2_Arial exch definefont pop
%%EndFont
%%BeginFont: /MC3_Arial
12 dict begin
/FontInfo 8 dict dup begin
/ItalicAngle 0 def
/UnderlinePosition -217.00 def
/UnderlineThickness 150.00 def
/StrikeoutPosition 530.00 def
/StrikeoutThickness 102.00 def
/isFixedPitch false def
end readonly def
/FontName /MC3_Arial def
/FontType 3 def
/FontMatrix [1 2048 div 0 0 1 2048 div 0 0] def
/FontBBox [-1361 -665 4096 2060] def
/Encoding 256 array def 0 1 255{Encoding exch/.notdef put}for
Encoding 32/s32 put
Encoding 49/s49 put
Encoding 50/s50 put
Encoding 51/s51 put
Encoding 52/s52 put
Encoding 54/s54 put
Encoding 56/s56 put
Encoding 75/s75 put
/BoundingBoxes 9 dict def
BoundingBoxes begin
/s32 [0 -434 569 1854] def
/s49 [0 -434 1139 1854] def
/s50 [0 -434 1139 1854] def
/s51 [0 -434 1139 1854] def
/s52 [0 -434 1139 1854] def
/s54 [0 -434 1139 1854] def
/s56 [0 -434 1139 1854] def
/s75 [0 -434 1366 1854] def
end
/Metrics 9 dict def
 Metrics begin
/s32 569 def
/s49 1139 def
/s50 1139 def
/s51 1139 def
/s52 1139 def
/s54 1139 def
/s56 1139 def
/s75 1366 def
end
/CharProcs 9 dict def
CharProcs begin
/.notdef {} def
/s49 {
763 0 m
583 0 763 0 583 0 c
583 1147 583 0 583 1147 c
539.67 1105.67 482.83 1064.33 412.5 1023 c
342.17 981.67 279 950.67 223 930 c
223 1104 223 930 223 1104 c
323.67 1151.33 411.67 1208.67 487 1276 c
562.33 1343.33 615.67 1408.67 647 1472 c
763 1472 647 1472 763 1472 c
763 0 763 1472 763 0 c
closepath } bind def
/s50 {
1031 173 m
1031 0 1031 173 1031 0 c
62 0 1031 0 62 0 c
60.67 43.33 67.67 85 83 125 c
107.67 191 147.17 256 201.5 320 c
255.83 384 334.33 458 437 542 c
596.33 672.67 704 776.17 760 852.5 c
816 928.83 844 1001 844 1069 c
844 1140.33 818.5 1200.5 767.5 1249.5 c
716.5 1298.5 650 1323 568 1323 c
481.33 1323 412 1297 360 1245 c
308 1193 281.67 1121 281 1029 c
96 1048 281 1029 96 1048 c
108.67 1186 156.33 1291.17 239 1363.5 c
321.67 1435.83 432.67 1472 572 1472 c
712.67 1472 824 1433 906 1355 c
988 1277 1029 1180.33 1029 1065 c
1029 1006.33 1017 948.67 993 892 c
969 835.33 929.17 775.67 873.5 713 c
817.83 650.33 725.33 564.33 596 455 c
488 364.33 418.67 302.83 388 270.5 c
357.33 238.17 332 205.67 312 173 c
1031 173 312 173 1031 173 c
closepath } bind def
/s51 {
86 387 m
266 411 86 387 266 411 c
286.67 309 321.83 235.5 371.5 190.5 c
421.17 145.5 481.67 123 553 123 c
637.67 123 709.17 152.33 767.5 211 c
825.83 269.67 855 342.33 855 429 c
855 511.67 828 579.83 774 633.5 c
720 687.17 651.33 714 568 714 c
534 714 491.67 707.33 441 694 c
461 852 441 694 461 852 c
473 850.67 482.67 850 490 850 c
566.67 850 635.67 870 697 910 c
758.33 950 789 1011.67 789 1095 c
789 1161 766.67 1215.67 722 1259 c
677.33 1302.33 619.67 1324 549 1324 c
479 1324 420.67 1302 374 1258 c
327.33 1214 297.33 1148 284 1060 c
104 1092 284 1060 104 1092 c
126 1212.67 176 1306.17 254 1372.5 c
332 1438.83 429 1472 545 1472 c
625 1472 698.67 1454.83 766 1420.5 c
833.33 1386.17 884.83 1339.33 920.5 1280 c
956.17 1220.67 974 1157.67 974 1091 c
974 1027.67 957 970 923 918 c
889 866 838.67 824.67 772 794 c
858.67 774 926 732.5 974 669.5 c
1022 606.5 1046 527.67 1046 433 c
1046 305 999.33 196.5 906 107.5 c
812.67 18.5 694.67 -26 552 -26 c
423.33 -26 316.5 12.33 231.5 89 c
146.5 165.67 98 265 86 387 c
closepath } bind def
/s52 {
662 0 m
662 351 662 0 662 351 c
26 351 662 351 26 351 c
26 516 26 351 26 516 c
695 1466 26 516 695 1466 c
842 1466 695 1466 842 1466 c
842 516 842 1466 842 516 c
1040 516 842 516 1040 516 c
1040 351 1040 516 1040 351 c
842 351 1040 351 842 351 c
842 0 842 351 842 0 c
662 0 842 0 662 0 c
closepath 662 516 m
662 1177 662 516 662 1177 c
203 516 662 1177 203 516 c
662 516 203 516 662 516 c
closepath } bind def
/s54 {
1019 1107 m
840 1093 1019 1107 840 1093 c
824 1163.67 801.33 1215 772 1247 c
723.33 1298.33 663.33 1324 592 1324 c
534.67 1324 484.33 1308 441 1276 c
384.33 1234.67 339.67 1174.33 307 1095 c
274.33 1015.67 257.33 902.67 256 756 c
299.33 822 352.33 871 415 903 c
477.67 935 543.33 951 612 951 c
732 951 834.17 906.83 918.5 818.5 c
1002.83 730.17 1045 616 1045 476 c
1045 384 1025.17 298.5 985.5 219.5 c
945.83 140.5 891.33 80 822 38 c
752.67 -4 674 -25 586 -25 c
436 -25 313.67 30.17 219 140.5 c
124.33 250.83 77 432.67 77 686 c
77 969.33 129.33 1175.33 234 1304 c
325.33 1416 448.33 1472 603 1472 c
718.33 1472 812.83 1439.67 886.5 1375 c
960.17 1310.33 1004.33 1221 1019 1107 c
closepath 284 475 m
284 413 297.17 353.67 323.5 297 c
349.83 240.33 386.67 197.17 434 167.5 c
481.33 137.83 531 123 583 123 c
659 123 724.33 153.67 779 215 c
833.67 276.33 861 359.67 861 465 c
861 566.33 834 646.17 780 704.5 c
726 762.83 658 792 576 792 c
494.67 792 425.67 762.83 369 704.5 c
312.33 646.17 284 569.67 284 475 c
closepath } bind def
/s56 {
362 795 m
287.33 822.33 232 861.33 196 912 c
160 962.67 142 1023.33 142 1094 c
142 1200.67 180.33 1290.33 257 1363 c
333.67 1435.67 435.67 1472 563 1472 c
691 1472 794 1434.83 872 1360.5 c
950 1286.17 989 1195.67 989 1089 c
989 1021 971.17 961.83 935.5 911.5 c
899.83 861.17 845.67 822.33 773 795 c
863 765.67 931.5 718.33 978.5 653 c
1025.5 587.67 1049 509.67 1049 419 c
1049 293.67 1004.67 188.33 916 103 c
827.33 17.67 710.67 -25 566 -25 c
421.33 -25 304.67 17.83 216 103.5 c
127.33 189.17 83 296 83 424 c
83 519.33 107.17 599.17 155.5 663.5 c
203.83 727.83 272.67 771.67 362 795 c
closepath 326 1100 m
326 1030.67 348.33 974 393 930 c
437.67 886 495.67 864 567 864 c
636.33 864 693.17 885.83 737.5 929.5 c
781.83 973.17 804 1026.67 804 1090 c
804 1156 781.17 1211.5 735.5 1256.5 c
689.83 1301.5 633 1324 565 1324 c
496.33 1324 439.33 1302 394 1258 c
348.67 1214 326 1161.33 326 1100 c
closepath 268 423 m
268 371.67 280.17 322 304.5 274 c
328.83 226 365 188.83 413 162.5 c
461 136.17 512.67 123 568 123 c
654 123 725 150.67 781 206 c
837 261.33 865 331.67 865 417 c
865 503.67 836.17 575.33 778.5 632 c
720.83 688.67 648.67 717 562 717 c
477.33 717 407.17 689 351.5 633 c
295.83 577 268 507 268 423 c
closepath } bind def
/s75 {
150 0 m
150 1466 150 0 150 1466 c
344 1466 150 1466 344 1466 c
344 739 344 1466 344 739 c
1072 1466 344 739 1072 1466 c
1335 1466 1072 1466 1335 1466 c
720 872 1335 1466 720 872 c
1362 0 720 872 1362 0 c
1106 0 1362 0 1106 0 c
584 742 1106 0 584 742 c
344 508 584 742 344 508 c
344 0 344 508 344 0 c
150 0 344 0 150 0 c
closepath } bind def
end
/BuildGlyph {
 exch dup /Metrics get 2 index get 0 setcharwidth
/CharProcs get exch 2 copy known not{pop/.notdef}if get exec fill}bind def
/BuildChar {
1 index /Encoding get exch get
1 index /BuildGlyph get exec
} bind def
currentdict end /MC3_Arial exch definefont pop
%%EndFont
/clipproc{clippath{[{/m cvx}{/l cvx}{/c cvx}{/cp cvx}pathforall}stopped
{cleartomark[pathbbox exch 3 i sub exch 2 i sub/rectpath cvx}if]np}bd
/iclmtx mtx cmtx def/iclpath clipproc xd/clinit{pathproc initclip np iclpath cl np exec}bd
/clmove{pathproc 3 1 roll clippath pathproc 2 i neg 2 i neg tr initclip np exec cl tr np exec}bd
/clrect[gs np iclpath{pathbbox}stopped{0 0 864 720 }if gr]def
/cloper{mtx cmtx iclmtx smtx exch exec smtx}bd
/cland{{exch cvx exec}cloper}bd
/clcopy{{exch clinit cvx exec}cloper}bd
/cldiff{{exch pathbbox 4 -1 roll clrect 0 get 2 copy gt{exch}if pop 4 1 roll
 3 -1 roll clrect 1 get 2 copy gt{exch}if pop 3 1 roll
 2 -1 roll clrect 2 get 2 copy lt{exch}if pop 2 1 roll
 1 -1 roll clrect 3 get 2 copy lt{exch}if pop 1 1 roll
 exch 3 i sub exch 2 i sub rectpath cvx exec}cloper}bd
/icl{{clinit}cloper}bd
0.239949 0.239942 sc

/initmtx mtx cmtx def
[1.00022 -0 0 -1.00025 0 3000.73] concat
gs
949 2794 m
949 464 l
3 sw
0.502 0.502 0.502 rgb
1 sj
1 scap
st
1469 2794 m
1469 464 l
st
1989 2794 m
1989 464 l
st
2509 2794 m
2509 464 l
st
3029 2794 m
3029 464 l
st
429 2561 m
3549 2561 l
st
429 2328 m
3549 2328 l
st
429 2095 m
3549 2095 l
st
429 1862 m
3549 1862 l
st
429 1629 m
3549 1629 l
st
429 1396 m
3549 1396 l
st
429 1163 m
3549 1163 l
st
429 930 m
3549 930 l
st
429 697 m
3549 697 l
st
gs
pathproc 429 464 3121 2331 np rectpath
/eocl cland
np exec
481 497 m
564 497 l
564 2794 l
481 2794 l
cp
gs
0 0 0 rgb
eofi
gr
5 sw
0 0 0 rgb
st
481 497 m
564 497 l
st
564 497 m
564 2794 l
st
481 2794 m
481 497 l
st
1001 554 m
1084 554 l
1084 2794 l
1001 2794 l
cp
gs
eofi
gr
st
1001 554 m
1084 554 l
st
1084 554 m
1084 2794 l
st
1001 2794 m
1001 554 l
st
1521 464 m
1604 464 l
1604 2794 l
1521 2794 l
cp
gs
eofi
gr
st
1604 464 m
1604 2794 l
st
1521 2794 m
1521 464 l
st
2041 505 m
2124 505 l
2124 2794 l
2041 2794 l
cp
gs
eofi
gr
st
2041 505 m
2124 505 l
st
2124 505 m
2124 2794 l
st
2041 2794 m
2041 505 l
st
2561 464 m
2644 464 l
2644 2794 l
2561 2794 l
cp
gs
eofi
gr
st
2644 464 m
2644 2794 l
st
2561 2794 m
2561 464 l
st
3081 586 m
3164 586 l
3164 2794 l
3081 2794 l
cp
gs
eofi
gr
st
3081 586 m
3164 586 l
st
3164 586 m
3164 2794 l
st
3081 2794 m
3081 586 l
st
gr
gs
pathproc 429 464 3121 2331 np rectpath
/eocl cland
np exec
565 648 m
565 648 l
0 0 0 rgb
st
565 697 m
614 648 l
st
565 746 m
646 665 l
st
565 795 m
646 714 l
st
565 844 m
646 763 l
st
565 893 m
646 812 l
st
565 942 m
646 861 l
st
565 991 m
646 910 l
st
565 1040 m
646 959 l
st
565 1089 m
646 1008 l
st
565 1138 m
646 1057 l
st
565 1187 m
646 1106 l
st
565 1236 m
646 1155 l
st
565 1285 m
646 1204 l
st
565 1334 m
646 1253 l
st
565 1383 m
646 1302 l
st
565 1432 m
646 1351 l
st
565 1481 m
646 1400 l
st
565 1530 m
646 1449 l
st
565 1579 m
646 1498 l
st
565 1628 m
646 1547 l
st
565 1677 m
646 1596 l
st
565 1726 m
646 1645 l
st
565 1775 m
646 1694 l
st
565 1824 m
646 1743 l
st
565 1873 m
646 1792 l
st
565 1922 m
646 1841 l
st
565 1971 m
646 1890 l
st
565 2020 m
646 1939 l
st
565 2069 m
646 1988 l
st
565 2118 m
646 2037 l
st
565 2167 m
646 2086 l
st
565 2216 m
646 2135 l
st
565 2265 m
646 2184 l
st
565 2314 m
646 2233 l
st
565 2363 m
646 2282 l
st
565 2412 m
646 2331 l
st
565 2461 m
646 2380 l
st
565 2510 m
646 2429 l
st
565 2559 m
646 2478 l
st
565 2608 m
646 2527 l
st
565 2657 m
646 2576 l
st
565 2706 m
646 2625 l
st
565 2755 m
646 2674 l
st
576 2793 m
646 2723 l
st
625 2793 m
646 2772 l
st
564 647 m
647 647 l
5 sw
st
647 647 m
647 2794 l
st
564 2794 m
564 647 l
st
1085 693 m
1085 693 l
3 sw
st
1085 742 m
1134 693 l
st
1085 791 m
1166 710 l
st
1085 840 m
1166 759 l
st
1085 889 m
1166 808 l
st
1085 938 m
1166 857 l
st
1085 987 m
1166 906 l
st
1085 1036 m
1166 955 l
st
1085 1085 m
1166 1004 l
st
1085 1134 m
1166 1053 l
st
1085 1183 m
1166 1102 l
st
1085 1232 m
1166 1151 l
st
1085 1281 m
1166 1200 l
st
1085 1330 m
1166 1249 l
st
1085 1379 m
1166 1298 l
st
1085 1428 m
1166 1347 l
st
1085 1477 m
1166 1396 l
st
1085 1526 m
1166 1445 l
st
1085 1575 m
1166 1494 l
st
1085 1624 m
1166 1543 l
st
1085 1673 m
1166 1592 l
st
1085 1722 m
1166 1641 l
st
1085 1771 m
1166 1690 l
st
1085 1820 m
1166 1739 l
st
1085 1869 m
1166 1788 l
st
1085 1918 m
1166 1837 l
st
1085 1967 m
1166 1886 l
st
1085 2016 m
1166 1935 l
st
1085 2065 m
1166 1984 l
st
1085 2114 m
1166 2033 l
st
1085 2163 m
1166 2082 l
st
1085 2212 m
1166 2131 l
st
1085 2261 m
1166 2180 l
st
1085 2310 m
1166 2229 l
st
1085 2359 m
1166 2278 l
st
1085 2408 m
1166 2327 l
st
1085 2457 m
1166 2376 l
st
1085 2506 m
1166 2425 l
st
1085 2555 m
1166 2474 l
st
1085 2604 m
1166 2523 l
st
1085 2653 m
1166 2572 l
st
1085 2702 m
1166 2621 l
st
1085 2751 m
1166 2670 l
st
1092 2793 m
1166 2719 l
st
1141 2793 m
1166 2768 l
st
1084 692 m
1167 692 l
5 sw
st
1167 692 m
1167 2794 l
st
1084 2794 m
1084 692 l
st
1605 482 m
1605 482 l
3 sw
st
1605 531 m
1654 482 l
st
1605 580 m
1686 499 l
st
1605 629 m
1686 548 l
st
1605 678 m
1686 597 l
st
1605 727 m
1686 646 l
st
1605 776 m
1686 695 l
st
1605 825 m
1686 744 l
st
1605 874 m
1686 793 l
st
1605 923 m
1686 842 l
st
1605 972 m
1686 891 l
st
1605 1021 m
1686 940 l
st
1605 1070 m
1686 989 l
st
1605 1119 m
1686 1038 l
st
1605 1168 m
1686 1087 l
st
1605 1217 m
1686 1136 l
st
1605 1266 m
1686 1185 l
st
1605 1315 m
1686 1234 l
st
1605 1364 m
1686 1283 l
st
1605 1413 m
1686 1332 l
st
1605 1462 m
1686 1381 l
st
1605 1511 m
1686 1430 l
st
1605 1560 m
1686 1479 l
st
1605 1609 m
1686 1528 l
st
1605 1658 m
1686 1577 l
st
1605 1707 m
1686 1626 l
st
1605 1756 m
1686 1675 l
st
1605 1805 m
1686 1724 l
st
1605 1854 m
1686 1773 l
st
1605 1903 m
1686 1822 l
st
1605 1952 m
1686 1871 l
st
1605 2001 m
1686 1920 l
st
1605 2050 m
1686 1969 l
st
1605 2099 m
1686 2018 l
st
1605 2148 m
1686 2067 l
st
1605 2197 m
1686 2116 l
st
1605 2246 m
1686 2165 l
st
1605 2295 m
1686 2214 l
st
1605 2344 m
1686 2263 l
st
1605 2393 m
1686 2312 l
st
1605 2442 m
1686 2361 l
st
1605 2491 m
1686 2410 l
st
1605 2540 m
1686 2459 l
st
1605 2589 m
1686 2508 l
st
1605 2638 m
1686 2557 l
st
1605 2687 m
1686 2606 l
st
1605 2736 m
1686 2655 l
st
1605 2785 m
1686 2704 l
st
1646 2793 m
1686 2753 l
st
1604 481 m
1687 481 l
5 sw
st
1687 481 m
1687 2794 l
st
1604 2794 m
1604 481 l
st
2125 644 m
2125 644 l
3 sw
st
2125 693 m
2174 644 l
st
2125 742 m
2206 661 l
st
2125 791 m
2206 710 l
st
2125 840 m
2206 759 l
st
2125 889 m
2206 808 l
st
2125 938 m
2206 857 l
st
2125 987 m
2206 906 l
st
2125 1036 m
2206 955 l
st
2125 1085 m
2206 1004 l
st
2125 1134 m
2206 1053 l
st
2125 1183 m
2206 1102 l
st
2125 1232 m
2206 1151 l
st
2125 1281 m
2206 1200 l
st
2125 1330 m
2206 1249 l
st
2125 1379 m
2206 1298 l
st
2125 1428 m
2206 1347 l
st
2125 1477 m
2206 1396 l
st
2125 1526 m
2206 1445 l
st
2125 1575 m
2206 1494 l
st
2125 1624 m
2206 1543 l
st
2125 1673 m
2206 1592 l
st
2125 1722 m
2206 1641 l
st
2125 1771 m
2206 1690 l
st
2125 1820 m
2206 1739 l
st
2125 1869 m
2206 1788 l
st
2125 1918 m
2206 1837 l
st
2125 1967 m
2206 1886 l
st
2125 2016 m
2206 1935 l
st
2125 2065 m
2206 1984 l
st
2125 2114 m
2206 2033 l
st
2125 2163 m
2206 2082 l
st
2125 2212 m
2206 2131 l
st
2125 2261 m
2206 2180 l
st
2125 2310 m
2206 2229 l
st
2125 2359 m
2206 2278 l
st
2125 2408 m
2206 2327 l
st
2125 2457 m
2206 2376 l
st
2125 2506 m
2206 2425 l
st
2125 2555 m
2206 2474 l
st
2125 2604 m
2206 2523 l
st
2125 2653 m
2206 2572 l
st
2125 2702 m
2206 2621 l
st
2125 2751 m
2206 2670 l
st
2132 2793 m
2206 2719 l
st
2181 2793 m
2206 2768 l
st
2124 643 m
2207 643 l
5 sw
st
2207 643 m
2207 2794 l
st
2124 2794 m
2124 643 l
st
2645 504 m
2645 504 l
3 sw
st
2645 553 m
2694 504 l
st
2645 602 m
2726 521 l
st
2645 651 m
2726 570 l
st
2645 700 m
2726 619 l
st
2645 749 m
2726 668 l
st
2645 798 m
2726 717 l
st
2645 847 m
2726 766 l
st
2645 896 m
2726 815 l
st
2645 945 m
2726 864 l
st
2645 994 m
2726 913 l
st
2645 1043 m
2726 962 l
st
2645 1092 m
2726 1011 l
st
2645 1141 m
2726 1060 l
st
2645 1190 m
2726 1109 l
st
2645 1239 m
2726 1158 l
st
2645 1288 m
2726 1207 l
st
2645 1337 m
2726 1256 l
st
2645 1386 m
2726 1305 l
st
2645 1435 m
2726 1354 l
st
2645 1484 m
2726 1403 l
st
2645 1533 m
2726 1452 l
st
2645 1582 m
2726 1501 l
st
2645 1631 m
2726 1550 l
st
2645 1680 m
2726 1599 l
st
2645 1729 m
2726 1648 l
st
2645 1778 m
2726 1697 l
st
2645 1827 m
2726 1746 l
st
2645 1876 m
2726 1795 l
st
2645 1925 m
2726 1844 l
st
2645 1974 m
2726 1893 l
st
2645 2023 m
2726 1942 l
st
2645 2072 m
2726 1991 l
st
2645 2121 m
2726 2040 l
st
2645 2170 m
2726 2089 l
st
2645 2219 m
2726 2138 l
st
2645 2268 m
2726 2187 l
st
2645 2317 m
2726 2236 l
st
2645 2366 m
2726 2285 l
st
2645 2415 m
2726 2334 l
st
2645 2464 m
2726 2383 l
st
2645 2513 m
2726 2432 l
st
2645 2562 m
2726 2481 l
st
2645 2611 m
2726 2530 l
st
2645 2660 m
2726 2579 l
st
2645 2709 m
2726 2628 l
st
2645 2758 m
2726 2677 l
st
2659 2793 m
2726 2726 l
st
2708 2793 m
2726 2775 l
st
2644 503 m
2727 503 l
5 sw
st
2727 503 m
2727 2794 l
st
2644 2794 m
2644 503 l
st
3165 1039 m
3165 1039 l
3 sw
st
3165 1088 m
3214 1039 l
st
3165 1137 m
3246 1056 l
st
3165 1186 m
3246 1105 l
st
3165 1235 m
3246 1154 l
st
3165 1284 m
3246 1203 l
st
3165 1333 m
3246 1252 l
st
3165 1382 m
3246 1301 l
st
3165 1431 m
3246 1350 l
st
3165 1480 m
3246 1399 l
st
3165 1529 m
3246 1448 l
st
3165 1578 m
3246 1497 l
st
3165 1627 m
3246 1546 l
st
3165 1676 m
3246 1595 l
st
3165 1725 m
3246 1644 l
st
3165 1774 m
3246 1693 l
st
3165 1823 m
3246 1742 l
st
3165 1872 m
3246 1791 l
st
3165 1921 m
3246 1840 l
st
3165 1970 m
3246 1889 l
st
3165 2019 m
3246 1938 l
st
3165 2068 m
3246 1987 l
st
3165 2117 m
3246 2036 l
st
3165 2166 m
3246 2085 l
st
3165 2215 m
3246 2134 l
st
3165 2264 m
3246 2183 l
st
3165 2313 m
3246 2232 l
st
3165 2362 m
3246 2281 l
st
3165 2411 m
3246 2330 l
st
3165 2460 m
3246 2379 l
st
3165 2509 m
3246 2428 l
st
3165 2558 m
3246 2477 l
st
3165 2607 m
3246 2526 l
st
3165 2656 m
3246 2575 l
st
3165 2705 m
3246 2624 l
st
3165 2754 m
3246 2673 l
st
3175 2793 m
3246 2722 l
st
3224 2793 m
3246 2771 l
st
3164 1038 m
3247 1038 l
5 sw
st
3247 1038 m
3247 2794 l
st
3164 2794 m
3164 1038 l
st
gr
gs
pathproc 429 464 3121 2331 np rectpath
/eocl cland
np exec
647 1025 m
731 1025 l
731 2794 l
647 2794 l
cp
gs
0.753 0.753 0.753 rgb
eofi
gr
5 sw
0.753 0.753 0.753 rgb
st
647 1025 m
731 1025 l
0 0 0 rgb
st
731 1025 m
731 2794 l
st
647 2794 m
647 1025 l
st
1167 1155 m
1251 1155 l
1251 2794 l
1167 2794 l
cp
gs
0.753 0.753 0.753 rgb
eofi
gr
0.753 0.753 0.753 rgb
st
1167 1155 m
1251 1155 l
0 0 0 rgb
st
1251 1155 m
1251 2794 l
st
1167 2794 m
1167 1155 l
st
1687 483 m
1771 483 l
1771 2794 l
1687 2794 l
cp
gs
0.753 0.753 0.753 rgb
eofi
gr
0.753 0.753 0.753 rgb
st
1687 483 m
1771 483 l
0 0 0 rgb
st
1771 483 m
1771 2794 l
st
1687 2794 m
1687 483 l
st
2207 831 m
2291 831 l
2291 2794 l
2207 2794 l
cp
gs
0.753 0.753 0.753 rgb
eofi
gr
0.753 0.753 0.753 rgb
st
2207 831 m
2291 831 l
0 0 0 rgb
st
2291 831 m
2291 2794 l
st
2207 2794 m
2207 831 l
st
2727 513 m
2811 513 l
2811 2794 l
2727 2794 l
cp
gs
0.753 0.753 0.753 rgb
eofi
gr
0.753 0.753 0.753 rgb
st
2727 513 m
2811 513 l
0 0 0 rgb
st
2811 513 m
2811 2794 l
st
2727 2794 m
2727 513 l
st
3247 1344 m
3331 1344 l
3331 2794 l
3247 2794 l
cp
gs
0.753 0.753 0.753 rgb
eofi
gr
0.753 0.753 0.753 rgb
st
3247 1344 m
3331 1344 l
0 0 0 rgb
st
3331 1344 m
3331 2794 l
st
3247 2794 m
3247 1344 l
st
gr
gs
pathproc 429 464 3121 2331 np rectpath
/eocl cland
np exec
732 1368 m
813 1449 l
0 0 0 rgb
st
732 1417 m
813 1498 l
st
732 1466 m
813 1547 l
st
732 1515 m
813 1596 l
st
732 1564 m
813 1645 l
st
732 1613 m
813 1694 l
st
732 1662 m
813 1743 l
st
732 1711 m
813 1792 l
st
732 1760 m
813 1841 l
st
732 1809 m
813 1890 l
st
732 1858 m
813 1939 l
st
732 1907 m
813 1988 l
st
732 1956 m
813 2037 l
st
732 2005 m
813 2086 l
st
732 2054 m
813 2135 l
st
732 2103 m
813 2184 l
st
732 2152 m
813 2233 l
st
732 2201 m
813 2282 l
st
732 2250 m
813 2331 l
st
732 2299 m
813 2380 l
st
732 2348 m
813 2429 l
st
732 2397 m
813 2478 l
st
732 2446 m
813 2527 l
st
732 2495 m
813 2576 l
st
732 2544 m
813 2625 l
st
732 2593 m
813 2674 l
st
732 2642 m
813 2723 l
st
732 2691 m
813 2772 l
st
732 2740 m
785 2793 l
st
732 2789 m
736 2793 l
st
732 1368 m
813 1449 l
st
781 1368 m
813 1400 l
st
731 1367 m
814 1367 l
5 sw
st
814 1367 m
814 2794 l
st
731 2794 m
731 1367 l
st
1252 1972 m
1333 2053 l
3 sw
st
1252 2021 m
1333 2102 l
st
1252 2070 m
1333 2151 l
st
1252 2119 m
1333 2200 l
st
1252 2168 m
1333 2249 l
st
1252 2217 m
1333 2298 l
st
1252 2266 m
1333 2347 l
st
1252 2315 m
1333 2396 l
st
1252 2364 m
1333 2445 l
st
1252 2413 m
1333 2494 l
st
1252 2462 m
1333 2543 l
st
1252 2511 m
1333 2592 l
st
1252 2560 m
1333 2641 l
st
1252 2609 m
1333 2690 l
st
1252 2658 m
1333 2739 l
st
1252 2707 m
1333 2788 l
st
1252 2756 m
1289 2793 l
st
1252 1972 m
1333 2053 l
st
1301 1972 m
1333 2004 l
st
1251 1971 m
1334 1971 l
5 sw
st
1334 1971 m
1334 2794 l
st
1251 2794 m
1251 1971 l
st
1772 486 m
1853 567 l
3 sw
st
1772 535 m
1853 616 l
st
1772 584 m
1853 665 l
st
1772 633 m
1853 714 l
st
1772 682 m
1853 763 l
st
1772 731 m
1853 812 l
st
1772 780 m
1853 861 l
st
1772 829 m
1853 910 l
st
1772 878 m
1853 959 l
st
1772 927 m
1853 1008 l
st
1772 976 m
1853 1057 l
st
1772 1025 m
1853 1106 l
st
1772 1074 m
1853 1155 l
st
1772 1123 m
1853 1204 l
st
1772 1172 m
1853 1253 l
st
1772 1221 m
1853 1302 l
st
1772 1270 m
1853 1351 l
st
1772 1319 m
1853 1400 l
st
1772 1368 m
1853 1449 l
st
1772 1417 m
1853 1498 l
st
1772 1466 m
1853 1547 l
st
1772 1515 m
1853 1596 l
st
1772 1564 m
1853 1645 l
st
1772 1613 m
1853 1694 l
st
1772 1662 m
1853 1743 l
st
1772 1711 m
1853 1792 l
st
1772 1760 m
1853 1841 l
st
1772 1809 m
1853 1890 l
st
1772 1858 m
1853 1939 l
st
1772 1907 m
1853 1988 l
st
1772 1956 m
1853 2037 l
st
1772 2005 m
1853 2086 l
st
1772 2054 m
1853 2135 l
st
1772 2103 m
1853 2184 l
st
1772 2152 m
1853 2233 l
st
1772 2201 m
1853 2282 l
st
1772 2250 m
1853 2331 l
st
1772 2299 m
1853 2380 l
st
1772 2348 m
1853 2429 l
st
1772 2397 m
1853 2478 l
st
1772 2446 m
1853 2527 l
st
1772 2495 m
1853 2576 l
st
1772 2544 m
1853 2625 l
st
1772 2593 m
1853 2674 l
st
1772 2642 m
1853 2723 l
st
1772 2691 m
1853 2772 l
st
1772 2740 m
1825 2793 l
st
1772 2789 m
1776 2793 l
st
1772 486 m
1853 567 l
st
1821 486 m
1853 518 l
st
1771 485 m
1854 485 l
5 sw
st
1854 485 m
1854 2794 l
st
1771 2794 m
1771 485 l
st
2292 1006 m
2373 1087 l
3 sw
st
2292 1055 m
2373 1136 l
st
2292 1104 m
2373 1185 l
st
2292 1153 m
2373 1234 l
st
2292 1202 m
2373 1283 l
st
2292 1251 m
2373 1332 l
st
2292 1300 m
2373 1381 l
st
2292 1349 m
2373 1430 l
st
2292 1398 m
2373 1479 l
st
2292 1447 m
2373 1528 l
st
2292 1496 m
2373 1577 l
st
2292 1545 m
2373 1626 l
st
2292 1594 m
2373 1675 l
st
2292 1643 m
2373 1724 l
st
2292 1692 m
2373 1773 l
st
2292 1741 m
2373 1822 l
st
2292 1790 m
2373 1871 l
st
2292 1839 m
2373 1920 l
st
2292 1888 m
2373 1969 l
st
2292 1937 m
2373 2018 l
st
2292 1986 m
2373 2067 l
st
2292 2035 m
2373 2116 l
st
2292 2084 m
2373 2165 l
st
2292 2133 m
2373 2214 l
st
2292 2182 m
2373 2263 l
st
2292 2231 m
2373 2312 l
st
2292 2280 m
2373 2361 l
st
2292 2329 m
2373 2410 l
st
2292 2378 m
2373 2459 l
st
2292 2427 m
2373 2508 l
st
2292 2476 m
2373 2557 l
st
2292 2525 m
2373 2606 l
st
2292 2574 m
2373 2655 l
st
2292 2623 m
2373 2704 l
st
2292 2672 m
2373 2753 l
st
2292 2721 m
2364 2793 l
st
2292 2770 m
2315 2793 l
st
2292 1006 m
2373 1087 l
st
2341 1006 m
2373 1038 l
st
2291 1005 m
2374 1005 l
5 sw
st
2374 1005 m
2374 2794 l
st
2291 2794 m
2291 1005 l
st
2812 551 m
2893 632 l
3 sw
st
2812 600 m
2893 681 l
st
2812 649 m
2893 730 l
st
2812 698 m
2893 779 l
st
2812 747 m
2893 828 l
st
2812 796 m
2893 877 l
st
2812 845 m
2893 926 l
st
2812 894 m
2893 975 l
st
2812 943 m
2893 1024 l
st
2812 992 m
2893 1073 l
st
2812 1041 m
2893 1122 l
st
2812 1090 m
2893 1171 l
st
2812 1139 m
2893 1220 l
st
2812 1188 m
2893 1269 l
st
2812 1237 m
2893 1318 l
st
2812 1286 m
2893 1367 l
st
2812 1335 m
2893 1416 l
st
2812 1384 m
2893 1465 l
st
2812 1433 m
2893 1514 l
st
2812 1482 m
2893 1563 l
st
2812 1531 m
2893 1612 l
st
2812 1580 m
2893 1661 l
st
2812 1629 m
2893 1710 l
st
2812 1678 m
2893 1759 l
st
2812 1727 m
2893 1808 l
st
2812 1776 m
2893 1857 l
st
2812 1825 m
2893 1906 l
st
2812 1874 m
2893 1955 l
st
2812 1923 m
2893 2004 l
st
2812 1972 m
2893 2053 l
st
2812 2021 m
2893 2102 l
st
2812 2070 m
2893 2151 l
st
2812 2119 m
2893 2200 l
st
2812 2168 m
2893 2249 l
st
2812 2217 m
2893 2298 l
st
2812 2266 m
2893 2347 l
st
2812 2315 m
2893 2396 l
st
2812 2364 m
2893 2445 l
st
2812 2413 m
2893 2494 l
st
2812 2462 m
2893 2543 l
st
2812 2511 m
2893 2592 l
st
2812 2560 m
2893 2641 l
st
2812 2609 m
2893 2690 l
st
2812 2658 m
2893 2739 l
st
2812 2707 m
2893 2788 l
st
2812 2756 m
2849 2793 l
st
2812 551 m
2893 632 l
st
2861 551 m
2893 583 l
st
2811 550 m
2894 550 l
5 sw
st
2894 550 m
2894 2794 l
st
2811 2794 m
2811 550 l
st
3332 1969 m
3413 2050 l
3 sw
st
3332 2018 m
3413 2099 l
st
3332 2067 m
3413 2148 l
st
3332 2116 m
3413 2197 l
st
3332 2165 m
3413 2246 l
st
3332 2214 m
3413 2295 l
st
3332 2263 m
3413 2344 l
st
3332 2312 m
3413 2393 l
st
3332 2361 m
3413 2442 l
st
3332 2410 m
3413 2491 l
st
3332 2459 m
3413 2540 l
st
3332 2508 m
3413 2589 l
st
3332 2557 m
3413 2638 l
st
3332 2606 m
3413 2687 l
st
3332 2655 m
3413 2736 l
st
3332 2704 m
3413 2785 l
st
3332 2753 m
3372 2793 l
st
3332 1969 m
3413 2050 l
st
3381 1969 m
3413 2001 l
st
3331 1968 m
3414 1968 l
5 sw
st
3414 1968 m
3414 2794 l
st
3331 2794 m
3331 1968 l
st
gr
gs
pathproc 429 464 3121 2331 np rectpath
/eocl cland
np exec
814 2299 m
897 2299 l
897 2794 l
814 2794 l
cp
gs
1 0 0 rgb
eofi
gr
5 sw
1 0 0 rgb
st
814 2299 m
897 2299 l
0 0 0 rgb
st
897 2299 m
897 2794 l
st
814 2794 m
814 2299 l
st
1334 2357 m
1417 2357 l
1417 2794 l
1334 2794 l
cp
gs
1 0 0 rgb
eofi
gr
1 0 0 rgb
st
1334 2357 m
1417 2357 l
0 0 0 rgb
st
1417 2357 m
1417 2794 l
st
1334 2794 m
1334 2357 l
st
1854 502 m
1937 502 l
1937 2794 l
1854 2794 l
cp
gs
1 0 0 rgb
eofi
gr
1 0 0 rgb
st
1854 502 m
1937 502 l
0 0 0 rgb
st
1937 502 m
1937 2794 l
st
1854 2794 m
1854 502 l
st
2374 1624 m
2457 1624 l
2457 2794 l
2374 2794 l
cp
gs
1 0 0 rgb
eofi
gr
1 0 0 rgb
st
2374 1624 m
2457 1624 l
0 0 0 rgb
st
2457 1624 m
2457 2794 l
st
2374 2794 m
2374 1624 l
st
2894 573 m
2977 573 l
2977 2794 l
2894 2794 l
cp
gs
1 0 0 rgb
eofi
gr
1 0 0 rgb
st
2894 573 m
2977 573 l
0 0 0 rgb
st
2977 573 m
2977 2794 l
st
2894 2794 m
2894 573 l
st
3414 2113 m
3497 2113 l
3497 2794 l
3414 2794 l
cp
gs
1 0 0 rgb
eofi
gr
1 0 0 rgb
st
3414 2113 m
3497 2113 l
0 0 0 rgb
st
3497 2113 m
3497 2794 l
st
3414 2794 m
3414 2113 l
st
gr
gs
1 -1 sc
0 0 0 rgb
/MC1_Arial 188 self 511 -2967 m
(mds)[157 105 94 ] xs
1 -1 sc
gr
gs
1 -1 sc
0 0 0 rgb
/MC1_Arial 188 self 1088 -2967 m
(sql)[94 105 42 ] xs
1 -1 sc
gr
gs
1 -1 sc
0 0 0 rgb
/MC1_Arial 188 self 1498 -2967 m
(eigen)[105 42 105 105 105 ] xs
1 -1 sc
gr
gs
1 -1 sc
0 0 0 rgb
/MC1_Arial 188 self 2076 -2967 m
(web)[136 105 105 ] xs
1 -1 sc
gr
gs
1 -1 sc
0 0 0 rgb
/MC1_Arial 188 self 2611 -2967 m
(proj)[105 63 105 42 ] xs
1 -1 sc
gr
gs
1 -1 sc
0 0 0 rgb
/MC1_Arial 188 self 3110 -2967 m
(hpio)[105 105 42 105 ] xs
1 -1 sc
gr
gs
1 -1 sc
0 0 0 rgb
/MC1_Arial 188 self 167 -2850 m
(0.0)[105 52 105 ] xs
1 -1 sc
gr
gs
1 -1 sc
0 0 0 rgb
/MC1_Arial 188 self 167 -2617 m
(0.1)[105 52 105 ] xs
1 -1 sc
gr
gs
1 -1 sc
0 0 0 rgb
/MC1_Arial 188 self 167 -2384 m
(0.2)[105 52 105 ] xs
1 -1 sc
gr
gs
1 -1 sc
0 0 0 rgb
/MC1_Arial 188 self 167 -2151 m
(0.3)[105 52 105 ] xs
1 -1 sc
gr
gs
1 -1 sc
0 0 0 rgb
/MC1_Arial 188 self 167 -1918 m
(0.4)[105 52 105 ] xs
1 -1 sc
gr
gs
1 -1 sc
0 0 0 rgb
/MC1_Arial 188 self 167 -1685 m
(0.5)[105 52 105 ] xs
1 -1 sc
gr
gs
1 -1 sc
0 0 0 rgb
/MC1_Arial 188 self 167 -1452 m
(0.6)[105 52 105 ] xs
1 -1 sc
gr
gs
1 -1 sc
0 0 0 rgb
/MC1_Arial 188 self 167 -1219 m
(0.7)[105 52 105 ] xs
1 -1 sc
gr
gs
1 -1 sc
0 0 0 rgb
/MC1_Arial 188 self 167 -986 m
(0.8)[105 52 105 ] xs
1 -1 sc
gr
gs
1 -1 sc
0 0 0 rgb
/MC1_Arial 188 self 167 -753 m
(0.9)[105 52 105 ] xs
1 -1 sc
gr
gs
1 -1 sc
0 0 0 rgb
/MC1_Arial 188 self 167 -520 m
(1.0)[105 52 105 ] xs
1 -1 sc
gr
429 2794 m
429 2794 l
7 sw
0 0 0 rgb
st
689 2794 m
689 2794 l
st
949 2794 m
949 2794 l
st
1209 2794 m
1209 2794 l
st
1469 2794 m
1469 2794 l
st
1729 2794 m
1729 2794 l
st
1989 2794 m
1989 2794 l
st
2249 2794 m
2249 2794 l
st
2509 2794 m
2509 2794 l
st
2769 2794 m
2769 2794 l
st
3029 2794 m
3029 2794 l
st
3289 2794 m
3289 2794 l
st
3549 2794 m
3549 2794 l
st
429 2794 m
3549 2794 l
st
429 2794 m
3549 2794 l
st
429 2794 m
429 2794 l
st
429 2678 m
429 2678 l
st
429 2561 m
429 2561 l
st
429 2445 m
429 2445 l
st
429 2328 m
429 2328 l
st
429 2212 m
429 2212 l
st
429 2095 m
429 2095 l
st
429 1979 m
429 1979 l
st
429 1862 m
429 1862 l
st
429 1746 m
429 1746 l
st
429 1629 m
429 1629 l
st
429 1513 m
429 1513 l
st
429 1396 m
429 1396 l
st
429 1280 m
429 1280 l
st
429 1163 m
429 1163 l
st
429 1047 m
429 1047 l
st
429 930 m
429 930 l
st
429 814 m
429 814 l
st
429 697 m
429 697 l
st
429 581 m
429 581 l
st
429 464 m
429 464 l
st
429 2794 m
429 464 l
st
429 464 m
429 464 l
st
689 464 m
689 464 l
st
949 464 m
949 464 l
st
1209 464 m
1209 464 l
st
1469 464 m
1469 464 l
st
1729 464 m
1729 464 l
st
1989 464 m
1989 464 l
st
2249 464 m
2249 464 l
st
2509 464 m
2509 464 l
st
2769 464 m
2769 464 l
st
3029 464 m
3029 464 l
st
3289 464 m
3289 464 l
st
3549 464 m
3549 464 l
st
429 464 m
3549 464 l
st
429 2794 m
3549 2794 l
st
3549 2794 m
3549 2794 l
st
3549 2678 m
3549 2678 l
st
3549 2561 m
3549 2561 l
st
3549 2445 m
3549 2445 l
st
3549 2328 m
3549 2328 l
st
3549 2212 m
3549 2212 l
st
3549 2095 m
3549 2095 l
st
3549 1979 m
3549 1979 l
st
3549 1862 m
3549 1862 l
st
3549 1746 m
3549 1746 l
st
3549 1629 m
3549 1629 l
st
3549 1513 m
3549 1513 l
st
3549 1396 m
3549 1396 l
st
3549 1280 m
3549 1280 l
st
3549 1163 m
3549 1163 l
st
3549 1047 m
3549 1047 l
st
3549 930 m
3549 930 l
st
3549 814 m
3549 814 l
st
3549 697 m
3549 697 l
st
3549 581 m
3549 581 l
st
3549 464 m
3549 464 l
st
3549 2794 m
3549 464 l
st
gs
gs
1 -1 sc
3719 -1777 tr
90 ro
/MC2_Arial 184 self 0 0 m
( )[51 ] xs
1 -1 sc
gr
gr
gs
1 -1 sc
/MC3_Arial 184 self 1964 -384 m
( )[51 ] xs
1 -1 sc
gr
gs
gs
1 -1 sc
149 -2517 tr
90 ro
/MC2_Arial 187 self 0 0 m
(Normalize Lifetime)[135 104 62 156 104 42 42 94 104 52 104 42 52 104 52 42 156 104 ] xs
1 -1 sc
gr
gr
909 33 m
2937 33 l
2937 434 l
909 434 l
cp
gs
1 1 1 rgb
eofi
gr
3 sw
st
gs
gs
gs
977 52 m
1323 52 l
1323 222 l
977 222 l
cp
gs
eofi
gr
5 sw
st
gr
gr
1 -1 sc
/MC3_Arial 158 self 1326 -191 m
( )[44 ] xs
1 -1 sc
1 -1 sc
1370 -191 m
(2K)[88 105 ] xs
1 -1 sc
1 -1 sc
1563 -191 m
( )[44 ] xs
1 -1 sc
gs
gs
1611 53 m
1611 53 l
st
1611 102 m
1660 53 l
st
1611 151 m
1709 53 l
st
1611 200 m
1758 53 l
st
1639 221 m
1807 53 l
st
1688 221 m
1856 53 l
st
1737 221 m
1905 53 l
st
1786 221 m
1954 53 l
st
1835 221 m
1955 101 l
st
1884 221 m
1955 150 l
st
1933 221 m
1955 199 l
st
1610 52 m
1956 52 l
5 sw
st
1956 52 m
1956 222 l
st
1956 222 m
1610 222 l
st
1610 222 m
1610 52 l
st
gr
gr
1 -1 sc
1959 -191 m
( )[44 ] xs
1 -1 sc
1 -1 sc
2003 -191 m
(4K)[88 105 ] xs
1 -1 sc
1 -1 sc
2196 -191 m
( )[44 ] xs
1 -1 sc
gs
gs
2243 52 m
2589 52 l
2589 222 l
2243 222 l
cp
gs
0.753 0.753 0.753 rgb
eofi
gr
5 sw
st
gr
gr
1 -1 sc
2592 -191 m
( )[44 ] xs
1 -1 sc
1 -1 sc
2636 -191 m
(8K)[88 105 ] xs
1 -1 sc
gs
gs
978 247 m
1146 415 l
st
978 296 m
1097 415 l
st
978 345 m
1048 415 l
st
978 394 m
999 415 l
st
978 247 m
1146 415 l
st
1027 247 m
1195 415 l
st
1076 247 m
1244 415 l
st
1125 247 m
1293 415 l
st
1174 247 m
1322 395 l
st
1223 247 m
1322 346 l
st
1272 247 m
1322 297 l
st
1321 247 m
1322 248 l
st
977 246 m
1323 246 l
5 sw
st
1323 246 m
1323 416 l
st
1323 416 m
977 416 l
st
977 416 m
977 246 l
st
gr
gr
1 -1 sc
1326 -385 m
( )[44 ] xs
1 -1 sc
1 -1 sc
1370 -385 m
(16K)[88 88 105 ] xs
1 -1 sc
1 -1 sc
1651 -385 m
( )[44 ] xs
1 -1 sc
gs
gs
1698 246 m
2044 246 l
2044 416 l
1698 416 l
cp
gs
1 0 0 rgb
eofi
gr
5 sw
st
gr
gr
1 -1 sc
2047 -385 m
( )[44 ] xs
1 -1 sc
1 -1 sc
2091 -385 m
(32K)[88 88 105 ] xs
1 -1 sc
gr
gr
Save0 restore end
showpage
%%EOF
