\relax 
\providecommand\hyper@newdestlabel[2]{}
\providecommand\HyperFirstAtBeginDocument{\AtBeginDocument}
\HyperFirstAtBeginDocument{\ifx\hyper@anchor\@undefined
\global\let\oldcontentsline\contentsline
\gdef\contentsline#1#2#3#4{\oldcontentsline{#1}{#2}{#3}}
\global\let\oldnewlabel\newlabel
\gdef\newlabel#1#2{\newlabelxx{#1}#2}
\gdef\newlabelxx#1#2#3#4#5#6{\oldnewlabel{#1}{{#2}{#3}}}
\AtEndDocument{\ifx\hyper@anchor\@undefined
\let\contentsline\oldcontentsline
\let\newlabel\oldnewlabel
\fi}
\fi}
\global\let\hyper@last\relax 
\gdef\HyperFirstAtBeginDocument#1{#1}
\providecommand\HyField@AuxAddToFields[1]{}
\providecommand\HyField@AuxAddToCoFields[2]{}
\citation{ref-pciessd-ocz2}
\citation{ref-pciessd-micron}
\citation{ref-if-pcie4}
\citation{ref-if-sata}
\citation{other-type}
\citation{vimm}
\citation{ultradimm}
\citation{ArxCis}
\citation{onfi4}
\citation{onfi3}
\citation{onfi2}
\citation{page-trend}
\citation{page-trend2}
\citation{page-trend3}
\@writefile{toc}{\contentsline {section}{\numberline {1}Introduction}{1}{section.1}}
\newlabel{sec:intro}{{1}{1}{Introduction}{section.1}{}}
\providecommand*\caption@xref[2]{\@setref\relax\@undefined{#1}}
\newlabel{fig:motive-perf}{{1a}{1}{Subfigure 1a}{subfigure.1.1}{}}
\newlabel{sub@fig:motive-perf}{{(a)}{a}{Subfigure 1a\relax }{subfigure.1.1}{}}
\newlabel{fig:motive-lifetime}{{1b}{1}{Subfigure 1b}{subfigure.1.2}{}}
\newlabel{sub@fig:motive-lifetime}{{(b)}{b}{Subfigure 1b\relax }{subfigure.1.2}{}}
\@writefile{lof}{\contentsline {figure}{\numberline {1}{\ignorespaces Performance and lifetime comparisons under varying page sizes from 2KB to 32KB. Values are normalized to 1KB page configuration.\relax }}{1}{figure.caption.1}}
\newlabel{fig:arch-comp}{{1}{1}{Performance and lifetime comparisons under varying page sizes from 2KB to 32KB. Values are normalized to 1KB page configuration.\relax }{figure.caption.1}{}}
\@writefile{lof}{\contentsline {subfigure}{\numberline{(a)}{\ignorespaces {Throughput}}}{1}{subfigure.1.1}}
\@writefile{lof}{\contentsline {subfigure}{\numberline{(b)}{\ignorespaces {Lifetime}}}{1}{subfigure.1.2}}
\citation{compress-1}
\citation{compress-2}
\citation{compress-3}
\@writefile{toc}{\contentsline {section}{\numberline {2}Background and Motivation}{2}{section.2}}
\newlabel{sec:back}{{2}{2}{Background and Motivation}{section.2}{}}
\@writefile{toc}{\contentsline {subsection}{\numberline {2.1}MCS and Flash Organization}{2}{subsection.2.1}}
\citation{onfi4}
\@writefile{lof}{\contentsline {figure}{\numberline {2}{\ignorespaces MCS internals: from the host interface to the NAND cell.\relax }}{3}{figure.caption.2}}
\newlabel{ssd-internal}{{2}{3}{MCS internals: from the host interface to the NAND cell.\relax }{figure.caption.2}{}}
\@writefile{toc}{\contentsline {subsection}{\numberline {2.2}Advances in Interfaces}{3}{subsection.2.2}}
\@writefile{lot}{\contentsline {table}{\numberline {1}{\ignorespaces Voltage values used for programming a page.\relax }}{3}{table.caption.3}}
\newlabel{tab:voltage}{{1}{3}{Voltage values used for programming a page.\relax }{table.caption.3}{}}
\@writefile{toc}{\contentsline {subsection}{\numberline {2.3}Motivation}{3}{subsection.2.3}}
\newlabel{sec:motiv}{{2.3}{3}{Motivation}{subsection.2.3}{}}
\citation{program-distrub-3}
\citation{yucai-2}
\citation{disturb-1}
\citation{program-distrub-2}
\citation{yucai-3}
\citation{ppp-nop1}
\citation{onfi2}
\citation{disturb-1}
\citation{onfi4}
\citation{reliable-1}
\citation{host-help-1}
\citation{host-help-2}
\citation{complex-1}
\citation{slc-sol-1}
\@writefile{lof}{\contentsline {figure}{\numberline {3}{\ignorespaces An example data corruption caused by intra-page program disturb.\relax }}{4}{figure.caption.4}}
\newlabel{motive}{{3}{4}{An example data corruption caused by intra-page program disturb.\relax }{figure.caption.4}{}}
\@writefile{toc}{\contentsline {subsection}{\numberline {2.4}Prior Efforts Targeting the Small I/O Problem}{4}{subsection.2.4}}
\newlabel{sec:related}{{2.4}{4}{Prior Efforts Targeting the Small I/O Problem}{subsection.2.4}{}}
\@writefile{toc}{\contentsline {section}{\numberline {3}PageSplit Flash Architecture}{5}{section.3}}
\newlabel{sec:arch}{{3}{5}{PageSplit Flash Architecture}{section.3}{}}
\@writefile{toc}{\contentsline {subsection}{\numberline {3.1}Architecture Overview}{5}{subsection.3.1}}
\@writefile{lof}{\contentsline {figure}{\numberline {4}{\ignorespaces Our PageSplit architecture includes the voltage lines and switches, which \emph  {separate} two neighboring sectors within a page.\relax }}{5}{figure.caption.5}}
\newlabel{ps-archi}{{4}{5}{Our PageSplit architecture includes the voltage lines and switches, which \emph {separate} two neighboring sectors within a page.\relax }{figure.caption.5}{}}
\@writefile{toc}{\contentsline {subsection}{\numberline {3.2}Sector Program Examples}{5}{subsection.3.2}}
\citation{page-order}
\citation{program-distrub-1}
\citation{program-distrub-1}
\citation{program-distrub-2}
\citation{program-distrub-3}
\newlabel{fig:arch-exam1}{{5a}{6}{Subfigure 5a}{subfigure.5.1}{}}
\newlabel{sub@fig:arch-exam1}{{(a)}{a}{Subfigure 5a\relax }{subfigure.5.1}{}}
\newlabel{fig:arch-exam2}{{5b}{6}{Subfigure 5b}{subfigure.5.2}{}}
\newlabel{sub@fig:arch-exam2}{{(b)}{b}{Subfigure 5b\relax }{subfigure.5.2}{}}
\@writefile{lof}{\contentsline {figure}{\numberline {5}{\ignorespaces Two examples of sector-based programs.\relax }}{6}{figure.caption.6}}
\newlabel{fig:archi-exam}{{5}{6}{Two examples of sector-based programs.\relax }{figure.caption.6}{}}
\@writefile{lof}{\contentsline {subfigure}{\numberline{(a)}{\ignorespaces {Program of Sector 1.}}}{6}{subfigure.5.1}}
\@writefile{lof}{\contentsline {subfigure}{\numberline{(b)}{\ignorespaces {Program of Sectors 2 and 3.}}}{6}{subfigure.5.2}}
\@writefile{lof}{\contentsline {figure}{\numberline {6}{\ignorespaces The page consumption scenarios in two architectures. Compared to the conventional one, PageSplit can save two pages by exploiting the unused page space.\relax }}{6}{figure.caption.7}}
\newlabel{ps-io}{{6}{6}{The page consumption scenarios in two architectures. Compared to the conventional one, PageSplit can save two pages by exploiting the unused page space.\relax }{figure.caption.7}{}}
\@writefile{toc}{\contentsline {subsection}{\numberline {3.3}Consumption of Unused Page Space}{6}{subsection.3.3}}
\newlabel{sec:archi-io}{{3.3}{6}{Consumption of Unused Page Space}{subsection.3.3}{}}
\citation{nand-micron-tlc}
\citation{flashpower}
\citation{cacti}
\@writefile{lot}{\contentsline {table}{\numberline {2}{\ignorespaces Hardware overhead brought by PageSplit. To split the 8KB page into sectors, 16 VLs and 31 switches are added to each block and page, respectively.\relax }}{7}{table.caption.8}}
\newlabel{tab:hw-overhead}{{2}{7}{Hardware overhead brought by PageSplit. To split the 8KB page into sectors, 16 VLs and 31 switches are added to each block and page, respectively.\relax }{table.caption.8}{}}
\@writefile{toc}{\contentsline {subsection}{\numberline {3.4}Design Feasibility}{7}{subsection.3.4}}
\@writefile{toc}{\contentsline {subsection}{\numberline {3.5}Address Mapping}{7}{subsection.3.5}}
\newlabel{sec:map-table}{{3.5}{7}{Address Mapping}{subsection.3.5}{}}
\@writefile{toc}{\contentsline {subsection}{\numberline {3.6}Page Allocation}{7}{subsection.3.6}}
\newlabel{sec:page-alloc}{{3.6}{7}{Page Allocation}{subsection.3.6}{}}
\citation{compress-1}
\citation{compress-2}
\citation{compress-3}
\citation{compress-5}
\citation{compress-4}
\@writefile{lof}{\contentsline {figure}{\numberline {7}{\ignorespaces Page allocation strategies based on single and multiple blocks with an eight-sector page.\relax }}{8}{figure.caption.9}}
\newlabel{ps-plus-io}{{7}{8}{Page allocation strategies based on single and multiple blocks with an eight-sector page.\relax }{figure.caption.9}{}}
\@writefile{toc}{\contentsline {subsection}{\numberline {3.7}Garbage Collection}{8}{subsection.3.7}}
\newlabel{sec:garbage-c}{{3.7}{8}{Garbage Collection}{subsection.3.7}{}}
\@writefile{toc}{\contentsline {section}{\numberline {4}PageSplit+}{8}{section.4}}
\newlabel{sec:compress}{{4}{8}{PageSplit+}{section.4}{}}
\@writefile{toc}{\contentsline {subsection}{\numberline {4.1}Data Compression in SSD}{8}{subsection.4.1}}
\newlabel{fig:comp-ratio}{{8a}{9}{Subfigure 8a}{subfigure.8.1}{}}
\newlabel{sub@fig:comp-ratio}{{(a)}{a}{Subfigure 8a\relax }{subfigure.8.1}{}}
\newlabel{fig:compress}{{8b}{9}{Subfigure 8b}{subfigure.8.2}{}}
\newlabel{sub@fig:compress}{{(b)}{b}{Subfigure 8b\relax }{subfigure.8.2}{}}
\@writefile{lof}{\contentsline {figure}{\numberline {8}{\ignorespaces (a) Compression ratios of nine file types (a higher ratio means more reduction in data size), and (b) PageSplit+, combining data compression and PageSplit.\relax }}{9}{figure.caption.10}}
\newlabel{fig:arch-comp}{{8}{9}{(a) Compression ratios of nine file types (a higher ratio means more reduction in data size), and (b) PageSplit+, combining data compression and PageSplit.\relax }{figure.caption.10}{}}
\@writefile{lof}{\contentsline {subfigure}{\numberline{(a)}{\ignorespaces {Compression ratios}}}{9}{subfigure.8.1}}
\@writefile{lof}{\contentsline {subfigure}{\numberline{(b)}{\ignorespaces {PageSplit+ example}}}{9}{subfigure.8.2}}
\@writefile{toc}{\contentsline {subsection}{\numberline {4.2}Benefits of Leveraging PageSplit}{9}{subsection.4.2}}
\@writefile{lot}{\contentsline {table}{\numberline {3}{\ignorespaces Important characteristics of our workloads.\relax }}{9}{table.caption.11}}
\newlabel{tab:workload-cha}{{3}{9}{Important characteristics of our workloads.\relax }{table.caption.11}{}}
\citation{disksim}
\citation{ssd-ext}
\citation{nand-micron-tlc}
\citation{address-map}
\citation{ref-trace1}
\citation{ref-trace2}
\citation{ref-trace3}
\@writefile{lof}{\contentsline {figure}{\numberline {9}{\ignorespaces The total program size under three configurations (normalized to the actual I/O data size).\relax }}{10}{figure.caption.12}}
\newlabel{eval-write}{{9}{10}{The total program size under three configurations (normalized to the actual I/O data size).\relax }{figure.caption.12}{}}
\@writefile{lof}{\contentsline {figure}{\numberline {10}{\ignorespaces The GC overhead as a result of the reduction in the total flash program size.\relax }}{10}{figure.caption.13}}
\newlabel{eval-gc}{{10}{10}{The GC overhead as a result of the reduction in the total flash program size.\relax }{figure.caption.13}{}}
\@writefile{toc}{\contentsline {section}{\numberline {5}Evaluation}{10}{section.5}}
\newlabel{sec:eval}{{5}{10}{Evaluation}{section.5}{}}
\@writefile{toc}{\contentsline {subsection}{\numberline {5.1}Experimental Setup}{10}{subsection.5.1}}
\newlabel{eval-setup}{{5.1}{10}{Experimental Setup}{subsection.5.1}{}}
\newlabel{fig:eval-write-sense}{{11a}{10}{Subfigure 11a}{subfigure.11.1}{}}
\newlabel{sub@fig:eval-write-sense}{{(a)}{a}{Subfigure 11a\relax }{subfigure.11.1}{}}
\newlabel{fig:eval-gc-sense}{{11b}{10}{Subfigure 11b}{subfigure.11.2}{}}
\newlabel{sub@fig:eval-gc-sense}{{(b)}{b}{Subfigure 11b\relax }{subfigure.11.2}{}}
\@writefile{lof}{\contentsline {figure}{\numberline {11}{\ignorespaces The flash program size (a) and GC overhead (b) of PageSplit-S and -M under varying page sizes.\relax }}{10}{figure.caption.14}}
\newlabel{fig:eval-sense}{{11}{10}{The flash program size (a) and GC overhead (b) of PageSplit-S and -M under varying page sizes.\relax }{figure.caption.14}{}}
\@writefile{lof}{\contentsline {subfigure}{\numberline{(a)}{\ignorespaces {Total flash program size.}}}{10}{subfigure.11.1}}
\@writefile{lof}{\contentsline {subfigure}{\numberline{(b)}{\ignorespaces {GC overheads.}}}{10}{subfigure.11.2}}
\@writefile{toc}{\contentsline {subsection}{\numberline {5.2}Lifetime Extension}{10}{subsection.5.2}}
\@writefile{toc}{\contentsline {subsection}{\numberline {5.3}GC Overhead}{10}{subsection.5.3}}
\bibstyle{acm}
\bibdata{pagesplit-ref}
\bibcite{ref-pciessd-micron}{1}
\@writefile{lof}{\contentsline {figure}{\numberline {12}{\ignorespaces Normalized throughput of PageSplit-M under varying page sizes.\relax }}{11}{figure.caption.15}}
\newlabel{eval-perf}{{12}{11}{Normalized throughput of PageSplit-M under varying page sizes.\relax }{figure.caption.15}{}}
\@writefile{toc}{\contentsline {subsection}{\numberline {5.4}Sensitivity Analysis}{11}{subsection.5.4}}
\@writefile{toc}{\contentsline {subsection}{\numberline {5.5}Performance}{11}{subsection.5.5}}
\newlabel{fig:comp-life}{{13a}{11}{Subfigure 13a}{subfigure.13.1}{}}
\newlabel{sub@fig:comp-life}{{(a)}{a}{Subfigure 13a\relax }{subfigure.13.1}{}}
\newlabel{fig:comp-perf}{{13b}{11}{Subfigure 13b}{subfigure.13.2}{}}
\newlabel{sub@fig:comp-perf}{{(b)}{b}{Subfigure 13b\relax }{subfigure.13.2}{}}
\@writefile{lof}{\contentsline {figure}{\numberline {13}{\ignorespaces Lifetime and performance comparisons of conventional architecture with different window sizes and PageSplit+. Values are normalized to those of the conventional architecture with a window of 3s deadline.\relax }}{11}{figure.caption.16}}
\newlabel{fig:comp-eval}{{13}{11}{Lifetime and performance comparisons of conventional architecture with different window sizes and PageSplit+. Values are normalized to those of the conventional architecture with a window of 3s deadline.\relax }{figure.caption.16}{}}
\@writefile{lof}{\contentsline {subfigure}{\numberline{(a)}{\ignorespaces {Lifetime}}}{11}{subfigure.13.1}}
\@writefile{lof}{\contentsline {subfigure}{\numberline{(b)}{\ignorespaces {Throughput}}}{11}{subfigure.13.2}}
\@writefile{toc}{\contentsline {subsection}{\numberline {5.6}PageSplit+ Evaluation}{11}{subsection.5.6}}
\@writefile{toc}{\contentsline {section}{\numberline {6}Conclusions}{11}{section.6}}
\newlabel{sec:conclude}{{6}{11}{Conclusions}{section.6}{}}
\bibcite{ref-trace2}{2}
\bibcite{ref-trace1}{3}
\bibcite{ref-pciessd-ocz2}{4}
\bibcite{page-trend2}{5}
\bibcite{page-trend}{6}
\bibcite{page-trend3}{7}
\bibcite{ssd-ext}{8}
\bibcite{disksim}{9}
\bibcite{yucai-3}{10}
\bibcite{program-distrub-3}{11}
\bibcite{yucai-2}{12}
\bibcite{disturb-1}{13}
\bibcite{vimm}{14}
\bibcite{program-distrub-2}{15}
\bibcite{program-distrub-1}{16}
\bibcite{address-map}{17}
\bibcite{compress-4}{18}
\bibcite{complex-1}{19}
\bibcite{host-help-2}{20}
\bibcite{reliable-1}{21}
\bibcite{ppp-nop1}{22}
\bibcite{compress-3}{23}
\bibcite{compress-5}{24}
\bibcite{host-help-1}{25}
\bibcite{nand-micron-tlc}{26}
\bibcite{flashpower}{27}
\bibcite{onfi2}{28}
\bibcite{onfi3}{29}
\bibcite{onfi4}{30}
\bibcite{page-order}{31}
\bibcite{compress-2}{32}
\bibcite{ref-if-pcie4}{33}
\bibcite{ultradimm}{34}
\bibcite{ref-if-sata}{35}
\bibcite{other-type}{36}
\bibcite{ref-trace3}{37}
\bibcite{ArxCis}{38}
\bibcite{cacti}{39}
\bibcite{slc-sol-1}{40}
\bibcite{compress-1}{41}
